%!PS-Adobe-3.0
%%BoundingBox: 54 360 558 720
%%Title: Graphics produced by IDL
%%For: peters11@pal-nat185-046-194.itap.purdue.edu, 
%%      /Users/peters11/imsims/trunk/docs
%%Creator: IDL Version 6.3, Mac OS X (darwin i386 m32)
%%CreationDate: Fri Oct  7 10:58:33 2011
%%DocumentData: Clean7bit
%%LanguageLevel: 1
%%PageOrder: Ascend
%%Pages: (atend)
%%DocumentNeededResources: (atend)
%%EndComments
%%BeginProlog
save
%+ prolog.ps -- Prolog for IDL generated PostScript files
%+ Copyright (c) 1988-2006 Research Systems, Inc. All Rights Reserved.
%v 5
/$IDL_DICT 40 dict def $IDL_DICT begin /bdef { bind def } bind def /C
{currentpoint newpath moveto} bdef /CP {currentpoint} bdef /D {currentpoint
stroke moveto} bdef /F {closepath fill} bdef /K { setgray } bdef /M {moveto}
bdef /N {rmoveto} bdef /P {lineto} bdef /R {rlineto} bdef /S {gsave show
grestore} bdef /X {currentpoint pop} bdef /Z {gsave currentpoint lineto 20
setlinewidth 1 setlinecap stroke grestore} bdef /L0 {[] 0 setdash} bdef /L1
{[40 100] 0 setdash} bdef /L2 {[200 200] 0 setdash} bdef /L3 {[200 100 50
100] 0 setdash} bdef /L4 {[300 100 50 100 50 100 50 100] 0 setdash} bdef /L5
{[400 200] 0 setdash} bdef /STDFONT { findfont exch scalefont setfont } bdef
/ISOFONT { findfont dup length dict begin { 1 index /FID ne {def} {pop pop}
ifelse } forall /Encoding ISOLatin1Encoding def currentdict end /idltmpfont
exch definefont exch scalefont setfont } bdef /ISOBULLET { gsave /Helvetica
findfont exch scalefont setfont (\267) show currentpoint grestore moveto}
bdef /MITERLIMIT { 2.5 setmiterlimit } bdef end
%%EndProlog
%%Page: 0 1
%%PageResources: (atend)
%%PageOrientation: Portrait
%%PageBoundingBox: 54 360 558 720
%%BeginPageSetup
save
$IDL_DICT begin 54 360 translate 0.0283465 dup scale MITERLIMIT
%%IncludeResource: font Helvetica
423.333 /Helvetica STDFONT
%%EndPageSetup
10 setlinewidth L0 0.000 K 7695 12514 M 0 -307 R D 7695 12514 M 132 0 R
44 -15 R 14 -14 R 15 -29 R 0 -30 R -15 -29 R -14 -14 R -44 -15 R -132 0 R D
7827 12368 M 44 -15 R 14 -14 R 15 -29 R 0 -44 R -15 -30 R -14 -14 R
-44 -15 R -132 0 R D 8163 12412 M 0 -205 R D 8163 12368 M -29 29 R -30 15 R
-43 0 R -30 -15 R -29 -29 R -15 -44 R 0 -29 R 15 -44 R 29 -29 R 30 -15 R
43 0 R 30 15 R 29 29 R D 8440 12368 M -29 29 R -29 15 R -44 0 R -29 -15 R
-29 -29 R -15 -44 R 0 -29 R 15 -44 R 29 -29 R 29 -15 R 44 0 R 29 15 R
29 29 R D 8542 12514 M 0 -307 R D 8689 12412 M -147 -146 R D 8601 12324 M
102 -117 R D 8951 12412 M 0 -249 R -14 -43 R -15 -15 R -29 -15 R -44 0 R
-29 15 R D 8951 12368 M -29 29 R -29 15 R -44 0 R -29 -15 R -29 -29 R
-15 -44 R 0 -29 R 15 -44 R 29 -29 R 29 -15 R 44 0 R 29 15 R 29 29 R D
9068 12412 M 0 -205 R D 9068 12324 M 15 44 R 29 29 R 29 15 R 44 0 R D
9317 12412 M -30 -15 R -29 -29 R -14 -44 R 0 -29 R 14 -44 R 29 -29 R
30 -15 R 43 0 R 30 15 R 29 29 R 14 44 R 0 29 R -14 44 R -29 29 R -30 15 R
-43 0 R D 9536 12412 M 0 -146 R 14 -44 R 29 -15 R 44 0 R 29 15 R 44 44 R D
9696 12412 M 0 -205 R D 9813 12412 M 0 -205 R D 9813 12353 M 44 44 R 29 15 R
44 0 R 29 -15 R 15 -44 R 0 -146 R D 10251 12514 M 0 -307 R D 10251 12368 M
-29 29 R -29 15 R -44 0 R -29 -15 R -29 -29 R -15 -44 R 0 -29 R 15 -44 R
29 -29 R 29 -15 R 44 0 R 29 15 R 29 29 R D 10792 12470 M -30 29 R -43 15 R
-59 0 R -44 -15 R -29 -29 R 0 -29 R 15 -29 R 14 -15 R 30 -14 R 87 -30 R
29 -14 R 15 -15 R 15 -29 R 0 -44 R -30 -29 R -43 -15 R -59 0 R -44 15 R
-29 29 R D 10894 12514 M 0 -307 R D 10894 12514 M 190 0 R D 10894 12368 M
117 0 R D 10894 12207 M 190 0 R D 11171 12514 M 0 -307 R D 11171 12514 M
103 0 R 43 -15 R 30 -29 R 14 -29 R 15 -44 R 0 -73 R -15 -44 R -14 -29 R
-30 -29 R -43 -15 R -103 0 R D 11624 12368 M -14 29 R -44 15 R -44 0 R
-44 -15 R -14 -29 R 14 -29 R 29 -15 R 73 -14 R 30 -15 R 14 -29 R 0 -15 R
-14 -29 R -44 -15 R -44 0 R -44 15 R -14 29 R D 2220 1408 M 14894 0 R D
3875 1408 M 0 212 R D 3665 1125 M -117 -163 R 175 0 R D 3665 1125 M 0 -245 R
D 3852 1125 M -35 -11 R -24 -35 R -11 -59 R 0 -35 R 11 -58 R 24 -35 R
35 -12 R 23 0 R 35 12 R 23 35 R 12 58 R 0 35 R -12 59 R -23 35 R -35 11 R
-23 0 R D 4085 1125 M -35 -11 R -23 -35 R -12 -59 R 0 -35 R 12 -58 R
23 -35 R 35 -12 R 24 0 R 35 12 R 23 35 R 12 58 R 0 35 R -12 59 R -23 35 R
-35 11 R -24 0 R D 7185 1408 M 0 212 R D 7009 1090 M -11 24 R -35 11 R
-24 0 R -35 -11 R -23 -35 R -12 -59 R 0 -58 R 12 -47 R 23 -23 R 35 -12 R
12 0 R 35 12 R 23 23 R 12 35 R 0 12 R -12 35 R -23 23 R -35 12 R -12 0 R
-35 -12 R -23 -23 R -12 -35 R D 7161 1125 M -35 -11 R -23 -35 R -12 -59 R
0 -35 R 12 -58 R 23 -35 R 35 -12 R 24 0 R 35 12 R 23 35 R 12 58 R 0 35 R
-12 59 R -23 35 R -35 11 R -24 0 R D 7395 1125 M -35 -11 R -23 -35 R
-12 -59 R 0 -35 R 12 -58 R 23 -35 R 35 -12 R 23 0 R 35 12 R 24 35 R 12 58 R
0 35 R -12 59 R -24 35 R -35 11 R -23 0 R D 10495 1408 M 0 212 R D
10226 1125 M -35 -11 R -12 -24 R 0 -23 R 12 -23 R 23 -12 R 47 -12 R 35 -11 R
23 -24 R 12 -23 R 0 -35 R -12 -24 R -11 -11 R -35 -12 R -47 0 R -35 12 R
-12 11 R -12 24 R 0 35 R 12 23 R 23 24 R 35 11 R 47 12 R 24 12 R 11 23 R
0 23 R -11 24 R -35 11 R -47 0 R D 10471 1125 M -35 -11 R -23 -35 R
-12 -59 R 0 -35 R 12 -58 R 23 -35 R 35 -12 R 24 0 R 35 12 R 23 35 R 12 58 R
0 35 R -12 59 R -23 35 R -35 11 R -24 0 R D 10705 1125 M -35 -11 R -24 -35 R
-11 -59 R 0 -35 R 11 -58 R 24 -35 R 35 -12 R 23 0 R 35 12 R 24 35 R 11 58 R
0 35 R -11 59 R -24 35 R -35 11 R -23 0 R D 13804 1408 M 0 212 R D
13395 1079 M 24 11 R 35 35 R 0 -245 R D 13664 1125 M -35 -11 R -23 -35 R
-12 -59 R 0 -35 R 12 -58 R 23 -35 R 35 -12 R 23 0 R 36 12 R 23 35 R 12 58 R
0 35 R -12 59 R -23 35 R -36 11 R -23 0 R D 13898 1125 M -35 -11 R -24 -35 R
-11 -59 R 0 -35 R 11 -58 R 24 -35 R 35 -12 R 23 0 R 35 12 R 24 35 R 11 58 R
0 35 R -11 59 R -24 35 R -35 11 R -23 0 R D 14131 1125 M -35 -11 R -23 -35 R
-12 -59 R 0 -35 R 12 -58 R 23 -35 R 35 -12 R 24 0 R 35 12 R 23 35 R 12 58 R
0 35 R -12 59 R -23 35 R -35 11 R -24 0 R D 17114 1408 M 0 212 R D
16705 1079 M 24 11 R 35 35 R 0 -245 R D 16915 1067 M 0 12 R 12 23 R 12 12 R
23 11 R 47 0 R 23 -11 R 12 -12 R 12 -23 R 0 -24 R -12 -23 R -23 -35 R
-117 -117 R 163 0 R D 17208 1125 M -35 -11 R -24 -35 R -12 -59 R 0 -35 R
12 -58 R 24 -35 R 35 -12 R 23 0 R 35 12 R 23 35 R 12 58 R 0 35 R -12 59 R
-23 35 R -35 11 R -23 0 R D 17441 1125 M -35 -11 R -23 -35 R -12 -59 R
0 -35 R 12 -58 R 23 -35 R 35 -12 R 24 0 R 35 12 R 23 35 R 12 58 R 0 35 R
-12 59 R -23 35 R -35 11 R -24 0 R D 2220 1408 M 0 106 R D 3048 1408 M
0 106 R D 4702 1408 M 0 106 R D 5530 1408 M 0 106 R D 6357 1408 M 0 106 R D
8012 1408 M 0 106 R D 8840 1408 M 0 106 R D 9667 1408 M 0 106 R D
11322 1408 M 0 106 R D 12149 1408 M 0 106 R D 12977 1408 M 0 106 R D
14632 1408 M 0 106 R D 15459 1408 M 0 106 R D 16287 1408 M 0 106 R D
8131 668 M 58 -246 R 58 246 R 59 -246 R 58 246 R D 8563 586 M 0 -164 R D
8563 551 M -23 23 R -24 12 R -35 0 R -23 -12 R -24 -23 R -11 -35 R 0 -23 R
11 -35 R 24 -24 R 23 -12 R 35 0 R 24 12 R 23 24 R D 8633 586 M 70 -164 R
70 164 R D 8832 516 M 140 0 R 0 23 R -12 24 R -11 11 R -24 12 R -35 0 R
-23 -12 R -24 -23 R -11 -35 R 0 -23 R 11 -35 R 24 -24 R 23 -12 R 35 0 R
24 12 R 23 24 R D 9054 668 M 0 -246 R D 9135 516 M 141 0 R 0 23 R -12 24 R
-12 11 R -23 12 R -35 0 R -23 -12 R -24 -23 R -12 -35 R 0 -23 R 12 -35 R
24 -24 R 23 -12 R 35 0 R 23 12 R 24 24 R D 9357 586 M 0 -164 R D 9357 539 M
36 35 R 23 12 R 35 0 R 23 -12 R 12 -35 R 0 -117 R D 9708 586 M 0 -199 R
-12 -35 R -11 -11 R -24 -12 R -35 0 R -23 12 R D 9708 551 M -23 23 R
-24 12 R -35 0 R -23 -12 R -24 -23 R -11 -35 R 0 -23 R 11 -35 R 24 -24 R
23 -12 R 35 0 R 24 12 R 23 24 R D 9813 668 M 0 -199 R 12 -35 R 23 -12 R
24 0 R D 9778 586 M 82 0 R D 9942 668 M 0 -246 R D 9942 539 M 35 35 R
23 12 R 35 0 R 24 -12 R 11 -35 R 0 -117 R D 10432 715 M -23 -24 R -23 -35 R
-24 -47 R -11 -58 R 0 -47 R 11 -58 R 24 -59 R 23 -35 R 23 -23 R D
10514 586 M 0 -164 R D 10514 539 M 35 35 R 24 12 R 35 0 R 23 -12 R 12 -35 R
0 -117 R D 10736 586 M 0 -164 R D 10736 539 M 35 35 R 24 12 R 35 0 R
23 -12 R 12 -35 R 0 -117 R D 10865 539 M 35 35 R 23 12 R 35 0 R 24 -12 R
11 -35 R 0 -117 R D 11075 715 M 23 -24 R 24 -35 R 23 -47 R 12 -58 R 0 -47 R
-12 -58 R -23 -59 R -24 -35 R -23 -23 R D 2220 11996 M 14894 0 R D
3875 11996 M 0 -212 R D 7185 11996 M 0 -212 R D 10495 11996 M 0 -212 R D
13804 11996 M 0 -212 R D 17114 11996 M 0 -212 R D 2220 11996 M 0 -106 R D
3048 11996 M 0 -106 R D 4702 11996 M 0 -106 R D 5530 11996 M 0 -106 R D
6357 11996 M 0 -106 R D 8012 11996 M 0 -106 R D 8840 11996 M 0 -106 R D
9667 11996 M 0 -106 R D 11322 11996 M 0 -106 R D 12149 11996 M 0 -106 R D
12977 11996 M 0 -106 R D 14632 11996 M 0 -106 R D 15459 11996 M 0 -106 R D
16287 11996 M 0 -106 R D 2220 1408 M 0 10588 R D 2220 1408 M 298 0 R D
1618 1653 M -35 -11 R -23 -35 R -12 -59 R 0 -35 R 12 -58 R 23 -35 R 35 -12 R
24 0 R 35 12 R 23 35 R 12 58 R 0 35 R -12 59 R -23 35 R -35 11 R -24 0 R D
1805 1431 M -11 -11 R 11 -12 R 12 12 R -12 11 R D 1969 1653 M -35 -11 R
-24 -35 R -11 -59 R 0 -35 R 11 -58 R 24 -35 R 35 -12 R 23 0 R 35 12 R
24 35 R 11 58 R 0 35 R -11 59 R -24 35 R -35 11 R -23 0 R D 2220 3526 M
298 0 R D 1618 3630 M -35 -11 R -23 -36 R -12 -58 R 0 -35 R 12 -58 R
23 -35 R 35 -12 R 24 0 R 35 12 R 23 35 R 12 58 R 0 35 R -12 58 R -23 36 R
-35 11 R -24 0 R D 1805 3408 M -11 -11 R 11 -12 R 12 12 R -12 11 R D
1910 3572 M 0 11 R 12 24 R 12 12 R 23 11 R 47 0 R 23 -11 R 12 -12 R 12 -24 R
0 -23 R -12 -23 R -23 -35 R -117 -117 R 163 0 R D 2220 5643 M 298 0 R D
1618 5748 M -35 -12 R -23 -35 R -12 -58 R 0 -35 R 12 -59 R 23 -35 R 35 -12 R
24 0 R 35 12 R 23 35 R 12 59 R 0 35 R -12 58 R -23 35 R -35 12 R -24 0 R D
1805 5526 M -11 -12 R 11 -12 R 12 12 R -12 12 R D 2016 5748 M -117 -164 R
175 0 R D 2016 5748 M 0 -246 R D 2220 7761 M 298 0 R D 1618 7865 M -35 -11 R
-23 -35 R -12 -59 R 0 -35 R 12 -58 R 23 -35 R 35 -12 R 24 0 R 35 12 R
23 35 R 12 58 R 0 35 R -12 59 R -23 35 R -35 11 R -24 0 R D 1805 7643 M
-11 -11 R 11 -12 R 12 12 R -12 11 R D 2051 7830 M -12 24 R -35 11 R -23 0 R
-35 -11 R -24 -35 R -12 -59 R 0 -58 R 12 -47 R 24 -23 R 35 -12 R 11 0 R
35 12 R 24 23 R 11 35 R 0 12 R -11 35 R -24 23 R -35 12 R -11 0 R -35 -12 R
-24 -23 R -12 -35 R D 2220 9878 M 298 0 R D 1618 9983 M -35 -12 R -23 -35 R
-12 -58 R 0 -35 R 12 -59 R 23 -35 R 35 -11 R 24 0 R 35 11 R 23 35 R 12 59 R
0 35 R -12 58 R -23 35 R -35 12 R -24 0 R D 1805 9761 M -11 -12 R 11 -11 R
12 11 R -12 12 R D 1957 9983 M -35 -12 R -12 -23 R 0 -23 R 12 -24 R 24 -11 R
46 -12 R 35 -12 R 24 -23 R 11 -24 R 0 -35 R -11 -23 R -12 -12 R -35 -11 R
-47 0 R -35 11 R -12 12 R -11 23 R 0 35 R 11 24 R 24 23 R 35 12 R 47 12 R
23 11 R 12 24 R 0 23 R -12 23 R -35 12 R -47 0 R D 2220 11996 M 298 0 R D
1583 11948 M 24 12 R 35 35 R 0 -245 R D 1805 11773 M -11 -12 R 11 -11 R
12 11 R -12 12 R D 1969 11995 M -35 -12 R -24 -35 R -11 -58 R 0 -35 R
11 -59 R 24 -35 R 35 -11 R 23 0 R 35 11 R 24 35 R 11 59 R 0 35 R -11 58 R
-24 35 R -35 12 R -23 0 R D 2220 1937 M 149 0 R D 2220 2467 M 149 0 R D
2220 2996 M 149 0 R D 2220 4055 M 149 0 R D 2220 4584 M 149 0 R D
2220 5114 M 149 0 R D 2220 6173 M 149 0 R D 2220 6702 M 149 0 R D
2220 7231 M 149 0 R D 2220 8290 M 149 0 R D 2220 8820 M 149 0 R D
2220 9349 M 149 0 R D 2220 10408 M 149 0 R D 2220 10937 M 149 0 R D
2220 11467 M 149 0 R D 947 5761 M 245 0 R D 947 5761 M 0 152 R D 1063 5761 M
0 94 R D 947 5972 M 245 0 R D 1028 6065 M 117 0 R 35 12 R 12 23 R 0 35 R
-12 24 R -35 35 R D 1028 6194 M 164 0 R D 1028 6276 M 164 128 R D
1028 6404 M 164 -128 R D 900 6755 M 23 -24 R 35 -23 R 47 -23 R 58 -12 R
47 0 R 59 12 R 58 23 R 35 23 R 23 24 R D 1028 6965 M 164 0 R D 1063 6965 M
-23 -23 R -12 -24 R 0 -35 R 12 -23 R 23 -24 R 35 -11 R 24 0 R 35 11 R
23 24 R 12 23 R 0 35 R -12 24 R -23 23 R D 1028 7058 M 164 0 R D 1098 7058 M
-35 12 R -23 23 R -12 24 R 0 35 R D 947 7210 M 245 0 R D 1063 7210 M
-23 24 R -12 23 R 0 35 R 12 23 R 23 24 R 35 12 R 24 0 R 35 -12 R 23 -24 R
12 -23 R 0 -35 R -12 -23 R -23 -24 R D 1169 7444 M 11 -12 R 12 12 R -12 12 R
-11 -12 R D 900 7537 M 23 24 R 35 23 R 47 24 R 58 11 R 47 0 R 59 -11 R
58 -24 R 35 -23 R 23 -24 R D 17114 1408 M 0 10588 R D 17114 1408 M -298 0 R
D 17114 3526 M -298 0 R D 17114 5643 M -298 0 R D 17114 7761 M -298 0 R D
17114 9878 M -298 0 R D 17114 11996 M -298 0 R D 17114 1937 M -149 0 R D
17114 2467 M -149 0 R D 17114 2996 M -149 0 R D 17114 4055 M -149 0 R D
17114 4584 M -149 0 R D 17114 5114 M -149 0 R D 17114 6173 M -149 0 R D
17114 6702 M -149 0 R D 17114 7231 M -149 0 R D 17114 8290 M -149 0 R D
17114 8820 M -149 0 R D 17114 9349 M -149 0 R D 17114 10408 M -149 0 R D
17114 10937 M -149 0 R D 17114 11467 M -149 0 R D 2220 7914 M 2 9 R 1 8 R
2 8 R 2 9 R 1 8 R 2 9 R 2 8 R 1 9 R 2 8 R 2 8 R 1 9 R 2 8 R 2 9 R 1 9 R
2 15 R 2 16 R 1 16 R 2 16 R 2 16 R 1 15 R 2 16 R 1 16 R 2 16 R 2 15 R 1 16 R
2 16 R 2 16 R 1 16 R 2 15 R 2 12 R 1 11 R 2 12 R 2 11 R 1 12 R 2 11 R 2 12 R
1 11 R 2 12 R 2 11 R 1 12 R 2 11 R 2 12 R 1 11 R 2 12 R 2 4 R 1 3 R 2 2 R
2 3 R 1 2 R 2 3 R 1 2 R 2 3 R 2 2 R 1 3 R 2 2 R 2 3 R 1 2 R 2 3 R 2 2 R
1 4 R 2 6 R 2 6 R 1 6 R 2 6 R 2 6 R 1 6 R 2 5 R 2 6 R 1 6 R 2 6 R 2 6 R
1 6 R 2 6 R 2 6 R 1 3 R 2 -7 R 2 -7 R 1 -7 R 2 -8 R 1 -7 R 2 -7 R 2 -7 R
1 -8 R 2 -7 R 2 -7 R 1 -7 R 2 -7 R 2 -8 R 1 -7 R 2 -7 R 2 7 R 1 13 R 2 13 R
2 12 R 1 13 R 2 12 R 2 13 R 1 13 R 2 12 R 2 13 R 1 13 R 2 12 R 2 13 R 1 12 R
2 13 R 2 13 R 1 14 R 2 14 R 1 14 R 2 14 R 2 14 R 1 14 R 2 13 R 2 14 R 1 14 R
2 14 R 2 14 R 1 14 R 2 14 R 2 14 R 1 14 R 2 -1 R 2 -7 R 1 -8 R 2 -8 R 2 -8 R
1 -7 R 2 -8 R 2 -8 R 1 -7 R 2 -8 R 2 -8 R 1 -8 R 2 -7 R 1 -8 R 2 -8 R 2 -7 R
1 -9 R 2 -9 R 2 -9 R 1 -9 R 2 -9 R 2 -9 R 1 -9 R 2 -9 R 2 -9 R 1 -9 R 2 -9 R
2 -9 R 1 -9 R 2 -9 R 2 -8 R 1 -6 R 2 3 R 2 4 R 1 3 R 2 3 R 2 3 R 1 3 R 2 3 R
2 4 R 1 3 R 2 3 R 1 3 R 2 3 R 2 4 R 1 3 R 2 3 R 2 4 R 1 6 R 2 5 R 2 5 R
1 6 R 2 5 R 2 6 R 1 5 R 2 5 R 2 6 R 1 5 R 2 5 R 2 6 R 1 5 R 2 6 R 2 5 R
1 3 R 2 3 R 2 2 R 1 2 R 2 2 R 2 2 R 1 2 R 2 2 R 1 2 R 2 2 R 2 2 R 1 3 R
2 2 R 2 2 R 1 2 R 2 2 R 2 -6 R 1 -10 R 2 -10 R 2 -10 R 1 -11 R 2 -10 R
2 -10 R 1 -11 R 2 -10 R 2 -10 R 1 -10 R 2 -11 R 2 -10 R 1 -10 R 2 -11 R
2 -10 R 1 -4 R 2 0 R 2 0 R 1 0 R 2 1 R 1 0 R 2 0 R 2 0 R 1 0 R 2 1 R 2 0 R
1 0 R 2 0 R 2 0 R 1 1 R 2 0 R 2 20 R 1 46 R 2 46 R 2 45 R 1 46 R 2 45 R
2 46 R 1 46 R 2 45 R 2 46 R 1 46 R 2 45 R 2 46 R 1 45 R 2 46 R 2 46 R 1 45 R
2 44 R 1 44 R 2 44 R 2 44 R 1 44 R 2 44 R 2 44 R 1 44 R 2 44 R 2 44 R 1 44 R
2 44 R 2 44 R 1 44 R 2 44 R 2 44 R 1 9 R 2 7 R 2 7 R 1 8 R 2 7 R 2 7 R 1 8 R
2 7 R 2 7 R 1 7 R 2 8 R 1 7 R 2 7 R 2 7 R 1 8 R 2 7 R 2 2 R 1 -3 R 2 -3 R
2 -3 R 1 -3 R 2 -2 R 2 -3 R 1 -3 R 2 -3 R 2 -3 R 1 -2 R 2 -3 R 2 -3 R 1 -3 R
2 -2 R 2 -3 R 1 -4 R 2 -7 R 2 -7 R 1 -7 R 2 -7 R 2 -7 R 1 -7 R 2 -7 R 1 -7 R
2 -8 R 2 -7 R 1 -7 R 2 -7 R 2 -7 R 1 -7 R 2 -7 R 2 -7 R 1 -6 R 2 -5 R 2 -5 R
1 -5 R 2 -5 R 2 -5 R 1 -4 R 2 -5 R 2 -5 R 1 -5 R 2 -5 R 2 -5 R 1 -5 R 2 -5 R
2 -4 R 1 -5 R 2 -5 R 2 -21 R 1 -22 R 2 -22 R 1 -22 R 2 -21 R 2 -22 R 1 -22 R
2 -22 R 2 -21 R 1 -22 R 2 -22 R 2 -22 R 1 -22 R 2 -21 R 2 -22 R 1 -22 R
2 -24 R 2 -31 R 1 -31 R 2 -31 R 2 -30 R 1 -31 R 2 -31 R 2 -31 R 1 -31 R
2 -31 R 2 -30 R 1 -31 R 2 -31 R 2 -31 R 1 -31 R 2 -31 R 1 -31 R 2 -15 R
2 3 R 1 2 R 2 3 R 2 2 R 1 2 R 2 3 R 2 2 R 1 3 R 2 2 R 2 3 R 1 2 R 2 3 R
2 2 R 1 2 R 2 3 R 2 2 R 1 10 R 2 14 R 2 13 R 1 14 R 2 14 R 2 14 R 1 14 R
2 14 R 1 14 R 2 14 R 2 13 R 1 14 R 2 14 R 2 14 R 1 14 R 2 14 R 2 14 R 1 4 R
2 0 R 2 0 R 1 0 R 2 0 R 2 0 R 1 -1 R 2 0 R 2 0 R 1 0 R 2 0 R 2 0 R 1 -1 R
2 0 R 2 0 R 1 0 R 2 0 R 2 3 R 1 7 R 2 6 R 1 7 R 2 7 R 2 6 R 1 7 R 2 6 R
2 7 R 1 6 R 2 7 R 2 6 R 1 7 R 2 6 R 2 7 R 1 6 R 2 7 R 2 16 R 1 26 R 2 26 R
2 26 R 1 26 R 2 26 R 2 26 R 1 26 R 2 26 R 2 26 R 1 26 R 2 26 R 2 26 R 1 26 R
2 26 R 1 26 R 2 26 R 2 25 R 1 25 R 2 25 R 2 24 R 1 25 R 2 25 R 2 25 R 1 24 R
2 25 R 2 25 R 1 24 R 2 25 R 2 25 R 1 25 R 2 24 R 2 25 R 1 25 R 2 25 R 2 13 R
1 13 R 2 13 R 2 12 R 1 13 R 2 13 R 2 13 R 1 13 R 2 13 R 1 12 R 2 13 R 2 13 R
1 13 R 2 13 R 2 13 R 1 12 R 2 13 R 2 9 R 1 6 R 2 6 R 2 6 R 1 6 R 2 5 R 2 6 R
1 6 R 2 6 R 2 6 R 1 6 R 2 6 R 2 5 R 1 6 R 2 6 R 2 6 R 1 6 R 2 5 R 1 -1 R
2 0 R 2 -1 R 1 0 R 2 -1 R 2 -1 R 1 0 R 2 -1 R 2 -1 R 1 0 R 2 -1 R 2 0 R
1 -1 R 2 -1 R 2 0 R 1 -1 R 2 0 R 2 4 R 1 7 R 2 8 R 2 8 R 1 8 R 2 8 R 2 7 R
1 8 R 2 8 R 2 8 R 1 8 R 2 7 R 1 8 R 2 8 R 2 8 R 1 7 R 2 8 R 2 8 R 1 -14 R
2 -17 R 2 -17 R 1 -17 R 2 -16 R 2 -17 R 1 -17 R 2 -17 R 2 -17 R 1 -16 R
2 -17 R 2 -17 R 1 -17 R 2 -17 R 2 -16 R 1 -17 R 2 -17 R 2 -21 R 1 -46 R
2 -45 R 2 -46 R 1 -45 R 2 -46 R 1 -45 R 2 -46 R 2 -45 R 1 -46 R 2 -45 R
2 -46 R 1 -45 R 2 -46 R 2 -45 R 1 -46 R 2 -45 R 2 -46 R 1 -29 R 2 3 R 2 4 R
1 3 R 2 4 R 2 3 R 1 4 R 2 3 R 2 4 R 1 3 R 2 4 R 2 3 R 1 4 R 2 3 R 2 4 R
1 3 R 2 4 R 1 3 R 2 14 R 2 28 R 1 27 R 2 28 R 2 27 R 1 28 R 2 28 R 2 27 R
1 28 R 2 28 R 2 27 R 1 28 R 2 28 R 2 27 R 1 28 R 2 28 R 2 27 R 1 28 R 2 21 R
2 12 R 1 12 R 2 12 R 2 12 R 1 12 R 2 12 R 2 12 R 1 12 R 2 12 R 1 12 R 2 12 R
2 12 R 1 12 R 2 12 R 2 12 R 1 12 R 2 12 R 2 16 R 1 22 R 2 23 R 2 22 R 1 23 R
2 23 R 2 22 R 1 23 R 2 22 R 2 23 R 1 22 R 2 23 R 2 23 R 1 22 R 2 23 R 2 22 R
1 23 R 2 23 R 1 23 R 2 29 R 2 28 R 1 29 R 2 28 R 2 29 R 1 28 R 2 29 R 2 28 R
1 29 R 2 28 R 2 29 R 1 28 R 2 29 R 2 28 R 1 29 R 2 28 R 2 29 R 1 28 R 2 4 R
2 0 R 1 1 R 2 0 R 2 0 R 1 0 R 2 0 R 2 0 R 1 0 R 2 0 R 1 0 R 2 0 R 2 0 R
1 0 R 2 1 R 2 0 R 1 0 R 2 0 R 2 -5 R 1 -10 R 2 -10 R 2 -10 R 1 -10 R 2 -11 R
2 -10 R 1 -10 R 2 -10 R 2 -10 R 1 -10 R 2 -10 R 2 -10 R 1 -10 R 2 -10 R
2 -11 R 1 -10 R 2 -10 R 2 -10 R 1 -26 R 2 -26 R 1 -26 R 2 -26 R 2 -26 R
1 -26 R 2 -26 R 2 -26 R 1 -26 R 2 -26 R 2 -26 R 1 -26 R 2 -25 R 2 -26 R
1 -26 R 2 -26 R 2 -26 R 1 -26 R 2 -28 R 2 -31 R 1 -30 R 2 -31 R 2 -30 R
1 -31 R 2 -30 R 2 -31 R 1 -30 R 2 -31 R 2 -30 R 1 -31 R 2 -30 R 1 -31 R
2 -30 R 2 -31 R 1 -30 R 2 -31 R 2 -30 R 1 11 R 2 20 R 2 20 R 1 20 R 2 19 R
2 20 R 1 20 R 2 20 R 2 20 R 1 20 R 2 19 R 2 20 R 1 20 R D 3461 10402 M
2 20 R 2 20 R 1 19 R 2 20 R 2 20 R 1 22 R 2 47 R 1 47 R 2 47 R 2 47 R 1 47 R
2 47 R 2 46 R 1 47 R 2 47 R 2 47 R 1 47 R 2 47 R 2 47 R 1 47 R 2 46 R 2 47 R
1 47 R 2 47 R 2 34 R 1 -4 R 2 -4 R 2 -3 R 1 -4 R 2 -4 R 2 -4 R 1 -4 R 2 -4 R
2 -4 R 1 -4 R 2 -3 R 1 -4 R 2 -4 R 2 -4 R 1 -4 R 2 -4 R 2 -4 R 1 -4 R
2 -18 R 2 -49 R 1 -49 R 2 -49 R 2 -49 R 1 -49 R 2 -49 R 2 -49 R 1 -50 R
2 -49 R 2 -49 R 1 -49 R 2 -49 R 2 -49 R 1 -49 R 2 -49 R 2 -49 R 1 -49 R
2 -49 R 2 -48 R 1 -46 R 2 -45 R 1 -46 R 2 -45 R 2 -46 R 1 -45 R 2 -46 R
2 -45 R 1 -46 R 2 -45 R 2 -46 R 1 -45 R 2 -45 R 2 -46 R 1 -45 R 2 -46 R
2 -45 R 1 -46 R 2 -35 R 2 9 R 1 10 R 2 9 R 2 9 R 1 10 R 2 9 R 2 10 R 1 9 R
2 10 R 2 9 R 1 10 R 2 9 R 1 10 R 2 9 R 2 10 R 1 9 R 2 10 R 2 9 R 1 9 R
2 21 R 2 20 R 1 21 R 2 21 R 2 20 R 1 21 R 2 21 R 2 20 R 1 21 R 2 21 R 2 20 R
1 21 R 2 20 R 2 21 R 1 21 R 2 20 R 2 21 R 1 21 R 2 20 R 1 29 R 2 33 R 2 33 R
1 33 R 2 33 R 2 33 R 1 32 R 2 33 R 2 33 R 1 33 R 2 33 R 2 33 R 1 33 R 2 33 R
2 33 R 1 33 R 2 33 R 2 33 R 1 32 R 2 30 R 2 19 R 1 20 R 2 19 R 2 20 R 1 19 R
2 20 R 2 19 R 1 19 R 2 20 R 1 19 R 2 20 R 2 19 R 1 20 R 2 19 R 2 19 R 1 20 R
2 19 R 2 20 R 1 19 R 2 -26 R 2 -43 R 1 -43 R 2 -42 R 2 -43 R 1 -43 R 2 -42 R
2 -43 R 1 -43 R 2 -42 R 2 -3099 R 1 -42 R 2 -43 R 2 -43 R 1 -42 R 2 -43 R
2 -43 R 1 -42 R 2 -43 R 1 -37 R 2 -4 R 2 -4 R 1 -4 R 2 -4 R 2 -4 R 1 -4 R
2 -4 R 2 -4 R 1 -4 R 2 -4 R 2 -4 R 1 -4 R 2 -3 R 2 -4 R 1 -4 R 2 -4 R 2 -4 R
1 -4 R 2 -4 R 2 14 R 1 38 R 2 37 R 2 38 R 1 38 R 2 37 R 2 38 R 1 38 R 2 37 R
1 38 R 2 38 R 2 37 R 1 38 R 2 38 R 2 37 R 1 38 R 2 38 R 2 37 R 1 38 R 2 38 R
2 68 R 1 86 R 2 86 R 2 86 R 1 87 R 2 86 R 2 86 R 1 86 R 2 86 R 2 86 R 1 86 R
2 86 R 2 86 R 1 86 R 2 86 R 1 86 R 2 86 R 2 86 R 1 87 R 2 86 R 2 67 R 1 60 R
2 61 R 2 60 R 1 60 R 2 61 R 2 60 R 1 61 R 2 60 R 2 61 R 1 60 R 2 60 R 2 61 R
1 60 R 2 61 R 2 60 R 1 61 R 2 60 R 2 60 R 1 61 R 2 21 R 2 6 R 1 7 R 2 7 R
1 7 R 2 7 R 2 7 R 1 7 R 2 6 R 2 7 R 1 7 R 2 7 R 2 7 R 1 7 R 2 6 R 2 7 R
1 7 R 2 7 R 2 7 R 1 7 R 2 -3 R 2 -9 R 1 -8 R 2 -9 R 2 -9 R 1 -8 R 2 -9 R
2 -8 R 1 -9 R 2 -8 R 2 -9 R 1 -8 R 2 -9 R 1 -8 R 2 -9 R 2 -9 R 1 -8 R 2 -9 R
2 -8 R 1 -9 R 2 -5 R 2 0 R 1 -1 R 2 0 R 2 -1 R 1 0 R 2 0 R 2 -1 R 1 0 R
2 -1 R 2 0 R 1 -1 R 2 0 R 2 -1 R 1 0 R 2 -1 R 2 0 R 1 0 R 2 -1 R 2 0 R 1 1 R
2 15 R 1 15 R 2 15 R 2 15 R 1 14 R 2 15 R 2 15 R 1 15 R 2 15 R 2 15 R 1 14 R
2 15 R 2 15 R 1 15 R 2 15 R 2 15 R 1 14 R 2 15 R 2 15 R 1 15 R 2 14 R 2 15 R
1 14 R 2 15 R 2 14 R 1 15 R 2 14 R 2 15 R 1 14 R 2 14 R 1 15 R 2 14 R 2 15 R
1 14 R 2 15 R 2 14 R 1 15 R 2 14 R 2 15 R 1 14 R 2 13 R 2 6 R 1 6 R 2 7 R
2 6 R 1 7 R 2 6 R 2 6 R 1 7 R 2 6 R 2 6 R 1 7 R 2 6 R 2 7 R 1 6 R 2 6 R
1 7 R 2 6 R 2 6 R 1 7 R 2 6 R 2 3 R 1 2 R 2 1 R 2 1 R 1 2 R 2 1 R 2 1 R
1 2 R 2 1 R 2 1 R 1 2 R 2 1 R 2 1 R 1 2 R 2 1 R 2 1 R 1 2 R 2 1 R 2 1 R
1 2 R 2 1 R 2 -7 R 1 -8 R 2 -8 R 1 -7 R 2 -8 R 2 -8 R 1 -8 R 2 -7 R 2 -8 R
1 -8 R 2 -8 R 2 -8 R 1 -7 R 2 -8 R 2 -8 R 1 -8 R 2 -7 R 2 -8 R 1 -8 R 2 -8 R
2 -8 R 1 -15 R 2 -16 R 2 -15 R 1 -15 R 2 -16 R 2 -15 R 1 -15 R 2 -15 R
2 -16 R 1 -15 R 2 -15 R 1 -15 R 2 -16 R 2 -15 R 1 -15 R 2 -15 R 2 -16 R
1 -15 R 2 -15 R 2 -16 R 1 -13 R 2 -8 R 2 -7 R 1 -7 R 2 -7 R 2 -7 R 1 -7 R
2 -7 R 2 -7 R 1 -7 R 2 -8 R 2 -7 R 1 -7 R 2 -7 R 2 -7 R 1 -7 R 2 -7 R 2 -7 R
1 -8 R 2 -7 R 1 -7 R 2 -7 R 2 -10 R 1 -10 R 2 -10 R 2 -10 R 1 -10 R 2 -10 R
2 -10 R 1 -10 R 2 -10 R 2 -10 R 1 -10 R 2 -10 R 2 -10 R 1 -10 R 2 -10 R
2 -10 R 1 -10 R 2 -10 R 2 -10 R 1 -10 R 2 -10 R 2 -13 R 1 -13 R 2 -14 R
1 -13 R 2 -13 R 2 -13 R 1 -14 R 2 -13 R 2 -13 R 1 -13 R 2 -14 R 2 -13 R
1 -13 R 2 -13 R 2 -14 R 1 -13 R 2 -13 R 2 -13 R 1 -14 R 2 -13 R 2 -13 R
1 -27 R 2 -30 R 2 -31 R 1 -30 R 2 -31 R 2 -30 R 1 -31 R 2 -30 R 2 -31 R
1 -30 R 2 -31 R 1 -30 R 2 -31 R 2 -30 R 1 -31 R 2 -30 R 2 -31 R 1 -30 R
2 -31 R 2 -30 R 1 -31 R 2 -30 R 2 -30 R 1 -30 R 2 -30 R 2 -30 R 1 -30 R
2 -30 R 2 -30 R 1 -30 R 2 -30 R 2 -30 R 1 -30 R 2 -30 R 2 -30 R 1 -30 R
2 -30 R 2 -30 R 1 -30 R 2 -30 R 1 -30 R 2 -30 R 2 -30 R 1 29 R 2 28 R 2 29 R
1 29 R 2 29 R 2 29 R 1 29 R 2 29 R 2 29 R 1 29 R 2 29 R 2 29 R 1 29 R 2 28 R
2 29 R 1 29 R 2 29 R 2 29 R 1 29 R 2 29 R 2 29 R 1 35 R 2 43 R 2 44 R 1 43 R
2 43 R 1 43 R 2 44 R 2 43 R 1 43 R 2 44 R 2 43 R 1 43 R 2 43 R 2 44 R 1 43 R
2 43 R 2 44 R 1 43 R 2 43 R 2 44 R 1 43 R 2 43 R 2 24 R 1 18 R 2 17 R 2 18 R
1 18 R 2 18 R 2 18 R 1 17 R 2 18 R 1 18 R 2 18 R 2 17 R 1 18 R 2 18 R 2 18 R
1 17 R 2 18 R 2 18 R 1 18 R 2 17 R 2 18 R 1 18 R 2 0 R 2 0 R 1 0 R 2 0 R
2 0 R 1 0 R 2 1 R 2 0 R 1 0 R 2 0 R 2 0 R 1 0 R 2 0 R 2 0 R 1 0 R 2 0 R
1 0 R 2 0 R 2 0 R 1 0 R 2 1 R 2 1 R 1 14 R 2 14 R 2 14 R 1 14 R 2 14 R
2 14 R 1 14 R 2 14 R 2 14 R 1 14 R 2 14 R 2 14 R 1 14 R 2 14 R 2 15 R 1 14 R
2 14 R 2 14 R 1 14 R 2 14 R 2 14 R 1 14 R 2 19 R 1 19 R 2 20 R 2 19 R 1 19 R
2 19 R 2 19 R 1 19 R 2 19 R 2 19 R 1 19 R 2 19 R 2 19 R 1 19 R 2 20 R 2 19 R
1 19 R 2 19 R 2 19 R 1 19 R 2 19 R 2 19 R 1 10 R 2 10 R 2 10 R 1 10 R 2 10 R
2 9 R 1 10 R 2 10 R 1 10 R 2 10 R 2 10 R 1 10 R 2 10 R 2 10 R 1 10 R 2 9 R
2 10 R 1 10 R 2 10 R 2 10 R 1 -1416 R 2 10 R 2 16 R 1 17 R 2 18 R 2 18 R
1 17 R 2 18 R 2 17 R 1 18 R 2 18 R 2 17 R 1 18 R 2 17 R 2 18 R 1 17 R 2 18 R
1 18 R 2 17 R 2 18 R 1 17 R 2 18 R 2 18 R 1 17 R 2 19 R 2 20 R 1 20 R 2 20 R
2 20 R 1 20 R 2 21 R 2 20 R 1 20 R 2 20 R 2 20 R 1 20 R 2 20 R 2 20 R 1 20 R
2 20 R 2 20 R 1 20 R 2 21 R 1 20 R 2 20 R 2 20 R 1 19 R 2 1 R 2 1 R 1 1 R D
4702 11438 M 2 1 R 2 1 R 1 1 R 2 1 R 2 1 R 1 1 R 2 1 R 2 2 R 1 1 R 2 1 R
2 1 R 1 1 R 2 1 R 2 1 R 1 1 R 2 1 R 2 1 R 1 1 R 2 1 R 2 -2 R 1 -4 R 2 -3 R
1 -4 R 2 -4 R 2 -4 R 1 -4 R 2 -4 R 2 -4 R 1 -4 R 2 -4 R 2 -4 R 1 -4 R 2 -3 R
2 -4 R 1 -4 R 2 -4 R 2 -4 R 1 -4 R 2 -4 R 2 -4 R 1 -4 R 2 -4 R 2 6 R 1 7 R
2 7 R 2 7 R 1 8 R 2 7 R 2 7 R 1 7 R 2 7 R 1 8 R 2 7 R 2 7 R 1 7 R 2 8 R
2 7 R 1 7 R 2 7 R 2 8 R 1 7 R 2 7 R 2 7 R 1 8 R 2 7 R 2 0 R 1 0 R 2 0 R
2 0 R 1 0 R 2 0 R 2 0 R 1 0 R 2 0 R 2 0 R 1 0 R 2 0 R 2 0 R 1 0 R 2 0 R
1 0 R 2 0 R 2 0 R 1 0 R 2 0 R 2 0 R 1 0 R 2 -1 R 2 -1 R 1 -1 R 2 -2 R 2 -1 R
1 -1 R 2 -2 R 2 -1 R 1 -1 R 2 -2 R 2 -1 R 1 -1 R 2 -2 R 2 -1 R 1 -1 R 2 -2 R
2 -1 R 1 -1 R 2 -1 R 1 -2 R 2 -1 R 2 -1 R 1 -2 R 2 -1 R 2 -1 R 1 -1 R 2 0 R
2 -1 R 1 -1 R 2 -1 R 2 -1 R 1 0 R 2 -1 R 2 -1 R 1 -1 R 2 -1 R 2 0 R 1 -1 R
2 -1 R 2 -1 R 1 -1 R 2 0 R 2 -1 R 1 -1 R 2 -1 R 2 -1 R 1 0 R 2 1 R 1 0 R
2 1 R 2 1 R 1 1 R 2 1 R 2 1 R 1 1 R 2 0 R 2 1 R 1 1 R 2 1 R 2 1 R 1 1 R
2 1 R 2 0 R 1 1 R 2 1 R 2 1 R 1 1 R 2 1 R 2 1 R 1 0 R 2 1 R 2 0 R 1 1 R
2 0 R 2 1 R 1 0 R 2 1 R 1 0 R 2 1 R 2 0 R 1 1 R 2 0 R 2 0 R 1 1 R 2 0 R
2 1 R 1 0 R 2 1 R 2 0 R 1 1 R 2 0 R 2 1 R 1 0 R 2 -1 R 2 -3 R 1 -3 R 2 -2 R
2 -3 R 1 -3 R 2 -3 R 2 -3 R 1 -2 R 2 -3 R 2 -3 R 1 -3 R 2 -3 R 1 -2 R 2 -3 R
2 -3 R 1 -3 R 2 -3 R 2 -2 R 1 -3 R 2 -3 R 2 -3 R 1 -3 R 2 -2 R 2 4 R 1 4 R
2 4 R 2 4 R 1 4 R 2 4 R 2 4 R 1 5 R 2 4 R 2 4 R 1 4 R 2 4 R 2 4 R 1 4 R
2 5 R 1 4 R 2 4 R 2 4 R 1 4 R 2 4 R 2 4 R 1 5 R 2 4 R 2 5 R 1 7 R 2 8 R
2 7 R 1 7 R 2 7 R 2 8 R 1 7 R 2 7 R 2 8 R 1 7 R 2 7 R 2 7 R 1 8 R 2 7 R
2 7 R 1 8 R 2 7 R 2 7 R 1 7 R 2 8 R 1 7 R 2 7 R 2 8 R 1 4 R 2 2 R 2 3 R
1 2 R 2 3 R 2 2 R 1 3 R 2 2 R 2 3 R 1 2 R 2 3 R 2 2 R 1 3 R 2 2 R 2 3 R
1 2 R 2 3 R 2 2 R 1 3 R 2 2 R 2 3 R 1 2 R 2 3 R 2 2 R 1 -1 R 2 -2 R 1 -2 R
2 -2 R 2 -2 R 1 -2 R 2 -2 R 2 -2 R 1 -2 R 2 -2 R 2 -3 R 1 -2 R 2 -2 R 2 -2 R
1 -2 R 2 -2 R 2 -2 R 1 -2 R 2 -2 R 2 -2 R 1 -2 R 2 -2 R 2 -2 R 1 -2 R 2 -7 R
2 -7 R 1 -7 R 2 -7 R 2 -7 R 1 -7 R 2 -7 R 1 -7 R 2 -8 R 2 -7 R 1 -7 R 2 -7 R
2 -7 R 1 -7 R 2 -7 R 2 -7 R 1 -7 R 2 -8 R 2 -7 R 1 -7 R 2 -7 R 2 -7 R 1 -7 R
2 -7 R 2 -20 R 1 -22 R 2 -22 R 2 -22 R 1 -22 R 2 -22 R 2 -22 R 1 -22 R
2 -22 R 1 -22 R 2 -22 R 2 -22 R 1 -22 R 2 -22 R 2 -22 R 1 -22 R 2 -22 R
2 -22 R 1 -22 R 2 -23 R 2 -22 R 1 -22 R 2 -22 R 2 -22 R 1 -16 R 2 -12 R
2 -13 R 1 -13 R 2 -13 R 2 -12 R 1 -13 R 2 -13 R 2 -12 R 1 -13 R 2 -13 R
2 -12 R 1 -13 R 2 -13 R 1 -13 R 2 -12 R 2 -13 R 1 -13 R 2 -12 R 2 -13 R
1 -13 R 2 -13 R 2 -12 R 1 -13 R 2 -5 R 2 10 R 1 9 R 2 10 R 2 10 R 1 9 R
2 10 R 2 10 R 1 10 R 2 9 R 2 10 R 1 10 R 2 9 R 2 10 R 1 10 R 2 9 R 2 10 R
1 10 R 2 9 R 1 10 R 2 10 R 2 10 R 1 9 R 2 10 R 2 10 R 1 6 R 2 6 R 2 6 R
1 6 R 2 6 R 2 6 R 1 6 R 2 6 R 2 6 R 1 6 R 2 6 R 2 6 R 1 6 R 2 7 R 2 6 R
1 6 R 2 6 R 2 6 R 1 6 R 2 6 R 2 6 R 1 6 R 2 6 R 1 6 R 2 6 R 2 5 R 1 5 R
2 6 R 2 5 R 1 5 R 2 6 R 2 5 R 1 5 R 2 6 R 2 5 R 1 5 R 2 6 R 2 5 R 1 5 R
2 6 R 2 5 R 1 5 R 2 5 R 2 6 R 1 5 R 2 5 R 2 6 R 1 5 R 2 5 R 2 -2 R 1 -5 R
2 -5 R 1 -6 R 2 -5 R 2 -6 R 1 -5 R 2 -5 R 2 -6 R 1 -5 R 2 -6 R 2 -5 R 1 -6 R
2 -5 R 2 -5 R 1 -6 R 2 -5 R 2 -6 R 1 -5 R 2 -6 R 2 -5 R 1 -5 R 2 -6 R 2 -5 R
1 -6 R 2 -12 R 2 -12 R 1 -13 R 2 -13 R 1 -13 R 2 -12 R 2 -13 R 1 -13 R
2 -13 R 2 -12 R 1 -13 R 2 -13 R 2 -13 R 1 -12 R 2 -13 R 2 -13 R 1 -13 R
2 -12 R 2 -13 R 1 -13 R 2 -13 R 2 -12 R 1 -13 R 2 -13 R 2 -13 R 1 -3 R
2 -3 R 2 -4 R 1 -3 R 2 -3 R 2 -3 R 1 -4 R 2 -3 R 1 -3 R 2 -3 R 2 -4 R 1 -3 R
2 -3 R 2 -3 R 1 -3 R 2 -4 R 2 -3 R 1 -3 R 2 -3 R 2 -4 R 1 -3 R 2 -3 R 2 -3 R
1 -4 R 2 -3 R 2 7 R 1 7 R 2 8 R 2 7 R 1 8 R 2 7 R 2 7 R 1 8 R 2 7 R 2 8 R
1 7 R 2 8 R 1 7 R 2 8 R 2 7 R 1 8 R 2 7 R 2 8 R 1 7 R 2 8 R 2 7 R 1 7 R
2 8 R 2 7 R 1 8 R 2 6 R 2 5 R 1 5 R 2 5 R 2 6 R 1 5 R 2 5 R 2 5 R 1 6 R
2 5 R 2 5 R 1 6 R 2 5 R 2 5 R 1 5 R 2 6 R 1 5 R 2 5 R 2 5 R 1 6 R 2 5 R
2 5 R 1 5 R 2 6 R 2 5 R 1 2 R 2 -1 R 2 -1 R 1 -2 R 2 -1 R 2 -1 R 1 -2 R
2 -1 R 2 -1 R 1 -2 R 2 -1 R 2 -1 R 1 -2 R 2 -1 R 2 -1 R 1 -2 R 2 -1 R 1 -1 R
2 -2 R 2 -1 R 1 -1 R 2 -2 R 2 -1 R 1 -1 R 2 -2 R 2 -1 R 1 -7 R 2 -7 R 2 -8 R
1 -7 R 2 -7 R 2 -7 R 1 -8 R 2 -7 R 2 -7 R 1 -7 R 2 -8 R 2 -7 R 1 -7 R 2 -7 R
2 -7 R 1 -8 R 2 -7 R 2 -7 R 1 -7 R 2 -8 R 1 -7 R 2 -7 R 2 -7 R 1 -8 R 2 -7 R
2 -12 R 1 -19 R 2 -18 R 2 -19 R 1 -18 R 2 -19 R 2 -18 R 1 -19 R 2 -18 R
2 -19 R 1 -18 R 2 -19 R 2 -18 R 1 -19 R 2 -18 R 2 -19 R 1 -18 R 2 -19 R
2 -18 R 1 -19 R 2 -18 R 2 -19 R 1 -18 R 2 -19 R 1 -18 R 2 -19 R 2 -18 R
1 -18 R 2 -18 R 2 -18 R 1 -18 R 2 -19 R 2 -18 R 1 -18 R 2 -18 R 2 -18 R
1 -18 R 2 -18 R 2 -18 R 1 -1648 R 2 -18 R 2 -18 R 1 -19 R 2 -18 R 2 -18 R
1 -18 R 2 -18 R 2 -18 R 1 -18 R 2 -18 R 2 -18 R 1 -19 R 2 7 R 1 7 R 2 7 R
2 7 R 1 7 R 2 8 R 2 7 R 1 7 R 2 7 R 2 7 R 1 8 R 2 7 R 2 7 R 1 7 R 2 7 R
2 7 R 1 8 R 2 7 R 2 7 R 1 7 R 2 7 R 2 8 R 1 7 R 2 7 R 2 7 R 1 7 R 2 15 R
1 15 R 2 14 R 2 15 R 1 15 R 2 14 R 2 15 R 1 15 R 2 14 R 2 15 R 1 15 R 2 14 R
2 15 R 1 15 R 2 14 R 2 15 R 1 15 R 2 14 R 2 15 R 1 14 R 2 15 R 2 15 R 1 14 R
2 15 R 2 15 R 1 14 R 2 1 R 2 0 R 1 -1 R 2 0 R 1 0 R 2 0 R 2 0 R 1 -1 R 2 0 R
2 0 R 1 0 R 2 -1 R 2 0 R 1 0 R 2 0 R 2 -1 R 1 0 R 2 0 R 2 0 R 1 -1 R 2 0 R
2 0 R 1 0 R 2 0 R 2 -1 R D 5944 8794 M 1 0 R 2 1 R 2 2 R 1 1 R 2 1 R 2 2 R
1 1 R 2 2 R 1 1 R 2 2 R 2 1 R 1 2 R 2 1 R 2 2 R 1 1 R 2 1 R 2 2 R 1 1 R
2 2 R 2 1 R 1 2 R 2 1 R 2 2 R 1 1 R 2 1 R 2 2 R 1 1 R 2 4 R 2 8 R 1 7 R
2 7 R 2 8 R 1 7 R 2 7 R 2 8 R 1 7 R 2 7 R 1 8 R 2 7 R 2 7 R 1 8 R 2 7 R
2 7 R 1 8 R 2 7 R 2 7 R 1 8 R 2 7 R 2 7 R 1 8 R 2 7 R 2 7 R 1 8 R 2 7 R
2 -3 R 1 -4 R 2 -3 R 2 -4 R 1 -4 R 2 -3 R 2 -4 R 1 -4 R 2 -3 R 2 -4 R 1 -3 R
2 -4 R 1 -4 R 2 -3 R 2 -4 R 1 -3 R 2 -4 R 2 -4 R 1 -3 R 2 -4 R 2 -4 R 1 -3 R
2 -4 R 2 -3 R 1 -4 R 2 -4 R 2 -1 R 1 2 R 2 2 R 2 2 R 1 2 R 2 3 R 2 2 R 1 2 R
2 2 R 2 2 R 1 3 R 2 2 R 1 2 R 2 2 R 2 2 R 1 2 R 2 3 R 2 2 R 1 2 R 2 2 R
2 2 R 1 2 R 2 3 R 2 2 R 1 2 R 2 2 R 2 2 R 1 1 R 2 0 R 2 -1 R 1 0 R 2 0 R
2 -1 R 1 0 R 2 0 R 2 0 R 1 -1 R 2 0 R 2 0 R 1 -1 R 2 0 R 1 0 R 2 0 R 2 -1 R
1 0 R 2 0 R 2 -1 R 1 0 R 2 0 R 2 0 R 1 -1 R 2 0 R 2 0 R 1 0 R 2 -3 R 2 -4 R
1 -4 R 2 -4 R 2 -3 R 1 -4 R 2 -4 R 2 -4 R 1 -3 R 2 -4 R 2 -4 R 1 -3 R 2 -4 R
2 -4 R 1 -4 R 2 -3 R 1 -4 R 2 -4 R 2 -4 R 1 -3 R 2 -4 R 2 -4 R 1 -4 R 2 -3 R
2 -4 R 1 -4 R 2 -4 R 2 2 R 1 3 R 2 4 R 2 3 R 1 3 R 2 3 R 2 4 R 1 3 R 2 3 R
2 3 R 1 4 R 2 3 R 2 3 R 1 4 R 2 3 R 2 3 R 1 3 R 2 4 R 1 3 R 2 3 R 2 3 R
1 4 R 2 3 R 2 3 R 1 3 R 2 4 R 2 3 R 1 2 R 2 0 R 2 1 R 1 1 R 2 0 R 2 1 R
1 1 R 2 0 R 2 1 R 1 1 R 2 0 R 2 1 R 1 1 R 2 0 R 2 1 R 1 1 R 2 0 R 1 1 R
2 1 R 2 0 R 1 1 R 2 1 R 2 0 R 1 1 R 2 1 R 2 0 R 1 1 R 2 0 R 2 -3 R 1 -2 R
2 -3 R 2 -2 R 1 -3 R 2 -2 R 2 -3 R 1 -2 R 2 -3 R 2 -2 R 1 -3 R 2 -2 R 2 -3 R
1 -2 R 2 -3 R 2 -2 R 1 -3 R 2 -3 R 1 -2 R 2 -3 R 2 -2 R 1 -3 R 2 -2 R 2 -3 R
1 -2 R 2 -3 R 2 -2 R 1 0 R 2 1 R 2 0 R 1 0 R 2 1 R 2 0 R 1 0 R 2 1 R 2 0 R
1 1 R 2 0 R 2 0 R 1 1 R 2 0 R 2 1 R 1 0 R 2 0 R 2 1 R 1 0 R 2 1 R 1 0 R
2 0 R 2 1 R 1 0 R 2 0 R 2 1 R 1 0 R 2 0 R 2 -1 R 1 -1 R 2 -1 R 2 -1 R 1 -1 R
2 -1 R 2 -1 R 1 -1 R 2 -1 R 2 -1 R 1 -1 R 2 -1 R 2 -1 R 1 -1 R 2 -1 R 2 -1 R
1 -1 R 2 -1 R 2 -1 R 1 -1 R 2 -1 R 1 -1 R 2 -1 R 2 -1 R 1 -1 R 2 -1 R 2 -1 R
1 -4 R 2 -4 R 2 -5 R 1 -5 R 2 -5 R 2 -5 R 1 -5 R 2 -5 R 2 -5 R 1 -5 R 2 -4 R
2 -5 R 1 -5 R 2 -5 R 2 -5 R 1 -5 R 2 -5 R 2 -5 R 1 -5 R 2 -4 R 1 -5 R 2 -5 R
2 -5 R 1 -5 R 2 -5 R 2 -5 R 1 -5 R 2 -5 R 2 0 R 1 -1 R 2 -1 R 2 0 R 1 -1 R
2 0 R 2 -1 R 1 0 R 2 -1 R 2 0 R 1 -1 R 2 0 R 2 -1 R 1 -1 R 2 0 R 2 -1 R
1 0 R 2 -1 R 2 0 R 1 -1 R 2 0 R 1 -1 R 2 -1 R 2 0 R 1 -1 R 2 0 R 2 -1 R
1 0 R 2 1 R 2 1 R 1 2 R 2 1 R 2 2 R 1 1 R 2 2 R 2 1 R 1 1 R 2 2 R 2 1 R
1 2 R 2 1 R 2 1 R 1 2 R 2 1 R 2 2 R 1 1 R 2 1 R 2 2 R 1 1 R 2 2 R 1 1 R
2 2 R 2 1 R 1 1 R 2 2 R 2 1 R 1 -1 R 2 -2 R 2 -1 R 1 -2 R 2 -2 R 2 -2 R
1 -1 R 2 -2 R 2 -2 R 1 -2 R 2 -1 R 2 -2 R 1 -2 R 2 -2 R 2 -1 R 1 -2 R 2 -2 R
2 -1 R 1 -2 R 2 -2 R 2 -2 R 1 -1 R 2 -2 R 1 -2 R 2 -2 R 2 -1 R 1 -2 R 2 -2 R
2 0 R 1 0 R 2 0 R 2 0 R 1 0 R 2 0 R 2 0 R 1 0 R 2 0 R 2 0 R 1 0 R 2 0 R
2 0 R 1 0 R 2 0 R 2 0 R 1 0 R 2 1 R 2 0 R 1 0 R 2 0 R 2 0 R 1 0 R 2 0 R
1 0 R 2 0 R 2 0 R 1 0 R 2 1 R 2 2 R 1 3 R 2 3 R 2 3 R 1 2 R 2 3 R 2 3 R
1 3 R 2 2 R 2 3 R 1 3 R 2 2 R 2 3 R 1 3 R 2 3 R 2 2 R 1 3 R 2 3 R 2 3 R
1 2 R 2 3 R 1 3 R 2 2 R 2 3 R 1 3 R 2 3 R 2 2 R 1 3 R 2 2 R 2 1 R 1 1 R
2 1 R 2 1 R 1 1 R 2 1 R 2 1 R 1 1 R 2 1 R 2 1 R 1 1 R 2 1 R 2 1 R 1 1 R
2 1 R 2 1 R 1 1 R 2 1 R 2 1 R 1 1 R 2 1 R 1 1 R 2 1 R 2 1 R 1 1 R 2 1 R
2 1 R 1 1 R 2 -2 R 2 -3 R 1 -2 R 2 -3 R 2 -2 R 1 -2 R 2 -3 R 2 -2 R 1 -2 R
2 -3 R 2 -2 R 1 -3 R 2 -2 R 2 -2 R 1 -3 R 2 -2 R 2 -3 R 1 -2 R 2 -2 R 2 -3 R
1 -2 R 2 -2 R 1 -3 R 2 -2 R 2 -3 R 1 -2 R 2 -2 R 2 -3 R 1 -2 R 2 0 R 2 0 R
1 -1 R 2 0 R 2 0 R 1 0 R 2 -1 R 2 0 R 1 0 R 2 0 R 2 -1 R 1 0 R 2 0 R 2 0 R
1 -1 R 2 0 R 2 0 R 1 -1 R 2 0 R 2 0 R 1 0 R 2 -1 R 1 0 R 2 0 R 2 0 R 1 -1 R
2 0 R 2 0 R 1 -1 R 2 0 R 2 -1 R 1 0 R 2 -1 R 2 -1 R 1 0 R 2 -1 R 2 -1 R
1 0 R 2 -1 R 2 0 R 1 -1 R 2 -1 R 2 0 R 1 -1 R 2 -1 R 2 0 R 1 -1 R 2 0 R
1 -1 R 2 -1 R 2 0 R 1 -1 R 2 -1 R 2 0 R 1 -1 R 2 -1 R 2 0 R 1 -2 R 2 -6 R
2 -6 R 1 -6 R 2 -6 R 2 -6 R 1 -6 R 2 -6 R 2 -6 R 1 -7 R 2 -6 R 2 -6 R 1 -6 R
2 -6 R 2 -6 R 1 -6 R 2 -6 R 2 -6 R 1 -7 R 2 -6 R 1 -6 R 2 -6 R 2 -6 R 1 -6 R
2 -6 R 2 -6 R 1 -6 R 2 -7 R 2 -6 R 1 -6 R 2 -6 R 2 -7 R 1 -7 R 2 -6 R 2 -7 R
1 -6 R 2 -7 R 2 -7 R 1 -6 R 2 -7 R 2 -6 R 1 -7 R 2 -7 R 2 -6 R 1 -7 R 2 -6 R
2 -7 R 1 -7 R 2 -6 R 1 -7 R 2 -6 R 2 -7 R 1 -7 R 2 -6 R 2 -7 R 1 -6 R 2 -7 R
2 -7 R 1 -6 R 2 -3 R 2 2 R 1 1 R 2 2 R 2 1 R 1 1 R 2 2 R 2 1 R 1 2 R 2 1 R
2 2 R 1 1 R 2 2 R 2 1 R 1 1 R 2 2 R 2 1 R 1 2 R 2 1 R 1 2 R 2 1 R 2 2 R
1 1 R 2 2 R 2 1 R 1 1 R 2 2 R 2 1 R 1 2 R 2 1 R 2 3 R 1 2 R 2 3 R 2 2 R
1 3 R 2 2 R 2 3 R 1 2 R 2 3 R 2 2 R 1 3 R 2 2 R 2 3 R 1 2 R 2 3 R 1 2 R
2 3 R 2 3 R 1 2 R 2 3 R 2 2 R 1 3 R 2 2 R 2 3 R 1 2 R 2 3 R 2 2 R 1 3 R
2 2 R 2 2 R 1 -2 R 2 -2 R 2 -2 R 1 -2 R 2 -2 R 2 -2 R 1 -2 R 2 -2 R 2 -1 R
1 -2 R 2 -2 R 2 -2 R 1 -2 R 2 -2 R 1 -2 R 2 -2 R 2 -2 R 1 -1 R 2 -2 R 2 -2 R
1 -2 R 2 -2 R 2 -2 R 1 -2 R 2 -2 R 2 -2 R 1 -2 R 2 -1 R 2 -2 R 1 -3 R 2 -3 R
2 -3 R 1 -3 R 2 -4 R 2 -3 R 1 -3 R 2 -3 R 2 -3 R 1 -4 R 2 -3 R 2 -3 R 1 -3 R
2 -3 R 1 -4 R 2 -3 R 2 -3 R 1 -3 R 2 -4 R 2 -3 R D 7185 8380 M 1 -3 R 2 -3 R
2 -3 R 1 -4 R 2 -3 R 2 -3 R 1 -3 R 2 -3 R 2 -4 R 1 -3 R 2 -2 R 2 0 R 1 0 R
2 -1 R 2 0 R 1 0 R 2 0 R 2 -1 R 1 0 R 2 0 R 2 0 R 1 -1 R 2 0 R 1 0 R 2 0 R
2 -1 R 1 0 R 2 0 R 2 0 R 1 -1 R 2 0 R 2 0 R 1 0 R 2 -1 R 2 0 R 1 0 R 2 0 R
2 -1 R 1 0 R 2 0 R 2 -1 R 1 -2 R 2 -2 R 2 -2 R 1 -2 R 2 -2 R 2 -3 R 1 -2 R
2 -2 R 1 -2 R 2 -2 R 2 -2 R 1 -2 R 2 -2 R 2 -3 R 1 -2 R 2 -2 R 2 -2 R 1 -2 R
2 -2 R 2 -2 R 1 -2 R 2 -3 R 2 -2 R 1 -2 R 2 -2 R 2 -2 R 1 -2 R 2 -2 R 2 -2 R
1 -2 R 2 -7 R 2 -6 R 1 -6 R 2 -7 R 2 -6 R 1 -6 R 2 -6 R 1 -7 R 2 -6 R 2 -6 R
1 -6 R 2 -7 R 2 -6 R 1 -6 R 2 -7 R 2 -6 R 1 -6 R 2 -6 R 2 -7 R 1 -6 R 2 -6 R
2 -6 R 1 -7 R 2 -6 R 2 -6 R 1 -7 R 2 -6 R 2 -6 R 1 -6 R 2 -7 R 2 -7 R 1 -7 R
2 -7 R 2 -8 R 1 -7 R 2 -7 R 1 -8 R 2 -7 R 2 -7 R 1 -8 R 2 -7 R 2 -7 R 1 -8 R
2 -7 R 2 -7 R 1 -8 R 2 -7 R 2 -7 R 1 -8 R 2 -7 R 2 -7 R 1 -8 R 2 -7 R 2 -7 R
1 -8 R 2 -7 R 2 -7 R 1 -8 R 2 -7 R 2 -7 R 1 -8 R 2 -3 R 2 -3 R 1 -3 R 2 -3 R
1 -3 R 2 -3 R 2 -3 R 1 -3 R 2 -3 R 2 -3 R 1 -3 R 2 -3 R 2 -3 R 1 -3 R 2 -3 R
2 -3 R 1 -3 R 2 -3 R 2 -4 R 1 -3 R 2 -3 R 2 -3 R 1 -3 R 2 -3 R 2 -3 R 1 -3 R
2 -3 R 2 -3 R 1 -3 R 2 -3 R 2 -2 R 1 2 R 2 2 R 1 2 R 2 2 R 2 2 R 1 2 R 2 2 R
2 2 R 1 2 R 2 2 R 2 2 R 1 2 R 2 2 R 2 2 R 1 2 R 2 2 R 2 2 R 1 2 R 2 2 R
2 2 R 1 2 R 2 2 R 2 2 R 1 2 R 2 2 R 2 2 R 1 2 R 2 2 R 1 2 R 2 1 R 2 1 R
1 -2 R 2 -1 R 2 -2 R 1 -2 R 2 -2 R 2 -2 R 1 -2 R 2 -2 R 2 -2 R 1 -1 R 2 -2 R
2 -2 R 1 -2 R 2 -2 R 2 -2 R 1 -2 R 2 -1 R 2 -2 R 1 -2 R 2 -2 R 2 -2 R 1 -2 R
2 -2 R 2 -2 R 1 -1 R 2 -2 R 1 -2 R 2 -2 R 2 -2 R 1 -2 R 2 -2 R 2 -2 R 1 -3 R
2 -2 R 2 -3 R 1 -3 R 2 -2 R 2 -3 R 1 -2 R 2 -3 R 2 -2 R 1 -3 R 2 -2 R 2 -3 R
1 -2 R 2 -3 R 2 -3 R 1 -2 R 2 -3 R 2 -2 R 1 -3 R 2 -2 R 2 -3 R 1 -2 R 2 -3 R
1 -2 R 2 -3 R 2 -3 R 1 -2 R 2 -3 R 2 -2 R 1 -3 R 2 1 R 2 0 R 1 0 R 2 1 R
2 0 R 1 0 R 2 0 R 2 1 R 1 0 R 2 0 R 2 1 R 1 0 R 2 0 R 2 0 R 1 1 R 2 0 R
2 0 R 1 1 R 2 0 R 2 0 R 1 0 R 2 1 R 1 0 R 2 0 R 2 1 R 1 0 R 2 0 R 2 1 R
1 0 R 2 0 R 2 0 R 1 -1 R 2 -2 R 2 -3 R 1 -2 R 2 -3 R 2 -2 R 1 -2 R 2 -3 R
2 -2 R 1 -2 R 2 -3 R 2 -2 R 1 -3 R 2 -2 R 2 -2 R 1 -3 R 2 -2 R 1 -2 R 2 -3 R
2 -2 R 1 -3 R 2 -2 R 2 -2 R 1 -3 R 2 -2 R 2 -2 R 1 -3 R 2 -2 R 2 -3 R 1 -2 R
2 -2 R 2 -3 R 1 -2 R 2 -1 R 2 -2 R 1 -2 R 2 -2 R 2 -2 R 1 -2 R 2 -2 R 2 -2 R
1 -2 R 2 -2 R 2 -2 R 1 -2 R 2 -2 R 1 -2 R 2 -1 R 2 -2 R 1 -2 R 2 -2 R 2 -2 R
1 -2 R 2 -2 R 2 -2 R 1 -2 R 2 -2 R 2 -2 R 1 -2 R 2 -2 R 2 -2 R 1 -1 R 2 -2 R
2 -2 R 1 -1 R 2 -2 R 2 -1 R 1 -1 R 2 -1 R 2 -2 R 1 -1 R 2 -1 R 2 -1 R 1 -2 R
2 -1 R 1 -1 R 2 -1 R 2 -1 R 1 -2 R 2 -1 R 2 -1 R 1 -1 R 2 -2 R 2 -1 R 1 -1 R
2 -1 R 2 -2 R 1 -1 R 2 -1 R 2 -1 R 1 -2 R 2 -1 R 2 -1 R 1 -1 R 2 -2 R 2 -2 R
1 -2 R 2 -3 R 2 -3 R 1 -2 R 2 -3 R 2 -2 R 1 -3 R 2 -2 R 1 -3 R 2 -3 R 2 -2 R
1 -3 R 2 -2 R 2 -3 R 1 -2 R 2 -3 R 2 -3 R 1 -2 R 2 -3 R 2 -2 R 1 -3 R 2 -2 R
2 -3 R 1 -3 R 2 -2 R 2 -3 R 1 -2 R 2 -3 R 2 -3 R 1 -2 R 2 -3 R 2 -2 R 1 -2 R
2 -3 R 1 -2 R 2 -2 R 2 -3 R 1 -2 R 2 -2 R 2 -3 R 1 -2 R 2 -2 R 2 -3 R 1 -2 R
2 -2 R 2 -3 R 1 -2 R 2 -2 R 2 -3 R 1 -2 R 2 -2 R 2 -3 R 1 -2 R 2 -2 R 2 -3 R
1 -2 R 2 -2 R 2 -3 R 1 -2 R 2 -2 R 2 -3 R 1 -2 R 2 -2 R 1 -3 R 2 -2 R 2 -2 R
1 -2 R 2 -2 R 2 -3 R 1 -2 R 2 -2 R 2 -2 R 1 -3 R 2 -2 R 2 -2 R 1 -2 R 2 -2 R
2 -3 R 1 -2 R 2 -2 R 2 -2 R 1 -3 R 2 -2 R 2 -2 R 1 -2 R 2 -2 R 2 -3 R 1 -2 R
2 -2 R 2 -2 R 1 -3 R 2 -2 R 1 -2 R 2 -2 R 2 -2 R 1 -3 R 2 -2 R 2 -2 R 1 -3 R
2 -2 R 2 -2 R 1 -2 R 2 -3 R 2 -2 R 1 -2 R 2 -3 R 2 -2 R 1 -2 R 2 -3 R 2 -2 R
1 -2 R 2 -3 R 2 -2 R 1 -2 R 2 -2 R 2 -3 R 1 -2 R 2 -2 R 2 -3 R 1 -2 R 2 -2 R
1 -3 R 2 -2 R 2 -2 R 1 -2 R 2 -3 R 2 -2 R 1 -2 R 2 -5 R 2 -7 R 1 -6 R 2 -6 R
2 -7 R 1 -6 R 2 -7 R 2 -6 R 1 -7 R 2 -6 R 2 -6 R 1 -7 R 2 -6 R 2 -7 R 1 -6 R
2 -6 R 2 -7 R 1 -6 R 2 -7 R 2 -6 R 1 -6 R 2 -7 R 1 -6 R 2 -7 R 2 -6 R 1 -7 R
2 -6 R 2 -6 R 1 -7 R 2 -6 R 2 -7 R 1 -6 R 2 -6 R 2 -4 R 1 -3 R 2 -3 R 2 -3 R
1 -3 R 2 -3 R 2 -3 R 1 -3 R 2 -3 R 2 -3 R 1 -3 R 2 -3 R 2 -3 R 1 -4 R 2 -3 R
1 -3 R 2 -3 R 2 -3 R 1 -3 R 2 -3 R 2 -3 R 1 -3 R 2 -3 R 2 -3 R 1 -3 R 2 -3 R
2 -3 R 1 -4 R 2 -3 R 2 -3 R 1 -3 R 2 -3 R 2 -2 R 1 5 R 2 5 R 2 4 R 1 5 R
2 5 R 2 4 R 1 5 R 2 5 R 2 4 R 1 5 R 2 5 R 1 4 R 2 5 R 2 5 R 1 4 R 2 5 R
2 5 R 1 5 R 2 4 R 2 5 R 1 5 R 2 4 R 2 5 R 1 5 R 2 4 R 2 5 R 1 5 R 2 4 R
2 5 R 1 5 R 2 4 R 2 5 R 1 4 R 2 1 R 2 1 R 1 1 R 2 0 R 2 1 R 1 1 R 2 1 R
1 1 R 2 1 R 2 0 R 1 1 R 2 1 R 2 1 R 1 1 R 2 0 R 2 1 R 1 1 R 2 1 R 2 1 R
1 1 R 2 0 R 2 1 R 1 1 R 2 1 R 2 1 R 1 1 R 2 0 R 2 1 R 1 1 R 2 1 R 2 1 R
1 1 R 2 0 R 2 -1 R 1 -2 R 2 -1 R 1 -2 R 2 -1 R 2 -2 R 1 -1 R 2 -2 R 2 -1 R
1 -2 R 2 -1 R 2 -2 R 1 -1 R 2 -2 R 2 -1 R 1 -2 R 2 -1 R 2 -2 R 1 -1 R 2 -2 R
2 -1 R 1 -2 R 2 -1 R 2 -2 R 1 -1 R 2 -2 R 2 -2 R 1 -1 R 2 -2 R 1 -1 R 2 -2 R
2 -1 R 1 -2 R 2 -1 R 2 -2 R 1 -2 R 2 -2 R 2 -2 R 1 -2 R 2 -2 R 2 -2 R 1 -2 R
2 -2 R 2 -2 R 1 -2 R 2 -2 R 2 -2 R 1 -2 R 2 -2 R 2 -2 R 1 -2 R 2 -2 R 2 -2 R
1 -2 R 2 -2 R 2 -2 R 1 -2 R 2 -2 R 1 -1 R 2 -2 R 2 -2 R 1 -2 R 2 -2 R 2 -2 R
1 -2 R 2 -2 R 2 -2 R 1 -2 R 2 -2 R 2 -2 R 1 -2 R 2 -1 R 2 -2 R 1 -2 R 2 -2 R
2 -2 R 1 -2 R 2 -2 R 2 -2 R 1 -1 R 2 -2 R 2 -2 R 1 -2 R 2 -2 R 2 -2 R 1 -2 R
2 -1 R 1 -2 R 2 -2 R 2 -2 R 1 -2 R 2 -2 R 2 -2 R 1 -1 R 2 -2 R 2 -2 R 1 -2 R
2 -2 R 2 -2 R 1 -2 R 2 -2 R 2 -1 R 1 -2 R 2 -2 R 2 -2 R 1 -2 R 2 -2 R D
8426 6899 M 2 -2 R 1 -2 R 2 -2 R 2 -2 R 1 -2 R 2 -2 R 2 -2 R 1 -2 R 2 -2 R
1 -2 R 2 -2 R 2 -1 R 1 -2 R 2 -2 R 2 -2 R 1 -2 R 2 -2 R 2 -2 R 1 -2 R 2 -2 R
2 -2 R 1 -2 R 2 -2 R 2 -2 R 1 -2 R 2 -2 R 2 -2 R 1 -2 R 2 -2 R 2 -2 R 1 -3 R
2 -2 R 2 -2 R 1 -3 R 2 -2 R 1 -2 R 2 -2 R 2 -3 R 1 -2 R 2 -2 R 2 -3 R 1 -2 R
2 -2 R 2 -3 R 1 -2 R 2 -2 R 2 -2 R 1 -3 R 2 -2 R 2 -2 R 1 -3 R 2 -2 R 2 -2 R
1 -2 R 2 -3 R 2 -2 R 1 -2 R 2 -3 R 2 -2 R 1 -2 R 2 -3 R 2 -2 R 1 -2 R 2 -2 R
1 -2 R 2 -2 R 2 -3 R 1 -2 R 2 -2 R 2 -2 R 1 -2 R 2 -3 R 2 -2 R 1 -2 R 2 -2 R
2 -2 R 1 -3 R 2 -2 R 2 -2 R 1 -2 R 2 -2 R 2 -3 R 1 -2 R 2 -2 R 2 -2 R 1 -2 R
2 -3 R 2 -2 R 1 -2 R 2 -2 R 2 -2 R 1 -2 R 2 -3 R 1 -2 R 2 -2 R 2 -2 R 1 -1 R
2 -1 R 2 -2 R 1 -1 R 2 -1 R 2 -1 R 1 -2 R 2 -1 R 2 -1 R 1 -2 R 2 -1 R 2 -1 R
1 -1 R 2 -2 R 2 -1 R 1 -1 R 2 -2 R 2 -1 R 1 -1 R 2 -1 R 2 -2 R 1 -1 R 2 -1 R
2 -2 R 1 -1 R 2 -1 R 1 -2 R 2 -1 R 2 -1 R 1 -1 R 2 -2 R 2 -1 R 1 -1 R 2 -2 R
2 -1 R 1 -2 R 2 -1 R 2 -2 R 1 -1 R 2 -2 R 2 -1 R 1 -2 R 2 -1 R 2 -2 R 1 -1 R
2 -2 R 2 -1 R 1 -2 R 2 -1 R 2 -2 R 1 -1 R 2 -2 R 2 -1 R 1 -2 R 2 -1 R 1 -2 R
2 -1 R 2 -2 R 1 -1 R 2 -2 R 2 -1 R 1 -2 R 2 -1 R 2 -2 R 1 -1 R 2 -2 R 2 -1 R
1 -2 R 2 -2 R 2 -2 R 1 -2 R 2 -3 R 2 -2 R 1 -2 R 2 -2 R 2 -2 R 1 -3 R 2 -2 R
2 -2 R 1 -2 R 2 -2 R 1 -3 R 2 -2 R 2 -2 R 1 -2 R 2 -2 R 2 -3 R 1 -2 R 2 -2 R
2 -2 R 1 -2 R 2 -3 R 2 -2 R 1 -2 R 2 -2 R 2 -2 R 1 -3 R 2 -2 R 2 -2 R 1 -2 R
2 -2 R 2 -3 R 1 -2 R 2 -2 R 2 -3 R 1 -3 R 2 -2 R 2 -3 R 1 -2 R 2 -3 R 1 -3 R
2 -2 R 2 -3 R 1 -2 R 2 -3 R 2 -3 R 1 -2 R 2 -3 R 2 -2 R 1 -3 R 2 -2 R 2 -3 R
1 -3 R 2 -2 R 2 -3 R 1 -2 R 2 -3 R 2 -3 R 1 -2 R 2 -3 R 2 -2 R 1 -3 R 2 -3 R
2 -2 R 1 -3 R 2 -2 R 2 -3 R 1 -2 R 2 -3 R 1 -2 R 2 -3 R 2 -3 R 1 -2 R 2 -3 R
2 -2 R 1 -3 R 2 -2 R 2 -3 R 1 -2 R 2 -3 R 2 -2 R 1 -3 R 2 -2 R 2 -3 R 1 -2 R
2 -3 R 2 -2 R 1 -3 R 2 -3 R 2 -2 R 1 -3 R 2 -2 R 2 -3 R 1 -2 R 2 -3 R 2 -2 R
1 -3 R 2 -2 R 1 -3 R 2 -2 R 2 -3 R 1 -2 R 2 -3 R 2 -1 R 1 -1 R 2 -2 R 2 -1 R
1 -1 R 2 -2 R 2 -1 R 1 -1 R 2 -2 R 2 -1 R 1 -1 R 2 -2 R 2 -1 R 1 -1 R 2 -2 R
2 -1 R 1 -2 R 2 -1 R 2 -1 R 1 -2 R 2 -1 R 1 -1 R 2 -2 R 2 -1 R 1 -1 R 2 -2 R
2 -1 R 1 -1 R 2 -2 R 2 -1 R 1 -1 R 2 -2 R 2 -1 R 1 -1 R 2 -2 R 2 -2 R 1 -1 R
2 -2 R 2 -2 R 1 -2 R 2 -1 R 2 -2 R 1 -2 R 2 -2 R 2 -1 R 1 -2 R 2 -2 R 2 -2 R
1 -2 R 2 -1 R 1 -2 R 2 -2 R 2 -2 R 1 -1 R 2 -2 R 2 -2 R 1 -2 R 2 -2 R 2 -1 R
1 -2 R 2 -2 R 2 -2 R 1 -1 R 2 -2 R 2 -2 R 1 -2 R 2 -1 R 2 -2 R 1 -2 R 2 -2 R
2 -2 R 1 -3 R 2 -3 R 2 -3 R 1 -3 R 2 -2 R 2 -3 R 1 -3 R 2 -3 R 1 -3 R 2 -3 R
2 -3 R 1 -2 R 2 -3 R 2 -3 R 1 -3 R 2 -3 R 2 -3 R 1 -2 R 2 -3 R 2 -3 R 1 -3 R
2 -3 R 2 -3 R 1 -2 R 2 -3 R 2 -3 R 1 -3 R 2 -3 R 2 -3 R 1 -2 R 2 -3 R 2 -3 R
1 -3 R 2 -3 R 2 -3 R 1 -3 R 2 -3 R 1 -3 R 2 -4 R 2 -3 R 1 -3 R 2 -3 R 2 -4 R
1 -3 R 2 -3 R 2 -3 R 1 -4 R 2 -3 R 2 -3 R 1 -3 R 2 -4 R 2 -3 R 1 -3 R 2 -3 R
2 -4 R 1 -3 R 2 -3 R 2 -3 R 1 -4 R 2 -3 R 2 -3 R 1 -3 R 2 -4 R 1 -3 R 2 -3 R
2 -3 R 1 -4 R 2 -3 R 2 -3 R 1 -3 R 2 -3 R 2 -2 R 1 -3 R 2 -2 R 2 -2 R 1 -2 R
2 -2 R 2 -2 R 1 -3 R 2 -2 R 2 -2 R 1 -2 R 2 -2 R 2 -2 R 1 -3 R 2 -2 R 2 -2 R
1 -2 R 2 -2 R 2 -2 R 1 -3 R 2 -2 R 1 -2 R 2 -2 R 2 -2 R 1 -2 R 2 -3 R 2 -2 R
1 -2 R 2 -2 R 2 -2 R 1 -2 R 2 -3 R 2 -2 R 1 -2 R 2 -2 R 2 -1 R 1 -1 R 2 0 R
2 -1 R 1 0 R 2 -1 R 2 0 R 1 0 R 2 -1 R 2 0 R 1 -1 R 2 0 R 2 0 R 1 -1 R 2 0 R
1 -1 R 2 0 R 2 -1 R 1 0 R 2 0 R 2 -1 R 1 0 R 2 -1 R 2 0 R 1 -1 R 2 0 R 2 0 R
1 -1 R 2 0 R 2 -1 R 1 0 R 2 -1 R 2 0 R 1 0 R 2 -1 R 2 0 R 1 -1 R 2 -1 R
2 -2 R 1 -1 R 2 -1 R 2 -2 R 1 -1 R 2 -1 R 1 -1 R 2 -2 R 2 -1 R 1 -1 R 2 -2 R
2 -1 R 1 -1 R 2 -2 R 2 -1 R 1 -1 R 2 -2 R 2 -1 R 1 -1 R 2 -1 R 2 -2 R 1 -1 R
2 -1 R 2 -2 R 1 -1 R 2 -1 R 2 -2 R 1 -1 R 2 -1 R 2 -2 R 1 -1 R 2 -1 R 1 -1 R
2 -2 R 2 -1 R 1 -2 R 2 -2 R 2 -2 R 1 -2 R 2 -2 R 2 -2 R 1 -2 R 2 -2 R 2 -2 R
1 -2 R 2 -2 R 2 -2 R 1 -2 R 2 -2 R 2 -2 R 1 -2 R 2 -2 R 2 -2 R 1 -2 R 2 -2 R
2 -2 R 1 -2 R 2 -1 R 2 -2 R 1 -2 R 2 -2 R 1 -2 R 2 -2 R 2 -2 R 1 -2 R 2 -2 R
2 -2 R 1 -2 R 2 -2 R 2 -2 R 1 -2 R 2 -1 R 2 -2 R 1 -1 R 2 -1 R 2 -1 R 1 -1 R
2 -1 R 2 -2 R 1 -1 R 2 -1 R 2 -1 R 1 -1 R 2 -1 R 2 -2 R 1 -1 R 2 -1 R 2 -1 R
1 -1 R 2 -1 R 1 -2 R 2 -1 R 2 -1 R 1 -1 R 2 -1 R 2 -2 R 1 -1 R 2 -1 R 2 -1 R
1 -1 R 2 -1 R 2 -2 R 1 -1 R 2 -1 R 2 -1 R 1 -1 R 2 -1 R 2 -2 R 1 -2 R 2 -3 R
2 -2 R 1 -3 R 2 -3 R 2 -2 R 1 -3 R 2 -3 R 2 -2 R 1 -3 R 2 -2 R 1 -3 R 2 -3 R
2 -2 R 1 -3 R 2 -2 R 2 -3 R 1 -3 R 2 -2 R 2 -3 R 1 -3 R 2 -2 R 2 -3 R 1 -2 R
2 -3 R 2 -3 R 1 -2 R 2 -3 R 2 -2 R 1 -3 R 2 -3 R 2 -2 R 1 -3 R 2 -3 R 2 -2 R
1 -3 R 2 -2 R 2 -3 R 1 -3 R 2 -2 R 1 -3 R 2 -2 R 2 -3 R 1 -3 R 2 -2 R 2 -3 R
1 -2 R 2 -3 R 2 -3 R 1 -2 R 2 -3 R 2 -2 R 1 -3 R 2 -3 R 2 -2 R 1 -3 R 2 -2 R
2 -3 R 1 -3 R 2 -2 R 2 -3 R 1 -2 R 2 -3 R 2 -3 R 1 -2 R 2 -3 R 1 -2 R 2 -3 R
2 -3 R 1 -2 R 2 -3 R 2 -2 R 1 -3 R 2 -2 R 2 -1 R 1 0 R 2 -1 R 2 0 R 1 -1 R
2 0 R 2 -1 R 1 0 R 2 -1 R 2 0 R 1 0 R 2 -1 R 2 0 R 1 -1 R 2 0 R 2 -1 R 1 0 R
2 -1 R 2 0 R 1 -1 R 2 0 R 1 -1 R 2 0 R 2 -1 R 1 0 R 2 -1 R 2 0 R 1 -1 R
2 0 R 2 -1 R 1 0 R 2 -1 R 2 0 R 1 -1 R 2 0 R 2 -1 R 1 0 R 2 -1 R 2 -1 R
1 0 R 2 -1 R 2 -1 R 1 0 R 2 -1 R 2 -1 R 1 0 R 2 -1 R 2 -1 R 1 0 R 2 -1 R
1 0 R 2 -1 R 2 -1 R 1 0 R 2 -1 R 2 -1 R 1 0 R 2 -1 R 2 -1 R 1 0 R 2 -1 R
2 -1 R 1 0 R 2 -1 R 2 -1 R 1 0 R 2 -1 R 2 -1 R 1 0 R 2 -1 R 2 -1 R 1 0 R
2 -1 R 2 -1 R 1 -1 R 2 -1 R 2 -1 R 1 -1 R 2 -1 R 1 -1 R 2 -1 R 2 -1 R 1 -2 R
2 -1 R D 9667 5513 M 2 -1 R 1 -1 R 2 -1 R 2 -1 R 1 -1 R 2 -2 R 2 -1 R 1 -1 R
2 -1 R 2 -1 R 1 -1 R 2 -1 R 2 -2 R 1 -1 R 2 -1 R 2 -1 R 1 -1 R 2 -1 R 2 -1 R
1 -2 R 2 -1 R 1 -1 R 2 -1 R 2 -1 R 1 -1 R 2 -1 R 2 -2 R 1 -1 R 2 -1 R 2 -2 R
1 -1 R 2 -1 R 2 -2 R 1 -1 R 2 -2 R 2 -1 R 1 -1 R 2 -2 R 2 -1 R 1 -2 R 2 -1 R
2 -2 R 1 -1 R 2 -1 R 2 -2 R 1 -1 R 2 -2 R 2 -1 R 1 -1 R 2 -2 R 1 -1 R 2 -2 R
2 -1 R 1 -2 R 2 -1 R 2 -1 R 1 -2 R 2 -1 R 2 -2 R 1 -1 R 2 -1 R 2 -2 R 1 -1 R
2 -2 R 2 -1 R 1 -2 R 2 -1 R 2 -2 R 1 -2 R 2 -2 R 2 -1 R 1 -2 R 2 -2 R 2 -2 R
1 -1 R 2 -2 R 2 -2 R 1 -1 R 2 -2 R 1 -2 R 2 -2 R 2 -1 R 1 -2 R 2 -2 R 2 -2 R
1 -1 R 2 -2 R 2 -2 R 1 -2 R 2 -1 R 2 -2 R 1 -2 R 2 -1 R 2 -2 R 1 -2 R 2 -2 R
2 -1 R 1 -2 R 2 -2 R 2 -2 R 1 -1 R 2 -2 R 2 -2 R 1 -2 R 2 -2 R 2 -2 R 1 -2 R
2 -2 R 1 -2 R 2 -2 R 2 -2 R 1 -2 R 2 -2 R 2 -2 R 1 -2 R 2 -2 R 2 -2 R 1 -2 R
2 -2 R 2 -2 R 1 -2 R 2 -2 R 2 -2 R 1 -2 R 2 -2 R 2 -2 R 1 -2 R 2 -2 R 2 -2 R
1 -2 R 2 -2 R 2 -2 R 1 -2 R 2 -2 R 1 -2 R 2 -2 R 2 -2 R 1 -2 R 2 -2 R 2 -2 R
1 -2 R 2 -2 R 2 -2 R 1 -2 R 2 -2 R 2 -2 R 1 -2 R 2 -2 R 2 -2 R 1 -2 R 2 -2 R
2 -2 R 1 -2 R 2 -2 R 2 -2 R 1 -2 R 2 -2 R 2 -2 R 1 -2 R 2 -2 R 2 -2 R 1 -2 R
2 -2 R 1 -2 R 2 -2 R 2 -2 R 1 -2 R 2 -2 R 2 -2 R 1 -2 R 2 -2 R 2 -2 R 1 -2 R
2 -2 R 2 -2 R 1 -2 R 2 -2 R 2 -2 R 1 -2 R 2 -1 R 2 -2 R 1 -1 R 2 -2 R 2 -1 R
1 -2 R 2 -1 R 2 -1 R 1 -2 R 2 -1 R 2 -2 R 1 -1 R 2 -2 R 1 -1 R 2 -1 R 2 -2 R
1 -1 R 2 -2 R 2 -1 R 1 -2 R 2 -1 R 2 -1 R 1 -2 R 2 -1 R 2 -2 R 1 -1 R 2 -2 R
2 -1 R 1 -1 R 2 -2 R 2 -1 R 1 -2 R 2 -1 R 2 -2 R 1 -1 R 2 -1 R 2 -2 R 1 -1 R
2 -2 R 2 -1 R 1 -1 R 2 -1 R 1 -1 R 2 -1 R 2 -1 R 1 -1 R 2 -1 R 2 -1 R 1 0 R
2 -1 R 2 -1 R 1 -1 R 2 -1 R 2 -1 R 1 -1 R 2 -1 R 2 -1 R 1 -1 R 2 -1 R 2 -1 R
1 -1 R 2 -1 R 2 -1 R 1 -1 R 2 -1 R 2 -1 R 1 -1 R 2 0 R 2 -1 R 1 -1 R 2 -1 R
1 -1 R 2 -1 R 2 -1 R 1 -1 R 2 -1 R 2 -1 R 1 -1 R 2 -1 R 2 -1 R 1 -1 R 2 -1 R
2 -1 R 1 -1 R 2 -1 R 2 -1 R 1 -1 R 2 -1 R 2 -1 R 1 -1 R 2 -1 R 2 -1 R 1 -1 R
2 -1 R 2 -1 R 1 -1 R 2 -1 R 1 -1 R 2 -1 R 2 -1 R 1 -1 R 2 -1 R 2 0 R 1 -1 R
2 -1 R 2 -1 R 1 -1 R 2 -1 R 2 -1 R 1 -1 R 2 -1 R 2 -1 R 1 -1 R 2 -1 R 2 -1 R
1 -1 R 2 -1 R 2 -2 R 1 -1 R 2 -2 R 2 -1 R 1 -2 R 2 -2 R 2 -1 R 1 -2 R 2 -1 R
1 -2 R 2 -1 R 2 -2 R 1 -2 R 2 -1 R 2 -2 R 1 -1 R 2 -2 R 2 -1 R 1 -2 R 2 -1 R
2 -2 R 1 -2 R 2 -1 R 2 -2 R 1 -1 R 2 -2 R 2 -1 R 1 -2 R 2 -2 R 2 -1 R 1 -2 R
2 -1 R 2 -2 R 1 -1 R 2 -2 R 2 -1 R 1 -2 R 2 -2 R 1 -1 R 2 -2 R 2 -1 R 1 -2 R
2 -2 R 2 -2 R 1 -1 R 2 -2 R 2 -2 R 1 -1 R 2 -2 R 2 -2 R 1 -1 R 2 -2 R 2 -2 R
1 -1 R 2 -2 R 2 -2 R 1 -1 R 2 -2 R 2 -2 R 1 -1 R 2 -2 R 2 -2 R 1 -1 R 2 -2 R
2 -2 R 1 -1 R 2 -2 R 1 -2 R 2 -1 R 2 -2 R 1 -2 R 2 -1 R 2 -2 R 1 -2 R 2 -1 R
2 -2 R 1 -2 R 2 -1 R 2 -2 R 1 -3 R 2 -2 R 2 -3 R 1 -2 R 2 -3 R 2 -2 R 1 -2 R
2 -3 R 2 -2 R 1 -3 R 2 -2 R 2 -3 R 1 -2 R 2 -3 R 1 -2 R 2 -2 R 2 -3 R 1 -2 R
2 -3 R 2 -2 R 1 -3 R 2 -2 R 2 -2 R 1 -3 R 2 -2 R 2 -3 R 1 -2 R 2 -3 R 2 -2 R
1 -3 R 2 -2 R 2 -2 R 1 -3 R 2 -2 R 2 -3 R 1 -2 R 2 -3 R 2 -2 R 1 -2 R 2 -2 R
2 -2 R 1 -2 R 2 -2 R 1 -1 R 2 -2 R 2 -2 R 1 -2 R 2 -1 R 2 -2 R 1 -2 R 2 -2 R
2 -1 R 1 -2 R 2 -2 R 2 -2 R 1 -2 R 2 -1 R 2 -2 R 1 -2 R 2 -2 R 2 -1 R 1 -2 R
2 -2 R 2 -2 R 1 -2 R 2 -1 R 2 -2 R 1 -2 R 2 -2 R 2 -1 R 1 -2 R 2 -2 R 1 -2 R
2 -1 R 2 -2 R 1 -2 R 2 -2 R 2 -2 R 1 -1 R 2 -1 R 2 0 R 1 -1 R 2 -1 R 2 0 R
1 -1 R 2 -1 R 2 0 R 1 -1 R 2 -1 R 2 -1 R 1 0 R 2 -1 R 2 -1 R 1 0 R 2 -1 R
2 -1 R 1 0 R 2 -1 R 2 -1 R 1 0 R 2 -1 R 1 -1 R 2 0 R 2 -1 R 1 -1 R 2 -1 R
2 0 R 1 -1 R 2 -1 R 2 0 R 1 -1 R 2 -1 R 2 0 R 1 -1 R 2 -1 R 2 0 R 1 -1 R
2 -1 R 2 -1 R 1 -1 R 2 -2 R 2 -1 R 1 -2 R 2 -2 R 2 -1 R 1 -2 R 2 -1 R 1 -2 R
2 -1 R 2 -2 R 1 -1 R 2 -2 R 2 -1 R 1 -2 R 2 -1 R 2 -2 R 1 -1 R 2 -2 R 2 -1 R
1 -2 R 2 -1 R 2 -2 R 1 -2 R 2 -1 R 2 -2 R 1 -1 R 2 -2 R 2 -1 R 1 -2 R 2 -1 R
2 -2 R 1 -1 R 2 -2 R 2 -1 R 1 -2 R 2 -1 R 1 -2 R 2 -1 R 2 -2 R 1 -2 R 2 -1 R
2 -2 R 1 -2 R 2 -1 R 2 -2 R 1 -2 R 2 -1 R 2 -2 R 1 -2 R 2 -1 R 2 -2 R 1 -2 R
2 -1 R 2 -2 R 1 -2 R 2 -1 R 2 -2 R 1 -2 R 2 -1 R 2 -2 R 1 -2 R 2 -1 R 2 -2 R
1 -2 R 2 -1 R 1 -2 R 2 -2 R 2 -1 R 1 -2 R 2 -2 R 2 -1 R 1 -2 R 2 -2 R 2 -1 R
1 -2 R 2 -2 R 2 -1 R 1 -2 R 2 -2 R 2 -1 R 1 -1 R 2 -1 R 2 -1 R 1 -2 R 2 -1 R
2 -1 R 1 -1 R 2 -1 R 2 -1 R 1 -2 R 2 -1 R 2 -1 R 1 -1 R 2 -1 R 1 -1 R 2 -2 R
2 -1 R 1 -1 R 2 -1 R 2 -1 R 1 -1 R 2 -2 R 2 -1 R 1 -1 R 2 -1 R 2 -1 R 1 -1 R
2 -2 R 2 -1 R 1 -1 R 2 -1 R 2 -1 R 1 -1 R 2 -2 R 2 -1 R 1 -1 R 2 -1 R 2 -1 R
1 -1 R 2 -2 R 1 -2 R 2 -1 R 2 -2 R 1 -2 R 2 -1 R 2 -2 R 1 -2 R 2 -1 R 2 -2 R
1 -2 R 2 -2 R 2 -1 R 1 -2 R 2 -2 R 2 -1 R 1 -2 R 2 -2 R 2 -1 R 1 -2 R 2 -2 R
2 -1 R 1 -2 R 2 -2 R 2 -2 R 1 -1 R 2 -2 R 2 -2 R 1 -1 R 2 -2 R 1 -2 R 2 -1 R
2 -2 R 1 -2 R 2 -1 R 2 -2 R 1 -2 R 2 -1 R 2 -2 R 1 -2 R 2 -2 R 2 -2 R 1 -3 R
2 -2 R 2 -3 R 1 -3 R 2 -2 R 2 -3 R 1 -3 R 2 -2 R 2 -3 R 1 -3 R 2 -2 R 2 -3 R
1 -3 R 2 -2 R 2 -3 R 1 -3 R 2 -2 R 1 -3 R 2 -3 R 2 -2 R 1 -3 R 2 -2 R 2 -3 R
1 -3 R 2 -2 R 2 -3 R 1 -3 R 2 -2 R 2 -3 R 1 -3 R 2 -2 R 2 -3 R 1 -3 R 2 -2 R
2 -3 R 1 -3 R 2 -2 R 2 -3 R 1 -3 R 2 -2 R 2 -1 R 1 -1 R 2 -1 R 2 -2 R 1 -1 R
2 -1 R 1 -1 R 2 -1 R 2 -1 R 1 -1 R 2 -1 R 2 -1 R 1 -1 R 2 -1 R 2 -1 R 1 -1 R
2 -2 R 2 -1 R 1 -1 R 2 -1 R 2 -1 R 1 -1 R 2 -1 R 2 -1 R 1 -1 R 2 -1 R 2 -1 R
1 -1 R 2 -1 R 2 -2 R 1 -1 R 2 -1 R 2 -1 R 1 -1 R 2 -1 R 1 -1 R 2 -1 R 2 -1 R
1 -1 R 2 -1 R 2 -1 R 1 -1 R 2 -1 R 2 0 R 1 -1 R 2 -1 R 2 0 R 1 -1 R 2 -1 R
2 0 R 1 -1 R 2 -1 R 2 0 R 1 -1 R D 10908 4353 M 2 -1 R 2 0 R 1 -1 R 2 -1 R
2 0 R 1 -1 R 2 -1 R 1 0 R 2 -1 R 2 -1 R 1 0 R 2 -1 R 2 -1 R 1 0 R 2 -1 R
2 -1 R 1 0 R 2 -1 R 2 -1 R 1 0 R 2 -1 R 2 -1 R 1 0 R 2 -1 R 2 -1 R 1 0 R
2 -1 R 2 -1 R 1 -1 R 2 -2 R 2 -2 R 1 -2 R 2 -2 R 2 -2 R 1 -1 R 2 -2 R 1 -2 R
2 -2 R 2 -2 R 1 -2 R 2 -2 R 2 -2 R 1 -1 R 2 -2 R 2 -2 R 1 -2 R 2 -2 R 2 -2 R
1 -2 R 2 -2 R 2 -1 R 1 -2 R 2 -2 R 2 -2 R 1 -2 R 2 -2 R 2 -2 R 1 -2 R 2 -1 R
2 -2 R 1 -2 R 2 -2 R 2 -2 R 1 -2 R 2 -2 R 1 -2 R 2 -1 R 2 -2 R 1 -2 R 2 -2 R
2 -1 R 1 -2 R 2 -1 R 2 -2 R 1 -1 R 2 -1 R 2 -2 R 1 -1 R 2 -2 R 2 -1 R 1 -1 R
2 -2 R 2 -1 R 1 -2 R 2 -1 R 2 -1 R 1 -2 R 2 -1 R 2 -1 R 1 -2 R 2 -1 R 2 -2 R
1 -1 R 2 -1 R 1 -2 R 2 -1 R 2 -2 R 1 -1 R 2 -1 R 2 -2 R 1 -1 R 2 -2 R 2 -1 R
1 -1 R 2 -2 R 2 -1 R 1 -2 R 2 -1 R 2 -1 R 1 -2 R 2 -1 R 2 -1 R 1 -2 R 2 -1 R
2 -1 R 1 -1 R 2 -1 R 2 -2 R 1 -1 R 2 -1 R 1 -1 R 2 -1 R 2 -2 R 1 -1 R 2 -1 R
2 -1 R 1 -1 R 2 -2 R 2 -1 R 1 -1 R 2 -1 R 2 -1 R 1 -2 R 2 -1 R 2 -1 R 1 -1 R
2 -1 R 2 -2 R 1 -1 R 2 -1 R 2 -1 R 1 -1 R 2 -2 R 2 -1 R 1 -1 R 2 -1 R 2 -2 R
1 -1 R 2 -1 R 1 -1 R 2 -1 R 2 -2 R 1 -1 R 2 -1 R 2 -2 R 1 -2 R 2 -2 R 2 -2 R
1 -2 R 2 -2 R 2 -2 R 1 -2 R 2 -2 R 2 -2 R 1 -2 R 2 -2 R 2 -2 R 1 -2 R 2 -2 R
2 -2 R 1 -2 R 2 -2 R 2 -1 R 1 -2 R 2 -2 R 2 -2 R 1 -2 R 2 -2 R 1 -2 R 2 -2 R
2 -2 R 1 -2 R 2 -2 R 2 -2 R 1 -2 R 2 -2 R 2 -2 R 1 -2 R 2 -2 R 2 -2 R 1 -2 R
2 -2 R 2 -2 R 1 -2 R 2 -2 R 2 -2 R 1 -4 R 2 -4 R 2 -4 R 1 -4 R 2 -3 R 2 -4 R
1 -4 R 2 -4 R 2 -4 R 1 -4 R 2 -4 R 1 -3 R 2 -4 R 2 -4 R 1 -4 R 2 -4 R 2 -4 R
1 -4 R 2 -3 R 2 -4 R 1 -4 R 2 -4 R 2 -4 R 1 -4 R 2 -4 R 2 -3 R 1 -4 R 2 -4 R
2 -4 R 1 -4 R 2 -4 R 2 -4 R 1 -4 R 2 -3 R 2 -4 R 1 -4 R 2 -4 R 1 -4 R 2 -4 R
2 -4 R 1 -3 R 2 -4 R 2 -4 R 1 -4 R 2 -4 R 2 -4 R 1 -4 R 2 -4 R 2 -4 R 1 -4 R
2 -4 R 2 -4 R 1 -4 R 2 -4 R 2 -5 R 1 -4 R 2 -4 R 2 -4 R 1 -4 R 2 -4 R 2 -4 R
1 -4 R 2 -4 R 2 -4 R 1 -4 R 2 -4 R 1 -4 R 2 -4 R 2 -4 R 1 -4 R 2 -4 R 2 -4 R
1 -4 R 2 -4 R 2 -4 R 1 -4 R 2 -4 R 2 -4 R 1 -4 R 2 -4 R 2 -4 R 1 -4 R 2 -4 R
2 -4 R 1 -2 R 2 0 R 2 1 R 1 1 R 2 0 R 2 1 R 1 1 R 2 1 R 2 0 R 1 1 R 2 1 R
1 0 R 2 1 R 2 1 R 1 0 R 2 1 R 2 1 R 1 0 R 2 1 R 2 1 R 1 0 R 2 1 R 2 1 R
1 0 R 2 1 R 2 1 R 1 0 R 2 1 R 2 1 R 1 0 R 2 1 R 2 1 R 1 0 R 2 1 R 2 1 R
1 1 R 2 0 R 2 1 R 1 1 R 2 0 R 1 1 R 2 1 R 2 0 R 1 1 R 2 0 R 2 1 R 1 0 R
2 0 R 2 1 R 1 0 R 2 1 R 2 0 R 1 0 R 2 1 R 2 0 R 1 0 R 2 1 R 2 0 R 1 1 R
2 0 R 2 0 R 1 1 R 2 0 R 2 1 R 1 0 R 2 0 R 2 1 R 1 0 R 2 1 R 1 0 R 2 0 R
2 1 R 1 0 R 2 1 R 2 0 R 1 0 R 2 1 R 2 0 R 1 0 R 2 1 R 2 0 R 1 1 R 2 0 R
2 0 R 1 1 R 2 0 R 2 -2 R 1 -3 R 2 -3 R 2 -3 R 1 -3 R 2 -3 R 2 -3 R 1 -3 R
2 -4 R 1 -3 R 2 -3 R 2 -3 R 1 -3 R 2 -3 R 2 -3 R 1 -3 R 2 -3 R 2 -4 R 1 -3 R
2 -3 R 2 -3 R 1 -3 R 2 -3 R 2 -3 R 1 -3 R 2 -3 R 2 -4 R 1 -3 R 2 -3 R 2 -3 R
1 -3 R 2 -3 R 2 -3 R 1 -3 R 2 -3 R 2 -4 R 1 -3 R 2 -3 R 1 -3 R 2 -3 R 2 -3 R
1 -3 R 2 -3 R 2 -2 R 1 0 R 2 0 R 2 0 R 1 0 R 2 0 R 2 0 R 1 0 R 2 0 R 2 1 R
1 0 R 2 0 R 2 0 R 1 0 R 2 0 R 2 0 R 1 0 R 2 0 R 2 0 R 1 0 R 2 0 R 2 0 R
1 0 R 2 1 R 1 0 R 2 0 R 2 0 R 1 0 R 2 0 R 2 0 R 1 0 R 2 0 R 2 0 R 1 0 R
2 0 R 2 0 R 1 0 R 2 1 R 2 0 R 1 0 R 2 0 R 2 0 R 1 0 R 2 0 R 2 1 R 1 0 R
2 1 R 2 1 R 1 1 R 2 1 R 2 0 R 1 1 R 2 1 R 1 1 R 2 0 R 2 1 R 1 1 R 2 1 R
2 1 R 1 0 R 2 1 R 2 1 R 1 1 R 2 0 R 2 1 R 1 1 R 2 1 R 2 0 R 1 1 R 2 1 R
2 1 R 1 1 R 2 0 R 2 1 R 1 1 R 2 1 R 2 0 R 1 1 R 2 1 R 1 1 R 2 0 R 2 1 R
1 1 R 2 1 R 2 1 R 1 0 R 2 1 R 2 0 R 1 -1 R 2 -1 R 2 -1 R 1 -1 R 2 -1 R
2 -1 R 1 -1 R 2 -1 R 2 -1 R 1 -1 R 2 -1 R 2 -1 R 1 -1 R 2 -1 R 2 -2 R 1 -1 R
2 -1 R 2 -1 R 1 -1 R 2 -1 R 1 -1 R 2 -1 R 2 -1 R 1 -1 R 2 -1 R 2 -1 R 1 -1 R
2 -1 R 2 -1 R 1 -1 R 2 -1 R 2 -1 R 1 -1 R 2 -1 R 2 -1 R 1 -1 R 2 -1 R 2 -2 R
1 -1 R 2 -1 R 2 -1 R 1 -1 R 2 -1 R 2 -1 R 1 -1 R 2 -1 R 2 -2 R 1 -1 R 2 -1 R
1 -1 R 2 -2 R 2 -1 R 1 -1 R 2 -1 R 2 -2 R 1 -1 R 2 -1 R 2 -1 R 1 -2 R 2 -1 R
2 -1 R 1 -1 R 2 -2 R 2 -1 R 1 -1 R 2 -1 R 2 -2 R 1 -1 R 2 -1 R 2 -1 R 1 -2 R
2 -1 R 2 -1 R 1 -1 R 2 -2 R 2 -1 R 1 -1 R 2 -1 R 1 -2 R 2 -1 R 2 -1 R 1 -1 R
2 -2 R 2 -1 R 1 -1 R 2 -1 R 2 -2 R 1 -1 R 2 0 R 2 -1 R 1 0 R 2 -1 R 2 0 R
1 -1 R 2 -1 R 2 0 R 1 -1 R 2 0 R 2 -1 R 1 -1 R 2 0 R 2 -1 R 1 0 R 2 -1 R
1 -1 R 2 0 R 2 -1 R 1 0 R 2 -1 R 2 0 R 1 -1 R 2 -1 R 2 0 R 1 -1 R 2 0 R
2 -1 R 1 -1 R 2 0 R 2 -1 R 1 0 R 2 -1 R 2 0 R 1 -1 R 2 -1 R 2 0 R 1 -1 R
2 0 R 2 -1 R 1 -1 R 2 0 R 2 -1 R 1 0 R 2 -1 R 1 -1 R 2 0 R 2 -1 R 1 0 R
2 -1 R 2 -1 R 1 0 R 2 -1 R 2 -1 R 1 0 R 2 -1 R 2 0 R 1 -1 R 2 -1 R 2 0 R
1 -1 R 2 0 R 2 -1 R 1 -1 R 2 0 R 2 -1 R 1 -1 R 2 0 R 2 -1 R 1 0 R 2 -1 R
2 -1 R 1 0 R 2 -1 R 1 0 R 2 -1 R 2 -1 R 1 0 R 2 -1 R 2 -1 R 1 0 R 2 -1 R
2 0 R 1 -1 R 2 -1 R 2 0 R 1 -1 R 2 -1 R 2 -1 R 1 -1 R 2 -2 R 2 -1 R 1 -2 R
2 -1 R 2 -1 R 1 -2 R 2 -1 R 2 -2 R 1 -1 R 2 -2 R 2 -1 R 1 -2 R 2 -1 R 1 -2 R
2 -1 R 2 -2 R 1 -1 R 2 -2 R 2 -1 R 1 -1 R 2 -2 R 2 -1 R 1 -2 R 2 -1 R 2 -2 R
1 -1 R 2 -2 R 2 -1 R 1 -2 R 2 -1 R 2 -2 R 1 -1 R 2 -2 R 2 -1 R 1 -2 R 2 -1 R
2 -1 R 1 -2 R 2 -1 R 2 -2 R 1 -1 R 2 -2 R 1 -1 R 2 -2 R 2 -2 R 1 -1 R 2 -2 R
2 -2 R 1 -1 R 2 -2 R 2 -2 R 1 -2 R 2 -1 R 2 -2 R 1 -2 R 2 -1 R 2 -2 R 1 -2 R
2 -1 R 2 -2 R 1 -2 R 2 -1 R 2 -2 R 1 -2 R 2 -2 R 2 -1 R 1 -2 R 2 -2 R 1 -1 R
2 -2 R 2 -2 R 1 -1 R 2 -2 R 2 -2 R 1 -2 R D 12149 3404 M 2 -1 R 2 -2 R
1 -2 R 2 -1 R 2 -2 R 1 -2 R 2 -1 R 2 -2 R 1 -2 R 2 -2 R 2 -1 R 1 -2 R 2 -2 R
2 -1 R 1 -1 R 2 -1 R 2 -1 R 1 -1 R 2 -1 R 2 -1 R 1 -1 R 2 -1 R 1 -1 R 2 -1 R
2 -1 R 1 0 R 2 -1 R 2 -1 R 1 -1 R 2 -1 R 2 -1 R 1 -1 R 2 -1 R 2 -1 R 1 -1 R
2 -1 R 2 -1 R 1 -1 R 2 -1 R 2 -1 R 1 -1 R 2 -1 R 2 -1 R 1 -1 R 2 -1 R 2 -1 R
1 -1 R 2 -1 R 2 -1 R 1 -1 R 2 -1 R 1 -1 R 2 -1 R 2 -1 R 1 -1 R 2 -1 R 2 -1 R
1 -1 R 2 -1 R 2 -1 R 1 -1 R 2 -1 R 2 -1 R 1 -1 R 2 0 R 2 -1 R 1 -1 R 2 -1 R
2 -1 R 1 -1 R 2 -1 R 2 -1 R 1 -1 R 2 -1 R 2 -1 R 1 -1 R 2 -1 R 2 -1 R 1 -1 R
2 -1 R 1 -1 R 2 0 R 2 -1 R 1 -1 R 2 -1 R 2 -1 R 1 -1 R 2 -1 R 2 -1 R 1 -1 R
2 -1 R 2 -1 R 1 -1 R 2 -1 R 2 -1 R 1 -1 R 2 -1 R 2 -1 R 1 0 R 2 -1 R 2 -1 R
1 -1 R 2 -1 R 2 -1 R 1 -1 R 2 -1 R 1 0 R 2 -1 R 2 -1 R 1 -1 R 2 -1 R 2 0 R
1 -1 R 2 -1 R 2 -1 R 1 0 R 2 -1 R 2 -1 R 1 -1 R 2 0 R 2 -1 R 1 -1 R 2 -1 R
2 -1 R 1 0 R 2 -1 R 2 -1 R 1 -1 R 2 0 R 2 -1 R 1 -1 R 2 -1 R 2 0 R 1 -1 R
2 -1 R 1 -1 R 2 -1 R 2 0 R 1 -1 R 2 -1 R 2 -1 R 1 0 R 2 -1 R 2 -1 R 1 -1 R
2 0 R 2 -1 R 1 -1 R 2 -1 R 2 -1 R 1 -2 R 2 -2 R 2 -2 R 1 -2 R 2 -2 R 2 -1 R
1 -2 R 2 -2 R 2 -2 R 1 -2 R 2 -2 R 2 -2 R 1 -1 R 2 -2 R 1 -2 R 2 -2 R 2 -2 R
1 -2 R 2 -2 R 2 -2 R 1 -1 R 2 -2 R 2 -2 R 1 -2 R 2 -2 R 2 -2 R 1 -2 R 2 -1 R
2 -2 R 1 -2 R 2 -2 R 2 -2 R 1 -2 R 2 -2 R 2 -2 R 1 -1 R 2 -2 R 2 -2 R 1 -2 R
2 -2 R 2 -2 R 1 -2 R 2 -1 R 1 -2 R 2 -2 R 2 -2 R 1 -2 R 2 -1 R 2 -2 R 1 -2 R
2 -1 R 2 -2 R 1 -2 R 2 -1 R 2 -2 R 1 -2 R 2 -1 R 2 -2 R 1 -2 R 2 -2 R 2 -1 R
1 -2 R 2 -2 R 2 -1 R 1 -2 R 2 -2 R 2 -1 R 1 -2 R 2 -2 R 1 -1 R 2 -2 R 2 -2 R
1 -2 R 2 -1 R 2 -2 R 1 -2 R 2 -1 R 2 -2 R 1 -2 R 2 -1 R 2 -2 R 1 -2 R 2 -1 R
2 -2 R 1 -2 R 2 -1 R 2 -2 R 1 -2 R 2 -2 R 2 -1 R 1 -2 R 2 -1 R 2 0 R 1 0 R
2 0 R 2 0 R 1 0 R 2 0 R 1 0 R 2 0 R 2 0 R 1 0 R 2 0 R 2 0 R 1 0 R 2 -1 R
2 0 R 1 0 R 2 0 R 2 0 R 1 0 R 2 0 R 2 0 R 1 0 R 2 0 R 2 0 R 1 0 R 2 0 R
2 0 R 1 0 R 2 -1 R 2 0 R 1 0 R 2 0 R 2 0 R 1 0 R 2 0 R 1 0 R 2 0 R 2 0 R
1 0 R 2 0 R 2 0 R 1 0 R 2 0 R 2 -1 R 1 0 R 2 0 R 2 0 R 1 -1 R 2 0 R 2 0 R
1 -1 R 2 0 R 2 -1 R 1 0 R 2 -1 R 2 0 R 1 0 R 2 -1 R 2 0 R 1 -1 R 2 0 R
2 -1 R 1 0 R 2 0 R 1 -1 R 2 0 R 2 -1 R 1 0 R 2 -1 R 2 0 R 1 0 R 2 -1 R 2 0 R
1 -1 R 2 0 R 2 -1 R 1 0 R 2 0 R 2 -1 R 1 0 R 2 -1 R 2 0 R 1 -1 R 2 0 R 2 0 R
1 -1 R 2 0 R 2 -1 R 1 0 R 2 -1 R 1 0 R 2 0 R 2 -2 R 1 -1 R 2 -2 R 2 -1 R
1 -2 R 2 -1 R 2 -2 R 1 -1 R 2 -2 R 2 -1 R 1 -2 R 2 -1 R 2 -2 R 1 -2 R 2 -1 R
2 -2 R 1 -1 R 2 -2 R 2 -1 R 1 -2 R 2 -1 R 2 -2 R 1 -1 R 2 -2 R 2 -1 R 1 -2 R
2 -1 R 1 -2 R 2 -2 R 2 -1 R 1 -2 R 2 -1 R 2 -2 R 1 -1 R 2 -2 R 2 -1 R 1 -2 R
2 -1 R 2 -2 R 1 -1 R 2 -2 R 2 -1 R 1 -2 R 2 -2 R 2 -1 R 1 -2 R 2 -1 R 2 -2 R
1 -1 R 2 -1 R 2 -2 R 1 -1 R 2 -2 R 2 -1 R 1 -1 R 2 -2 R 1 -1 R 2 -2 R 2 -1 R
1 -1 R 2 -2 R 2 -1 R 1 -2 R 2 -1 R 2 -1 R 1 -2 R 2 -1 R 2 -2 R 1 -1 R 2 -1 R
2 -2 R 1 -1 R 2 -1 R 2 -2 R 1 -1 R 2 -2 R 2 -1 R 1 -1 R 2 -2 R 2 -1 R 1 -2 R
2 -1 R 2 -1 R 1 -2 R 2 -1 R 1 -2 R 2 -1 R 2 -1 R 1 -2 R 2 -1 R 2 -2 R 1 -1 R
2 -1 R 2 -2 R 1 0 R 2 -1 R 2 0 R 1 -1 R 2 0 R 2 -1 R 1 0 R 2 -1 R 2 0 R
1 -1 R 2 0 R 2 -1 R 1 0 R 2 -1 R 2 0 R 1 -1 R 2 0 R 2 -1 R 1 0 R 2 -1 R
1 0 R 2 -1 R 2 0 R 1 -1 R 2 0 R 2 -1 R 1 0 R 2 -1 R 2 0 R 1 0 R 2 -1 R 2 0 R
1 -1 R 2 0 R 2 -1 R 1 0 R 2 -1 R 2 0 R 1 -1 R 2 0 R 2 -1 R 1 0 R 2 -1 R
2 0 R 1 -1 R 2 0 R 1 -1 R 2 -1 R 2 -1 R 1 -1 R 2 -1 R 2 -1 R 1 -1 R 2 -1 R
2 -1 R 1 -1 R 2 -1 R 2 -2 R 1 -1 R 2 -1 R 2 -1 R 1 -1 R 2 -1 R 2 -1 R 1 -1 R
2 -1 R 2 -1 R 1 -1 R 2 -2 R 2 -1 R 1 -1 R 2 -1 R 2 -1 R 1 -1 R 2 -1 R 1 -1 R
2 -1 R 2 -1 R 1 -1 R 2 -2 R 2 -1 R 1 -1 R 2 -1 R 2 -1 R 1 -1 R 2 -1 R 2 -1 R
1 -1 R 2 -1 R 2 -1 R 1 -2 R 2 -1 R 2 -1 R 1 -1 R 2 -1 R 2 -1 R 1 -1 R 2 -1 R
2 -2 R 1 -1 R 2 -1 R 2 -1 R 1 -1 R 2 -1 R 1 -1 R 2 -2 R 2 -1 R 1 -1 R 2 -1 R
2 -1 R 1 -1 R 2 -2 R 2 -1 R 1 -1 R 2 -1 R 2 -1 R 1 -1 R 2 -1 R 2 -2 R 1 -1 R
2 -1 R 2 -1 R 1 -1 R 2 -1 R 2 -2 R 1 -1 R 2 -1 R 2 -1 R 1 -1 R 2 -1 R 2 -1 R
1 -2 R 2 -1 R 1 -1 R 2 -1 R 2 -1 R 1 -1 R 2 -1 R 2 -2 R 1 -1 R 2 -1 R 2 -1 R
1 -1 R 2 -1 R 2 0 R 1 -1 R 2 -1 R 2 0 R 1 -1 R 2 -1 R 2 0 R 1 -1 R 2 -1 R
2 0 R 1 -1 R 2 -1 R 2 0 R 1 -1 R 2 -1 R 1 0 R 2 -1 R 2 -1 R 1 0 R 2 -1 R
2 -1 R 1 0 R 2 -1 R 2 -1 R 1 0 R 2 -1 R 2 -1 R 1 0 R 2 -1 R 2 -1 R 1 0 R
2 -1 R 2 -1 R 1 0 R 2 -1 R 2 -1 R 1 -1 R 2 0 R 2 -1 R 1 -1 R 2 0 R 2 -1 R
1 -1 R 2 0 R 1 -1 R 2 -1 R 2 0 R 1 -1 R 2 -1 R 2 -1 R 1 0 R 2 -1 R 2 -1 R
1 -1 R 2 -1 R 2 0 R 1 -1 R 2 -1 R 2 -1 R 1 -1 R 2 0 R 2 -1 R 1 -1 R 2 -1 R
2 0 R 1 -1 R 2 -1 R 2 -1 R 1 -1 R 2 0 R 2 -1 R 1 -1 R 2 -1 R 1 -1 R 2 0 R
2 -1 R 1 -1 R 2 -1 R 2 -1 R 1 0 R 2 -1 R 2 -1 R 1 -1 R 2 -1 R 2 0 R 1 -1 R
2 -1 R 2 -1 R 1 0 R 2 -1 R 2 -1 R 1 -1 R 2 -1 R 2 0 R 1 -1 R 2 -1 R 2 -1 R
1 0 R 2 -1 R 2 -1 R 1 -1 R 2 0 R 1 -1 R 2 -1 R 2 0 R 1 -1 R 2 -1 R 2 -1 R
1 0 R 2 -1 R 2 -1 R 1 -1 R 2 0 R 2 -1 R 1 -1 R 2 0 R 2 -1 R 1 -1 R 2 -1 R
2 0 R 1 -1 R 2 -1 R 2 -1 R 1 0 R 2 -1 R 2 -1 R 1 0 R 2 -1 R 1 -1 R 2 -1 R
2 0 R 1 -1 R 2 -1 R 2 -1 R 1 0 R 2 -1 R 2 -1 R 1 0 R 2 -1 R 2 -1 R 1 -1 R
2 0 R 2 -1 R 1 -1 R 2 -1 R 2 -1 R 1 0 R 2 -1 R 2 -1 R 1 -1 R 2 -1 R 2 -1 R
1 0 R 2 -1 R 2 -1 R 1 -1 R 2 -1 R 1 -1 R 2 -1 R 2 0 R 1 -1 R 2 -1 R 2 -1 R
1 -1 R 2 -1 R 2 0 R 1 -1 R 2 -1 R 2 -1 R 1 -1 R 2 -1 R 2 -1 R 1 0 R 2 -1 R
2 -1 R 1 -1 R 2 -1 R 2 -1 R D 13391 2671 M 1 0 R 2 -1 R 2 -1 R 1 -1 R 2 -1 R
2 -1 R 1 -1 R 2 0 R 1 -1 R 2 -1 R 2 -1 R 1 -1 R 2 -1 R 2 0 R 1 -1 R 2 -1 R
2 -1 R 1 0 R 2 -1 R 2 -1 R 1 -1 R 2 0 R 2 -1 R 1 -1 R 2 -1 R 2 0 R 1 -1 R
2 -1 R 2 -1 R 1 0 R 2 -1 R 2 -1 R 1 -1 R 2 0 R 2 -1 R 1 -1 R 2 -1 R 1 0 R
2 -1 R 2 -1 R 1 -1 R 2 0 R 2 -1 R 1 -1 R 2 -1 R 2 0 R 1 -1 R 2 -1 R 2 -1 R
1 0 R 2 -1 R 2 -1 R 1 -1 R 2 0 R 2 -1 R 1 -1 R 2 -1 R 2 0 R 1 -1 R 2 -1 R
2 -1 R 1 0 R 2 -1 R 2 -1 R 1 -1 R 2 -1 R 1 -1 R 2 0 R 2 -1 R 1 -1 R 2 -1 R
2 -1 R 1 -1 R 2 0 R 2 -1 R 1 -1 R 2 -1 R 2 -1 R 1 -1 R 2 0 R 2 -1 R 1 -1 R
2 -1 R 2 -1 R 1 -1 R 2 0 R 2 -1 R 1 -1 R 2 -1 R 2 -1 R 1 -1 R 2 0 R 1 -1 R
2 -1 R 2 -1 R 1 -1 R 2 -1 R 2 -1 R 1 0 R 2 -1 R 2 -1 R 1 -1 R 2 -1 R 2 -1 R
1 0 R 2 -1 R 2 -1 R 1 -1 R 2 -1 R 2 -1 R 1 0 R 2 -1 R 2 -1 R 1 -1 R 2 -1 R
2 0 R 1 -1 R 2 -1 R 2 -1 R 1 0 R 2 -1 R 1 -1 R 2 -1 R 2 -1 R 1 0 R 2 -1 R
2 -1 R 1 -1 R 2 0 R 2 -1 R 1 -1 R 2 -1 R 2 0 R 1 -1 R 2 -1 R 2 -1 R 1 -1 R
2 0 R 2 -1 R 1 -1 R 2 -1 R 2 0 R 1 -1 R 2 -1 R 2 -1 R 1 -1 R 2 0 R 2 -1 R
1 -1 R 2 -1 R 1 0 R 2 -1 R 2 -1 R 1 -1 R 2 0 R 2 -1 R 1 -1 R 2 -1 R 2 -1 R
1 0 R 2 -1 R 2 -1 R 1 -1 R 2 0 R 2 -1 R 1 -1 R 2 0 R 2 -1 R 1 -1 R 2 -1 R
2 0 R 1 -1 R 2 -1 R 2 0 R 1 -1 R 2 -1 R 2 0 R 1 -1 R 2 -1 R 1 -1 R 2 0 R
2 -1 R 1 -1 R 2 0 R 2 -1 R 1 -1 R 2 -1 R 2 0 R 1 -1 R 2 -1 R 2 0 R 1 -1 R
2 -1 R 2 -1 R 1 0 R 2 -1 R 2 -1 R 1 0 R 2 -1 R 2 -1 R 1 0 R 2 -1 R 2 -1 R
1 -1 R 2 0 R 1 -1 R 2 -1 R 2 0 R 1 -1 R 2 -1 R 2 -1 R 1 -1 R 2 -1 R 2 -1 R
1 -1 R 2 -2 R 2 -1 R 1 -1 R 2 -2 R 2 -1 R 1 -1 R 2 -1 R 2 -2 R 1 -1 R 2 -1 R
2 -2 R 1 -1 R 2 -1 R 2 -1 R 1 -2 R 2 -1 R 2 -1 R 1 -2 R 2 -1 R 1 -1 R 2 -1 R
2 -2 R 1 -1 R 2 -1 R 2 -2 R 1 -1 R 2 -1 R 2 -1 R 1 -2 R 2 -1 R 2 -1 R 1 -2 R
2 -1 R 2 -1 R 1 -1 R 2 -2 R 2 -1 R 1 -1 R 2 -2 R 2 -1 R 1 -1 R 2 -1 R 2 -2 R
1 -1 R 2 -1 R 2 -1 R 1 -2 R 2 -1 R 1 -1 R 2 -1 R 2 -2 R 1 -1 R 2 -1 R 2 -1 R
1 -1 R 2 -2 R 2 -1 R 1 -1 R 2 -1 R 2 -2 R 1 -1 R 2 -1 R 2 -1 R 1 -1 R 2 -2 R
2 -1 R 1 -1 R 2 -1 R 2 -2 R 1 -1 R 2 -1 R 2 -1 R 1 -1 R 2 -2 R 2 -1 R 1 -1 R
2 -1 R 1 -1 R 2 -2 R 2 -1 R 1 -1 R 2 -1 R 2 -2 R 1 -1 R 2 -1 R 2 -1 R 1 -1 R
2 -2 R 2 -1 R 1 -1 R 2 -1 R 2 -2 R 1 -1 R 2 -1 R 2 -1 R 1 -1 R 2 -1 R 2 -1 R
1 0 R 2 -1 R 2 0 R 1 -1 R 2 0 R 1 0 R 2 -1 R 2 0 R 1 -1 R 2 0 R 2 -1 R 1 0 R
2 -1 R 2 0 R 1 -1 R 2 0 R 2 0 R 1 -1 R 2 0 R 2 -1 R 1 0 R 2 -1 R 2 0 R
1 -1 R 2 0 R 2 -1 R 1 0 R 2 0 R 2 -1 R 1 0 R 2 -1 R 2 0 R 1 -1 R 2 0 R
1 -1 R 2 0 R 2 -1 R 1 0 R 2 0 R 2 -1 R 1 0 R 2 -1 R 2 0 R 1 -1 R 2 0 R
2 -1 R 1 0 R 2 -1 R 2 0 R 1 -1 R 2 -1 R 2 -1 R 1 -1 R 2 0 R 2 -1 R 1 -1 R
2 -1 R 2 -1 R 1 -1 R 2 -1 R 2 -1 R 1 0 R 2 -1 R 1 -1 R 2 -1 R 2 -1 R 1 -1 R
2 -1 R 2 -1 R 1 0 R 2 -1 R 2 -1 R 1 -1 R 2 -1 R 2 -1 R 1 -1 R 2 -1 R 2 0 R
1 -1 R 2 -1 R 2 -1 R 1 -1 R 2 -1 R 2 -1 R 1 -1 R 2 0 R 2 -1 R 1 -1 R 2 -1 R
2 -1 R 1 -1 R 2 -1 R 1 0 R 2 -1 R 2 -1 R 1 -1 R 2 -1 R 2 -1 R 1 -1 R 2 -1 R
2 0 R 1 -1 R 2 -1 R 2 0 R 1 -1 R 2 -1 R 2 -1 R 1 0 R 2 -1 R 2 -1 R 1 0 R
2 -1 R 2 -1 R 1 -1 R 2 0 R 2 -1 R 1 -1 R 2 -1 R 2 0 R 1 -1 R 2 -1 R 1 0 R
2 -1 R 2 -1 R 1 -1 R 2 0 R 2 -1 R 1 -1 R 2 0 R 2 -1 R 1 -1 R 2 -1 R 2 0 R
1 -1 R 2 -1 R 2 0 R 1 -1 R 2 -1 R 2 -1 R 1 0 R 2 -1 R 2 -1 R 1 0 R 2 -1 R
2 -1 R 1 -1 R 2 0 R 1 -1 R 2 -1 R 2 -1 R 1 0 R 2 -1 R 2 0 R 1 -1 R 2 0 R
2 -1 R 1 0 R 2 -1 R 2 0 R 1 -1 R 2 -1 R 2 0 R 1 -1 R 2 0 R 2 -1 R 1 0 R
2 -1 R 2 0 R 1 -1 R 2 0 R 2 -1 R 1 0 R 2 -1 R 2 -1 R 1 0 R 2 -1 R 1 0 R
2 -1 R 2 0 R 1 -1 R 2 0 R 2 -1 R 1 0 R 2 -1 R 2 0 R 1 -1 R 2 -1 R 2 0 R
1 -1 R 2 0 R 2 -1 R 1 0 R 2 -1 R 2 0 R 1 -1 R 2 0 R 2 -1 R 1 0 R 2 -1 R
2 -1 R 1 0 R 2 -1 R 2 -1 R 1 -1 R 2 0 R 1 -1 R 2 -1 R 2 -1 R 1 -1 R 2 -1 R
2 -1 R 1 -1 R 2 -1 R 2 -1 R 1 -1 R 2 -1 R 2 -1 R 1 -1 R 2 -1 R 2 -1 R 1 -1 R
2 -1 R 2 -1 R 1 -1 R 2 0 R 2 -1 R 1 -1 R 2 -1 R 2 -1 R 1 -1 R 2 -1 R 2 -1 R
1 -1 R 2 -1 R 1 -1 R 2 -1 R 2 -1 R 1 -1 R 2 -1 R 2 -1 R 1 -1 R 2 -1 R 2 -1 R
1 0 R 2 -1 R 2 -1 R 1 -1 R 2 -1 R 2 -1 R 1 -1 R 2 -1 R 2 -1 R 1 -1 R 2 -1 R
2 -1 R 1 -1 R 2 -1 R 2 -1 R 1 -1 R 2 -1 R 1 -1 R 2 -1 R 2 0 R 1 -1 R 2 -1 R
2 -1 R 1 -1 R 2 -1 R 2 -1 R 1 -1 R 2 -1 R 2 -1 R 1 -1 R 2 -1 R 2 -1 R 1 -1 R
2 -1 R 2 -1 R 1 -1 R 2 -1 R 2 -1 R 1 0 R 2 -1 R 2 -1 R 1 -1 R 2 -1 R 2 -1 R
1 -1 R 2 -1 R 1 -1 R 2 -1 R 2 -1 R 1 -1 R 2 -1 R 2 -1 R 1 -1 R 2 -1 R 2 -1 R
1 -1 R 2 0 R 2 -1 R 1 -1 R 2 -1 R 2 -1 R 1 -1 R 2 -1 R 2 -1 R 1 -1 R 2 0 R
2 -1 R 1 -1 R 2 -1 R 2 0 R 1 -1 R 2 -1 R 2 -1 R 1 0 R 2 -1 R 1 -1 R 2 -1 R
2 0 R 1 -1 R 2 -1 R 2 -1 R 1 -1 R 2 0 R 2 -1 R 1 -1 R 2 -1 R 2 0 R 1 -1 R
2 -1 R 2 -1 R 1 0 R 2 -1 R 2 -1 R 1 -1 R 2 0 R 2 -1 R 1 -1 R 2 -1 R 2 -1 R
1 0 R 2 -1 R 2 -1 R 1 -1 R 2 0 R 1 -1 R 2 -1 R 2 -1 R 1 0 R 2 -1 R 2 -1 R
1 -1 R 2 0 R 2 -1 R 1 -1 R 2 -1 R 2 0 R 1 -1 R 2 -1 R 2 0 R 1 -1 R 2 -1 R
2 -1 R 1 0 R 2 -1 R 2 -1 R 1 0 R 2 -1 R 2 -1 R 1 0 R 2 -1 R 1 -1 R 2 -1 R
2 0 R 1 -1 R 2 -1 R 2 0 R 1 -1 R 2 -1 R 2 0 R 1 -1 R 2 -1 R 2 -1 R 1 0 R
2 -1 R 2 -1 R 1 0 R 2 -1 R 2 -1 R 1 -1 R 2 0 R 2 -1 R 1 -1 R 2 0 R 2 -1 R
1 -1 R 2 0 R 2 -1 R 1 -1 R 2 -1 R 1 0 R 2 -1 R 2 -1 R 1 0 R 2 -1 R 2 -1 R
1 0 R 2 -1 R 2 -1 R 1 0 R 2 -1 R 2 -1 R 1 0 R 2 -1 R 2 -1 R 1 0 R 2 -1 R
2 -1 R 1 0 R 2 -1 R 2 -1 R 1 0 R 2 -1 R 2 -1 R 1 0 R 2 -1 R 2 -1 R 1 0 R
2 -1 R 1 -1 R 2 -1 R 2 0 R 1 -1 R 2 3055 R D L1 2551 1408 M 496 0 R 3 477 R
5 -1 R 4 0 R 4 -1 R 5 -1 R 4 0 R 5 -1 R 4 0 R 4 -1 R 5 0 R 4 -1 R 5 0 R
4 -1 R 4 0 R 5 -1 R 4 0 R 5 -1 R 4 0 R 4 -1 R 5 0 R 4 -1 R 5 0 R 4 -1 R
4 0 R 5 -1 R 4 0 R 5 -1 R 4 -1 R 4 0 R 5 0 R 4 -1 R 4 -1 R 5 0 R 4 -1 R
5 0 R 4 -1 R 4 0 R 5 -1 R 4 0 R 4 -1 R 5 0 R 4 -1 R 5 0 R 4 -1 R 4 0 R
5 -1 R 4 0 R 5 -1 R 4 0 R 4 -1 R 5 0 R 4 -1 R 5 0 R 4 -1 R 4 0 R 5 -1 R
4 0 R 5 -1 R 4 0 R 4 -1 R 5 0 R 4 0 R 5 -1 R 4 0 R 4 -1 R 5 0 R 4 -1 R 4 0 R
5 -1 R 4 0 R 5 -1 R 4 0 R 4 -1 R 5 0 R 4 -1 R 5 0 R 4 -1 R 4 0 R 5 -1 R
4 0 R 5 -1 R 4 0 R 4 -1 R 5 0 R 4 0 R 5 -1 R 4 0 R 4 -1 R 5 0 R 4 -1 R 5 0 R
4 -1 R 4 0 R 5 -1 R 4 0 R 4 -1 R 5 0 R 4 -1 R 5 0 R 4 0 R 4 -1 R 5 0 R
4 -1 R 5 0 R 4 -1 R 4 0 R 5 -1 R 4 0 R 4 -1 R 5 0 R 4 -1 R 5 0 R 4 0 R
4 -1 R 5 0 R 4 -1 R 5 0 R 4 -1 R 4 0 R 5 -1 R 4 0 R 5 0 R 4 -1 R 4 0 R
5 -1 R 4 0 R 5 -1 R 4 0 R 4 -1 R 5 0 R 4 -1 R 5 0 R 4 0 R 4 -1 R 5 0 R
4 -1 R 4 0 R 5 -1 R 4 0 R 5 0 R 4 -1 R 4 0 R 5 -1 R 4 0 R 5 -1 R 4 0 R 4 0 R
5 -1 R 4 0 R 5 -1 R 4 0 R 4 0 R 5 -1 R 4 0 R 5 -1 R 4 0 R 4 0 R 5 -1 R 4 0 R
5 -1 R 4 0 R 4 0 R 5 -1 R 4 0 R 4 -1 R 5 0 R 4 0 R 5 -1 R 4 0 R 4 -1 R 5 0 R
4 0 R 4 -1 R 5 0 R 4 -1 R 5 0 R 4 0 R 4 -1 R 5 0 R 4 0 R 5 -1 R 4 0 R 4 -1 R
5 0 R 4 0 R 5 -1 R 4 0 R 4 -1 R 5 0 R 4 0 R 5 -1 R 4 0 R 4 -1 R 5 0 R 4 0 R
5 -1 R 4 0 R 4 0 R 5 -1 R 4 0 R 4 -1 R 5 0 R 4 0 R 5 -1 R 4 0 R 4 0 R 5 -1 R
4 0 R 5 -1 R 4 0 R 4 0 R 5 -1 R 4 0 R 5 0 R 4 -1 R 4 0 R 5 -1 R 4 0 R 5 0 R
4 -1 R 4 0 R 5 0 R 4 -1 R 5 0 R 4 0 R 4 -1 R 5 0 R 4 -1 R 4 0 R 5 0 R 4 0 R
5 -1 R 4 0 R 4 -1 R 5 0 R 4 0 R 5 -1 R 4 0 R 4 0 R 5 -1 R 4 0 R 4 0 R 5 -1 R
4 0 R 5 0 R 4 -1 R 4 0 R 5 0 R 4 -1 R 5 0 R 4 0 R 5 -1 R 4 0 R 4 0 R 5 -1 R
4 0 R 4 0 R 5 -1 R 4 0 R 5 0 R 4 -1 R 4 0 R 5 0 R 4 -1 R 5 0 R 4 0 R 4 -1 R
5 0 R 4 0 R 4 -1 R 5 0 R 4 0 R 5 -1 R 4 0 R 4 0 R 5 -1 R 4 0 R 5 -1 R 4 0 R
4 0 R 5 -1 R 4 0 R 5 0 R 4 -1 R 4 0 R 5 0 R 4 -1 R 5 0 R 4 0 R 4 -1 R 5 0 R
4 0 R 5 -1 R 4 0 R 4 0 R 5 -1 R 4 0 R 4 0 R 5 -1 R 4 0 R 5 0 R 4 -1 R 4 0 R
5 0 R 4 -1 R 4 0 R 5 0 R 4 -1 R 5 0 R 4 0 R 4 -1 R 5 0 R 4 0 R 5 0 R 4 -1 R
5 0 R 4 0 R 4 -1 R 5 0 R 4 0 R 4 -1 R 5 0 R 4 0 R 5 -1 R 4 0 R 4 0 R 5 0 R
4 -1 R 5 0 R 4 0 R 4 -1 R 5 0 R 4 0 R 4 -1 R 5 0 R 4 0 R 5 0 R 4 -1 R 4 0 R
5 0 R 4 -1 R 5 0 R 4 0 R 4 0 R 5 -1 R 4 0 R 5 0 R 4 -1 R 4 0 R 5 0 R 4 0 R
5 -1 R 4 0 R 4 0 R 5 -1 R 4 0 R 5 0 R 4 0 R 4 -1 R 5 0 R 4 0 R 4 0 R 5 -1 R
4 0 R 5 0 R 4 -1 R 4 0 R 5 0 R 4 0 R 5 -1 R 4 0 R 4 0 R 5 0 R 4 -1 R 4 0 R
5 0 R 4 -1 R 5 0 R 4 0 R 5 0 R 4 -1 R 4 0 R 5 0 R 4 -1 R 5 0 R 4 0 R 4 -1 R
5 0 R 4 0 R 4 0 R 5 -1 R 4 0 R 5 0 R 4 -1 R 4 0 R 5 0 R 4 0 R 5 -1 R 4 0 R
4 0 R 5 0 R 4 -1 R 4 0 R 5 0 R 4 -1 R 5 0 R 4 0 R 4 0 R 5 -1 R 4 0 R 5 0 R
4 -1 R 4 0 R 5 0 R 4 0 R 5 -1 R 4 0 R 4 0 R 5 0 R 4 -1 R 5 0 R 4 0 R 4 0 R
5 -1 R 4 0 R 5 0 R 4 -1 R 4 0 R 5 0 R 4 0 R 4 -1 R 5 0 R 4 0 R 5 0 R 4 -1 R
4 0 R 5 0 R 4 0 R 4 -1 R 5 0 R 4 0 R 5 0 R 4 -1 R 5 0 R 4 0 R 4 0 R 5 -1 R
4 0 R 5 0 R 4 0 R 4 -1 R 5 0 R 4 0 R 5 0 R 4 0 R 4 -1 R 5 0 R 4 0 R 4 0 R
5 -1 R 4 0 R 5 0 R 4 0 R 4 0 R 5 -1 R 4 0 R 4 0 R 5 0 R 4 -1 R 5 0 R 4 0 R
4 0 R 5 0 R 4 -1 R 5 0 R 4 0 R 4 0 R 5 -1 R 4 0 R 5 0 R 4 0 R 4 -1 R 5 0 R
4 0 R 5 0 R 4 0 R 4 -1 R 5 0 R 4 0 R 5 0 R 4 -1 R 4 0 R 5 0 R 4 0 R 4 -1 R
5 0 R 4 0 R 5 0 R 4 -1 R 4 0 R 5 0 R 4 -1 R 5 0 R 4 0 R 4 0 R 5 -1 R 4 0 R
5 0 R 4 0 R 4 -1 R 5 0 R 4 0 R 5 0 R 4 -1 R 4 0 R 5 0 R 4 0 R 5 -1 R 4 0 R
4 0 R 5 0 R 4 -1 R 4 0 R 5 0 R 4 0 R 5 -1 R 4 0 R 4 0 R 5 0 R 4 0 R 5 -1 R
4 0 R 4 0 R 5 0 R 4 -1 R 4 0 R 5 0 R 4 0 R 5 -1 R 4 0 R 4 0 R 5 0 R 4 0 R
5 -1 R 4 0 R 4 0 R 5 0 R 4 -1 R 5 0 R 4 0 R 4 0 R 5 0 R 4 -1 R 5 0 R 4 0 R
4 0 R 5 -1 R 4 0 R 5 0 R 4 0 R 4 0 R 5 -1 R 4 0 R 4 0 R 5 0 R 4 -1 R 5 0 R
4 0 R 4 0 R 5 0 R 4 -1 R 5 0 R 4 0 R 4 0 R 5 0 R 4 -1 R 5 0 R 4 0 R 4 0 R
5 -1 R 4 0 R 5 0 R 4 0 R 4 0 R 5 -1 R 4 0 R 5 0 R 4 0 R 4 0 R 5 -1 R 4 0 R
4 0 R 5 0 R 4 0 R 5 -1 R 4 0 R 4 0 R 5 0 R 4 0 R 4 -1 R 5 0 R 4 0 R 5 0 R
4 0 R 4 -1 R 5 0 R 4 0 R 5 -2 R 4 2 R 4 1 R 5 0 R 4 -6 R 5 -6 R 4 0 R 4 5 R
5 4 R 4 -2 R 5 -4 R 4 1 R 4 0 R 5 1 R 4 -2 R 5 -1 R 4 -3 R 4 -2 R 5 1 R
4 -4 R 4 -3 R 5 -2 R 4 7 R 5 2 R 4 5 R 4 -7 R 5 3 R 4 0 R 5 9 R 4 -3 R 4 5 R
5 53 R 4 63 R 5 18 R 4 -49 R 4 -62 R 5 -24 R 4 -8 R 5 -2 R 4 1 R 4 3 R 5 6 R
4 -6 R 5 -7 R 4 -4 R 4 3 R 5 3 R 4 2 R 4 1 R 5 -2 R 4 -3 R 5 -2 R 4 4 R
4 2 R 5 2 R 4 -7 R 5 -7 R 4 -5 R 4 0 R 5 5 R 4 8 R 4 7 R 5 1 R 4 3 R 5 -7 R
4 -6 R 4 -8 R 5 3 R 4 4 R 5 4 R 4 0 R 4 0 R 5 -2 R 4 -1 R 5 8 R 4 1 R 4 -1 R
5 -9 R 4 -2 R 5 -1 R 4 4 R 4 8 R 5 9 R 4 -4 R 5 -9 R 4 -9 R 4 0 R 5 3 R
4 1 R 4 -2 R 5 -3 R 4 -1 R 5 3 R 4 3 R 4 -1 R 5 -3 R 4 -1 R 5 -1 R 4 4 R
4 -2 R 5 -3 R 4 -7 R 5 -1 R 4 1 R 4 6 R 5 -2 R 4 0 R 5 -4 R 4 2 R 4 1 R
5 -1 R 4 4 R 5 -3 R 4 4 R 4 -5 R 5 3 R 4 -6 R 4 -1 R 5 -1 R 4 2 R 5 6 R
4 3 R 4 0 R 5 1 R 4 -8 R 4 2 R 5 -2 R 4 6 R 5 -1 R 4 -1 R 4 -1 R 5 2 R 4 3 R
5 1 R 4 -3 R 4 -8 R 5 -6 R 4 0 R 5 4 R 4 0 R 4 3 R 5 2 R D 6335 1651 M 4 8 R
5 -1 R 4 3 R 4 -2 R 5 1 R 4 -2 R 5 0 R 4 0 R 4 -2 R 5 -2 R 4 0 R 4 -1 R
5 -3 R 4 -6 R 5 -2 R 4 2 R 4 9 R 5 2 R 4 4 R 5 2 R 4 9 R 4 2 R 5 -3 R 4 -5 R
5 -4 R 4 -3 R 4 2 R 5 6 R 4 5 R 5 0 R 4 6 R 4 903 R 5 1259 R 4 872 R
5 -694 R 4 -1260 R 4 -882 R 5 -209 R 4 -2 R 4 -3 R 5 -5 R 4 0 R 5 8 R 4 4 R
4 2 R 5 -10 R 4 -12 R 5 -1 R 4 9 R 4 15 R 5 5 R 4 -2 R 4 -11 R 5 -11 R
4 -7 R 5 3 R 4 3 R 4 3 R 5 4 R 4 5 R 5 -1 R 4 -8 R 5 -9 R 4 -1 R 4 3 R 5 5 R
4 6 R 4 4 R 5 -3 R 4 -3 R 5 -2 R 4 3 R 4 -5 R 5 -3 R 4 -7 R 5 5 R 4 7 R
4 7 R 5 5 R 4 -5 R 4 -1 R 5 -8 R 4 2 R 5 -5 R 4 1 R 4 1 R 5 8 R 4 3 R 5 2 R
4 -6 R 4 -1 R 5 -2 R 4 0 R 5 -2 R 4 -3 R 4 3 R 5 2 R 4 1 R 5 -6 R 4 -3 R
4 -2 R 5 4 R 4 -4 R 5 1 R 4 0 R 4 5 R 5 0 R 4 -2 R 4 -2 R 5 0 R 4 -2 R 5 0 R
4 -4 R 4 -1 R 5 1 R 4 1 R 4 3 R 5 1 R 4 7 R 5 0 R 4 -3 R 4 -5 R 5 0 R 4 3 R
5 7 R 4 5 R 5 2 R 4 -7 R 4 -1 R 5 0 R 4 0 R 5 -1 R 4 6 R 4 38 R 5 -4 R
4 -5 R 4 -37 R 5 3 R 4 -4 R 5 3 R 4 15 R 4 36 R 5 19 R 4 -4 R 4 -25 R 5 -9 R
4 -8 R 5 0 R 4 5 R 4 208 R 5 228 R 4 183 R 5 -80 R 4 -150 R 4 -178 R
5 -123 R 4 -70 R 5 -9 R 4 5 R 4 14 R 5 10 R 4 -4 R 5 -11 R 4 -11 R 4 -4 R
5 7 R 4 17 R 5 18 R 4 -18 R 4 -29 R 5 -21 R 4 9 R 4 7 R 5 15 R 4 13 R 5 1 R
4 -18 R 4 -24 R 5 -8 R 4 0 R 5 11 R 4 11 R 4 10 R 5 8 R 4 -3 R 4 -13 R
5 -17 R 4 -5 R 5 6 R 4 -2 R 5 -4 R 4 -2 R 4 3 R 5 6 R 4 -3 R 5 -4 R 4 -10 R
4 -5 R 5 -5 R 4 -3 R 4 -2 R 5 -1 R 4 4 R 5 5 R 4 1 R 4 -2 R 5 -4 R 4 -1 R
5 -1 R 4 0 R 4 -3 R 5 -5 R 4 -5 R 4 -3 R 5 0 R 4 3 R 5 4 R 4 2 R 4 -4 R
5 -1 R 4 -3 R 5 4 R 4 -5 R 4 2 R 5 -3 R 4 0 R 5 0 R 4 0 R 4 4 R 5 1 R 4 1 R
5 -2 R 4 1 R 4 -1 R 5 -1 R 4 -6 R 5 0 R 4 -5 R 4 -1 R 5 1 R 4 2 R 4 0 R
5 -4 R 4 11 R 5 11 R 4 11 R 4 -7 R 5 -4 R 4 -9 R 5 -2 R 4 9 R 4 17 R 5 1 R
4 -17 R 5 -10 R 4 9 R 4 13 R 5 126 R 4 -5 R 5 -9 R 4 -133 R 4 -8 R 5 -6 R
4 -1 R 5 -1 R 4 2 R 4 1 R 5 11 R 4 11 R 4 5 R 5 -10 R 4 -8 R 5 -1 R 4 4 R
4 10 R 5 11 R 4 0 R 4 -14 R 5 -10 R 4 24 R 5 65 R 4 52 R 4 12 R 5 -42 R
4 -42 R 5 -39 R 4 -19 R 4 4 R 5 40 R 4 47 R 5 13 R 4 -22 R 4 -29 R 5 -18 R
4 -13 R 5 -10 R 4 -2 R 4 2 R 5 5 R 4 19 R 5 33 R 4 13 R 4 -3 R 5 459 R
4 2285 R 4 2193 R 5 1136 R 4 -2265 R 5 -2180 R 4 -1635 R 4 -46 R 5 -33 R
4 15 R 5 25 R 4 4 R 4 23 R 5 13 R 4 21 R 5 -40 R 4 -44 R 4 -32 R 5 -2 R
4 16 R 5 9 R 4 11 R 4 15 R 5 28 R 4 228 R 5 646 R 4 681 R 4 224 R 5 -671 R
4 -722 R 4 -459 R 5 4 R 4 7 R 5 6 R 4 6 R 4 0 R 5 -9 R 4 -16 R 5 -10 R
4 -4 R 4 3 R 5 -2 R 4 4 R 4 -2 R 5 1 R 4 -1 R 5 4 R 4 6 R 4 4 R 5 -3 R
4 -8 R 5 -5 R 4 -2 R 4 -3 R 5 -5 R 4 -3 R 5 2 R 4 4 R 4 4 R 5 7 R 4 11 R
5 4 R 4 3 R 4 23 R 5 35 R 4 32 R 5 -4 R 4 -31 R 4 -29 R 5 -27 R 4 -5 R
4 -7 R 5 -1 R 4 -7 R 5 -4 R 4 0 R 4 2 R 5 4 R 4 1 R 5 11 R 4 -3 R 4 -5 R
5 -11 R 4 2 R 5 -2 R 4 -2 R 4 2 R 5 3 R 4 1 R 5 0 R 4 -1 R 4 3 R 5 1 R 4 4 R
5 0 R 4 -4 R 4 2 R 5 22 R 4 3 R 4 0 R 5 -22 R 4 -4 R 5 -7 R 4 26 R 4 4 R
5 3 R 4 -15 R 4 -4 R 5 0 R 4 -13 R 5 2 R 4 -2 R 4 -1 R 5 0 R 4 0 R 5 0 R
4 0 R 4 0 R 5 1 R 4 -2 R 5 5 R 4 -1 R 4 1 R 5 -5 R 4 1 R 5 7 R 4 8 R 4 -1 R
5 -6 R 4 -4 R 5 0 R 4 -1 R 4 -4 R 5 1 R 4 0 R 4 1 R 5 2 R 4 1 R 5 -1 R
4 -2 R 4 2 R 5 0 R 4 0 R 5 -3 R 4 0 R 4 1 R 5 0 R 4 0 R 5 0 R 4 0 R 4 0 R
5 0 R 4 4 R 5 1 R 4 0 R 4 2 R 5 6 R 4 11 R 5 -2 R 4 -1 R 4 -5 R 5 -3 R
4 -1 R 4 -4 R 5 -1 R 4 -5 R 5 11 R 4 0 R 4 0 R 5 -11 R 4 0 R 5 1 R 4 0 R
4 0 R 5 0 R 4 0 R 4 1 R 5 0 R 4 0 R 5 3 R 4 6 R 4 1 R 5 -4 R 4 -7 R 5 0 R
4 -1 R 4 0 R 5 8 R 4 0 R 5 2 R 4 0 R 4 0 R 5 -2 R 4 -7 R 5 0 R 4 0 R 4 0 R
5 0 R 4 0 R 5 0 R 4 0 R 4 8 R 5 2 R 4 128 R 4 -8 R 5 -1 R 4 -123 R 5 1 R
4 0 R 4 -6 R 5 0 R 4 0 R 5 0 R 4 0 R 4 188 R 5 0 R 4 1 R 5 -184 R 4 0 R
4 0 R 5 -4 R 4 7 R 5 0 R 4 0 R 4 -6 R 5 1 R 4 -1 R 5 2 R 4 95 R 4 0 R 5 1 R
4 -96 R 4 0 R 5 -2 R 4 0 R 5 4 R 4 0 R 4 1 R 5 -5 R 4 0 R 5 0 R 4 3 R 4 4 R
5 5 R 4 -3 R 4 -2 R 5 -5 R 4 4 R 5 2 R 4 7 R 4 6 R 5 4 R 4 -6 R 5 -9 R
4 17 R 5 2 R 4 3 R 4 -22 R 5 -3 R 4 -4 R 4 -1 R 5 2 R 4 1 R 5 0 R 4 0 R
4 1 R 5 5 R 4 -2 R 4 -2 R 5 -4 R 4 -1 R 5 0 R 4 0 R 4 0 R 5 0 R 4 0 R 5 0 R
4 1 R 4 1 R 5 0 R 4 0 R 5 15 R 4 5 R 4 -1 R 5 -15 R 4 -1 R 5 0 R 4 0 R 4 0 R
5 4 R 4 0 R 5 -3 R 4 4 R 4 8 R 5 -1 R 4 -6 R 4 -4 R 5 0 R 4 -3 R 5 -3 R
4 0 R 4 0 R 5 2 R 4 1 R 5 0 R 4 -3 R 4 10 R 5 4 R 4 0 R 4 -10 R 5 -4 R 4 0 R
5 0 R 4 0 R 4 0 R 5 2 R 4 0 R 5 0 R 4 2 R 5 0 R 4 0 R 4 -4 R 5 0 R 4 0 R
4 2 R 5 3 R 4 0 R 5 -1 R 4 -2 R 4 0 R 5 0 R 4 -1 R 5 0 R 4 1 R 4 0 R 5 0 R
4 -1 R 4 0 R 5 0 R 4 0 R 5 0 R 4 0 R 4 0 R 5 0 R 4 0 R 5 0 R 4 1 R 4 0 R
5 0 R 4 0 R 5 1 R 4 0 R 4 1 R 5 -1 R 4 0 R 5 -1 R 4 41 R 4 0 R 5 34 R
4 -36 R 5 1 R 4 -34 R 4 -3 R 5 -1 R 4 0 R 4 -1 R 5 0 R 4 3 R 5 0 R 4 33 R
4 -3 R 5 0 R 4 -33 R 5 3 R 4 0 R 4 1 R 5 -2 R 4 63 R 4 0 R 5 -1 R 4 -53 R
5 0 R 4 0 R 5 0 R 4 0 R 4 9 R 5 3 R 4 0 R 5 -10 R 4 -12 R 4 2 R 5 0 R 4 0 R
4 -1 R 5 609 R 4 5 R 5 1 R 4 -608 R 4 -5 R 5 0 R 4 4 R 4 -1 R 5 2 R 4 -5 R
5 3 R 4 -2 R 4 7 R 5 -2 R 4 7 R 5 -5 R 4 7 R 4 -7 R 5 -1 R 4 -7 R 5 0 R
4 -1 R 4 2 R 5 3 R 4 0 R 5 -2 R 4 1 R 4 13 R 5 1 R 4 7 R 5 -13 R 4 3 R
4 -11 R 5 8 R 4 -3 R 4 3 R 5 -8 R 4 5 R 5 -1 R 4 1 R 4 -5 R 5 0 R 4 4 R
5 0 R 4 -1 R 4 0 R 5 0 R 4 5 R 4 -1 R 5 64 R 4 11 R 5 -4 R 4 -31 R D
9628 1659 M 5 -10 R 4 8 R 4 -34 R 5 -2 R 4 -8 R 5 1 R 4 2 R 4 7 R 5 4 R
4 -4 R 4 0 R 5 24 R 4 0 R 5 13 R 4 -28 R 4 0 R 5 112 R 4 0 R 5 3 R 4 -121 R
4 6 R 5 -1 R 4 10 R 4 -2 R 5 -2 R 4 -18 R 5 2 R 4 13 R 4 3 R 5 -8 R 4 -11 R
5 3 R 4 5 R 4 -2 R 5 214 R 4 25 R 5 0 R 4 -220 R 4 -27 R 5 3 R 4 -1 R 5 -2 R
4 -1 R 4 0 R 5 66 R 4 -1 R 5 0 R 4 -66 R 4 0 R 5 0 R 4 3 R 4 0 R 5 4 R 4 4 R
5 0 R 4 -3 R 4 -7 R 5 3 R 4 0 R 5 0 R 4 -2 R 4 0 R 5 9 R 4 0 R 5 1 R 4 -10 R
4 0 R 5 0 R 4 68 R 5 0 R 4 0 R 4 -67 R 5 1 R 4 0 R 5 1 R 4 -1 R 4 0 R 5 1 R
4 -1 R 4 8 R 5 0 R 4 0 R 5 4 R 4 2 R 4 0 R 5 -1 R 4 5 R 4 592 R 5 113 R
4 119 R 5 -580 R 4 -116 R 4 -4 R 5 -12 R 4 -4 R 5 -113 R 4 0 R 4 -2 R 5 -7 R
4 0 R 5 2 R 4 5 R 4 6 R 5 -1 R 4 -6 R 5 3 R 4 0 R 4 1 R 5 -9 R 4 0 R 5 21 R
4 0 R 4 0 R 5 -21 R 4 2 R 4 10 R 5 4 R 4 12 R 5 -9 R 4 -3 R 4 -13 R 5 4 R
4 0 R 5 122 R 4 -6 R 4 0 R 5 -114 R 4 17 R 5 1265 R 4 -8 R 4 -17 R 5 -1260 R
4 0 R 5 0 R 4 -2 R 4 0 R 5 1 R 4 0 R 5 0 R 4 2 R 4 929 R 5 -1 R 4 -2 R
4 -927 R 5 0 R 4 0 R 5 0 R 4 0 R 4 1 R 5 0 R 4 0 R 5 0 R 4 0 R 4 3 R 5 30 R
4 0 R 4 -3 R 5 -28 R 4 0 R 5 0 R 4 0 R 4 0 R 5 1 R 4 0 R 5 1 R 4 10 R 4 0 R
5 0 R 4 -10 R 5 8 R 4 0 R 4 1 R 5 -8 R 4 0 R 5 0 R 4 13 R 4 8 R 5 0 R
4 -10 R 5 -8 R 4 0 R 4 -1 R 5 856 R 4 0 R 4 1 R 5 -856 R 4 2 R 5 0 R 4 0 R
4 -1 R 5 0 R 4 0 R 5 4 R 4 8 R 4 0 R 5 -2 R 4 -8 R 5 2 R 4 0 R 4 0 R 5 -1 R
4 22 R 5 0 R 4 37 R 4 -19 R 5 488 R 4 -2 R 5 -2 R 4 -488 R 4 -32 R 5 3 R
4 -1 R 4 0 R 5 -2 R 4 12 R 5 71 R 4 4 R 4 -5 R 5 -60 R 4 -3 R 5 -3 R 4 -1 R
4 10 R 5 -3 R 4 -1 R 4 0 R 5 13 R 4 22 R 5 -9 R 4 -13 R 4 -29 R 5 1 R 4 5 R
5 0 R 4 105 R 4 -5 R 5 13 R 4 -104 R 5 6 R 4 -10 R 4 3 R 5 3 R 4 -1 R 5 11 R
4 -5 R 4 8 R 5 -13 R 4 1 R 4 1 R 5 3 R 4 1 R 5 10 R 4 61 R 4 -1 R 5 -10 R
4 -55 R 5 -2 R 4 -7 R 4 24 R 5 15 R 4 11 R 5 -32 R 4 -14 R 4 -5 R 5 1 R
4 1 R 5 32 R 4 8 R 4 10 R 5 -6 R 4 -10 R 5 -10 R 4 -31 R 4 1 R 5 6 R 4 7 R
4 3 R 5 -5 R 4 -4 R 5 6 R 4 1 R 4 2 R 5 0 R 4 -1 R 5 4 R 4 -8 R 4 0 R 5 -7 R
4 15 R 4 1 R 5 8 R 4 -15 R 5 8 R 4 7 R 4 17 R 5 17 R 4 -10 R 5 -16 R 4 -11 R
4 -5 R 5 65 R 4 -12 R 5 0 R 4 -61 R 4 904 R 5 21 R 4 3 R 5 -710 R 4 455 R
4 6 R 5 -196 R 4 -462 R 5 -9 R 4 0 R 4 -5 R 5 19 R 4 0 R 4 -6 R 5 -18 R
4 0 R 5 1 R 4 0 R 4 1 R 5 10 R 4 18 R 5 267 R 4 -5 R 4 11 R 5 -266 R 4 0 R
5 -28 R 4 3 R 4 -4 R 5 20 R 4 -2 R 5 0 R 4 -12 R 4 1 R 5 1 R 4 -7 R 5 27 R
4 2 R 4 0 R 5 -27 R 4 0 R 4 8 R 5 15 R 4 -1 R 5 -6 R 4 32 R 4 19 R 5 1 R
4 -25 R 5 -14 R 4 9 R 4 -1 R 5 16 R 4 24 R 4 -15 R 5 7 R 4 -25 R 5 -1 R
4 -24 R 4 -7 R 5 -2 R 4 0 R 5 9 R 4 0 R 5 1 R 4 -8 R 4 0 R 5 1 R 4 11 R
4 1 R 5 0 R 4 -10 R 5 0 R 4 1 R 4 0 R 5 1 R 4 0 R 4 3 R 5 1 R 4 19 R 5 -2 R
4 6 R 4 -10 R 5 2 R 4 -5 R 5 7 R 4 0 R 4 1 R 5 -3 R 4 12 R 5 -1 R 4 -9 R
4 -12 R 5 1 R 4 0 R 5 1 R 4 0 R 4 1 R 5 130 R 4 1 R 5 0 R 4 -129 R 4 1 R
5 0 R 4 1 R 4 1 R 5 0 R 4 1 R 5 0 R 4 1 R 4 0 R 5 1 R 4 1 R 5 56 R 4 0 R
4 1 R 5 -43 R 4 1 R 4 0 R 5 -11 R 4 1 R 5 0 R 4 1 R 4 0 R 5 1 R 4 4 R
5 122 R 4 1 R 5 255 R 4 -121 R 4 72 R 5 -258 R 4 1 R 4 -70 R 5 0 R 4 94 R
5 27 R 4 0 R 4 5 R 5 -25 R 4 0 R 5 -96 R 4 230 R 4 1 R 5 292 R 4 -229 R
4 213 R 5 -288 R 4 76 R 5 -212 R 4 -2 R 4 -74 R 5 29 R 4 1 R 5 1 R 4 -27 R
4 1 R 5 0 R 4 0 R 5 1 R 4 0 R 4 0 R 5 1 R 4 1 R 5 0 R 4 1 R 4 1 R 5 1 R
4 0 R 5 1 R 4 1 R 4 0 R 5 21 R 4 1 R 4 14 R 5 -18 R 4 1 R 5 17 R 4 151 R
4 9 R 5 467 R 4 -124 R 5 -8 R 4 -494 R 4 -26 R 5 0 R 4 1 R 4 1 R 5 10 R
4 1 R 5 -1 R 4 -8 R 5 1 R 4 1 R 4 0 R 5 1 R 4 1 R 5 1 R 4 1 R 4 0 R 5 1 R
4 1 R 4 10 R 5 3752 R 4 8 R 5 0 R 4 -3761 R 4 8 R 5 -3 R 4 1 R 4 -8 R 5 1 R
4 14 R 5 0 R 4 1 R 4 -12 R 5 1 R 4 1 R 5 32 R 4 1 R 4 1 R 5 -31 R 4 1 R
5 1 R 4 1 R 4 743 R 5 2 R 4 2 R 5 -744 R 4 1 R 4 1 R 5 0 R 4 2 R 5 1 R 4 1 R
4 0 R 5 1 R 4 1 R 4 149 R 5 1 R 4 2 R 5 -149 R 4 1 R 4 1 R 5 1 R 4 1 R 5 0 R
4 331 R 4 1 R 5 2 R 4 -323 R 4 1 R 5 1 R 4 -2 R 5 1 R 4 1 R 5 -3 R 4 0 R
4 1 R 5 14 R 4 3 R 5 39 R 4 -10 R 4 -1 R 5 -32 R 4 -2 R 4 1 R 5 -3 R 4 1 R
5 14 R 4 8 R 4 1 R 5 -13 R 4 11 R 5 3 R 4 1 R 4 -15 R 5 0 R 4 1 R 4 24 R
5 1 R 4 7 R 5 -19 R 4 28 R 4 -5 R 5 33 R 4 -23 R 5 272 R 4 -27 R 4 11 R
5 -272 R 4 -7 R 5 -10 R 4 1 R 4 1 R 5 1 R 4 1 R 5 1 R 4 1 R 4 1 R 5 30 R
4 1 R 5 16 R 4 124 R 4 8 R 5 -13 R 4 -145 R 4 76 R 5 1 R 4 -4 R 5 -82 R
4 8 R 4 5 R 5 1 R 4 -6 R 5 14 R 4 50 R 4 2 R 5 -16 R 4 -35 R 5 1 R 4 6 R
4 8 R 5 3 R 4 9 R 5 -17 R 4 21 R 4 -12 R 5 21 R 4 932 R 5 52 R 4 -14 R
4 -961 R 5 -34 R 4 0 R 4 8 R 5 15 R 4 11 R 5 30 R 4 42 R 4 17 R 5 -31 R
4 -54 R 5 23 R 4 21 R 2 284 R 9 7 R 8 -2 R 8 -6 R 8 -1 R 9 5 R 8 0 R 8 -5 R
9 -5 R 8 -3 R 8 -1 R 8 2 R 9 0 R 8 0 R 8 1 R 9 -9 R 8 -19 R 8 -7 R 8 -1 R
9 -13 R 8 -4 R 8 267 R 8 535 R 9 147 R 8 -403 R 8 78 R 9 -322 R 8 -301 R
8 5 R 8 -143 R 9 -29 R 8 2 R 8 -29 R 8 40 R 9 156 R 8 684 R 8 473 R 9 -472 R
8 -246 R 8 -195 R 8 -150 R 9 76 R 8 -131 R 8 -20 R 8 189 R 9 -11 R 8 -268 R
8 235 R 9 419 R 8 -184 R 8 -276 R 8 -50 R 9 124 R 8 -125 R 8 -107 R 8 551 R
9 519 R 8 -678 R 8 -432 R 9 -44 R 8 94 R 8 188 R 8 -50 R 9 120 R 8 313 R
8 -150 R 9 -361 R 8 -114 R 8 -11 R 8 -27 R 9 115 R 8 111 R 8 -107 R 8 133 R
9 208 R 8 -170 R 8 -246 R 9 -26 R 8 -18 R 8 -6 R 8 33 R 9 67 R 8 60 R
8 -17 R 8 43 R 9 49 R 8 -92 R 8 -80 R 9 -24 R 8 -4 R 8 18 R 8 38 R 9 14 R
8 40 R 8 91 R 8 3 R 9 123 R 8 151 R 8 -127 R 9 71 R 8 274 R D 13308 2844 M
8 -169 R 8 -201 R 9 236 R 8 298 R 8 -142 R 8 -456 R 9 -72 R 8 159 R 8 -134 R
9 -158 R 8 -28 R 8 -12 R 8 6 R 9 12 R 8 4 R 8 -7 R 9 258 R 8 1359 R 8 1068 R
8 -892 R 9 -1133 R 8 -298 R 8 -70 R 8 -150 R 9 -99 R 8 31 R 8 -31 R 9 -34 R
8 228 R 8 285 R 8 -203 R 9 -275 R 8 -16 R 8 876 R 8 890 R 9 -917 R 8 -864 R
8 156 R 9 336 R 8 -13 R 8 -337 R 8 333 R 9 945 R 8 -76 R 8 -943 R 8 -423 R
9 19 R 8 483 R 8 1164 R 9 285 R 8 -608 R 8 374 R 8 -11 R 9 -997 R 8 -431 R
8 -138 R 8 -139 R 9 -9 R 8 52 R 8 130 R 9 32 R 8 1002 R 8 1233 R 8 -937 R
9 -857 R 8 1 R 8 -395 R 9 -126 R 8 136 R 8 -114 R 8 -68 R 9 225 R 8 160 R
8 -111 R 8 -151 R 9 469 R 8 585 R 8 -632 R 9 -614 R 8 202 R 8 254 R 8 -187 R
9 -262 R 8 497 R 8 798 R 8 -328 R 9 -748 R 8 -231 R 8 30 R 9 286 R 8 381 R
8 -38 R 8 -263 R 9 853 R 8 974 R 8 -939 R 8 -369 R 9 782 R 8 -198 R 8 -663 R
9 218 R 8 1052 R 8 450 R 8 -1437 R 9 -651 R 8 672 R 8 -108 R 8 -747 R
9 -344 R 8 0 R 8 -1 R 9 -1 R 8 11 R 8 79 R 8 61 R 9 274 R 8 3671 R 8 3475 R
9 -2661 R 8 -2596 R 8 -1079 R 8 -581 R 9 -87 R 8 -396 R 8 -51 R 8 95 R
9 -107 R 8 -60 R 8 705 R 9 757 R 8 -668 R 8 -745 R 8 -88 R 9 2134 R 8 2463 R
8 -2105 R 8 -2340 R 9 -126 R 8 871 R 8 808 R 9 -918 R 8 -812 R 8 2064 R
8 2588 R 9 -1774 R 8 -2461 R 8 -404 R 8 -21 R 9 164 R 8 675 R 8 348 R
9 -699 R 8 618 R 8 1684 R 8 -658 R 9 -1645 R 8 -499 R 8 0 R 8 1 R 9 2 R
8 230 R 8 374 R 9 -109 R 8 -22 R 8 661 R 8 73 R 9 -798 R 8 -420 R 8 -1 R
8 0 R 9 -1 R 8 -1 R 8 0 R 9 135 R 8 148 R 8 -91 R 8 140 R 9 189 R 8 -294 R
8 -231 R 9 -1 R 8 -2 R 8 -1 R 8 -1 R 9 -1 R 8 -1 R 8 7 R 8 43 R 9 29 R
8 28 R 8 44 R 9 -76 R 8 -76 R 8 -5 R 8 -1 R 9 18 R 8 122 R 8 153 R 8 239 R
9 280 R 8 -69 R 8 412 R 9 488 R 8 -500 R 8 655 R 8 1203 R 9 -1048 R
8 -1026 R 8 480 R 8 1360 R 9 811 R 8 -2010 R 8 -1568 R 9 632 R 8 665 R
8 -650 R 8 -643 R 9 -18 R 8 1 R 8 -1 R 8 -1 R 9 -3 R 8 -3 R 8 0 R 9 648 R
8 5129 R 8 4188 R 8 -3496 R 9 -2926 R 8 -1823 R 8 -1006 R 9 457 R 8 -638 R
8 -502 R 8 180 R 9 127 R 8 -194 R 8 18 R 8 1011 R 9 735 R 8 -1031 R 8 -857 R
9 -33 R 8 2644 R 8 3397 R 8 -2048 R 9 -3320 R 8 -673 R 8 1012 R 8 1305 R
9 -831 R 8 -1273 R 8 -191 R 9 3414 R 8 3672 R 8 -3499 R 8 -3485 R 9 -144 R
8 -7 R 8 73 R D
%%PageTrailer
end
restore
showpage
%%PageResources: font Helvetica
%%Trailer
restore
%%Pages: 1
%%DocumentNeededResources: font Helvetica
%%EOF
