%!PS-Adobe-3.0
%%BoundingBox: 54 360 558 720
%%Title: Graphics produced by IDL
%%For: peters11@pal-nat185-046-194.itap.purdue.edu, 
%%      /Users/peters11/imsims/trunk/raytrace
%%Creator: IDL Version 6.3, Mac OS X (darwin i386 m32)
%%CreationDate: Fri Oct  7 10:46:59 2011
%%DocumentData: Clean7bit
%%LanguageLevel: 1
%%PageOrder: Ascend
%%Pages: (atend)
%%DocumentNeededResources: (atend)
%%EndComments
%%BeginProlog
save
%+ prolog.ps -- Prolog for IDL generated PostScript files
%+ Copyright (c) 1988-2006 Research Systems, Inc. All Rights Reserved.
%v 5
/$IDL_DICT 40 dict def $IDL_DICT begin /bdef { bind def } bind def /C
{currentpoint newpath moveto} bdef /CP {currentpoint} bdef /D {currentpoint
stroke moveto} bdef /F {closepath fill} bdef /K { setgray } bdef /M {moveto}
bdef /N {rmoveto} bdef /P {lineto} bdef /R {rlineto} bdef /S {gsave show
grestore} bdef /X {currentpoint pop} bdef /Z {gsave currentpoint lineto 20
setlinewidth 1 setlinecap stroke grestore} bdef /L0 {[] 0 setdash} bdef /L1
{[40 100] 0 setdash} bdef /L2 {[200 200] 0 setdash} bdef /L3 {[200 100 50
100] 0 setdash} bdef /L4 {[300 100 50 100 50 100 50 100] 0 setdash} bdef /L5
{[400 200] 0 setdash} bdef /STDFONT { findfont exch scalefont setfont } bdef
/ISOFONT { findfont dup length dict begin { 1 index /FID ne {def} {pop pop}
ifelse } forall /Encoding ISOLatin1Encoding def currentdict end /idltmpfont
exch definefont exch scalefont setfont } bdef /ISOBULLET { gsave /Helvetica
findfont exch scalefont setfont (\267) show currentpoint grestore moveto}
bdef /MITERLIMIT { 2.5 setmiterlimit } bdef end
%%EndProlog
%%Page: 0 1
%%PageResources: (atend)
%%PageOrientation: Portrait
%%PageBoundingBox: 54 360 558 720
%%BeginPageSetup
save
$IDL_DICT begin 54 360 translate 0.0283465 dup scale MITERLIMIT
%%IncludeResource: font Helvetica
423.333 /Helvetica STDFONT
%%EndPageSetup
10 setlinewidth L0 0.000 K 7951 12514 M 0 -307 R D 7951 12514 M 190 0 R D
7951 12368 M 117 0 R D 8199 12514 M 15 -15 R 14 15 R -14 15 R -15 -15 R D
8214 12412 M 0 -205 R D 8331 12514 M 0 -307 R D 8462 12514 M 0 -248 R
15 -44 R 29 -15 R 29 0 R D 8418 12412 M 103 0 R D 8608 12324 M 175 0 R
0 29 R -14 30 R -15 14 R -29 15 R -44 0 R -29 -15 R -29 -29 R -15 -44 R
0 -29 R 15 -44 R 29 -29 R 29 -15 R 44 0 R 29 15 R 29 29 R D 8886 12412 M
0 -205 R D 8886 12324 M 14 44 R 30 29 R 29 15 R 44 0 R D 9309 12514 M
0 -307 R D 9309 12514 M 190 0 R D 9309 12368 M 117 0 R D 9309 12207 M
190 0 R D 9674 12514 M -29 0 R -29 -15 R -15 -43 R 0 -249 R D 9558 12412 M
102 0 R D 9850 12514 M -30 0 R -29 -15 R -14 -43 R 0 -249 R D 9733 12412 M
102 0 R D 9923 12514 M 14 -15 R 15 15 R -15 15 R -14 -15 R D 9937 12412 M
0 -205 R D 10215 12368 M -29 29 R -30 15 R -43 0 R -30 -15 R -29 -29 R
-14 -44 R 0 -29 R 14 -44 R 29 -29 R 30 -15 R 43 0 R 30 15 R 29 29 R D
10302 12514 M 15 -15 R 15 15 R -15 15 R -15 -15 R D 10317 12412 M 0 -205 R D
10419 12324 M 176 0 R 0 29 R -15 30 R -15 14 R -29 15 R -44 0 R -29 -15 R
-29 -29 R -15 -44 R 0 -29 R 15 -44 R 29 -29 R 29 -15 R 44 0 R 29 15 R
30 29 R D 10697 12412 M 0 -205 R D 10697 12353 M 44 44 R 29 15 R 44 0 R
29 -15 R 14 -44 R 0 -146 R D 11135 12368 M -29 29 R -30 15 R -43 0 R
-30 -15 R -29 -29 R -14 -44 R 0 -29 R 14 -44 R 29 -29 R 30 -15 R 43 0 R
30 15 R 29 29 R D 11208 12412 M 88 -205 R 87 205 R D 11296 12207 M -30 -73 R
-29 -29 R -29 -15 R -15 0 R D 2220 1408 M 14894 0 R D 2220 1408 M 0 212 R D
1905 1067 M 0 12 R 11 23 R 12 12 R 23 11 R 47 0 R 23 -11 R 12 -12 R 12 -23 R
0 -24 R -12 -23 R -23 -35 R -117 -117 R 164 0 R D 2197 1125 M -35 -11 R
-24 -35 R -11 -59 R 0 -35 R 11 -58 R 24 -35 R 35 -12 R 23 0 R 35 12 R
24 35 R 11 58 R 0 35 R -11 59 R -24 35 R -35 11 R -23 0 R D 2430 1125 M
-35 -11 R -23 -35 R -12 -59 R 0 -35 R 12 -58 R 23 -35 R 35 -12 R 24 0 R
35 12 R 23 35 R 12 58 R 0 35 R -12 59 R -23 35 R -35 11 R -24 0 R D
5199 1408 M 0 212 R D 4989 1125 M -117 -163 R 175 0 R D 4989 1125 M 0 -245 R
D 5176 1125 M -36 -11 R -23 -35 R -12 -59 R 0 -35 R 12 -58 R 23 -35 R
36 -12 R 23 0 R 35 12 R 23 35 R 12 58 R 0 35 R -12 59 R -23 35 R -35 11 R
-23 0 R D 5409 1125 M -35 -11 R -23 -35 R -12 -59 R 0 -35 R 12 -58 R
23 -35 R 35 -12 R 24 0 R 35 12 R 23 35 R 12 58 R 0 35 R -12 59 R -23 35 R
-35 11 R -24 0 R D 8178 1408 M 0 212 R D 8002 1090 M -11 24 R -35 11 R
-24 0 R -35 -11 R -23 -35 R -12 -59 R 0 -58 R 12 -47 R 23 -23 R 35 -12 R
12 0 R 35 12 R 23 23 R 12 35 R 0 12 R -12 35 R -23 23 R -35 12 R -12 0 R
-35 -12 R -23 -23 R -12 -35 R D 8154 1125 M -35 -11 R -23 -35 R -12 -59 R
0 -35 R 12 -58 R 23 -35 R 35 -12 R 24 0 R 35 12 R 23 35 R 12 58 R 0 35 R
-12 59 R -23 35 R -35 11 R -24 0 R D 8388 1125 M -35 -11 R -23 -35 R
-12 -59 R 0 -35 R 12 -58 R 23 -35 R 35 -12 R 23 0 R 35 12 R 24 35 R 11 58 R
0 35 R -11 59 R -24 35 R -35 11 R -23 0 R D 11156 1408 M 0 212 R D
10888 1125 M -35 -11 R -12 -24 R 0 -23 R 12 -23 R 23 -12 R 47 -12 R 35 -11 R
23 -24 R 12 -23 R 0 -35 R -12 -24 R -11 -11 R -36 -12 R -46 0 R -35 12 R
-12 11 R -12 24 R 0 35 R 12 23 R 23 24 R 35 11 R 47 12 R 24 12 R 11 23 R
0 23 R -11 24 R -36 11 R -46 0 R D 11133 1125 M -35 -11 R -23 -35 R
-12 -59 R 0 -35 R 12 -58 R 23 -35 R 35 -12 R 23 0 R 36 12 R 23 35 R 12 58 R
0 35 R -12 59 R -23 35 R -36 11 R -23 0 R D 11367 1125 M -35 -11 R -24 -35 R
-11 -59 R 0 -35 R 11 -58 R 24 -35 R 35 -12 R 23 0 R 35 12 R 24 35 R 11 58 R
0 35 R -11 59 R -24 35 R -35 11 R -23 0 R D 14135 1408 M 0 212 R D
13726 1079 M 24 11 R 35 35 R 0 -245 R D 13995 1125 M -35 -11 R -23 -35 R
-12 -59 R 0 -35 R 12 -58 R 23 -35 R 35 -12 R 23 0 R 35 12 R 24 35 R 12 58 R
0 35 R -12 59 R -24 35 R -35 11 R -23 0 R D 14229 1125 M -35 -11 R -24 -35 R
-11 -59 R 0 -35 R 11 -58 R 24 -35 R 35 -12 R 23 0 R 35 12 R 24 35 R 11 58 R
0 35 R -11 59 R -24 35 R -35 11 R -23 0 R D 14462 1125 M -35 -11 R -23 -35 R
-12 -59 R 0 -35 R 12 -58 R 23 -35 R 35 -12 R 24 0 R 35 12 R 23 35 R 12 58 R
0 35 R -12 59 R -23 35 R -35 11 R -24 0 R D 17114 1408 M 0 212 R D
16705 1079 M 24 11 R 35 35 R 0 -245 R D 16915 1067 M 0 12 R 12 23 R 12 12 R
23 11 R 47 0 R 23 -11 R 12 -12 R 12 -23 R 0 -24 R -12 -23 R -23 -35 R
-117 -117 R 163 0 R D 17208 1125 M -35 -11 R -24 -35 R -12 -59 R 0 -35 R
12 -58 R 24 -35 R 35 -12 R 23 0 R 35 12 R 23 35 R 12 58 R 0 35 R -12 59 R
-23 35 R -35 11 R -23 0 R D 17441 1125 M -35 -11 R -23 -35 R -12 -59 R
0 -35 R 12 -58 R 23 -35 R 35 -12 R 24 0 R 35 12 R 23 35 R 12 58 R 0 35 R
-12 59 R -23 35 R -35 11 R -24 0 R D 2965 1408 M 0 106 R D 3709 1408 M
0 106 R D 4454 1408 M 0 106 R D 5944 1408 M 0 106 R D 6688 1408 M 0 106 R D
7433 1408 M 0 106 R D 8922 1408 M 0 106 R D 9667 1408 M 0 106 R D
10412 1408 M 0 106 R D 11901 1408 M 0 106 R D 12646 1408 M 0 106 R D
13391 1408 M 0 106 R D 14880 1408 M 0 106 R D 15625 1408 M 0 106 R D
16369 1408 M 0 106 R D 8131 668 M 58 -246 R 58 246 R 59 -246 R 58 246 R D
8563 586 M 0 -164 R D 8563 551 M -23 23 R -24 12 R -35 0 R -23 -12 R
-24 -23 R -11 -35 R 0 -23 R 11 -35 R 24 -24 R 23 -12 R 35 0 R 24 12 R
23 24 R D 8633 586 M 70 -164 R 70 164 R D 8832 516 M 140 0 R 0 23 R -12 24 R
-11 11 R -24 12 R -35 0 R -23 -12 R -24 -23 R -11 -35 R 0 -23 R 11 -35 R
24 -24 R 23 -12 R 35 0 R 24 12 R 23 24 R D 9054 668 M 0 -246 R D 9135 516 M
141 0 R 0 23 R -12 24 R -12 11 R -23 12 R -35 0 R -23 -12 R -24 -23 R
-12 -35 R 0 -23 R 12 -35 R 24 -24 R 23 -12 R 35 0 R 23 12 R 24 24 R D
9357 586 M 0 -164 R D 9357 539 M 36 35 R 23 12 R 35 0 R 23 -12 R 12 -35 R
0 -117 R D 9708 586 M 0 -199 R -12 -35 R -11 -11 R -24 -12 R -35 0 R
-23 12 R D 9708 551 M -23 23 R -24 12 R -35 0 R -23 -12 R -24 -23 R
-11 -35 R 0 -23 R 11 -35 R 24 -24 R 23 -12 R 35 0 R 24 12 R 23 24 R D
9813 668 M 0 -199 R 12 -35 R 23 -12 R 24 0 R D 9778 586 M 82 0 R D
9942 668 M 0 -246 R D 9942 539 M 35 35 R 23 12 R 35 0 R 24 -12 R 11 -35 R
0 -117 R D 10432 715 M -23 -24 R -23 -35 R -24 -47 R -11 -58 R 0 -47 R
11 -58 R 24 -59 R 23 -35 R 23 -23 R D 10514 586 M 0 -164 R D 10514 539 M
35 35 R 24 12 R 35 0 R 23 -12 R 12 -35 R 0 -117 R D 10736 586 M 0 -164 R D
10736 539 M 35 35 R 24 12 R 35 0 R 23 -12 R 12 -35 R 0 -117 R D 10865 539 M
35 35 R 23 12 R 35 0 R 24 -12 R 11 -35 R 0 -117 R D 11075 715 M 23 -24 R
24 -35 R 23 -47 R 12 -58 R 0 -47 R -12 -58 R -23 -59 R -24 -35 R -23 -23 R D
2220 11996 M 14894 0 R D 2220 11996 M 0 -212 R D 5199 11996 M 0 -212 R D
8178 11996 M 0 -212 R D 11156 11996 M 0 -212 R D 14135 11996 M 0 -212 R D
17114 11996 M 0 -212 R D 2965 11996 M 0 -106 R D 3709 11996 M 0 -106 R D
4454 11996 M 0 -106 R D 5944 11996 M 0 -106 R D 6688 11996 M 0 -106 R D
7433 11996 M 0 -106 R D 8922 11996 M 0 -106 R D 9667 11996 M 0 -106 R D
10412 11996 M 0 -106 R D 11901 11996 M 0 -106 R D 12646 11996 M 0 -106 R D
13391 11996 M 0 -106 R D 14880 11996 M 0 -106 R D 15625 11996 M 0 -106 R D
16369 11996 M 0 -106 R D 2220 1408 M 0 10588 R D 2220 1408 M 298 0 R D
1618 1653 M -35 -11 R -23 -35 R -12 -59 R 0 -35 R 12 -58 R 23 -35 R 35 -12 R
24 0 R 35 12 R 23 35 R 12 58 R 0 35 R -12 59 R -23 35 R -35 11 R -24 0 R D
1805 1431 M -11 -11 R 11 -12 R 12 12 R -12 11 R D 1969 1653 M -35 -11 R
-24 -35 R -11 -59 R 0 -35 R 11 -58 R 24 -35 R 35 -12 R 23 0 R 35 12 R
24 35 R 11 58 R 0 35 R -11 59 R -24 35 R -35 11 R -23 0 R D 2220 3526 M
298 0 R D 1618 3630 M -35 -11 R -23 -36 R -12 -58 R 0 -35 R 12 -58 R
23 -35 R 35 -12 R 24 0 R 35 12 R 23 35 R 12 58 R 0 35 R -12 58 R -23 36 R
-35 11 R -24 0 R D 1805 3408 M -11 -11 R 11 -12 R 12 12 R -12 11 R D
1910 3572 M 0 11 R 12 24 R 12 12 R 23 11 R 47 0 R 23 -11 R 12 -12 R 12 -24 R
0 -23 R -12 -23 R -23 -35 R -117 -117 R 163 0 R D 2220 5643 M 298 0 R D
1618 5748 M -35 -12 R -23 -35 R -12 -58 R 0 -35 R 12 -59 R 23 -35 R 35 -12 R
24 0 R 35 12 R 23 35 R 12 59 R 0 35 R -12 58 R -23 35 R -35 12 R -24 0 R D
1805 5526 M -11 -12 R 11 -12 R 12 12 R -12 12 R D 2016 5748 M -117 -164 R
175 0 R D 2016 5748 M 0 -246 R D 2220 7761 M 298 0 R D 1618 7865 M -35 -11 R
-23 -35 R -12 -59 R 0 -35 R 12 -58 R 23 -35 R 35 -12 R 24 0 R 35 12 R
23 35 R 12 58 R 0 35 R -12 59 R -23 35 R -35 11 R -24 0 R D 1805 7643 M
-11 -11 R 11 -12 R 12 12 R -12 11 R D 2051 7830 M -12 24 R -35 11 R -23 0 R
-35 -11 R -24 -35 R -12 -59 R 0 -58 R 12 -47 R 24 -23 R 35 -12 R 11 0 R
35 12 R 24 23 R 11 35 R 0 12 R -11 35 R -24 23 R -35 12 R -11 0 R -35 -12 R
-24 -23 R -12 -35 R D 2220 9878 M 298 0 R D 1618 9983 M -35 -12 R -23 -35 R
-12 -58 R 0 -35 R 12 -59 R 23 -35 R 35 -11 R 24 0 R 35 11 R 23 35 R 12 59 R
0 35 R -12 58 R -23 35 R -35 12 R -24 0 R D 1805 9761 M -11 -12 R 11 -11 R
12 11 R -12 12 R D 1957 9983 M -35 -12 R -12 -23 R 0 -23 R 12 -24 R 24 -11 R
46 -12 R 35 -12 R 24 -23 R 11 -24 R 0 -35 R -11 -23 R -12 -12 R -35 -11 R
-47 0 R -35 11 R -12 12 R -11 23 R 0 35 R 11 24 R 24 23 R 35 12 R 47 12 R
23 11 R 12 24 R 0 23 R -12 23 R -35 12 R -47 0 R D 2220 11996 M 298 0 R D
1583 11948 M 24 12 R 35 35 R 0 -245 R D 1805 11773 M -11 -12 R 11 -11 R
12 11 R -12 12 R D 1969 11995 M -35 -12 R -24 -35 R -11 -58 R 0 -35 R
11 -59 R 24 -35 R 35 -11 R 23 0 R 35 11 R 24 35 R 11 59 R 0 35 R -11 58 R
-24 35 R -35 12 R -23 0 R D 2220 1937 M 149 0 R D 2220 2467 M 149 0 R D
2220 2996 M 149 0 R D 2220 4055 M 149 0 R D 2220 4584 M 149 0 R D
2220 5114 M 149 0 R D 2220 6173 M 149 0 R D 2220 6702 M 149 0 R D
2220 7231 M 149 0 R D 2220 8290 M 149 0 R D 2220 8820 M 149 0 R D
2220 9349 M 149 0 R D 2220 10408 M 149 0 R D 2220 10937 M 149 0 R D
2220 11467 M 149 0 R D 947 5872 M 245 0 R D 947 5872 M 0 152 R D 1063 5872 M
0 94 R D 1192 5872 M 0 152 R D 947 6165 M 0 -24 R 11 -23 R 35 -12 R 199 0 R
D 1028 6071 M 0 82 R D 947 6305 M 0 -24 R 11 -23 R 35 -12 R 199 0 R D
1028 6211 M 0 82 R D 947 6363 M 11 12 R -11 12 R -12 -12 R 12 -12 R D
1028 6375 M 164 0 R D 1063 6597 M -23 -23 R -12 -24 R 0 -35 R 12 -23 R
23 -24 R 35 -11 R 24 0 R 35 11 R 23 24 R 12 23 R 0 35 R -12 24 R -23 23 R D
947 6667 M 11 12 R -11 11 R -12 -11 R 12 -12 R D 1028 6679 M 164 0 R D
1098 6760 M 0 141 R -23 0 R -23 -12 R -12 -12 R -12 -23 R 0 -35 R 12 -23 R
23 -24 R 35 -12 R 24 0 R 35 12 R 23 24 R 12 23 R 0 35 R -12 23 R -23 24 R D
1028 6982 M 164 0 R D 1075 6982 M -35 36 R -12 23 R 0 35 R 12 23 R 35 12 R
117 0 R D 1063 7333 M -23 -23 R -12 -24 R 0 -35 R 12 -23 R 23 -24 R 35 -11 R
24 0 R 35 11 R 23 24 R 12 23 R 0 35 R -12 24 R -23 23 R D 1028 7391 M
164 71 R -164 70 R D 1192 7462 M 58 -24 R 24 -23 R 11 -24 R 0 -11 R D
17114 1408 M 0 10588 R D 17114 1408 M -298 0 R D 17114 3526 M -298 0 R D
17114 5643 M -298 0 R D 17114 7761 M -298 0 R D 17114 9878 M -298 0 R D
17114 11996 M -298 0 R D 17114 1937 M -149 0 R D 17114 2467 M -149 0 R D
17114 2996 M -149 0 R D 17114 4055 M -149 0 R D 17114 4584 M -149 0 R D
17114 5114 M -149 0 R D 17114 6173 M -149 0 R D 17114 6702 M -149 0 R D
17114 7231 M -149 0 R D 17114 8290 M -149 0 R D 17114 8820 M -149 0 R D
17114 9349 M -149 0 R D 17114 10408 M -149 0 R D 17114 10937 M -149 0 R D
17114 11467 M -149 0 R D 3709 1408 M 15 0 R 15 0 R 15 0 R 15 0 R 15 0 R
15 0 R 15 1 R 15 -1 R 15 1 R 14 16 R 15 38 R 15 17 R 15 106 R 15 66 R
15 129 R 15 538 R 15 1713 R 15 1630 R 14 780 R 15 -41 R 15 217 R 15 924 R
15 2179 R 15 1702 R 15 281 R 15 -331 R 15 98 R 15 328 R 14 59 R 15 -9 R
15 18 R 15 -2 R 15 -20 R 15 -28 R 15 -9 R 15 5 R 15 7 R 14 8 R 15 15 R
15 28 R 15 35 R 15 27 R 15 1 R 15 -31 R 15 -53 R 15 -54 R 15 -31 R 14 8 R
15 44 R 15 66 R 15 61 R 15 34 R 15 -5 R 15 -38 R 15 -56 R 15 -54 R 14 -34 R
15 -7 R 15 20 R 15 37 R 15 43 R 15 38 R 15 23 R 15 4 R 15 -15 R 14 -27 R
15 -32 R 15 15 R 15 27 R 15 21 R 15 4 R 15 -16 R 15 -30 R 15 -34 R 15 -24 R
14 -7 R 15 12 R 15 37 R 15 21 R 15 -6 R 15 16 R 15 -180 R 15 -630 R
15 -529 R 14 -598 R 15 -604 R 15 -488 R 15 -286 R 15 -204 R 15 -430 R
15 -834 R 15 -1053 R 15 -967 R 15 -724 R 14 -478 R 15 -302 R 15 -227 R
15 -259 R 15 -326 R 15 -335 R 15 -266 R 15 -176 R 15 -103 R 14 -60 R
15 -45 R 15 -57 R 15 -75 R 15 -69 R 15 -46 R 15 -24 R 15 -13 R 15 -10 R
15 -11 R 14 -8 R 15 -3 R 15 -30 R 15 -19 R 15 -11 R 15 -7 R 15 -5 R 15 -3 R
15 -2 R 14 -1 R 15 -1 R 15 -1 R 15 -1 R 15 0 R 15 0 R 15 -1 R 15 0 R 15 0 R
14 0 R 15 0 R 15 0 R 15 -1 R 15 0 R 15 0 R 15 0 R 15 0 R 15 0 R 15 0 R
14 0 R 15 0 R 15 0 R 15 0 R 15 0 R 15 0 R 15 0 R 15 0 R 15 0 R 14 0 R 15 0 R
15 0 R 15 0 R 15 0 R 15 0 R 15 0 R 15 0 R 15 0 R 15 0 R 14 0 R 15 0 R 15 0 R
15 0 R 15 0 R 15 0 R 15 0 R 15 0 R 15 0 R 14 0 R 15 0 R 15 0 R 15 0 R 15 0 R
15 0 R 15 0 R 15 0 R 15 0 R 15 0 R 14 0 R 15 0 R 15 0 R 15 0 R 15 0 R 15 0 R
15 1 R 15 0 R 15 -1 R 14 0 R 15 0 R 15 0 R 15 0 R 15 0 R 15 0 R 15 0 R
15 0 R 15 0 R 15 0 R 14 0 R 15 0 R 15 0 R 15 0 R 15 0 R 15 0 R 15 0 R 15 0 R
15 0 R 14 0 R 15 0 R 15 0 R 15 0 R 15 0 R 15 1 R 15 0 R 15 0 R 15 0 R 14 0 R
15 0 R 15 0 R 15 0 R 15 0 R 15 0 R 15 0 R 15 0 R 15 -1 R 15 0 R 14 0 R
15 0 R 15 0 R 15 0 R 15 0 R 15 0 R 15 0 R 15 0 R 15 0 R 14 0 R 15 0 R 15 0 R
15 0 R 15 0 R 15 0 R 15 0 R 15 0 R 15 0 R 15 0 R 14 0 R 15 0 R 15 0 R 15 0 R
15 1 R 15 0 R 15 0 R 15 0 R 15 0 R 14 0 R 15 0 R 15 0 R 15 0 R 15 0 R 15 0 R
15 0 R 15 0 R 15 0 R 15 0 R 14 0 R 15 0 R 15 0 R 15 0 R 15 0 R 15 0 R 15 0 R
15 0 R 15 0 R 14 0 R 15 0 R 15 0 R 15 0 R 15 0 R 15 0 R 15 0 R 15 0 R 15 0 R
14 0 R 15 0 R 15 -1 R 15 0 R 15 0 R 15 0 R 15 0 R 15 0 R 15 0 R 15 0 R
14 0 R 15 0 R 15 0 R 15 0 R 15 0 R 15 0 R 15 0 R 15 0 R 15 0 R 14 0 R 15 1 R
15 0 R 15 0 R 15 0 R 15 0 R 15 0 R 15 0 R 15 0 R 15 0 R 14 0 R 15 0 R 15 0 R
15 0 R 15 0 R 15 0 R 15 0 R 15 1 R 15 0 R 14 0 R 15 0 R 15 0 R 15 0 R 15 0 R
15 0 R 15 0 R 15 -1 R 15 0 R 15 0 R 14 0 R 15 0 R 15 0 R 15 0 R 15 0 R
15 0 R 15 0 R 15 0 R 15 0 R 14 0 R 15 0 R 15 0 R 15 0 R 15 0 R 15 1 R 15 0 R
15 0 R 15 -2 R 14 0 R 15 0 R 15 0 R 15 0 R 15 0 R 15 1 R 15 0 R 15 1 R
15 1 R 15 1 R 14 -2 R 15 -1 R 15 0 R 15 -1 R 15 0 R 15 0 R 15 0 R 15 0 R
15 0 R 14 0 R 15 1 R 15 -1 R 15 0 R 15 0 R 15 0 R 15 0 R 15 0 R 15 1 R
15 0 R 14 1 R 15 -1 R 15 0 R 15 0 R 15 0 R 15 0 R 15 0 R 15 0 R 15 0 R
14 -1 R 15 0 R 15 0 R 15 0 R 15 0 R 15 0 R 15 0 R 15 1 R 15 0 R 15 0 R
14 0 R 15 0 R 15 0 R 15 0 R 15 0 R 15 -1 R 15 0 R 15 0 R 15 0 R 14 0 R
15 0 R 15 0 R 15 0 R 15 0 R 15 0 R 15 0 R 15 0 R 15 0 R 14 0 R 15 0 R 15 0 R
15 0 R 15 1 R 15 0 R 15 -1 R 15 0 R 15 0 R 15 0 R 14 0 R 15 0 R 15 1 R
15 -1 R 15 0 R 15 0 R 15 1 R 15 0 R 15 0 R 14 -1 R 15 0 R 15 1 R 15 0 R
15 0 R 15 0 R 15 0 R 15 -1 R 15 0 R 15 0 R 14 0 R 15 0 R 15 0 R 15 0 R
15 0 R 15 0 R 15 0 R 15 0 R 15 0 R 14 0 R 15 0 R 15 0 R 15 0 R 15 0 R 15 0 R
15 0 R 15 0 R 15 0 R 15 0 R 14 0 R 15 0 R 15 0 R 15 1 R 15 3 R 15 -4 R
15 0 R 15 0 R 15 4 R 14 0 R 15 0 R 15 0 R 15 0 R 15 0 R 15 0 R 15 -1 R
15 0 R 15 -1 R 15 0 R 14 0 R 15 0 R 15 -1 R 15 0 R 15 0 R 15 0 R 15 0 R
15 0 R 15 0 R 14 0 R 15 0 R 15 0 R 15 0 R 15 0 R 15 0 R 15 0 R 15 0 R 15 0 R
14 0 R 15 0 R 15 0 R 15 0 R 15 0 R 15 0 R 15 0 R 15 0 R 15 0 R 15 0 R 14 0 R
15 0 R 15 0 R 15 -1 R 15 0 R 15 0 R 15 0 R 15 0 R 15 1 R 14 0 R 15 0 R
15 0 R 15 0 R 15 0 R 15 0 R 15 0 R 15 0 R 15 0 R 15 0 R 14 0 R 15 0 R 15 0 R
15 0 R 15 0 R 15 0 R 15 0 R 15 0 R 15 0 R 14 0 R 15 0 R 15 0 R 15 -1 R
15 0 R 15 0 R 15 0 R 15 0 R 15 0 R 15 0 R 14 0 R 15 0 R 15 0 R 15 0 R 15 0 R
15 0 R 15 0 R 15 0 R 15 0 R 14 0 R 15 0 R 15 0 R 15 0 R 15 0 R 15 0 R 15 0 R
15 0 R 15 0 R 14 0 R 15 0 R 15 1 R 15 0 R 15 0 R 15 2 R 15 -3 R 15 0 R
15 0 R 15 0 R 14 0 R 15 0 R 15 0 R 15 0 R 15 0 R 15 0 R 15 1 R 15 1 R
15 -1 R 14 -1 R 15 0 R 15 0 R 15 0 R 15 0 R 15 0 R 15 0 R 15 0 R 15 0 R
15 0 R 14 1 R 15 0 R 15 0 R 15 0 R 15 -1 R 15 0 R 15 0 R 15 0 R 15 0 R
14 0 R 15 0 R 15 0 R 15 0 R 15 0 R 15 0 R 15 0 R 15 0 R 15 0 R 15 0 R 14 0 R
15 1 R 15 0 R 15 0 R 15 0 R 15 0 R 15 0 R 15 -1 R 15 0 R 14 0 R 15 0 R
15 0 R 15 0 R 15 0 R 15 0 R 15 0 R 15 0 R 15 1 R 14 0 R 15 0 R 15 0 R 15 0 R
15 0 R 15 0 R 15 0 R 15 0 R 15 0 R 15 0 R 14 0 R 15 0 R 15 0 R 15 -1 R
15 0 R 15 0 R 15 0 R 15 0 R 15 0 R 14 0 R 15 0 R 15 0 R 15 0 R 15 0 R 15 0 R
15 0 R 15 0 R 15 0 R 15 0 R 14 0 R 15 0 R 15 0 R 15 0 R 15 0 R 15 0 R 15 0 R
15 0 R 15 0 R 14 0 R 15 0 R 15 0 R 15 0 R 15 0 R 15 0 R 15 0 R 15 0 R 15 0 R
15 0 R 14 0 R 15 0 R 15 0 R 15 0 R 15 0 R 15 0 R 15 0 R 15 0 R 15 0 R 14 1 R
15 0 R 15 -1 R 15 0 R 15 0 R 15 0 R 15 0 R 15 0 R 15 0 R 15 0 R 14 0 R
15 0 R 15 0 R 15 0 R 15 0 R 15 0 R 15 1 R 15 0 R 15 1 R 14 -1 R 15 -1 R
15 0 R 15 0 R 15 0 R 15 1 R 15 -1 R 15 0 R 15 0 R 14 0 R 15 0 R 15 0 R
15 0 R 15 0 R 15 0 R 15 0 R 15 0 R 15 1 R 15 2 R 14 -2 R 15 0 R 15 0 R
15 0 R 15 0 R 15 0 R 15 1 R 15 0 R 15 0 R 14 -1 R 15 0 R 15 0 R 15 0 R
15 0 R 15 0 R 15 0 R 15 0 R 15 0 R 15 0 R 14 0 R 15 0 R 15 0 R 15 0 R 15 0 R
D 14880 1409 M 15 0 R 15 0 R 15 0 R 15 0 R 14 0 R 15 0 R 15 0 R 15 0 R
15 0 R 15 0 R 15 0 R 15 0 R 15 -1 R 15 0 R 14 0 R 15 0 R 15 0 R 15 0 R
15 0 R 15 0 R 15 0 R 15 0 R 15 0 R 14 0 R 15 0 R 15 0 R 15 0 R 15 1 R 15 0 R
15 0 R 15 0 R 15 0 R 14 0 R 15 0 R 15 0 R 15 0 R 15 0 R 15 0 R 15 0 R 15 0 R
15 0 R 15 0 R 14 0 R 15 0 R 15 0 R 15 0 R 15 0 R 15 0 R 15 0 R 15 0 R
15 -1 R 14 0 R 15 0 R 15 0 R 15 0 R 15 0 R 15 0 R 15 0 R 15 0 R 15 0 R
15 0 R 14 0 R 15 0 R 15 0 R 15 0 R 15 0 R 15 0 R 15 0 R 15 0 R 15 0 R 14 0 R
15 0 R 15 0 R 15 0 R 15 0 R 15 0 R 15 0 R 15 0 R 15 0 R 15 0 R 14 0 R 15 0 R
15 0 R 15 0 R 15 0 R 15 0 R 15 0 R 15 0 R 15 0 R 14 0 R 15 0 R 15 0 R 15 0 R
15 0 R 15 0 R 15 0 R 15 0 R 15 0 R 14 0 R 15 0 R 15 0 R 15 0 R 15 0 R 15 0 R
15 0 R 15 0 R 15 0 R 15 0 R 14 0 R 15 0 R 15 0 R 15 0 R 15 0 R 15 0 R 15 0 R
15 0 R 15 0 R 14 0 R 15 0 R 15 0 R 15 0 R 15 0 R 15 0 R 15 0 R 15 0 R 15 0 R
15 0 R 14 0 R 15 0 R 15 0 R 15 0 R 15 0 R 15 0 R 15 0 R 15 0 R 15 0 R 14 0 R
15 0 R 15 0 R 15 0 R 15 0 R 15 0 R 15 0 R 15 0 R 15 0 R 15 0 R 14 0 R 15 0 R
15 0 R 15 0 R D 3709 1408 M 15 0 R 15 1 R 15 0 R 15 0 R 15 1 R 15 -1 R
15 -1 R 15 7 R 15 -7 R 14 0 R 15 0 R 15 0 R 15 2 R 15 -1 R 15 -1 R 15 0 R
15 0 R 15 2 R 14 -2 R 15 0 R 15 0 R 15 0 R 15 0 R 15 0 R 15 0 R 15 0 R
15 0 R 15 1 R 14 -1 R 15 0 R 15 0 R 15 0 R 15 0 R 15 0 R 15 0 R 15 0 R
15 0 R 14 0 R 15 0 R 15 0 R 15 0 R 15 0 R 15 0 R 15 0 R 15 0 R 15 0 R 15 2 R
14 -2 R 15 0 R 15 0 R 15 0 R 15 0 R 15 0 R 15 0 R 15 0 R 15 1 R 14 -1 R
15 0 R 15 0 R 15 0 R 15 0 R 15 0 R 15 0 R 15 0 R 15 0 R 14 0 R 15 0 R 15 0 R
15 0 R 15 0 R 15 0 R 15 0 R 15 0 R 15 0 R 15 0 R 14 0 R 15 0 R 15 0 R 15 0 R
15 0 R 15 0 R 15 0 R 15 0 R 15 0 R 14 152 R 15 74 R 15 149 R 15 347 R
15 249 R 15 -13 R 15 160 R 15 414 R 15 459 R 15 432 R 14 564 R 15 423 R
15 76 R 15 465 R 15 838 R 15 724 R 15 604 R 15 439 R 15 68 R 14 256 R
15 670 R 15 628 R 15 405 R 15 440 R 15 358 R 15 129 R 15 238 R 15 433 R
15 273 R 14 12 R 15 -32 R 15 -16 R 15 -21 R 15 8 R 15 49 R 15 59 R 15 12 R
15 -54 R 14 -58 R 15 -2 R 15 25 R 15 12 R 15 27 R 15 43 R 15 -5 R 15 -49 R
15 -19 R 14 11 R 15 -18 R 15 -31 R 15 12 R 15 26 R 15 -14 R 15 -23 R 15 20 R
15 27 R 15 -14 R 14 -18 R 15 17 R 15 12 R 15 -33 R 15 -31 R 15 28 R 15 56 R
15 21 R 15 -6 R 14 16 R 15 32 R 15 1 R 15 -32 R 15 -22 R 15 5 R 15 9 R
15 -10 R 15 -15 R 15 -5 R 14 -2 R 15 -9 R 15 -9 R 15 2 R 15 17 R 15 27 R
15 22 R 15 1 R 15 -25 R 14 -29 R 15 -9 R 15 9 R 15 0 R 15 -23 R 15 -25 R
15 -7 R 15 5 R 15 -5 R 15 -16 R 14 -1 R 15 24 R 15 23 R 15 -8 R 15 -36 R
15 -27 R 15 5 R 15 25 R 15 17 R 14 3 R 15 7 R 15 20 R 15 17 R 15 -2 R
15 -13 R 15 -1 R 15 20 R 15 27 R 15 10 R 14 -10 R 15 -15 R 15 -7 R 15 -1 R
15 1 R 15 2 R 15 11 R 15 17 R 15 13 R 14 2 R 15 -12 R 15 -20 R 15 -22 R
15 -23 R 15 -19 R 15 -14 R 15 -5 R 15 0 R 14 1 R 15 1 R 15 4 R 15 2 R
15 -17 R 15 -50 R 15 -74 R 15 -64 R 15 -18 R 15 37 R 14 66 R 15 55 R 15 24 R
15 7 R 15 15 R 15 29 R 15 28 R 15 6 R 15 -22 R 14 -43 R 15 -80 R 15 -157 R
15 -266 R 15 -351 R 15 -369 R 15 -340 R 15 -316 R 15 -306 R 15 -270 R
14 -241 R 15 -335 R 15 -556 R 15 -748 R 15 -778 R 15 -663 R 15 -495 R
15 -357 R 15 -329 R 14 -444 R 15 -625 R 15 -713 R 15 -620 R 15 -427 R
15 -255 R 15 -143 R 15 -81 R 15 -45 R 15 -27 R 14 -16 R 15 -10 R 15 -6 R
15 -5 R 15 -2 R 15 -2 R 15 -2 R 15 -1 R 15 -1 R 14 0 R 15 -1 R 15 0 R
15 -1 R 15 0 R 15 0 R 15 0 R 15 0 R 15 0 R 14 0 R 15 -1 R 15 0 R 15 0 R
15 0 R 15 0 R 15 0 R 15 0 R 15 0 R 15 0 R 14 0 R 15 0 R 15 0 R 15 0 R 15 0 R
15 0 R 15 0 R 15 0 R 15 0 R 14 0 R 15 0 R 15 0 R 15 0 R 15 0 R 15 0 R 15 0 R
15 0 R 15 0 R 15 0 R 14 0 R 15 0 R 15 0 R 15 0 R 15 0 R 15 0 R 15 0 R 15 0 R
15 0 R 14 0 R 15 0 R 15 0 R 15 0 R 15 0 R 15 0 R 15 0 R 15 0 R 15 0 R 15 0 R
14 0 R 15 0 R 15 0 R 15 0 R 15 0 R 15 0 R 15 0 R 15 0 R 15 0 R 14 0 R 15 0 R
15 0 R 15 0 R 15 0 R 15 0 R 15 0 R 15 0 R 15 0 R 14 0 R 15 0 R 15 0 R 15 0 R
15 0 R 15 0 R 15 0 R 15 0 R 15 0 R 15 0 R 14 0 R 15 0 R 15 0 R 15 0 R 15 1 R
15 0 R 15 0 R 15 0 R 15 0 R 14 0 R 15 0 R 15 0 R 15 0 R 15 0 R 15 -1 R
15 0 R 15 0 R 15 0 R 15 0 R 14 0 R 15 5 R 15 0 R 15 -2 R 15 -1 R 15 -1 R
15 0 R 15 0 R 15 0 R 14 0 R 15 1 R 15 0 R 15 -2 R 15 0 R 15 2 R 15 -2 R
15 1 R 15 0 R 15 -1 R 14 0 R 15 0 R 15 0 R 15 0 R 15 0 R 15 0 R 15 0 R
15 0 R 15 0 R 14 0 R 15 0 R 15 0 R 15 0 R 15 0 R 15 0 R 15 0 R 15 0 R 15 0 R
14 0 R 15 0 R 15 0 R 15 0 R 15 0 R 15 0 R 15 0 R 15 0 R 15 0 R 15 0 R 14 1 R
15 0 R 15 0 R 15 3 R 15 -3 R 15 -1 R 15 0 R 15 0 R 15 0 R 14 0 R 15 0 R
15 0 R 15 0 R 15 0 R 15 1 R 15 2 R 15 -1 R 15 -2 R 15 0 R 14 0 R 15 0 R
15 0 R 15 0 R 15 0 R 15 0 R 15 0 R 15 0 R 15 0 R 14 0 R 15 0 R 15 0 R 15 0 R
15 0 R 15 0 R 15 0 R 15 0 R 15 0 R 15 1 R 14 -1 R 15 0 R 15 0 R 15 0 R
15 0 R 15 0 R 15 0 R 15 0 R 15 1 R 14 0 R 15 0 R 15 -1 R 15 0 R 15 0 R
15 0 R 15 0 R 15 0 R 15 0 R 15 0 R 14 0 R 15 0 R 15 0 R 15 0 R 15 0 R 15 0 R
15 0 R 15 0 R 15 0 R 14 0 R 15 0 R 15 0 R 15 0 R 15 0 R 15 0 R 15 0 R 15 0 R
15 0 R 14 0 R 15 0 R 15 0 R 15 0 R 15 0 R 15 0 R 15 0 R 15 0 R 15 0 R 15 0 R
14 0 R 15 0 R 15 0 R 15 0 R 15 0 R 15 0 R 15 0 R 15 0 R 15 0 R 14 0 R 15 0 R
15 0 R 15 0 R 15 0 R 15 0 R 15 0 R 15 0 R 15 0 R 15 0 R 14 0 R 15 0 R 15 0 R
15 0 R 15 0 R 15 0 R 15 0 R 15 0 R 15 0 R 14 0 R 15 0 R 15 0 R 15 0 R 15 0 R
15 0 R 15 0 R 15 0 R 15 0 R 15 0 R 14 0 R 15 0 R 15 0 R 15 0 R 15 0 R 15 0 R
15 0 R 15 0 R 15 0 R 14 0 R 15 0 R 15 0 R 15 0 R 15 0 R 15 0 R 15 0 R 15 0 R
15 0 R 14 0 R 15 2 R 15 1 R 15 -1 R 15 0 R 15 0 R 15 1 R 15 0 R 15 -1 R
15 -1 R 14 0 R 15 0 R 15 -1 R 15 1 R 15 0 R 15 0 R 15 0 R 15 0 R 15 1 R
14 3 R 15 0 R 15 0 R 15 -2 R 15 -1 R 15 -1 R 15 -1 R 15 0 R 15 0 R 15 0 R
14 0 R 15 0 R 15 0 R 15 1 R 15 0 R 15 0 R 15 0 R 15 0 R 15 1 R 14 3 R 15 6 R
15 -5 R 15 -3 R 15 -2 R 15 0 R 15 0 R 15 -1 R 15 0 R 15 0 R 14 0 R 15 1 R
15 0 R 15 2 R 15 -1 R 15 2 R 15 2 R 15 -4 R 15 -1 R 14 1 R 15 0 R 15 -1 R
15 -1 R 15 0 R 15 0 R 15 0 R 15 1 R 15 0 R 14 2 R 15 17 R 15 -18 R 15 -1 R
15 -1 R 15 0 R 15 0 R 15 0 R 15 0 R 15 0 R 14 0 R 15 1 R 15 5 R 15 -5 R
15 0 R 15 8 R 15 -7 R 15 -2 R 15 0 R 14 0 R 15 0 R 15 0 R 15 0 R 15 0 R
15 0 R 15 0 R 15 0 R 15 0 R 15 0 R 14 0 R 15 0 R 15 1 R 15 2 R 15 16 R
15 -13 R 15 -5 R 15 0 R 15 -1 R 14 0 R 15 1 R 15 0 R 15 -1 R 15 0 R 15 0 R
15 0 R 15 0 R 15 0 R 15 0 R 14 0 R 15 0 R 15 0 R 15 1 R 15 2 R 15 6 R
15 -8 R 15 7 R 15 -7 R 14 -1 R 15 0 R 15 0 R 15 0 R 15 0 R 15 0 R 15 0 R
15 0 R 15 0 R 15 0 R 14 0 R 15 0 R 15 0 R 15 0 R 15 0 R 15 0 R 15 0 R 15 0 R
15 0 R 14 0 R 15 0 R 15 1 R 15 0 R 15 -1 R 15 0 R 15 0 R 15 0 R 15 0 R
14 0 R 15 0 R 15 0 R 15 0 R 15 0 R 15 0 R 15 0 R 15 0 R 15 0 R 15 0 R 14 0 R
15 0 R 15 0 R 15 0 R 15 0 R 15 0 R 15 0 R 15 0 R 15 0 R 14 0 R 15 0 R 15 0 R
15 0 R 15 0 R 15 0 R 15 0 R 15 0 R 15 0 R 15 0 R 14 0 R 15 0 R 15 0 R 15 0 R
15 0 R D 14880 1408 M 15 0 R 15 0 R 15 0 R 15 0 R 14 0 R 15 0 R 15 0 R
15 0 R 15 0 R 15 0 R 15 0 R 15 0 R 15 0 R 15 0 R 14 0 R 15 0 R 15 0 R 15 0 R
15 0 R 15 0 R 15 0 R 15 0 R 15 0 R 14 0 R 15 0 R 15 0 R 15 0 R 15 0 R 15 0 R
15 0 R 15 0 R 15 0 R 14 0 R 15 0 R 15 0 R 15 0 R 15 0 R 15 0 R 15 0 R 15 0 R
15 0 R 15 0 R 14 0 R 15 0 R 15 0 R 15 0 R 15 0 R 15 0 R 15 0 R 15 0 R 15 0 R
14 0 R 15 0 R 15 0 R 15 0 R 15 0 R 15 0 R 15 0 R 15 0 R 15 0 R 15 0 R 14 0 R
15 0 R 15 0 R 15 0 R 15 0 R 15 0 R 15 0 R 15 0 R 15 0 R 14 0 R 15 0 R 15 0 R
15 0 R 15 0 R 15 0 R 15 0 R 15 0 R 15 0 R 15 0 R 14 0 R 15 0 R 15 0 R 15 0 R
15 0 R 15 0 R 15 0 R 15 0 R 15 0 R 14 0 R 15 1 R 15 0 R 15 0 R 15 0 R 15 0 R
15 0 R 15 0 R 15 0 R 14 0 R 15 0 R 15 0 R 15 0 R 15 0 R 15 0 R 15 0 R 15 1 R
15 0 R 15 0 R 14 0 R 15 0 R 15 0 R 15 0 R 15 0 R 15 1 R 15 0 R 15 0 R 15 0 R
14 1 R 15 0 R 15 1 R 15 0 R 15 0 R 15 1 R 15 1 R 15 1 R 15 1 R 15 1 R 14 1 R
15 1 R 15 2 R 15 2 R 15 2 R 15 3 R 15 3 R 15 4 R 15 5 R 14 5 R 15 7 R 15 8 R
15 10 R 15 12 R 15 15 R 15 18 R 15 22 R 15 26 R 15 32 R 14 38 R 15 44 R
15 49 R 15 51 R D 3709 1408 M 15 2 R 15 -1 R 15 0 R 15 -1 R 15 0 R 15 0 R
15 0 R 15 0 R 15 1 R 14 0 R 15 1 R 15 -2 R 15 0 R 15 0 R 15 0 R 15 1 R
15 0 R 15 -1 R 14 0 R 15 0 R 15 0 R 15 0 R 15 0 R 15 0 R 15 0 R 15 0 R
15 0 R 15 0 R 14 0 R 15 0 R 15 0 R 15 0 R 15 0 R 15 1 R 15 0 R 15 0 R 15 0 R
14 0 R 15 0 R 15 0 R 15 2 R 15 -1 R 15 -1 R 15 0 R 15 3 R 15 -1 R 15 -1 R
14 4 R 15 0 R 15 -3 R 15 -2 R 15 0 R 15 0 R 15 0 R 15 -1 R 15 0 R 14 0 R
15 0 R 15 0 R 15 0 R 15 0 R 15 0 R 15 0 R 15 0 R 15 0 R 14 0 R 15 0 R 15 1 R
15 0 R 15 0 R 15 0 R 15 1 R 15 -2 R 15 0 R 15 2 R 14 -1 R 15 0 R 15 0 R
15 0 R 15 0 R 15 0 R 15 0 R 15 0 R 15 0 R 14 0 R 15 0 R 15 2 R 15 -1 R
15 -1 R 15 0 R 15 3 R 15 -1 R 15 -1 R 15 4 R 14 0 R 15 -3 R 15 -2 R 15 0 R
15 0 R 15 0 R 15 -1 R 15 0 R 15 0 R 14 0 R 15 0 R 15 0 R 15 0 R 15 0 R
15 0 R 15 0 R 15 0 R 15 0 R 15 0 R 14 1 R 15 0 R 15 0 R 15 0 R 15 1 R
15 -2 R 15 0 R 15 2 R 15 -1 R 14 0 R 15 0 R 15 0 R 15 0 R 15 0 R 15 1 R
15 -2 R 15 1 R 15 -1 R 14 0 R 15 1 R 15 0 R 15 -1 R 15 2 R 15 -1 R 15 0 R
15 -1 R 15 0 R 15 0 R 14 0 R 15 0 R 15 1 R 15 0 R 15 1 R 15 -2 R 15 0 R
15 0 R 15 0 R 14 1 R 15 0 R 15 0 R 15 0 R 15 -1 R 15 0 R 15 0 R 15 0 R
15 0 R 15 0 R 14 0 R 15 0 R 15 0 R 15 0 R 15 0 R 15 0 R 15 0 R 15 0 R 15 0 R
14 0 R 15 0 R 15 0 R 15 0 R 15 0 R 15 0 R 15 0 R 15 0 R 15 0 R 15 0 R 14 0 R
15 0 R 15 0 R 15 0 R 15 1 R 15 0 R 15 0 R 15 1 R 15 2 R 14 2 R 15 -1 R
15 -1 R 15 0 R 15 1 R 15 -1 R 15 -1 R 15 0 R 15 0 R 15 1 R 14 2 R 15 2 R
15 -1 R 15 -1 R 15 -2 R 15 0 R 15 -1 R 15 0 R 15 0 R 14 1 R 15 0 R 15 1 R
15 0 R 15 1 R 15 1 R 15 2 R 15 2 R 15 2 R 14 3 R 15 4 R 15 5 R 15 6 R 15 7 R
15 8 R 15 10 R 15 12 R 15 14 R 15 17 R 14 20 R 15 24 R 15 29 R 15 37 R
15 47 R 15 62 R 15 83 R 15 110 R 15 143 R 14 183 R 15 221 R 15 247 R
15 249 R 15 219 R 15 172 R 15 139 R 15 145 R 15 198 R 15 294 R 14 433 R
15 606 R 15 784 R 15 885 R 15 810 R 15 563 R 15 298 R 15 144 R 15 123 R
14 191 R 15 293 R 15 404 R 15 514 R 15 591 R 15 560 R 15 385 R 15 160 R
15 9 R 15 -37 R 14 -28 R 15 -9 R 15 5 R 15 7 R 15 8 R 15 15 R 15 28 R
15 35 R 15 27 R 14 1 R 15 -31 R 15 -53 R 15 -54 R 15 -31 R 15 8 R 15 44 R
15 66 R 15 61 R 14 34 R 15 -5 R 15 -38 R 15 -56 R 15 -54 R 15 -34 R 15 -7 R
15 20 R 15 37 R 15 43 R 14 38 R 15 23 R 15 4 R 15 -15 R 15 -27 R 15 -32 R
15 -27 R 15 -11 R 15 7 R 14 24 R 15 33 R 15 32 R 15 18 R 15 -1 R 15 -20 R
15 -28 R 15 -27 R 15 -13 R 15 6 R 14 22 R 15 27 R 15 21 R 15 4 R 15 -16 R
15 -30 R 15 -34 R 15 -24 R 15 -7 R 14 12 R 15 24 R 15 23 R 15 10 R 15 -9 R
15 -27 R 15 -37 R 15 -33 R 15 -18 R 15 1 R 14 18 R 15 25 R 15 18 R 15 2 R
15 -18 R 15 -33 R 15 -37 R 15 -28 R 15 -9 R 14 13 R 15 31 R 15 36 R 15 30 R
15 12 R 15 -7 R 15 -22 R 15 -27 R 15 -19 R 14 -3 R 15 17 R 15 32 R 15 40 R
15 34 R 15 20 R 15 3 R 15 -13 R 15 -23 R 15 -23 R 14 -15 R 15 -5 R 15 7 R
15 14 R 15 16 R 15 13 R 15 6 R 15 -3 R 15 -11 R 14 -16 R 15 -17 R 15 -14 R
15 -8 R 15 -6 R 15 -12 R 15 -39 R 15 -90 R 15 -158 R 15 -227 R 14 -274 R
15 -296 R 15 -298 R 15 -295 R 15 -289 R 15 -278 R 15 -272 R 15 -293 R
15 -359 R 14 -436 R 15 -472 R 15 -456 R 15 -424 R 15 -400 R 15 -390 R
15 -389 R 15 -403 R 15 -445 R 15 -508 R 14 -568 R 15 -581 R 15 -521 R
15 -405 R 15 -280 R 15 -185 R 15 -118 R 15 -76 R 15 -49 R 14 -32 R 15 -22 R
15 -15 R 15 -11 R 15 -8 R 15 -5 R 15 -5 R 15 -3 R 15 -2 R 14 -2 R 15 -1 R
15 -1 R 15 -1 R 15 0 R 15 -1 R 15 0 R 15 -1 R 15 0 R 15 0 R 14 0 R 15 -1 R
15 0 R 15 0 R 15 0 R 15 0 R 15 0 R 15 0 R 15 0 R 14 0 R 15 0 R 15 0 R
15 -1 R 15 0 R 15 0 R 15 0 R 15 0 R 15 0 R 15 0 R 14 0 R 15 0 R 15 0 R
15 0 R 15 0 R 15 0 R 15 0 R 15 0 R 15 0 R 14 0 R 15 0 R 15 0 R 15 0 R 15 0 R
15 0 R 15 0 R 15 0 R 15 0 R 15 0 R 14 0 R 15 0 R 15 0 R 15 0 R 15 0 R 15 0 R
15 0 R 15 0 R 15 0 R 14 0 R 15 0 R 15 0 R 15 0 R 15 0 R 15 -1 R 15 0 R
15 0 R 15 0 R 15 0 R 14 0 R 15 0 R 15 0 R 15 0 R 15 0 R 15 0 R 15 0 R 15 0 R
15 0 R 14 1 R 15 0 R 15 0 R 15 0 R 15 0 R 15 0 R 15 0 R 15 0 R 15 0 R 14 0 R
15 -1 R 15 0 R 15 1 R 15 0 R 15 0 R 15 0 R 15 0 R 15 0 R 15 0 R 14 0 R
15 0 R 15 0 R 15 0 R 15 0 R 15 0 R 15 6 R 15 -4 R 15 -1 R 14 0 R 15 3 R
15 9 R 15 20 R 15 -26 R 15 -5 R 15 -2 R 15 0 R 15 0 R 15 0 R 14 0 R 15 0 R
15 0 R 15 1 R 15 11 R 15 -5 R 15 12 R 15 -10 R 15 -8 R 14 -1 R 15 0 R
15 -1 R 15 0 R 15 0 R 15 0 R 15 0 R 15 0 R 15 0 R 15 0 R 14 0 R 15 0 R
15 0 R 15 0 R 15 0 R 15 0 R 15 0 R 15 0 R 15 0 R 14 0 R 15 0 R 15 0 R 15 0 R
15 0 R 15 0 R 15 0 R 15 0 R 15 0 R 14 0 R 15 0 R 15 0 R 15 0 R 15 1 R 15 0 R
15 1 R 15 2 R 15 0 R 15 -1 R 14 -2 R 15 0 R 15 0 R 15 -1 R 15 0 R 15 0 R
15 0 R 15 0 R 15 0 R 14 1 R 15 0 R 15 -1 R 15 0 R 15 0 R 15 0 R 15 1 R
15 0 R 15 1 R 15 0 R 14 -1 R 15 0 R 15 0 R 15 0 R 15 0 R 15 -1 R 15 0 R
15 0 R 15 0 R 14 0 R 15 0 R 15 0 R 15 0 R 15 0 R 15 0 R 15 0 R 15 1 R 15 0 R
15 0 R 14 0 R 15 1 R 15 0 R 15 0 R 15 0 R 15 0 R 15 0 R 15 -1 R 15 0 R
14 0 R 15 0 R 15 0 R 15 0 R 15 0 R 15 0 R 15 0 R 15 0 R 15 0 R 14 0 R 15 0 R
15 0 R 15 0 R 15 0 R 15 1 R 15 0 R 15 0 R 15 -1 R 15 0 R 14 0 R 15 0 R
15 0 R 15 0 R 15 -1 R 15 0 R 15 0 R 15 0 R 15 0 R 14 0 R 15 0 R 15 0 R
15 0 R 15 0 R 15 0 R 15 0 R 15 1 R 15 0 R 15 0 R 14 0 R 15 0 R 15 0 R 15 1 R
15 0 R 15 1 R 15 0 R 15 0 R 15 0 R 14 0 R 15 0 R 15 -1 R 15 0 R 15 0 R
15 0 R 15 0 R 15 0 R 15 -1 R 15 0 R 14 0 R 15 0 R 15 0 R 15 0 R 15 0 R
15 0 R 15 0 R 15 0 R 15 0 R 14 0 R 15 0 R 15 0 R 15 0 R 15 0 R 15 0 R 15 0 R
15 0 R 15 -1 R 15 0 R 14 0 R 15 0 R 15 0 R 15 0 R 15 0 R 15 0 R 15 0 R
15 0 R 15 0 R 14 0 R 15 0 R 15 0 R 15 0 R 15 0 R 15 0 R 15 0 R 15 0 R 15 0 R
14 0 R 15 0 R 15 0 R 15 0 R 15 0 R 15 0 R 15 1 R 15 0 R 15 0 R 15 0 R 14 0 R
15 1 R 15 0 R 15 1 R 15 1 R 15 1 R 15 1 R 15 2 R 15 3 R 14 2 R 15 2 R 15 1 R
15 1 R 15 0 R 15 0 R 15 -2 R 15 -2 R 15 -2 R 15 -2 R 14 -1 R 15 -1 R 15 -1 R
15 0 R 15 0 R D 14880 1414 M 15 1 R 15 1 R 15 1 R 15 1 R 14 0 R 15 -1 R
15 0 R 15 0 R 15 1 R 15 1 R 15 1 R 15 2 R 15 2 R 15 1 R 14 0 R 15 0 R
15 -1 R 15 0 R 15 -1 R 15 -1 R 15 -2 R 15 -3 R 15 -1 R 14 -2 R 15 -1 R
15 -1 R 15 0 R 15 0 R 15 0 R 15 0 R 15 0 R 15 0 R 14 0 R 15 1 R 15 1 R
15 1 R 15 3 R 15 3 R 15 4 R 15 5 R 15 5 R 15 1 R 14 -2 R 15 -4 R 15 -4 R
15 -3 R 15 -2 R 15 -1 R 15 0 R 15 1 R 15 2 R 14 2 R 15 0 R 15 -1 R 15 -2 R
15 -1 R 15 -1 R 15 -1 R 15 0 R 15 1 R 15 2 R 14 2 R 15 4 R 15 5 R 15 4 R
15 3 R 15 0 R 15 -1 R 15 0 R 15 -2 R 14 -3 R 15 -4 R 15 -3 R 15 -3 R 15 -2 R
15 -1 R 15 -1 R 15 -1 R 15 -1 R 15 0 R 14 -1 R 15 0 R 15 0 R 15 -1 R 15 0 R
15 0 R 15 0 R 15 0 R 15 0 R 14 0 R 15 0 R 15 0 R 15 0 R 15 0 R 15 0 R 15 0 R
15 0 R 15 0 R 14 1 R 15 0 R 15 0 R 15 1 R 15 0 R 15 1 R 15 1 R 15 1 R 15 1 R
15 2 R 14 2 R 15 3 R 15 3 R 15 4 R 15 4 R 15 3 R 15 3 R 15 2 R 15 0 R
14 -1 R 15 -1 R 15 -1 R 15 -1 R 15 0 R 15 0 R 15 0 R 15 0 R 15 0 R 15 -1 R
14 -1 R 15 -2 R 15 -1 R 15 0 R 15 -1 R 15 1 R 15 1 R 15 2 R 15 3 R 14 4 R
15 4 R 15 4 R 15 4 R 15 3 R 15 2 R 15 1 R 15 0 R 15 -1 R 15 -2 R 14 -3 R
15 -2 R 15 -2 R 15 -2 R D 3709 1409 M 15 0 R 15 0 R 15 0 R 15 0 R 15 0 R
15 0 R 15 2 R 15 -1 R 15 -1 R 14 0 R 15 0 R 15 0 R 15 1 R 15 0 R 15 0 R
15 -1 R 15 0 R 15 0 R 14 0 R 15 0 R 15 -1 R 15 0 R 15 0 R 15 0 R 15 0 R
15 0 R 15 0 R 15 0 R 14 0 R 15 0 R 15 0 R 15 0 R 15 0 R 15 1 R 15 0 R 15 0 R
15 0 R 14 1 R 15 -2 R 15 0 R 15 2 R 15 -1 R 15 0 R 15 0 R 15 0 R 15 0 R
15 0 R 14 1 R 15 -2 R 15 1 R 15 -1 R 15 0 R 15 1 R 15 0 R 15 -1 R 15 2 R
14 -1 R 15 0 R 15 -1 R 15 0 R 15 0 R 15 0 R 15 0 R 15 1 R 15 0 R 14 1 R
15 -2 R 15 0 R 15 0 R 15 0 R 15 1 R 15 0 R 15 0 R 15 0 R 15 -1 R 14 0 R
15 0 R 15 0 R 15 0 R 15 0 R 15 0 R 15 0 R 15 0 R 15 0 R 14 0 R 15 0 R
15 21 R 15 -6 R 15 -3 R 15 5 R 15 1 R 15 -13 R 15 -2 R 15 -1 R 14 -1 R
15 1 R 15 1 R 15 0 R 15 -1 R 15 1 R 15 -2 R 15 -1 R 15 0 R 14 0 R 15 0 R
15 0 R 15 0 R 15 1 R 15 -1 R 15 0 R 15 0 R 15 0 R 15 0 R 14 0 R 15 1 R
15 -1 R 15 0 R 15 0 R 15 0 R 15 0 R 15 0 R 15 0 R 14 0 R 15 0 R 15 0 R
15 0 R 15 0 R 15 0 R 15 0 R 15 0 R 15 0 R 14 0 R 15 0 R 15 0 R 15 0 R 15 1 R
15 0 R 15 0 R 15 0 R 15 0 R 15 0 R 14 0 R 15 0 R 15 1 R 15 -1 R 15 0 R
15 -1 R 15 0 R 15 1 R 15 0 R 14 0 R 15 0 R 15 0 R 15 0 R 15 -1 R 15 0 R
15 0 R 15 0 R 15 0 R 15 1 R 14 0 R 15 1 R 15 -1 R 15 0 R 15 -1 R 15 0 R
15 1 R 15 -1 R 15 0 R 14 0 R 15 0 R 15 1 R 15 0 R 15 0 R 15 0 R 15 -1 R
15 0 R 15 0 R 15 0 R 14 0 R 15 0 R 15 1 R 15 0 R 15 -1 R 15 0 R 15 0 R
15 0 R 15 0 R 14 0 R 15 0 R 15 0 R 15 1 R 15 0 R 15 0 R 15 -1 R 15 0 R
15 0 R 15 0 R 14 0 R 15 0 R 15 0 R 15 0 R 15 0 R 15 1 R 15 0 R 15 0 R 15 0 R
14 -1 R 15 0 R 15 0 R 15 0 R 15 0 R 15 0 R 15 0 R 15 0 R 15 0 R 14 0 R
15 0 R 15 0 R 15 0 R 15 0 R 15 0 R 15 0 R 15 0 R 15 0 R 15 0 R 14 0 R 15 0 R
15 0 R 15 0 R 15 0 R 15 0 R 15 1 R 15 2 R 15 -1 R 14 -1 R 15 0 R 15 0 R
15 1 R 15 3 R 15 -4 R 15 -1 R 15 0 R 15 1 R 15 3 R 14 17 R 15 -11 R 15 -4 R
15 -5 R 15 -1 R 15 0 R 15 0 R 15 1 R 15 8 R 14 -7 R 15 -2 R 15 0 R 15 0 R
15 0 R 15 0 R 15 1 R 15 -1 R 15 0 R 15 1 R 14 1 R 15 -1 R 15 1 R 15 -2 R
15 2 R 15 -2 R 15 0 R 15 0 R 15 0 R 14 0 R 15 0 R 15 0 R 15 1 R 15 0 R
15 1 R 15 -2 R 15 0 R 15 0 R 14 0 R 15 0 R 15 0 R 15 0 R 15 0 R 15 0 R
15 0 R 15 0 R 15 1 R 15 -1 R 14 1 R 15 -1 R 15 0 R 15 0 R 15 1 R 15 -1 R
15 0 R 15 0 R 15 0 R 14 0 R 15 0 R 15 0 R 15 0 R 15 0 R 15 0 R 15 0 R 15 0 R
15 1 R 15 0 R 14 0 R 15 0 R 15 0 R 15 0 R 15 0 R 15 0 R 15 0 R 15 0 R
15 -1 R 14 0 R 15 0 R 15 0 R 15 0 R 15 1 R 15 0 R 15 0 R 15 0 R 15 0 R
15 0 R 14 1 R 15 0 R 15 2 R 15 1 R 15 -1 R 15 -1 R 15 0 R 15 0 R 15 0 R
14 0 R 15 0 R 15 0 R 15 0 R 15 1 R 15 1 R 15 2 R 15 2 R 15 2 R 14 2 R 15 1 R
15 3 R 15 4 R 15 5 R 15 5 R 15 5 R 15 5 R 15 5 R 15 4 R 14 5 R 15 5 R 15 7 R
15 8 R 15 10 R 15 14 R 15 21 R 15 29 R 15 44 R 14 66 R 15 101 R 15 156 R
15 231 R 15 292 R 15 277 R 15 173 R 15 80 R 15 73 R 15 137 R 14 208 R
15 218 R 15 192 R 15 206 R 15 254 R 15 298 R 15 329 R 15 371 R 15 445 R
14 531 R 15 574 R 15 555 R 15 457 R 15 298 R 15 165 R 15 115 R 15 151 R
15 243 R 15 358 R 14 461 R 15 520 R 15 516 R 15 438 R 15 302 R 15 140 R
15 5 R 15 -67 R 15 -71 R 14 -34 R 15 16 R 15 58 R 15 84 R 15 87 R 15 72 R
15 45 R 15 13 R 15 -13 R 14 -29 R 15 -33 R 15 -28 R 15 -17 R 15 -4 R 15 8 R
15 15 R 15 19 R 15 17 R 15 14 R 14 9 R 15 3 R 15 -1 R 15 -2 R 15 -3 R
15 -2 R 15 1 R 15 3 R 15 5 R 14 8 R 15 10 R 15 11 R 15 13 R 15 13 R 15 13 R
15 13 R 15 10 R 15 8 R 15 3 R 14 -1 R 15 -7 R 15 -11 R 15 -14 R 15 -16 R
15 -15 R 15 -13 R 15 -7 R 15 -1 R 14 6 R 15 12 R 15 17 R 15 20 R 15 20 R
15 17 R 15 12 R 15 6 R 15 -2 R 15 -9 R 14 -15 R 15 -20 R 15 -21 R 15 -21 R
15 -19 R 15 -15 R 15 -10 R 15 -5 R 15 0 R 14 3 R 15 5 R 15 6 R 15 3 R 15 2 R
15 -3 R 15 -5 R 15 -9 R 15 -11 R 15 -11 R 14 -13 R 15 -11 R 15 -10 R
15 -10 R 15 -8 R 15 -8 R 15 -9 R 15 -8 R 15 -8 R 14 -8 R 15 -6 R 15 -4 R
15 -2 R 15 -1 R 15 -1 R 15 -7 R 15 -18 R 15 -37 R 14 -65 R 15 -100 R
15 -136 R 15 -172 R 15 -201 R 15 -222 R 15 -237 R 15 -244 R 15 -246 R
15 -245 R 14 -241 R 15 -233 R 15 -224 R 15 -217 R 15 -214 R 15 -220 R
15 -234 R 15 -259 R 15 -293 R 14 -330 R 15 -368 R 15 -397 R 15 -417 R
15 -422 R 15 -416 R 15 -399 R 15 -375 R 15 -348 R 15 -319 R 14 -292 R
15 -266 R 15 -241 R 15 -217 R 15 -194 R 15 -172 R 15 -149 R 15 -128 R
15 -108 R 14 -90 R 15 -75 R 15 -60 R 15 -49 R 15 -40 R 15 -32 R 15 -27 R
15 -21 R 15 -18 R 15 -15 R 14 -12 R 15 -11 R 15 -8 R 15 -8 R 15 -7 R 15 -5 R
15 -5 R 15 -5 R 15 -4 R 14 -3 R 15 -3 R 15 -3 R 15 -2 R 15 -3 R 15 -2 R
15 -2 R 15 -2 R 15 -2 R 14 -2 R 15 -2 R 15 -2 R 15 -1 R 15 -1 R 15 -1 R
15 -1 R 15 -1 R 15 -1 R 15 0 R 14 -1 R 15 0 R 15 0 R 15 -1 R 15 0 R 15 0 R
15 -1 R 15 0 R 15 0 R 14 0 R 15 0 R 15 -1 R 15 0 R 15 0 R 15 0 R 15 0 R
15 0 R 15 0 R 15 -1 R 14 0 R 15 0 R 15 0 R 15 0 R 15 0 R 15 0 R 15 0 R
15 -1 R 15 0 R 14 0 R 15 0 R 15 0 R 15 0 R 15 0 R 15 0 R 15 0 R 15 0 R
15 0 R 15 0 R 14 0 R 15 0 R 15 0 R 15 0 R 15 0 R 15 0 R 15 0 R 15 0 R 15 0 R
14 0 R 15 0 R 15 -1 R 15 0 R 15 0 R 15 0 R 15 0 R 15 0 R 15 1 R 14 0 R
15 0 R 15 0 R 15 0 R 15 -1 R 15 0 R 15 0 R 15 0 R 15 0 R 15 0 R 14 0 R
15 0 R 15 0 R 15 0 R 15 0 R 15 0 R 15 0 R 15 0 R 15 1 R 14 0 R 15 0 R 15 0 R
15 -1 R 15 0 R 15 0 R 15 0 R 15 0 R 15 0 R 15 0 R 14 0 R 15 0 R 15 0 R
15 0 R 15 0 R 15 0 R 15 0 R 15 0 R 15 0 R 14 -1 R 15 0 R 15 0 R 15 0 R
15 0 R 15 0 R 15 0 R 15 0 R 15 0 R 15 0 R 14 0 R 15 0 R 15 0 R 15 0 R 15 0 R
15 0 R 15 0 R 15 0 R 15 0 R 14 0 R 15 0 R 15 0 R 15 0 R 15 0 R 15 0 R 15 0 R
15 0 R 15 0 R 15 0 R 14 0 R 15 0 R 15 0 R 15 0 R 15 0 R 15 0 R 15 0 R 15 0 R
15 0 R 14 0 R 15 0 R 15 0 R 15 0 R 15 0 R 15 0 R 15 0 R 15 0 R 15 0 R 14 0 R
15 0 R 15 0 R 15 1 R 15 0 R 15 2 R 15 7 R 15 5 R 15 -10 R 15 -3 R 14 -1 R
15 0 R 15 0 R 15 -1 R 15 0 R 15 1 R 15 1 R 15 4 R 15 -5 R 14 -1 R 15 0 R
15 0 R 15 0 R 15 0 R 15 0 R 15 1 R 15 0 R 15 1 R 15 4 R 14 7 R 15 -10 R
15 -1 R 15 5 R 15 -2 R D 14880 1413 M 15 -4 R 15 0 R 15 0 R 15 0 R 14 0 R
15 0 R 15 0 R 15 0 R 15 0 R 15 0 R 15 0 R 15 0 R 15 1 R 15 0 R 14 0 R
15 -1 R 15 0 R 15 0 R 15 0 R 15 0 R 15 0 R 15 0 R 15 0 R 14 0 R 15 0 R
15 0 R 15 0 R 15 0 R 15 0 R 15 0 R 15 0 R 15 0 R 14 0 R 15 0 R 15 0 R 15 0 R
15 1 R 15 0 R 15 -1 R 15 0 R 15 0 R 15 0 R 14 0 R 15 0 R 15 0 R 15 -1 R
15 0 R 15 0 R 15 0 R 15 0 R 15 0 R 14 0 R 15 0 R 15 0 R 15 0 R 15 0 R 15 0 R
15 0 R 15 0 R 15 0 R 15 0 R 14 0 R 15 0 R 15 0 R 15 0 R 15 0 R 15 0 R 15 1 R
15 0 R 15 0 R 14 0 R 15 0 R 15 0 R 15 0 R 15 0 R 15 0 R 15 0 R 15 1 R 15 0 R
15 0 R 14 0 R 15 0 R 15 0 R 15 1 R 15 0 R 15 0 R 15 0 R 15 0 R 15 0 R 14 0 R
15 0 R 15 0 R 15 0 R 15 0 R 15 0 R 15 0 R 15 0 R 15 0 R 14 0 R 15 0 R 15 0 R
15 0 R 15 0 R 15 0 R 15 0 R 15 1 R 15 0 R 15 0 R 14 0 R 15 0 R 15 0 R 15 0 R
15 0 R 15 0 R 15 0 R 15 0 R 15 0 R 14 0 R 15 0 R 15 0 R 15 0 R 15 1 R 15 0 R
15 0 R 15 0 R 15 1 R 15 0 R 14 0 R 15 1 R 15 1 R 15 0 R 15 1 R 15 1 R 15 1 R
15 2 R 15 2 R 14 2 R 15 2 R 15 3 R 15 4 R 15 4 R 15 6 R 15 7 R 15 9 R
15 11 R 15 14 R 14 18 R 15 24 R 15 31 R 15 41 R D 3709 1408 M 15 0 R 15 0 R
15 0 R 15 1 R 15 0 R 15 0 R 15 0 R 15 1 R 15 -2 R 14 0 R 15 2 R 15 -1 R
15 0 R 15 0 R 15 0 R 15 0 R 15 0 R 15 1 R 14 -2 R 15 1 R 15 -1 R 15 0 R
15 1 R 15 0 R 15 -1 R 15 2 R 15 -1 R 15 0 R 14 -1 R 15 0 R 15 0 R 15 0 R
15 0 R 15 1 R 15 0 R 15 1 R 15 -2 R 14 0 R 15 0 R 15 0 R 15 1 R 15 0 R
15 0 R 15 0 R 15 -1 R 15 0 R 15 0 R 14 0 R 15 0 R 15 0 R 15 0 R 15 0 R
15 0 R 15 0 R 15 0 R 15 0 R 14 21 R 15 -6 R 15 -3 R 15 5 R 15 1 R 15 -13 R
15 -2 R 15 -1 R 15 -1 R 14 1 R 15 1 R 15 0 R 15 -1 R 15 1 R 15 -2 R 15 -1 R
15 0 R 15 0 R 15 0 R 14 0 R 15 0 R 15 1 R 15 -1 R 15 0 R 15 0 R 15 0 R
15 0 R 15 0 R 14 1 R 15 -1 R 15 0 R 15 0 R 15 0 R 15 0 R 15 0 R 15 0 R
15 0 R 15 0 R 14 0 R 15 0 R 15 0 R 15 0 R 15 0 R 15 0 R 15 0 R 15 0 R 15 0 R
14 0 R 15 0 R 15 1 R 15 0 R 15 0 R 15 0 R 15 0 R 15 0 R 15 0 R 15 0 R 14 1 R
15 -1 R 15 0 R 15 -1 R 15 0 R 15 1 R 15 0 R 15 0 R 15 0 R 14 0 R 15 0 R
15 -1 R 15 0 R 15 0 R 15 0 R 15 0 R 15 1 R 15 0 R 14 1 R 15 -1 R 15 0 R
15 -1 R 15 0 R 15 1 R 15 -1 R 15 0 R 15 0 R 15 0 R 14 1 R 15 0 R 15 0 R
15 0 R 15 -1 R 15 0 R 15 0 R 15 0 R 15 0 R 14 0 R 15 1 R 15 0 R 15 -1 R
15 0 R 15 0 R 15 0 R 15 0 R 15 0 R 15 0 R 14 0 R 15 1 R 15 0 R 15 0 R
15 -1 R 15 0 R 15 0 R 15 0 R 15 0 R 14 0 R 15 0 R 15 0 R 15 0 R 15 1 R
15 0 R 15 0 R 15 0 R 15 -1 R 15 0 R 14 0 R 15 0 R 15 0 R 15 0 R 15 0 R
15 0 R 15 0 R 15 0 R 15 0 R 14 0 R 15 0 R 15 0 R 15 0 R 15 0 R 15 0 R 15 0 R
15 0 R 15 0 R 15 0 R 14 0 R 15 0 R 15 0 R 15 0 R 15 1 R 15 2 R 15 -1 R
15 -1 R 15 0 R 14 0 R 15 1 R 15 3 R 15 -4 R 15 -1 R 15 0 R 15 1 R 15 3 R
15 17 R 14 -11 R 15 -4 R 15 -5 R 15 -1 R 15 0 R 15 0 R 15 1 R 15 8 R 15 -7 R
15 -2 R 14 0 R 15 0 R 15 0 R 15 0 R 15 1 R 15 -1 R 15 0 R 15 1 R 15 1 R
14 -1 R 15 1 R 15 -2 R 15 2 R 15 -2 R 15 0 R 15 0 R 15 0 R 15 0 R 15 0 R
14 0 R 15 1 R 15 0 R 15 1 R 15 -2 R 15 0 R 15 0 R 15 0 R 15 0 R 14 0 R
15 0 R 15 0 R 15 0 R 15 0 R 15 0 R 15 1 R 15 -1 R 15 1 R 15 -1 R 14 0 R
15 0 R 15 1 R 15 -1 R 15 0 R 15 0 R 15 0 R 15 0 R 15 0 R 14 0 R 15 0 R
15 0 R 15 0 R 15 7 R 15 20 R 15 -25 R 15 13 R 15 -14 R 14 0 R 15 1 R 15 0 R
15 1 R 15 2 R 15 -1 R 15 -1 R 15 2 R 15 -2 R 15 1 R 14 -1 R 15 -1 R 15 0 R
15 0 R 15 0 R 15 2 R 15 2 R 15 -1 R 15 -1 R 14 -1 R 15 -1 R 15 1 R 15 2 R
15 6 R 15 -8 R 15 -1 R 15 -1 R 15 0 R 15 0 R 14 0 R 15 -1 R 15 0 R 15 1 R
15 0 R 15 0 R 15 2 R 15 1 R 15 -2 R 14 0 R 15 -1 R 15 0 R 15 0 R 15 0 R
15 0 R 15 0 R 15 -1 R 15 0 R 15 1 R 14 1 R 15 1 R 15 1 R 15 -1 R 15 -2 R
15 0 R 15 -1 R 15 0 R 15 0 R 14 0 R 15 0 R 15 0 R 15 0 R 15 0 R 15 0 R
15 0 R 15 40 R 15 -39 R 14 27 R 15 -28 R 15 0 R 15 0 R 15 0 R 15 0 R 15 0 R
15 0 R 15 0 R 15 1 R 14 4 R 15 -5 R 15 0 R 15 0 R 15 0 R 15 0 R 15 0 R
15 0 R 15 0 R 14 0 R 15 0 R 15 0 R 15 0 R 15 0 R 15 0 R 15 0 R 15 0 R 15 0 R
15 0 R 14 0 R 15 0 R 15 0 R 15 0 R 15 0 R 15 0 R 15 0 R 15 0 R 15 0 R 14 0 R
15 0 R 15 0 R 15 0 R 15 0 R 15 0 R 15 0 R 15 0 R 15 0 R 15 0 R 14 0 R 15 0 R
15 0 R 15 0 R 15 0 R 15 0 R 15 0 R 15 0 R 15 0 R 14 0 R 15 0 R 15 0 R 15 0 R
15 0 R 15 0 R 15 0 R 15 0 R 15 0 R 14 0 R 15 0 R 15 0 R 15 0 R 15 0 R 15 0 R
15 0 R 15 0 R 15 0 R 15 0 R 14 0 R 15 0 R 15 0 R 15 0 R 15 0 R 15 0 R 15 0 R
15 0 R 15 0 R 14 0 R 15 1 R 15 0 R 15 0 R 15 0 R 15 -1 R 15 0 R 15 0 R
15 0 R 15 0 R 14 0 R 15 0 R 15 1 R 15 0 R 15 0 R 15 0 R 15 1 R 15 0 R 15 0 R
14 0 R 15 0 R 15 0 R 15 0 R 15 0 R 15 0 R 15 0 R 15 0 R 15 0 R 15 1 R 14 1 R
15 0 R 15 1 R 15 1 R 15 0 R 15 1 R 15 0 R 15 0 R 15 0 R 14 0 R 15 1 R 15 1 R
15 2 R 15 2 R 15 2 R 15 3 R 15 2 R 15 3 R 15 4 R 14 3 R 15 5 R 15 5 R 15 7 R
15 10 R 15 12 R 15 15 R 15 18 R 15 18 R 14 19 R 15 20 R 15 21 R 15 25 R
15 31 R 15 42 R 15 58 R 15 85 R 15 124 R 14 182 R 15 251 R 15 306 R 15 307 R
15 241 R 15 159 R 15 120 R 15 136 R 15 187 R 15 238 R 14 253 R 15 231 R
15 200 R 15 179 R 15 179 R 15 204 R 15 266 R 15 367 R 15 492 R 14 602 R
15 634 R 15 563 R 15 426 R 15 279 R 15 173 R 15 139 R 15 166 R 15 230 R
15 299 R 14 354 R 15 378 R 15 366 R 15 319 R 15 246 R 15 158 R 15 80 R
15 26 R 15 1 R 14 -3 R 15 1 R 15 7 R 15 9 R 15 7 R 15 2 R 15 -1 R 15 -3 R
15 -4 R 15 -4 R 14 -2 R 15 -1 R 15 -2 R 15 -1 R 15 -3 R 15 -1 R 15 -1 R
15 3 R 15 5 R 14 7 R 15 9 R 15 8 R 15 5 R 15 0 R 15 -4 R 15 -8 R 15 -10 R
15 -10 R 14 -8 R 15 -3 R 15 2 R 15 6 R 15 10 R 15 11 R 15 9 R 15 7 R 15 1 R
15 -4 R 14 -9 R 15 -11 R 15 -11 R 15 -11 R 15 -6 R 15 -3 R 15 1 R 15 5 R
15 7 R 14 8 R 15 6 R 15 5 R 15 3 R 15 -1 R 15 -2 R 15 -5 R 15 -7 R 15 -11 R
15 -14 R 14 -22 R 15 -31 R 15 -43 R 15 -60 R 15 -79 R 15 -100 R 15 -122 R
15 -142 R 15 -161 R 14 -177 R 15 -188 R 15 -194 R 15 -196 R 15 -195 R
15 -191 R 15 -186 R 15 -183 R 15 -181 R 15 -183 R 14 -190 R 15 -200 R
15 -214 R 15 -233 R 15 -253 R 15 -272 R 15 -292 R 15 -308 R 15 -320 R
14 -326 R 15 -328 R 15 -325 R 15 -316 R 15 -305 R 15 -292 R 15 -277 R
15 -262 R 15 -247 R 14 -233 R 15 -219 R 15 -205 R 15 -194 R 15 -181 R
15 -168 R 15 -156 R 15 -145 R 15 -132 R 15 -120 R 14 -109 R 15 -99 R
15 -88 R 15 -79 R 15 -71 R 15 -64 R 15 -56 R 15 -51 R 15 -45 R 14 -41 R
15 -36 R 15 -33 R 15 -30 R 15 -26 R 15 -24 R 15 -22 R 15 -19 R 15 -18 R
15 -16 R 14 -14 R 15 -13 R 15 -12 R 15 -11 R 15 -10 R 15 -9 R 15 -8 R
15 -8 R 15 -7 R 14 -6 R 15 -6 R 15 -5 R 15 -5 R 15 -5 R 15 -4 R 15 -4 R
15 -3 R 15 -4 R 15 -3 R 14 -3 R 15 -2 R 15 -3 R 15 -2 R 15 -2 R 15 -2 R
15 -2 R 15 -2 R 15 -1 R 14 -2 R 15 -1 R 15 -1 R 15 -2 R 15 -1 R 15 -1 R
15 -1 R 15 -1 R 15 -1 R 15 -1 R 14 0 R 15 -1 R 15 -1 R 15 -1 R 15 0 R
15 -1 R 15 0 R 15 -1 R 15 0 R 14 -1 R 15 0 R 15 -1 R 15 0 R 15 -1 R 15 0 R
15 0 R 15 -1 R 15 0 R 14 0 R 15 0 R 15 -1 R 15 0 R 15 0 R 15 -1 R 15 0 R
15 0 R 15 0 R 15 0 R 14 -1 R 15 0 R 15 0 R 15 0 R 15 0 R 15 0 R 15 -1 R
15 0 R 15 0 R 14 0 R 15 0 R 15 0 R 15 0 R 15 0 R 15 0 R 15 0 R 15 -1 R
15 0 R 15 0 R 14 0 R 15 0 R 15 0 R 15 0 R 15 0 R D 14880 1414 M 15 0 R
15 0 R 15 0 R 15 0 R 14 0 R 15 0 R 15 0 R 15 -1 R 15 0 R 15 0 R 15 0 R
15 0 R 15 0 R 15 0 R 14 0 R 15 0 R 15 0 R 15 0 R 15 0 R 15 0 R 15 0 R 15 0 R
15 0 R 14 0 R 15 0 R 15 0 R 15 0 R 15 0 R 15 0 R 15 0 R 15 0 R 15 0 R 14 0 R
15 0 R 15 0 R 15 0 R 15 0 R 15 0 R 15 0 R 15 0 R 15 0 R 15 1 R 14 0 R 15 0 R
15 0 R 15 0 R 15 0 R 15 0 R 15 0 R 15 0 R 15 0 R 14 0 R 15 0 R 15 0 R 15 0 R
15 0 R 15 0 R 15 1 R 15 0 R 15 0 R 15 0 R 14 0 R 15 0 R 15 0 R 15 0 R 15 0 R
15 1 R 15 0 R 15 0 R 15 0 R 14 0 R 15 0 R 15 1 R 15 0 R 15 0 R 15 0 R 15 0 R
15 1 R 15 0 R 15 0 R 14 0 R 15 1 R 15 0 R 15 0 R 15 0 R 15 1 R 15 0 R 15 0 R
15 1 R 14 0 R 15 1 R 15 0 R 15 1 R 15 0 R 15 1 R 15 0 R 15 1 R 15 0 R 14 1 R
15 0 R 15 1 R 15 1 R 15 1 R 15 1 R 15 1 R 15 0 R 15 1 R 15 1 R 14 2 R 15 1 R
15 1 R 15 1 R 15 2 R 15 2 R 15 1 R 15 2 R 15 2 R 14 2 R 15 2 R 15 3 R 15 2 R
15 3 R 15 3 R 15 4 R 15 3 R 15 4 R 15 5 R 14 4 R 15 5 R 15 6 R 15 6 R 15 7 R
15 8 R 15 8 R 15 10 R 15 10 R 14 12 R 15 13 R 15 15 R 15 16 R 15 19 R
15 22 R 15 25 R 15 28 R 15 33 R 15 38 R 14 44 R 15 51 R 15 59 R 15 70 R D
3709 1408 M 15 0 R 15 0 R 15 0 R 15 0 R 15 0 R 15 0 R 15 0 R 15 0 R 15 0 R
14 0 R 15 0 R 15 0 R 15 0 R 15 0 R 15 0 R 15 0 R 15 0 R 15 0 R 14 0 R 15 0 R
15 0 R 15 0 R 15 0 R 15 0 R 15 0 R 15 0 R 15 0 R 15 0 R 14 0 R 15 0 R 15 0 R
15 0 R 15 0 R 15 0 R 15 0 R 15 0 R 15 0 R 14 0 R 15 0 R 15 0 R 15 0 R 15 0 R
15 0 R 15 0 R 15 0 R 15 0 R 15 0 R 14 0 R 15 0 R 15 0 R 15 0 R 15 0 R 15 0 R
15 0 R 15 0 R 15 0 R 14 0 R 15 0 R 15 0 R 15 0 R 15 0 R 15 0 R 15 0 R 15 0 R
15 0 R 14 0 R 15 0 R 15 0 R 15 0 R 15 0 R 15 0 R 15 0 R 15 0 R 15 0 R 15 0 R
14 0 R 15 0 R 15 0 R 15 0 R 15 0 R 15 0 R 15 0 R 15 0 R 15 0 R 14 0 R 15 0 R
15 0 R 15 0 R 15 4 R 15 24 R 15 -28 R 15 0 R 15 0 R 15 0 R 14 0 R 15 2 R
15 -1 R 15 -1 R 15 0 R 15 0 R 15 0 R 15 0 R 15 0 R 14 0 R 15 0 R 15 0 R
15 0 R 15 0 R 15 0 R 15 0 R 15 5 R 15 -4 R 15 1 R 14 1 R 15 -2 R 15 -1 R
15 10 R 15 -10 R 15 1 R 15 -1 R 15 1 R 15 10 R 14 -10 R 15 -1 R 15 0 R
15 0 R 15 22 R 15 -22 R 15 0 R 15 0 R 15 0 R 14 0 R 15 0 R 15 0 R 15 0 R
15 1 R 15 0 R 15 -1 R 15 0 R 15 0 R 15 0 R 14 0 R 15 0 R 15 0 R 15 0 R
15 0 R 15 0 R 15 0 R 15 0 R 15 0 R 14 0 R 15 0 R 15 0 R 15 0 R 15 1 R
15 23 R 15 -24 R 15 0 R 15 0 R 15 0 R 14 0 R 15 0 R 15 0 R 15 0 R 15 1 R
15 5 R 15 -5 R 15 -1 R 15 0 R 14 1 R 15 0 R 15 0 R 15 0 R 15 -1 R 15 0 R
15 2 R 15 -1 R 15 1 R 15 -1 R 14 -1 R 15 0 R 15 0 R 15 0 R 15 1 R 15 0 R
15 1 R 15 -1 R 15 -1 R 14 0 R 15 1 R 15 0 R 15 0 R 15 0 R 15 0 R 15 0 R
15 0 R 15 2 R 15 -1 R 14 -1 R 15 0 R 15 3 R 15 -1 R 15 -1 R 15 4 R 15 0 R
15 -3 R 15 -2 R 14 0 R 15 0 R 15 0 R 15 -1 R 15 0 R 15 0 R 15 0 R 15 0 R
15 0 R 14 0 R 15 0 R 15 0 R 15 0 R 15 0 R 15 0 R 15 0 R 15 1 R 15 0 R 15 0 R
14 0 R 15 1 R 15 1 R 15 0 R 15 -1 R 15 -1 R 15 0 R 15 0 R 15 0 R 14 0 R
15 0 R 15 1 R 15 1 R 15 2 R 15 -1 R 15 -2 R 15 -1 R 15 0 R 15 -1 R 14 0 R
15 0 R 15 0 R 15 1 R 15 0 R 15 1 R 15 0 R 15 -1 R 15 0 R 14 -1 R 15 1 R
15 -1 R 15 0 R 15 0 R 15 0 R 15 1 R 15 1 R 15 1 R 15 -1 R 14 -1 R 15 -1 R
15 0 R 15 0 R 15 0 R 15 0 R 15 0 R 15 0 R 15 0 R 14 0 R 15 0 R 15 1 R 15 0 R
15 -1 R 15 1 R 15 0 R 15 0 R 15 0 R 14 0 R 15 0 R 15 0 R 15 0 R 15 0 R
15 -1 R 15 0 R 15 0 R 15 0 R 15 1 R 14 0 R 15 1 R 15 0 R 15 -1 R 15 0 R
15 1 R 15 0 R 15 -1 R 15 0 R 14 -1 R 15 0 R 15 0 R 15 1 R 15 0 R 15 1 R
15 0 R 15 -1 R 15 0 R 15 -1 R 14 0 R 15 0 R 15 0 R 15 0 R 15 0 R 15 0 R
15 0 R 15 0 R 15 0 R 14 0 R 15 0 R 15 0 R 15 0 R 15 0 R 15 0 R 15 1 R 15 1 R
15 1 R 15 1 R 14 2 R 15 3 R 15 3 R 15 -6 R 15 -4 R 15 -1 R 15 0 R 15 0 R
15 0 R 14 0 R 15 0 R 15 0 R 15 0 R 15 0 R 15 0 R 15 1 R 15 3 R 15 -2 R
14 -1 R 15 1 R 15 -1 R 15 -1 R 15 1 R 15 0 R 15 -1 R 15 0 R 15 0 R 15 0 R
14 -1 R 15 1 R 15 0 R 15 0 R 15 1 R 15 0 R 15 0 R 15 -1 R 15 0 R 14 0 R
15 0 R 15 -1 R 15 0 R 15 0 R 15 0 R 15 0 R 15 0 R 15 0 R 15 0 R 14 0 R
15 0 R 15 0 R 15 0 R 15 0 R 15 1 R 15 0 R 15 0 R 15 -1 R 14 0 R 15 0 R
15 0 R 15 0 R 15 0 R 15 0 R 15 0 R 15 0 R 15 0 R 15 0 R 14 0 R 15 0 R 15 0 R
15 0 R 15 0 R 15 0 R 15 0 R 15 0 R 15 0 R 14 0 R 15 0 R 15 0 R 15 0 R 15 0 R
15 0 R 15 0 R 15 0 R 15 0 R 14 0 R 15 0 R 15 0 R 15 0 R 15 0 R 15 0 R 15 0 R
15 0 R 15 0 R 15 0 R 14 0 R 15 0 R 15 0 R 15 0 R 15 0 R 15 0 R 15 0 R 15 0 R
15 0 R 14 0 R 15 0 R 15 0 R 15 0 R 15 0 R 15 0 R 15 0 R 15 0 R 15 0 R 15 0 R
14 0 R 15 0 R 15 0 R 15 0 R 15 0 R 15 0 R 15 0 R 15 0 R 15 0 R 14 0 R 15 0 R
15 0 R 15 0 R 15 0 R 15 0 R 15 0 R 15 0 R 15 0 R 15 0 R 14 0 R 15 1 R 15 0 R
15 0 R 15 -1 R 15 0 R 15 0 R 15 0 R 15 0 R 14 0 R 15 0 R 15 0 R 15 0 R
15 0 R 15 0 R 15 0 R 15 0 R 15 0 R 15 0 R 14 1 R 15 0 R 15 0 R 15 0 R 15 0 R
15 0 R 15 0 R 15 0 R 15 0 R 14 0 R 15 0 R 15 0 R 15 0 R 15 0 R 15 0 R 15 0 R
15 0 R 15 -1 R 14 0 R 15 1 R 15 0 R 15 0 R 15 0 R 15 0 R 15 0 R 15 0 R
15 0 R 15 0 R 14 0 R 15 0 R 15 0 R 15 0 R 15 0 R 15 0 R 15 0 R 15 0 R 15 0 R
14 0 R 15 0 R 15 0 R 15 0 R 15 0 R 15 0 R 15 0 R 15 0 R 15 0 R 15 0 R 14 0 R
15 1 R 15 0 R 15 0 R 15 0 R 15 1 R 15 0 R 15 0 R 15 0 R 14 0 R 15 0 R 15 0 R
15 0 R 15 0 R 15 0 R 15 0 R 15 0 R 15 0 R 15 0 R 14 0 R 15 0 R 15 1 R 15 0 R
15 1 R 15 1 R 15 1 R 15 0 R 15 0 R 14 0 R 15 0 R 15 -1 R 15 0 R 15 0 R
15 0 R 15 0 R 15 1 R 15 0 R 14 1 R 15 2 R 15 2 R 15 3 R 15 3 R 15 5 R 15 5 R
15 6 R 15 5 R 15 5 R 14 3 R 15 3 R 15 3 R 15 4 R 15 4 R 15 5 R 15 6 R 15 7 R
15 10 R 14 10 R 15 13 R 15 15 R 15 16 R 15 19 R 15 20 R 15 23 R 15 26 R
15 28 R 15 31 R 14 36 R 15 42 R 15 50 R 15 59 R 15 69 R 15 80 R 15 89 R
15 100 R 15 110 R 14 122 R 15 136 R 15 155 R 15 175 R 15 201 R 15 226 R
15 250 R 15 262 R 15 257 R 15 229 R 14 186 R 15 145 R 15 125 R 15 135 R
15 178 R 15 251 R 15 339 R 15 426 R 15 473 R 14 452 R 15 363 R 15 255 R
15 183 R 15 161 R 15 184 R 15 237 R 15 306 R 15 375 R 14 429 R 15 454 R
15 443 R 15 402 R 15 339 R 15 252 R 15 150 R 15 52 R 15 -13 R 15 -35 R
14 -25 R 15 1 R 15 26 R 15 44 R 15 47 R 15 38 R 15 20 R 15 -3 R 15 -24 R
14 -36 R 15 -41 R 15 -34 R 15 -21 R 15 -2 R 15 17 R 15 33 R 15 43 R 15 47 R
15 43 R 14 32 R 15 17 R 15 0 R 15 -17 R 15 -28 R 15 -35 R 15 -35 R 15 -30 R
15 -22 R 14 -10 R 15 0 R 15 11 R 15 18 R 15 23 R 15 23 R 15 22 R 15 17 R
15 13 R 15 7 R 14 3 R 15 2 R 15 1 R 15 4 R 15 6 R 15 10 R 15 12 R 15 13 R
15 13 R 14 10 R 15 6 R 15 1 R 15 -6 R 15 -11 R 15 -15 R 15 -19 R 15 -19 R
15 -17 R 15 -14 R 14 -8 R 15 -3 R 15 3 R 15 9 R 15 12 R 15 15 R 15 16 R
15 15 R 15 13 R 14 9 R 15 5 R 15 1 R 15 -2 R 15 -4 R 15 -4 R 15 -4 R 15 -2 R
15 0 R 14 3 R 15 6 R 15 7 R 15 8 R 15 8 R 15 7 R 15 4 R 15 0 R 15 -3 R
15 -6 R 14 -10 R 15 -12 R 15 -12 R 15 -12 R 15 -10 R 15 -8 R 15 -4 R 15 0 R
15 3 R 14 7 R 15 9 R 15 11 R 15 11 R 15 10 R 15 8 R 15 6 R 15 3 R 15 -1 R
15 -3 R 14 -6 R 15 -8 R 15 -8 R 15 -8 R 15 -8 R D 14880 11815 M 15 -6 R
15 -6 R 15 -5 R 15 -4 R 14 -5 R 15 -6 R 15 -7 R 15 -9 R 15 -13 R 15 -15 R
15 -18 R 15 -19 R 15 -21 R 15 -21 R 14 -19 R 15 -16 R 15 -13 R 15 -7 R
15 -3 R 15 3 R 15 7 R 15 12 R 15 16 R 14 17 R 15 17 R 15 16 R 15 14 R 15 9 R
15 5 R 15 0 R 15 -5 R 15 -9 R 14 -13 R 15 -14 R 15 -15 R 15 -12 R 15 -10 R
15 -4 R 15 1 R 15 8 R 15 15 R 15 21 R 14 26 R 15 30 R 15 31 R 15 31 R
15 27 R 15 22 R 15 15 R 15 5 R 15 -4 R 14 -15 R 15 -24 R 15 -33 R 15 -39 R
15 -44 R 15 -45 R 15 -45 R 15 -42 R 15 -36 R 15 -28 R 14 -20 R 15 -11 R
15 -1 R 15 8 R 15 15 R 15 22 R 15 26 R 15 28 R 15 27 R 14 26 R 15 22 R
15 16 R 15 11 R 15 4 R 15 -2 R 15 -9 R 15 -13 R 15 -17 R 15 -19 R 14 -20 R
15 -19 R 15 -18 R 15 -14 R 15 -11 R 15 -5 R 15 -1 R 15 5 R 15 10 R 14 14 R
15 18 R 15 20 R 15 22 R 15 21 R 15 20 R 15 17 R 15 14 R 15 11 R 14 6 R
15 3 R 15 -1 R 15 -4 R 15 -6 R 15 -7 R 15 -7 R 15 -7 R 15 -4 R 15 -3 R
14 0 R 15 2 R 15 4 R 15 7 R 15 7 R 15 7 R 15 7 R 15 4 R 15 3 R 14 -1 R
15 -5 R 15 -9 R 15 -13 R 15 -17 R 15 -20 R 15 -23 R 15 -24 R 15 -24 R
15 -23 R 14 -19 R 15 -17 R 15 -10 R 15 -5 R 15 1 R 15 8 R 15 15 R 15 21 R
15 25 R 14 30 R 15 32 R 15 33 R 15 32 R 15 30 R 15 26 R 15 21 R 15 14 R
15 7 R 15 -1 R 14 -7 R 15 -15 R 15 -21 R 15 -26 R D
%%PageTrailer
end
restore
showpage
%%PageResources: font Helvetica
%%Trailer
restore
%%Pages: 1
%%DocumentNeededResources: font Helvetica
%%EOF
