%!PS-Adobe-3.0
%%BoundingBox: 54 360 558 720
%%Title: Graphics produced by IDL
%%For: peters11@pal-nat185-046-194.itap.purdue.edu, 
%%      /Users/peters11/imsims/trunk/raytrace
%%Creator: IDL Version 6.3, Mac OS X (darwin i386 m32)
%%CreationDate: Fri Oct  7 10:47:00 2011
%%DocumentData: Clean7bit
%%LanguageLevel: 1
%%PageOrder: Ascend
%%Pages: (atend)
%%DocumentNeededResources: (atend)
%%EndComments
%%BeginProlog
save
%+ prolog.ps -- Prolog for IDL generated PostScript files
%+ Copyright (c) 1988-2006 Research Systems, Inc. All Rights Reserved.
%v 5
/$IDL_DICT 40 dict def $IDL_DICT begin /bdef { bind def } bind def /C
{currentpoint newpath moveto} bdef /CP {currentpoint} bdef /D {currentpoint
stroke moveto} bdef /F {closepath fill} bdef /K { setgray } bdef /M {moveto}
bdef /N {rmoveto} bdef /P {lineto} bdef /R {rlineto} bdef /S {gsave show
grestore} bdef /X {currentpoint pop} bdef /Z {gsave currentpoint lineto 20
setlinewidth 1 setlinecap stroke grestore} bdef /L0 {[] 0 setdash} bdef /L1
{[40 100] 0 setdash} bdef /L2 {[200 200] 0 setdash} bdef /L3 {[200 100 50
100] 0 setdash} bdef /L4 {[300 100 50 100 50 100 50 100] 0 setdash} bdef /L5
{[400 200] 0 setdash} bdef /STDFONT { findfont exch scalefont setfont } bdef
/ISOFONT { findfont dup length dict begin { 1 index /FID ne {def} {pop pop}
ifelse } forall /Encoding ISOLatin1Encoding def currentdict end /idltmpfont
exch definefont exch scalefont setfont } bdef /ISOBULLET { gsave /Helvetica
findfont exch scalefont setfont (\267) show currentpoint grestore moveto}
bdef /MITERLIMIT { 2.5 setmiterlimit } bdef end
%%EndProlog
%%Page: 0 1
%%PageResources: (atend)
%%PageOrientation: Portrait
%%PageBoundingBox: 54 360 558 720
%%BeginPageSetup
save
$IDL_DICT begin 54 360 translate 0.0283465 dup scale MITERLIMIT
%%IncludeResource: font Helvetica
423.333 /Helvetica STDFONT
%%EndPageSetup
10 setlinewidth L0 0.000 K 6987 12441 M -15 29 R -29 29 R -29 15 R -58 0 R
-30 -15 R -29 -29 R -14 -29 R -15 -44 R 0 -73 R 15 -44 R 14 -29 R 29 -29 R
30 -15 R 58 0 R 29 15 R 29 29 R 15 29 R 0 44 R -73 0 R D 7089 12514 M
0 -307 R D 7367 12412 M 0 -205 R D 7367 12368 M -29 29 R -30 15 R -43 0 R
-30 -15 R -29 -29 R -15 -44 R 0 -29 R 15 -44 R 29 -29 R 30 -15 R 43 0 R
30 15 R 29 29 R D 7630 12368 M -15 29 R -44 15 R -44 0 R -43 -15 R -15 -29 R
15 -29 R 29 -15 R 73 -14 R 29 -15 R 15 -29 R 0 -15 R -15 -29 R -44 -15 R
-44 0 R -43 15 R -15 29 R D 7878 12368 M -15 29 R -43 15 R -44 0 R -44 -15 R
-15 -29 R 15 -29 R 29 -15 R 73 -14 R 29 -15 R 15 -29 R 0 -15 R -15 -29 R
-43 -15 R -44 0 R -44 15 R -15 29 R D 8214 12514 M 0 -307 R D 8331 12412 M
0 -205 R D 8331 12353 M 44 44 R 29 15 R 44 0 R 29 -15 R 14 -44 R 0 -146 R D
8769 12514 M 0 -307 R D 8769 12368 M -29 29 R -30 15 R -43 0 R -30 -15 R
-29 -29 R -14 -44 R 0 -29 R 14 -44 R 29 -29 R 30 -15 R 43 0 R 30 15 R
29 29 R D 8871 12324 M 175 0 R 0 29 R -14 30 R -15 14 R -29 15 R -44 0 R
-29 -15 R -29 -29 R -15 -44 R 0 -29 R 15 -44 R 29 -29 R 29 -15 R 44 0 R
29 15 R 29 29 R D 9134 12412 M 161 -205 R D 9295 12412 M -161 -205 R D
9689 12412 M -29 -15 R -29 -29 R -15 -44 R 0 -29 R 15 -44 R 29 -29 R
29 -15 R 44 0 R 29 15 R 29 29 R 15 44 R 0 29 R -15 44 R -29 29 R -29 15 R
-44 0 R D 9996 12514 M -30 0 R -29 -15 R -14 -43 R 0 -249 R D 9879 12412 M
102 0 R D 10317 12514 M 0 -307 R D 10317 12514 M 131 0 R 44 -15 R 15 -14 R
14 -29 R 0 -30 R -14 -29 R -15 -14 R -44 -15 R -131 0 R D 10419 12368 M
102 -161 R D 10609 12324 M 175 0 R 0 29 R -14 30 R -15 14 R -29 15 R -44 0 R
-29 -15 R -29 -29 R -15 -44 R 0 -29 R 15 -44 R 29 -29 R 29 -15 R 44 0 R
29 15 R 29 29 R D 10974 12514 M -29 0 R -29 -15 R -15 -43 R 0 -249 R D
10857 12412 M 103 0 R D 11062 12412 M 0 -205 R D 11062 12324 M 14 44 R
30 29 R 29 15 R 44 0 R D 11412 12412 M 0 -205 R D 11412 12368 M -29 29 R
-29 15 R -44 0 R -29 -15 R -29 -29 R -15 -44 R 0 -29 R 15 -44 R 29 -29 R
29 -15 R 44 0 R 29 15 R 29 29 R D 11690 12368 M -29 29 R -30 15 R -43 0 R
-30 -15 R -29 -29 R -14 -44 R 0 -29 R 14 -44 R 29 -29 R 30 -15 R 43 0 R
30 15 R 29 29 R D 11807 12514 M 0 -248 R 14 -44 R 30 -15 R 29 0 R D
11763 12412 M 102 0 R D 11953 12514 M 14 -15 R 15 15 R -15 15 R -14 -15 R D
11967 12412 M 0 -205 R D 12143 12412 M -30 -15 R -29 -29 R -14 -44 R 0 -29 R
14 -44 R 29 -29 R 30 -15 R 43 0 R 30 15 R 29 29 R 15 44 R 0 29 R -15 44 R
-29 29 R -30 15 R -43 0 R D 12362 12412 M 0 -205 R D 12362 12353 M 44 44 R
29 15 R 44 0 R 29 -15 R 14 -44 R 0 -146 R D 2220 1408 M 14894 0 R D
2220 1408 M 0 212 R D 1905 1067 M 0 12 R 11 23 R 12 12 R 23 11 R 47 0 R
23 -11 R 12 -12 R 12 -23 R 0 -24 R -12 -23 R -23 -35 R -117 -117 R 164 0 R D
2197 1125 M -35 -11 R -24 -35 R -11 -59 R 0 -35 R 11 -58 R 24 -35 R 35 -12 R
23 0 R 35 12 R 24 35 R 11 58 R 0 35 R -11 59 R -24 35 R -35 11 R -23 0 R D
2430 1125 M -35 -11 R -23 -35 R -12 -59 R 0 -35 R 12 -58 R 23 -35 R 35 -12 R
24 0 R 35 12 R 23 35 R 12 58 R 0 35 R -12 59 R -23 35 R -35 11 R -24 0 R D
4460 1408 M 0 212 R D 4249 1125 M -116 -163 R 175 0 R D 4249 1125 M 0 -245 R
D 4436 1125 M -35 -11 R -23 -35 R -12 -59 R 0 -35 R 12 -58 R 23 -35 R
35 -12 R 24 0 R 35 12 R 23 35 R 12 58 R 0 35 R -12 59 R -23 35 R -35 11 R
-24 0 R D 4670 1125 M -35 -11 R -23 -35 R -12 -59 R 0 -35 R 12 -58 R
23 -35 R 35 -12 R 23 0 R 36 12 R 23 35 R 12 58 R 0 35 R -12 59 R -23 35 R
-36 11 R -23 0 R D 6699 1408 M 0 212 R D 6524 1090 M -11 24 R -36 11 R
-23 0 R -35 -11 R -23 -35 R -12 -59 R 0 -58 R 12 -47 R 23 -23 R 35 -12 R
12 0 R 35 12 R 23 23 R 12 35 R 0 12 R -12 35 R -23 23 R -35 12 R -12 0 R
-35 -12 R -23 -23 R -12 -35 R D 6676 1125 M -35 -11 R -23 -35 R -12 -59 R
0 -35 R 12 -58 R 23 -35 R 35 -12 R 23 0 R 36 12 R 23 35 R 12 58 R 0 35 R
-12 59 R -23 35 R -36 11 R -23 0 R D 6910 1125 M -35 -11 R -24 -35 R
-11 -59 R 0 -35 R 11 -58 R 24 -35 R 35 -12 R 23 0 R 35 12 R 24 35 R 11 58 R
0 35 R -11 59 R -24 35 R -35 11 R -23 0 R D 8939 1408 M 0 212 R D
8670 1125 M -35 -11 R -11 -24 R 0 -23 R 11 -23 R 24 -12 R 47 -12 R 35 -11 R
23 -24 R 12 -23 R 0 -35 R -12 -24 R -12 -11 R -35 -12 R -47 0 R -35 12 R
-11 11 R -12 24 R 0 35 R 12 23 R 23 24 R 35 11 R 47 12 R 23 12 R 12 23 R
0 23 R -12 24 R -35 11 R -47 0 R D 8916 1125 M -35 -11 R -24 -35 R -11 -59 R
0 -35 R 11 -58 R 24 -35 R 35 -12 R 23 0 R 35 12 R 24 35 R 11 58 R 0 35 R
-11 59 R -24 35 R -35 11 R -23 0 R D 9150 1125 M -36 -11 R -23 -35 R
-12 -59 R 0 -35 R 12 -58 R 23 -35 R 36 -12 R 23 0 R 35 12 R 23 35 R 12 58 R
0 35 R -12 59 R -23 35 R -35 11 R -23 0 R D 11179 1408 M 0 212 R D
10770 1079 M 23 11 R 35 35 R 0 -245 R D 11039 1125 M -35 -11 R -24 -35 R
-11 -59 R 0 -35 R 11 -58 R 24 -35 R 35 -12 R 23 0 R 35 12 R 23 35 R 12 58 R
0 35 R -12 59 R -23 35 R -35 11 R -23 0 R D 11272 1125 M -35 -11 R -23 -35 R
-12 -59 R 0 -35 R 12 -58 R 23 -35 R 35 -12 R 24 0 R 35 12 R 23 35 R 12 58 R
0 35 R -12 59 R -23 35 R -35 11 R -24 0 R D 11506 1125 M -35 -11 R -23 -35 R
-12 -59 R 0 -35 R 12 -58 R 23 -35 R 35 -12 R 23 0 R 35 12 R 24 35 R 12 58 R
0 35 R -12 59 R -24 35 R -35 11 R -23 0 R D 13419 1408 M 0 212 R D
13010 1079 M 23 11 R 35 35 R 0 -245 R D 13220 1067 M 0 12 R 12 23 R 11 12 R
24 11 R 46 0 R 24 -11 R 11 -12 R 12 -23 R 0 -24 R -12 -23 R -23 -35 R
-117 -117 R 164 0 R D 13512 1125 M -35 -11 R -23 -35 R -12 -59 R 0 -35 R
12 -58 R 23 -35 R 35 -12 R 23 0 R 35 12 R 24 35 R 12 58 R 0 35 R -12 59 R
-24 35 R -35 11 R -23 0 R D 13746 1125 M -35 -11 R -24 -35 R -11 -59 R
0 -35 R 11 -58 R 24 -35 R 35 -12 R 23 0 R 35 12 R 24 35 R 11 58 R 0 35 R
-11 59 R -24 35 R -35 11 R -23 0 R D 15658 1408 M 0 212 R D 15249 1079 M
24 11 R 35 35 R 0 -245 R D 15565 1125 M -117 -163 R 175 0 R D 15565 1125 M
0 -245 R D 15752 1125 M -35 -11 R -24 -35 R -11 -59 R 0 -35 R 11 -58 R
24 -35 R 35 -12 R 23 0 R 35 12 R 24 35 R 11 58 R 0 35 R -11 59 R -24 35 R
-35 11 R -23 0 R D 15985 1125 M -35 -11 R -23 -35 R -12 -59 R 0 -35 R
12 -58 R 23 -35 R 35 -12 R 24 0 R 35 12 R 23 35 R 12 58 R 0 35 R -12 59 R
-23 35 R -35 11 R -24 0 R D 2780 1408 M 0 106 R D 3340 1408 M 0 106 R D
3900 1408 M 0 106 R D 5020 1408 M 0 106 R D 5580 1408 M 0 106 R D
6140 1408 M 0 106 R D 7259 1408 M 0 106 R D 7819 1408 M 0 106 R D
8379 1408 M 0 106 R D 9499 1408 M 0 106 R D 10059 1408 M 0 106 R D
10619 1408 M 0 106 R D 11739 1408 M 0 106 R D 12299 1408 M 0 106 R D
12859 1408 M 0 106 R D 13979 1408 M 0 106 R D 14538 1408 M 0 106 R D
15098 1408 M 0 106 R D 16218 1408 M 0 106 R D 16778 1408 M 0 106 R D
8131 668 M 58 -246 R 58 246 R 59 -246 R 58 246 R D 8563 586 M 0 -164 R D
8563 551 M -23 23 R -24 12 R -35 0 R -23 -12 R -24 -23 R -11 -35 R 0 -23 R
11 -35 R 24 -24 R 23 -12 R 35 0 R 24 12 R 23 24 R D 8633 586 M 70 -164 R
70 164 R D 8832 516 M 140 0 R 0 23 R -12 24 R -11 11 R -24 12 R -35 0 R
-23 -12 R -24 -23 R -11 -35 R 0 -23 R 11 -35 R 24 -24 R 23 -12 R 35 0 R
24 12 R 23 24 R D 9054 668 M 0 -246 R D 9135 516 M 141 0 R 0 23 R -12 24 R
-12 11 R -23 12 R -35 0 R -23 -12 R -24 -23 R -12 -35 R 0 -23 R 12 -35 R
24 -24 R 23 -12 R 35 0 R 23 12 R 24 24 R D 9357 586 M 0 -164 R D 9357 539 M
36 35 R 23 12 R 35 0 R 23 -12 R 12 -35 R 0 -117 R D 9708 586 M 0 -199 R
-12 -35 R -11 -11 R -24 -12 R -35 0 R -23 12 R D 9708 551 M -23 23 R
-24 12 R -35 0 R -23 -12 R -24 -23 R -11 -35 R 0 -23 R 11 -35 R 24 -24 R
23 -12 R 35 0 R 24 12 R 23 24 R D 9813 668 M 0 -199 R 12 -35 R 23 -12 R
24 0 R D 9778 586 M 82 0 R D 9942 668 M 0 -246 R D 9942 539 M 35 35 R
23 12 R 35 0 R 24 -12 R 11 -35 R 0 -117 R D 10432 715 M -23 -24 R -23 -35 R
-24 -47 R -11 -58 R 0 -47 R 11 -58 R 24 -59 R 23 -35 R 23 -23 R D
10514 586 M 0 -164 R D 10514 539 M 35 35 R 24 12 R 35 0 R 23 -12 R 12 -35 R
0 -117 R D 10736 586 M 0 -164 R D 10736 539 M 35 35 R 24 12 R 35 0 R
23 -12 R 12 -35 R 0 -117 R D 10865 539 M 35 35 R 23 12 R 35 0 R 24 -12 R
11 -35 R 0 -117 R D 11075 715 M 23 -24 R 24 -35 R 23 -47 R 12 -58 R 0 -47 R
-12 -58 R -23 -59 R -24 -35 R -23 -23 R D 2220 11996 M 14894 0 R D
2220 11996 M 0 -212 R D 4460 11996 M 0 -212 R D 6699 11996 M 0 -212 R D
8939 11996 M 0 -212 R D 11179 11996 M 0 -212 R D 13419 11996 M 0 -212 R D
15658 11996 M 0 -212 R D 2780 11996 M 0 -106 R D 3340 11996 M 0 -106 R D
3900 11996 M 0 -106 R D 5020 11996 M 0 -106 R D 5580 11996 M 0 -106 R D
6140 11996 M 0 -106 R D 7259 11996 M 0 -106 R D 7819 11996 M 0 -106 R D
8379 11996 M 0 -106 R D 9499 11996 M 0 -106 R D 10059 11996 M 0 -106 R D
10619 11996 M 0 -106 R D 11739 11996 M 0 -106 R D 12299 11996 M 0 -106 R D
12859 11996 M 0 -106 R D 13979 11996 M 0 -106 R D 14538 11996 M 0 -106 R D
15098 11996 M 0 -106 R D 16218 11996 M 0 -106 R D 16778 11996 M 0 -106 R D
2220 1408 M 0 10588 R D 2220 2977 M 298 0 R D 1350 3034 M 23 12 R 35 35 R
0 -245 R D 1572 2859 M -12 -12 R 12 -11 R 11 11 R -11 12 R D 1782 3081 M
-117 -163 R 175 0 R D 1782 3081 M 0 -245 R D 2051 3046 M -12 23 R -35 12 R
-23 0 R -35 -12 R -24 -35 R -12 -58 R 0 -58 R 12 -47 R 24 -24 R 35 -11 R
11 0 R 35 11 R 24 24 R 11 35 R 0 12 R -11 35 R -24 23 R -35 12 R -11 0 R
-35 -12 R -24 -23 R -12 -35 R D 2220 4970 M 298 0 R D 1350 5027 M 23 12 R
35 35 R 0 -245 R D 1572 4852 M -12 -11 R 12 -12 R 11 12 R -11 11 R D
1782 5074 M -117 -163 R 175 0 R D 1782 5074 M 0 -245 R D 1957 5074 M
-35 -11 R -12 -24 R 0 -23 R 12 -24 R 24 -11 R 46 -12 R 35 -12 R 24 -23 R
11 -23 R 0 -35 R -11 -24 R -12 -11 R -35 -12 R -47 0 R -35 12 R -12 11 R
-11 24 R 0 35 R 11 23 R 24 23 R 35 12 R 47 12 R 23 11 R 12 24 R 0 23 R
-12 24 R -35 11 R -47 0 R D 2220 6963 M 298 0 R D 1350 7020 M 23 12 R
35 35 R 0 -245 R D 1572 6845 M -12 -11 R 12 -12 R 11 12 R -11 11 R D
1805 7067 M -117 0 R -11 -105 R 11 12 R 36 11 R 35 0 R 35 -11 R 23 -24 R
12 -35 R 0 -23 R -12 -35 R -23 -23 R -35 -12 R -35 0 R -36 12 R -11 11 R
-12 24 R D 1969 7067 M -35 -11 R -24 -36 R -11 -58 R 0 -35 R 11 -58 R
24 -35 R 35 -12 R 23 0 R 35 12 R 24 35 R 11 58 R 0 35 R -11 58 R -24 36 R
-35 11 R -23 0 R D 2220 8956 M 298 0 R D 1350 9014 M 23 11 R 35 35 R
0 -245 R D 1572 8838 M -12 -11 R 12 -12 R 11 12 R -11 11 R D 1805 9060 M
-117 0 R -11 -105 R 11 12 R 36 11 R 35 0 R 35 -11 R 23 -24 R 12 -35 R
0 -23 R -12 -35 R -23 -23 R -35 -12 R -35 0 R -36 12 R -11 11 R -12 24 R D
1910 9002 M 0 12 R 12 23 R 12 12 R 23 11 R 47 0 R 23 -11 R 12 -12 R 12 -23 R
0 -24 R -12 -23 R -23 -35 R -117 -117 R 163 0 R D 2220 10949 M 298 0 R D
1350 11007 M 23 11 R 35 35 R 0 -245 R D 1572 10831 M -12 -11 R 12 -12 R
11 12 R -11 11 R D 1805 11053 M -117 0 R -11 -105 R 11 12 R 36 11 R 35 0 R
35 -11 R 23 -24 R 12 -35 R 0 -23 R -12 -35 R -23 -23 R -35 -12 R -35 0 R
-36 12 R -11 11 R -12 24 R D 2016 11053 M -117 -163 R 175 0 R D 2016 11053 M
0 -245 R D 2220 1482 M 149 0 R D 2220 1980 M 149 0 R D 2220 2478 M 149 0 R D
2220 3475 M 149 0 R D 2220 3973 M 149 0 R D 2220 4471 M 149 0 R D
2220 5468 M 149 0 R D 2220 5966 M 149 0 R D 2220 6464 M 149 0 R D
2220 7461 M 149 0 R D 2220 7959 M 149 0 R D 2220 8457 M 149 0 R D
2220 9454 M 149 0 R D 2220 9952 M 149 0 R D 2220 10450 M 149 0 R D
2220 11447 M 149 0 R D 2220 11945 M 149 0 R D 713 4967 M 245 0 R D
795 5060 M 163 0 R D 841 5060 M -35 35 R -11 24 R 0 35 R 11 23 R 35 12 R
117 0 R D 713 5411 M 245 0 R D 830 5411 M -24 -23 R -11 -24 R 0 -35 R
11 -23 R 24 -24 R 35 -11 R 23 0 R 35 11 R 24 24 R 11 23 R 0 35 R -11 24 R
-24 23 R D 865 5493 M 0 140 R -24 0 R -23 -12 R -12 -11 R -11 -24 R 0 -35 R
11 -23 R 24 -24 R 35 -11 R 23 0 R 35 11 R 24 24 R 11 23 R 0 35 R -11 24 R
-24 23 R D 795 5703 M 163 129 R D 795 5832 M 163 -129 R D 795 6147 M
11 -23 R 24 -24 R 35 -11 R 23 0 R 35 11 R 24 24 R 11 23 R 0 35 R -11 23 R
-24 24 R -35 12 R -23 0 R -35 -12 R -24 -24 R -11 -23 R 0 -35 R D 713 6392 M
0 -23 R 12 -23 R 35 -12 R 198 0 R D 795 6299 M 0 82 R D 713 6649 M 245 0 R D
713 6649 M 0 106 R 12 35 R 11 11 R 24 12 R 23 0 R 23 -12 R 12 -11 R 12 -35 R
0 -106 R D 830 6731 M 128 82 R D 865 6883 M 0 140 R -24 0 R -23 -11 R
-12 -12 R -11 -23 R 0 -35 R 11 -24 R 24 -23 R 35 -12 R 23 0 R 35 12 R
24 23 R 11 24 R 0 35 R -11 23 R -24 23 R D 713 7175 M 0 -23 R 12 -23 R
35 -12 R 198 0 R D 795 7082 M 0 82 R D 795 7245 M 163 0 R D 865 7245 M
-35 12 R -24 23 R -11 24 R 0 35 R D 795 7526 M 163 0 R D 830 7526 M
-24 -24 R -11 -23 R 0 -35 R 11 -23 R 24 -24 R 35 -11 R 23 0 R 35 11 R
24 24 R 11 23 R 0 35 R -11 23 R -24 24 R D 830 7748 M -24 -24 R -11 -23 R
0 -35 R 11 -23 R 24 -24 R 35 -11 R 23 0 R 35 11 R 24 24 R 11 23 R 0 35 R
-11 23 R -24 24 R D 713 7841 M 198 0 R 36 12 R 11 23 R 0 24 R D 795 7806 M
0 82 R D 713 7958 M 12 12 R -12 11 R -12 -11 R 12 -12 R D 795 7970 M 163 0 R
D 795 8110 M 11 -23 R 24 -24 R 35 -11 R 23 0 R 35 11 R 24 24 R 11 23 R
0 35 R -11 23 R -24 24 R -35 11 R -23 0 R -35 -11 R -24 -24 R -11 -23 R
0 -35 R D 795 8285 M 163 0 R D 841 8285 M -35 35 R -11 24 R 0 35 R 11 23 R
35 12 R 117 0 R D 17114 1408 M 0 10588 R D 17114 2977 M -298 0 R D
17114 4970 M -298 0 R D 17114 6963 M -298 0 R D 17114 8956 M -298 0 R D
17114 10949 M -298 0 R D 17114 1482 M -149 0 R D 17114 1980 M -149 0 R D
17114 2478 M -149 0 R D 17114 3475 M -149 0 R D 17114 3973 M -149 0 R D
17114 4471 M -149 0 R D 17114 5468 M -149 0 R D 17114 5966 M -149 0 R D
17114 6464 M -149 0 R D 17114 7461 M -149 0 R D 17114 7959 M -149 0 R D
17114 8457 M -149 0 R D 17114 9454 M -149 0 R D 17114 9952 M -149 0 R D
17114 10450 M -149 0 R D 17114 11447 M -149 0 R D 17114 11945 M -149 0 R D
2220 11996 M 11 -133 R 11 -131 R 12 -128 R 11 -124 R 11 -122 R 11 -119 R
11 -117 R 12 -114 R 11 -113 R 11 -110 R 11 -107 R 11 -106 R 12 -104 R
11 -101 R 11 -100 R 11 -97 R 11 -95 R 12 -95 R 11 -92 R 11 -90 R 11 -89 R
11 -87 R 12 -85 R 11 -84 R 11 -83 R 11 -80 R 11 -80 R 12 -78 R 11 -78 R
11 -74 R 11 -75 R 11 -73 R 12 -72 R 11 -70 R 11 -69 R 11 -69 R 11 -67 R
12 -65 R 11 -65 R 11 -64 R 11 -63 R 11 -62 R 12 -60 R 11 -61 R 11 -59 R
11 -58 R 11 -57 R 12 -56 R 11 -56 R 11 -54 R 11 -54 R 11 -54 R 12 -51 R
11 -52 R 11 -51 R 11 -50 R 11 -49 R 12 -49 R 11 -47 R 11 -47 R 11 -47 R
11 -46 R 12 -45 R 11 -45 R 11 -43 R 11 -44 R 11 -43 R 12 -42 R 11 -42 R
11 -41 R 11 -41 R 11 -39 R 12 -39 R 11 -39 R 11 -39 R 11 -38 R 11 -38 R
12 -37 R 11 -35 R 11 -37 R 11 -35 R 11 -36 R 12 -34 R 11 -35 R 11 -34 R
11 -33 R 11 -32 R 12 -33 R 11 -33 R 11 -31 R 11 -32 R 11 -31 R 12 -31 R
11 -30 R 11 -30 R 11 -29 R 11 -30 R 12 -29 R 11 -28 R 11 -29 R 11 -28 R
11 -27 R 12 -28 R 11 -27 R 11 -27 R 11 -26 R 11 -25 R 12 -26 R 11 -26 R
11 -25 R 11 -25 R 11 -25 R 12 -25 R 11 -24 R 11 -24 R 11 -24 R 11 -23 R
12 -23 R 11 -22 R 11 -23 R 11 -23 R 11 -22 R 12 -22 R 11 -22 R 11 -21 R
11 -22 R 11 -21 R 11 -21 R 12 -20 R 11 -21 R 11 -20 R 11 -19 R 11 -20 R
12 -20 R 11 -19 R 11 -20 R 11 -19 R 11 -19 R 12 -18 R 11 -19 R 11 -18 R
11 -18 R 11 -18 R 12 -18 R 11 -18 R 11 -17 R 11 -17 R 11 -17 R 12 -17 R
11 -17 R 11 -17 R 11 -16 R 11 -16 R 12 -17 R 11 -16 R 11 -16 R 11 -16 R
11 -15 R 12 -16 R 11 -15 R 11 -15 R 11 -15 R 11 -15 R 12 -15 R 11 -14 R
11 -14 R 11 -15 R 11 -14 R 12 -14 R 11 -14 R 11 -14 R 11 -14 R 11 -14 R
12 -13 R 11 -14 R 11 -13 R 11 -14 R 11 -13 R 12 -13 R 11 -13 R 11 -12 R
11 -13 R 11 -13 R 12 -12 R 11 -12 R 11 -13 R 11 -11 R 11 -12 R 12 -12 R
11 -12 R 11 -12 R 11 -11 R 11 -12 R 12 -11 R 11 -12 R 11 -11 R 11 -11 R
11 -11 R 12 -11 R 11 -11 R 11 -11 R 11 -11 R 11 -11 R 12 -10 R 11 -11 R
11 -10 R 11 -11 R 11 -10 R 12 -10 R 11 -10 R 11 -10 R 11 -10 R 11 -9 R
12 -10 R 11 -10 R 11 -10 R 11 -9 R 11 -10 R 12 -9 R 11 -10 R 11 -9 R 11 -9 R
11 -9 R 12 -10 R 11 -9 R 11 -9 R 11 -9 R 11 -8 R 12 -9 R 11 -9 R 11 -9 R
11 -8 R 11 -9 R 12 -8 R 11 -9 R 11 -8 R 11 -8 R 11 -9 R 12 -8 R 11 -8 R
11 -8 R 11 -8 R 11 -8 R 12 -8 R 11 -7 R 11 -8 R 11 -7 R 11 -8 R 12 -8 R
11 -7 R 11 -8 R 11 -7 R 11 -8 R 12 -7 R 11 -8 R 11 -7 R 11 -7 R 11 -7 R
11 -8 R 12 -7 R 11 -7 R 11 -7 R 11 -7 R 11 -7 R 12 -7 R 11 -6 R 11 -7 R
11 -7 R 11 -7 R 12 -6 R 11 -7 R 11 -7 R 11 -6 R 11 -7 R 12 -6 R 11 -6 R
11 -7 R 11 -6 R 11 -7 R 12 -6 R 11 -6 R 11 -6 R 11 -6 R 11 -6 R 12 -7 R
11 -6 R 11 -5 R 11 -6 R 11 -5 R 12 -6 R 11 -6 R 11 -6 R 11 -6 R 11 -6 R
12 -5 R 11 -6 R 11 -6 R 11 -5 R 11 -6 R 12 -5 R 11 -6 R 11 -5 R 11 -6 R
11 -5 R 12 -6 R 11 -5 R 11 -5 R 11 -6 R 11 -5 R 12 -5 R 11 -5 R 11 -6 R
11 -5 R 11 -5 R 12 -5 R 11 -5 R 11 -5 R 11 -5 R 11 -5 R 12 -5 R 11 -5 R
11 -5 R 11 -5 R 11 -5 R 12 -4 R 11 -5 R 11 -5 R 11 -5 R 11 -4 R 12 -5 R
11 -5 R 11 -4 R 11 -5 R 11 -5 R 12 -4 R 11 -5 R 11 -4 R 11 -5 R 11 -4 R
12 -5 R 11 -4 R 11 -4 R 11 -4 R 11 -4 R 12 -5 R 11 -4 R 11 -4 R 11 -4 R
11 -5 R 12 -4 R 11 -4 R 11 -4 R 11 -4 R 11 -5 R 12 -4 R 11 -4 R 11 -4 R
11 -4 R 11 -4 R 12 -4 R 11 -4 R 11 -4 R 11 -4 R 11 -4 R 12 -4 R 11 -4 R
11 -4 R 11 -4 R 11 -3 R 12 -4 R 11 -4 R 11 -4 R 11 -4 R 11 -3 R 12 -4 R
11 -4 R 11 -4 R 11 -3 R 11 -4 R 12 -4 R 11 -3 R 11 -4 R 11 -3 R 11 -4 R
12 -4 R 11 -3 R 11 -4 R 11 -3 R 11 -4 R 12 -3 R 11 -4 R 11 -3 R 11 -4 R
11 -3 R 11 -3 R 12 -4 R 11 -3 R 11 -4 R 11 -3 R 11 -3 R 12 -4 R 11 -3 R
11 -3 R 11 -3 R 11 -4 R 12 -3 R 11 -3 R 11 -3 R 11 -4 R 11 -3 R 12 -3 R
11 -3 R 11 -3 R 11 -3 R 11 -4 R 12 -3 R 11 -3 R 11 -3 R 11 -3 R 11 -3 R
12 -2 R 11 -3 R 11 -3 R 11 -3 R 11 -3 R 12 -3 R 11 -3 R 11 -3 R 11 -3 R
11 -3 R 12 -3 R 11 -3 R 11 -3 R 11 -3 R 11 -3 R 12 -2 R 11 -3 R 11 -3 R
11 -3 R 11 -3 R 12 -3 R 11 -2 R 11 -3 R 11 -3 R 11 -3 R 12 -3 R 11 -2 R
11 -3 R 11 -3 R 11 -3 R 12 -2 R 11 -3 R 11 -3 R 11 -2 R 11 -3 R 12 -3 R
11 -2 R 11 -3 R 11 -3 R 11 -2 R 12 -3 R 11 -2 R 11 -3 R 11 -3 R 11 -2 R
12 -3 R 11 -2 R 11 -3 R 11 -2 R 11 -3 R 12 -2 R 11 -3 R 11 -2 R 11 -3 R
11 -2 R 12 -3 R 11 -2 R 11 -3 R 11 -2 R 11 -3 R 12 -2 R 11 -2 R 11 -3 R
11 -2 R 11 -3 R 12 -2 R 11 -2 R 11 -3 R 11 -2 R 11 -3 R 12 -2 R 11 -2 R
11 -3 R 11 -2 R 11 -2 R 12 -3 R 11 -2 R 11 -2 R 11 -2 R 11 -3 R 12 -2 R
11 -2 R 11 -3 R 11 -2 R 11 -2 R 12 -2 R 11 -3 R 11 -2 R 11 -2 R 11 -2 R
12 -2 R 11 -3 R 11 -2 R 11 -2 R 11 -2 R 12 -2 R 11 -2 R 11 -3 R 11 -2 R
11 -2 R 12 -2 R 11 -2 R 11 -2 R 11 -2 R 11 -3 R 11 -2 R 12 -2 R 11 -2 R
11 -2 R 11 -2 R 11 -2 R 12 -2 R 11 -2 R 11 -2 R 11 -2 R 11 -2 R 12 -2 R
11 -1 R 11 -2 R 11 -2 R 11 -2 R 12 -2 R 11 -2 R 11 -2 R 11 -2 R 11 -2 R
12 -2 R 11 -2 R 11 -2 R 11 -2 R 11 -2 R 12 -2 R 11 -2 R 11 -2 R 11 -2 R
11 -2 R 12 -2 R 11 -2 R 11 -2 R 11 -2 R 11 -2 R 12 -1 R 11 -2 R 11 -2 R
11 -2 R 11 -2 R 12 -2 R 11 -2 R 11 -2 R 11 -2 R 11 -1 R 12 -2 R 11 -2 R
11 -2 R 11 -2 R 11 -2 R 12 -1 R 11 -2 R 11 -2 R 11 -2 R 11 -2 R 12 -2 R
11 -1 R 11 -2 R 11 -2 R 11 -2 R 12 -1 R 11 -2 R 11 -2 R 11 -2 R 11 -2 R
12 -1 R 11 -2 R 11 -2 R 11 -2 R 11 -1 R 12 -2 R 11 -2 R 11 -2 R 11 -1 R
11 -2 R 12 -2 R 11 -1 R 11 -2 R 11 -2 R 11 -2 R 12 -1 R 11 -2 R 11 -2 R
11 -1 R 11 -2 R 12 -2 R 11 -1 R 11 -2 R 11 -2 R 11 -1 R 12 -2 R 11 -2 R
11 -1 R 11 -2 R 11 -2 R 12 -1 R 11 -2 R 11 -2 R 11 -1 R 11 -2 R 12 -2 R
11 -1 R 11 -2 R 11 -1 R 11 -2 R 12 -2 R 11 -1 R 11 -2 R 11 -1 R 11 -2 R
12 -2 R 11 -1 R 11 -2 R 11 -1 R 11 -2 R 12 -2 R 11 -1 R 11 -2 R 11 -1 R
11 -2 R 12 -1 R 11 -2 R 11 -2 R 11 -1 R 11 -2 R 12 -1 R 11 -2 R 11 -1 R
11 -2 R 11 -1 R 12 -2 R 11 -2 R 11 -1 R 11 -2 R 11 -1 R 11 -2 R 12 -1 R
11 -2 R 11 -1 R 11 -2 R 11 -1 R 12 -2 R 11 -1 R 11 -2 R 11 -1 R 11 -2 R
12 -1 R 11 -2 R 11 -1 R 11 -2 R 11 -1 R 12 -2 R 11 -1 R 11 -2 R 11 -1 R
11 -2 R 12 -1 R 11 -1 R 11 -2 R 11 -1 R 11 -2 R 12 -1 R 11 -2 R 11 -1 R
11 -2 R 11 -1 R 12 -2 R 11 -1 R 11 -1 R 11 -2 R 11 -1 R 12 -2 R 11 -1 R
11 -2 R 11 -1 R 11 -1 R 12 -2 R 11 -1 R 11 -2 R 11 -1 R 11 -2 R 12 -1 R
11 -1 R 11 -1 R 11 -1 R 11 -2 R 12 -1 R 11 -1 R 11 -2 R 11 -1 R 11 -2 R
12 -1 R 11 -1 R 11 -2 R 11 -1 R 11 -2 R 12 -1 R 11 -1 R 11 -2 R 11 -1 R
11 -1 R 12 -2 R 11 -1 R 11 -2 R 11 -1 R 11 -1 R 12 -2 R 11 -1 R 11 -1 R
11 -2 R 11 -1 R 12 -1 R 11 -2 R 11 -1 R 11 -1 R 11 -2 R 12 -1 R 11 -1 R
11 -2 R 11 -1 R 11 -1 R 12 -2 R 11 -1 R 11 -1 R D 10619 2087 M 11 -2 R
11 -1 R 12 -1 R 11 -2 R 11 -1 R 11 -1 R 11 -2 R 12 -1 R 11 -1 R 11 -2 R
11 -1 R 11 -1 R 12 -2 R 11 -1 R 11 -1 R 11 -2 R 11 -1 R 12 -1 R 11 -2 R
11 -1 R 11 -1 R 11 -1 R 12 -2 R 11 -1 R 11 -1 R 11 -2 R 11 -1 R 12 -1 R
11 -1 R 11 -2 R 11 -1 R 11 -1 R 12 -2 R 11 -1 R 11 -1 R 11 -1 R 11 -2 R
12 -1 R 11 -1 R 11 -2 R 11 -1 R 11 -1 R 11 -1 R 12 -2 R 11 -1 R 11 -1 R
11 -1 R 11 -2 R 12 -1 R 11 -1 R 11 -2 R 11 -1 R 11 -1 R 12 -1 R 11 -2 R
11 -1 R 11 -1 R 11 -1 R 12 -2 R 11 -1 R 11 -1 R 11 -1 R 11 -2 R 12 -1 R
11 -1 R 11 -1 R 11 -2 R 11 -1 R 12 -1 R 11 -1 R 11 -2 R 11 -1 R 11 -1 R
12 -1 R 11 -1 R 11 -2 R 11 -1 R 11 -1 R 12 -1 R 11 -2 R 11 -1 R 11 -1 R
11 -1 R 12 -2 R 11 -1 R 11 -1 R 11 -1 R 11 -1 R 12 -2 R 11 -1 R 11 -1 R
11 -1 R 11 -2 R 12 -1 R 11 -1 R 11 -1 R 11 -1 R 11 -2 R 12 -1 R 11 -1 R
11 -1 R 11 -1 R 11 -2 R 12 -1 R 11 -1 R 11 -1 R 11 -1 R 11 -2 R 12 -1 R
11 -1 R 11 -1 R 11 -1 R 11 -2 R 12 -1 R 11 -1 R 11 -1 R 11 -2 R 11 -1 R
12 -1 R 11 -1 R 11 -1 R 11 -1 R 11 -2 R 12 -1 R 11 -1 R 11 -1 R 11 -1 R
11 -2 R 12 -1 R 11 -1 R 11 -1 R 11 -1 R 11 -2 R 12 -1 R 11 -1 R 11 -1 R
11 -1 R 11 -1 R 12 -2 R 11 -1 R 11 -1 R 11 -1 R 11 -1 R 12 -2 R 11 -1 R
11 -1 R 11 -1 R 11 -1 R 12 -1 R 11 -2 R 11 -1 R 11 -1 R 11 -1 R 12 -1 R
11 -2 R 11 -1 R 11 -1 R 11 -1 R 12 -1 R 11 -1 R 11 -2 R 11 -1 R 11 -1 R
12 -1 R 11 -1 R 11 -1 R 11 -2 R 11 -1 R 12 -1 R 11 -1 R 11 -1 R 11 -1 R
11 -2 R 11 -1 R 12 -1 R 11 -1 R 11 -1 R 11 -1 R 11 -2 R 12 -1 R 11 -1 R
11 -1 R 11 -1 R 11 -1 R 12 -1 R 11 -2 R 11 -1 R 11 -1 R 11 0 R 12 -1 R
11 -1 R 11 -2 R 11 -1 R 11 -1 R 12 -1 R 11 -1 R 11 -1 R 11 -1 R 11 -2 R
12 -1 R 11 -1 R 11 -1 R 11 -1 R 11 -1 R 12 -2 R 11 -1 R 11 -1 R 11 -1 R
11 -1 R 12 -1 R 11 -1 R 11 -2 R 11 -1 R 11 -1 R 12 -1 R 11 -1 R 11 -1 R
11 -1 R 11 -2 R 12 -1 R 11 -1 R 11 -1 R 11 -1 R 11 -1 R 12 -1 R 11 -2 R
11 -1 R 11 -1 R 11 -1 R 12 -1 R 11 -1 R 11 -1 R 11 -2 R 11 -1 R 12 -1 R
11 -1 R 11 -1 R 11 -1 R 11 -1 R 12 -2 R 11 -1 R 11 -1 R 11 -1 R 11 -1 R
12 -1 R 11 -1 R 11 -2 R 11 -1 R 11 -1 R 12 -1 R 11 -1 R 11 -1 R 11 -1 R
11 -2 R 12 -1 R 11 -1 R 11 -1 R 11 -1 R 11 -1 R 12 -1 R 11 -1 R 11 -2 R
11 -1 R 11 -1 R 12 -1 R 11 -1 R 11 -1 R 11 -1 R 11 -2 R 12 -1 R 11 -1 R
11 -1 R 11 -1 R 11 -1 R 12 -1 R 11 -2 R 11 -1 R 11 -1 R 11 -1 R 12 -1 R
11 -1 R 11 -1 R 11 -1 R 11 -2 R 12 -1 R 11 -1 R 11 -1 R 11 -1 R 11 -1 R
12 -1 R 11 -2 R 11 -1 R 11 -1 R 11 -1 R 12 -1 R 11 -1 R 11 -1 R 11 -1 R
11 -2 R 12 -1 R 11 -1 R 11 -1 R 11 -1 R 11 -1 R 12 -1 R 11 -1 R 11 -2 R
11 -1 R 11 -1 R 11 -1 R 12 -1 R 11 -1 R 11 -1 R 11 -2 R 11 -1 R 12 -1 R
11 -1 R 11 -1 R 11 -1 R 11 -1 R 12 -1 R 11 -2 R 11 -1 R 11 -1 R 11 -1 R
12 -1 R 11 -1 R 11 -1 R 11 -1 R 11 -2 R 12 -1 R 11 -1 R 11 -1 R 11 -1 R
11 -1 R 12 -1 R 11 -2 R 11 -1 R 11 -1 R 11 -1 R 12 -1 R 11 -1 R 11 -1 R
11 -1 R 11 -2 R 12 -1 R 11 -1 R 11 -1 R 11 -1 R 11 -1 R 12 -1 R 11 -2 R
11 -1 R 11 -1 R 11 -1 R 12 -1 R 11 -1 R 11 -1 R 11 -1 R 11 -2 R 12 -1 R
11 -1 R 11 -1 R 11 -1 R 11 -1 R 12 -1 R 11 -1 R 11 -2 R 11 -1 R 11 -1 R
12 -1 R 11 -1 R 11 -1 R 11 -1 R 11 -2 R 12 -1 R 11 -1 R 11 -1 R 11 -1 R
11 -1 R 12 -1 R 11 -2 R 11 -1 R 11 -1 R 11 -1 R 12 -1 R 11 -1 R 11 -1 R
11 -1 R 11 -2 R 12 -1 R 11 -1 R 11 -1 R 11 -1 R 11 -1 R 12 -1 R 11 -2 R
11 -1 R 11 -1 R 11 -1 R 12 -1 R 11 -1 R 11 -1 R 11 -2 R 11 -1 R 12 -1 R
11 -1 R 11 -1 R 11 -1 R 11 -1 R 12 -1 R 11 -2 R 11 -1 R 11 -1 R 11 -1 R
12 -1 R 11 -1 R 11 -1 R 11 -2 R 11 -1 R 12 -1 R 11 -1 R 11 -1 R 11 -1 R
11 -1 R 12 -2 R 11 -1 R 11 -1 R 11 -1 R 11 -1 R 12 -1 R 11 -1 R 11 -2 R
11 -1 R 11 -1 R 12 -1 R 11 -1 R 11 -1 R 11 -1 R 11 -2 R 11 0 R 12 -1 R
11 -1 R 11 -1 R 11 -1 R 11 -1 R 12 -2 R 11 -1 R 11 -1 R 11 -1 R 11 -1 R
12 -1 R 11 -2 R 11 -1 R 11 -1 R 11 -1 R 12 -1 R 11 -1 R 11 -1 R 11 -2 R
11 -1 R 12 -1 R 11 -1 R 11 -1 R 11 -1 R 11 -1 R 12 -2 R 11 -1 R 11 -1 R
11 -1 R 11 -1 R 12 -1 R 11 -2 R 11 -1 R 11 -1 R 11 -1 R 12 -1 R 11 -1 R
11 -1 R 11 -2 R 11 -1 R 12 -1 R 11 -1 R 11 -1 R 11 -1 R 11 -2 R 12 -1 R
11 -1 R 11 -1 R 11 -1 R 11 -1 R 12 -1 R 11 -2 R 11 -1 R 11 -1 R 11 -1 R
12 -1 R 11 -1 R 11 -2 R 11 -1 R 11 -1 R 12 -1 R 11 -1 R 11 -1 R 11 -2 R
11 -1 R 12 -1 R 11 -1 R 11 -1 R 11 -1 R 11 -2 R 12 -1 R 11 -1 R 11 -1 R
11 -1 R 11 -1 R 12 -2 R 11 -1 R 11 -1 R 11 -1 R 11 -1 R 12 -1 R 11 -2 R
11 -1 R 11 -1 R 11 -1 R 12 -1 R 11 -1 R 11 -2 R 11 -1 R 11 -1 R 12 -1 R
11 -1 R 11 -1 R 11 -2 R 11 -1 R 12 -1 R 11 -1 R 11 -1 R 11 -1 R 11 -2 R
12 -1 R 11 -1 R 11 -1 R 11 -1 R 11 -2 R 12 -1 R 11 -1 R 11 -1 R 11 -1 R
11 -1 R 12 -2 R 11 -1 R 11 -1 R 11 -1 R 11 -1 R 12 -1 R 11 -2 R 11 -1 R
11 -1 R 11 -1 R 12 -1 R 11 -2 R 11 -1 R 11 -1 R 11 -1 R 12 -1 R 11 -2 R
11 -1 R 11 -1 R 11 -1 R 12 -1 R 11 -1 R 11 -2 R 11 -1 R 11 -1 R 11 -1 R
12 -1 R 11 -2 R 11 -1 R D
%%PageTrailer
end
restore
showpage
%%PageResources: font Helvetica
%%Trailer
restore
%%Pages: 1
%%DocumentNeededResources: font Helvetica
%%EOF
