%!PS-Adobe-3.0
%%BoundingBox: 54 360 558 720
%%Title: Graphics produced by IDL
%%For: peters11@pal-nat185-046-194.itap.purdue.edu, 
%%      /Users/peters11/imsims/trunk/raytrace
%%Creator: IDL Version 6.3, Mac OS X (darwin i386 m32)
%%CreationDate: Fri Oct  7 10:46:59 2011
%%DocumentData: Clean7bit
%%LanguageLevel: 1
%%PageOrder: Ascend
%%Pages: (atend)
%%DocumentNeededResources: (atend)
%%EndComments
%%BeginProlog
save
%+ prolog.ps -- Prolog for IDL generated PostScript files
%+ Copyright (c) 1988-2006 Research Systems, Inc. All Rights Reserved.
%v 5
/$IDL_DICT 40 dict def $IDL_DICT begin /bdef { bind def } bind def /C
{currentpoint newpath moveto} bdef /CP {currentpoint} bdef /D {currentpoint
stroke moveto} bdef /F {closepath fill} bdef /K { setgray } bdef /M {moveto}
bdef /N {rmoveto} bdef /P {lineto} bdef /R {rlineto} bdef /S {gsave show
grestore} bdef /X {currentpoint pop} bdef /Z {gsave currentpoint lineto 20
setlinewidth 1 setlinecap stroke grestore} bdef /L0 {[] 0 setdash} bdef /L1
{[40 100] 0 setdash} bdef /L2 {[200 200] 0 setdash} bdef /L3 {[200 100 50
100] 0 setdash} bdef /L4 {[300 100 50 100 50 100 50 100] 0 setdash} bdef /L5
{[400 200] 0 setdash} bdef /STDFONT { findfont exch scalefont setfont } bdef
/ISOFONT { findfont dup length dict begin { 1 index /FID ne {def} {pop pop}
ifelse } forall /Encoding ISOLatin1Encoding def currentdict end /idltmpfont
exch definefont exch scalefont setfont } bdef /ISOBULLET { gsave /Helvetica
findfont exch scalefont setfont (\267) show currentpoint grestore moveto}
bdef /MITERLIMIT { 2.5 setmiterlimit } bdef end
%%EndProlog
%%Page: 0 1
%%PageResources: (atend)
%%PageOrientation: Portrait
%%PageBoundingBox: 54 360 558 720
%%BeginPageSetup
save
$IDL_DICT begin 54 360 translate 0.0283465 dup scale MITERLIMIT
%%IncludeResource: font Helvetica
423.333 /Helvetica STDFONT
%%EndPageSetup
10 setlinewidth L0 0.000 K 7995 12514 M 0 -307 R 175 0 R D 8228 12324 M
176 0 R 0 29 R -15 30 R -14 14 R -30 15 R -44 0 R -29 -15 R -29 -29 R
-15 -44 R 0 -29 R 15 -44 R 29 -29 R 29 -15 R 44 0 R 30 15 R 29 29 R D
8506 12412 M 0 -205 R D 8506 12353 M 44 44 R 29 15 R 44 0 R 29 -15 R
15 -44 R 0 -146 R D 8930 12368 M -15 29 R -44 15 R -44 0 R -44 -15 R
-14 -29 R 14 -29 R 30 -15 R 73 -14 R 29 -15 R 15 -29 R 0 -15 R -15 -29 R
-44 -15 R -44 0 R -44 15 R -14 29 R D 9265 12514 M 0 -307 R D 9265 12514 M
190 0 R D 9265 12368 M 117 0 R D 9265 12207 M 190 0 R D 9631 12514 M -30 0 R
-29 -15 R -14 -43 R 0 -249 R D 9514 12412 M 102 0 R D 9806 12514 M -29 0 R
-30 -15 R -14 -43 R 0 -249 R D 9689 12412 M 102 0 R D 9879 12514 M 14 -15 R
15 15 R -15 15 R -14 -15 R D 9893 12412 M 0 -205 R D 10171 12368 M -29 29 R
-29 15 R -44 0 R -29 -15 R -30 -29 R -14 -44 R 0 -29 R 14 -44 R 30 -29 R
29 -15 R 44 0 R 29 15 R 29 29 R D 10259 12514 M 14 -15 R 15 15 R -15 15 R
-14 -15 R D 10273 12412 M 0 -205 R D 10375 12324 M 176 0 R 0 29 R -15 30 R
-15 14 R -29 15 R -44 0 R -29 -15 R -29 -29 R -15 -44 R 0 -29 R 15 -44 R
29 -29 R 29 -15 R 44 0 R 29 15 R 30 29 R D 10653 12412 M 0 -205 R D
10653 12353 M 44 44 R 29 15 R 44 0 R 29 -15 R 15 -44 R 0 -146 R D
11091 12368 M -29 29 R -29 15 R -44 0 R -29 -15 R -30 -29 R -14 -44 R
0 -29 R 14 -44 R 30 -29 R 29 -15 R 44 0 R 29 15 R 29 29 R D 11164 12412 M
88 -205 R 87 205 R D 11252 12207 M -29 -73 R -30 -29 R -29 -15 R -14 0 R D
2220 1408 M 14894 0 R D 2220 1408 M 0 212 R D 1905 1067 M 0 12 R 11 23 R
12 12 R 23 11 R 47 0 R 23 -11 R 12 -12 R 12 -23 R 0 -24 R -12 -23 R
-23 -35 R -117 -117 R 164 0 R D 2197 1125 M -35 -11 R -24 -35 R -11 -59 R
0 -35 R 11 -58 R 24 -35 R 35 -12 R 23 0 R 35 12 R 24 35 R 11 58 R 0 35 R
-11 59 R -24 35 R -35 11 R -23 0 R D 2430 1125 M -35 -11 R -23 -35 R
-12 -59 R 0 -35 R 12 -58 R 23 -35 R 35 -12 R 24 0 R 35 12 R 23 35 R 12 58 R
0 35 R -12 59 R -23 35 R -35 11 R -24 0 R D 5199 1408 M 0 212 R D
4989 1125 M -117 -163 R 175 0 R D 4989 1125 M 0 -245 R D 5176 1125 M
-36 -11 R -23 -35 R -12 -59 R 0 -35 R 12 -58 R 23 -35 R 36 -12 R 23 0 R
35 12 R 23 35 R 12 58 R 0 35 R -12 59 R -23 35 R -35 11 R -23 0 R D
5409 1125 M -35 -11 R -23 -35 R -12 -59 R 0 -35 R 12 -58 R 23 -35 R 35 -12 R
24 0 R 35 12 R 23 35 R 12 58 R 0 35 R -12 59 R -23 35 R -35 11 R -24 0 R D
8178 1408 M 0 212 R D 8002 1090 M -11 24 R -35 11 R -24 0 R -35 -11 R
-23 -35 R -12 -59 R 0 -58 R 12 -47 R 23 -23 R 35 -12 R 12 0 R 35 12 R
23 23 R 12 35 R 0 12 R -12 35 R -23 23 R -35 12 R -12 0 R -35 -12 R
-23 -23 R -12 -35 R D 8154 1125 M -35 -11 R -23 -35 R -12 -59 R 0 -35 R
12 -58 R 23 -35 R 35 -12 R 24 0 R 35 12 R 23 35 R 12 58 R 0 35 R -12 59 R
-23 35 R -35 11 R -24 0 R D 8388 1125 M -35 -11 R -23 -35 R -12 -59 R
0 -35 R 12 -58 R 23 -35 R 35 -12 R 23 0 R 35 12 R 24 35 R 11 58 R 0 35 R
-11 59 R -24 35 R -35 11 R -23 0 R D 11156 1408 M 0 212 R D 10888 1125 M
-35 -11 R -12 -24 R 0 -23 R 12 -23 R 23 -12 R 47 -12 R 35 -11 R 23 -24 R
12 -23 R 0 -35 R -12 -24 R -11 -11 R -36 -12 R -46 0 R -35 12 R -12 11 R
-12 24 R 0 35 R 12 23 R 23 24 R 35 11 R 47 12 R 24 12 R 11 23 R 0 23 R
-11 24 R -36 11 R -46 0 R D 11133 1125 M -35 -11 R -23 -35 R -12 -59 R
0 -35 R 12 -58 R 23 -35 R 35 -12 R 23 0 R 36 12 R 23 35 R 12 58 R 0 35 R
-12 59 R -23 35 R -36 11 R -23 0 R D 11367 1125 M -35 -11 R -24 -35 R
-11 -59 R 0 -35 R 11 -58 R 24 -35 R 35 -12 R 23 0 R 35 12 R 24 35 R 11 58 R
0 35 R -11 59 R -24 35 R -35 11 R -23 0 R D 14135 1408 M 0 212 R D
13726 1079 M 24 11 R 35 35 R 0 -245 R D 13995 1125 M -35 -11 R -23 -35 R
-12 -59 R 0 -35 R 12 -58 R 23 -35 R 35 -12 R 23 0 R 35 12 R 24 35 R 12 58 R
0 35 R -12 59 R -24 35 R -35 11 R -23 0 R D 14229 1125 M -35 -11 R -24 -35 R
-11 -59 R 0 -35 R 11 -58 R 24 -35 R 35 -12 R 23 0 R 35 12 R 24 35 R 11 58 R
0 35 R -11 59 R -24 35 R -35 11 R -23 0 R D 14462 1125 M -35 -11 R -23 -35 R
-12 -59 R 0 -35 R 12 -58 R 23 -35 R 35 -12 R 24 0 R 35 12 R 23 35 R 12 58 R
0 35 R -12 59 R -23 35 R -35 11 R -24 0 R D 17114 1408 M 0 212 R D
16705 1079 M 24 11 R 35 35 R 0 -245 R D 16915 1067 M 0 12 R 12 23 R 12 12 R
23 11 R 47 0 R 23 -11 R 12 -12 R 12 -23 R 0 -24 R -12 -23 R -23 -35 R
-117 -117 R 163 0 R D 17208 1125 M -35 -11 R -24 -35 R -12 -59 R 0 -35 R
12 -58 R 24 -35 R 35 -12 R 23 0 R 35 12 R 23 35 R 12 58 R 0 35 R -12 59 R
-23 35 R -35 11 R -23 0 R D 17441 1125 M -35 -11 R -23 -35 R -12 -59 R
0 -35 R 12 -58 R 23 -35 R 35 -12 R 24 0 R 35 12 R 23 35 R 12 58 R 0 35 R
-12 59 R -23 35 R -35 11 R -24 0 R D 2965 1408 M 0 106 R D 3709 1408 M
0 106 R D 4454 1408 M 0 106 R D 5944 1408 M 0 106 R D 6688 1408 M 0 106 R D
7433 1408 M 0 106 R D 8922 1408 M 0 106 R D 9667 1408 M 0 106 R D
10412 1408 M 0 106 R D 11901 1408 M 0 106 R D 12646 1408 M 0 106 R D
13391 1408 M 0 106 R D 14880 1408 M 0 106 R D 15625 1408 M 0 106 R D
16369 1408 M 0 106 R D 8131 668 M 58 -246 R 58 246 R 59 -246 R 58 246 R D
8563 586 M 0 -164 R D 8563 551 M -23 23 R -24 12 R -35 0 R -23 -12 R
-24 -23 R -11 -35 R 0 -23 R 11 -35 R 24 -24 R 23 -12 R 35 0 R 24 12 R
23 24 R D 8633 586 M 70 -164 R 70 164 R D 8832 516 M 140 0 R 0 23 R -12 24 R
-11 11 R -24 12 R -35 0 R -23 -12 R -24 -23 R -11 -35 R 0 -23 R 11 -35 R
24 -24 R 23 -12 R 35 0 R 24 12 R 23 24 R D 9054 668 M 0 -246 R D 9135 516 M
141 0 R 0 23 R -12 24 R -12 11 R -23 12 R -35 0 R -23 -12 R -24 -23 R
-12 -35 R 0 -23 R 12 -35 R 24 -24 R 23 -12 R 35 0 R 23 12 R 24 24 R D
9357 586 M 0 -164 R D 9357 539 M 36 35 R 23 12 R 35 0 R 23 -12 R 12 -35 R
0 -117 R D 9708 586 M 0 -199 R -12 -35 R -11 -11 R -24 -12 R -35 0 R
-23 12 R D 9708 551 M -23 23 R -24 12 R -35 0 R -23 -12 R -24 -23 R
-11 -35 R 0 -23 R 11 -35 R 24 -24 R 23 -12 R 35 0 R 24 12 R 23 24 R D
9813 668 M 0 -199 R 12 -35 R 23 -12 R 24 0 R D 9778 586 M 82 0 R D
9942 668 M 0 -246 R D 9942 539 M 35 35 R 23 12 R 35 0 R 24 -12 R 11 -35 R
0 -117 R D 10432 715 M -23 -24 R -23 -35 R -24 -47 R -11 -58 R 0 -47 R
11 -58 R 24 -59 R 23 -35 R 23 -23 R D 10514 586 M 0 -164 R D 10514 539 M
35 35 R 24 12 R 35 0 R 23 -12 R 12 -35 R 0 -117 R D 10736 586 M 0 -164 R D
10736 539 M 35 35 R 24 12 R 35 0 R 23 -12 R 12 -35 R 0 -117 R D 10865 539 M
35 35 R 23 12 R 35 0 R 24 -12 R 11 -35 R 0 -117 R D 11075 715 M 23 -24 R
24 -35 R 23 -47 R 12 -58 R 0 -47 R -12 -58 R -23 -59 R -24 -35 R -23 -23 R D
2220 11996 M 14894 0 R D 2220 11996 M 0 -212 R D 5199 11996 M 0 -212 R D
8178 11996 M 0 -212 R D 11156 11996 M 0 -212 R D 14135 11996 M 0 -212 R D
17114 11996 M 0 -212 R D 2965 11996 M 0 -106 R D 3709 11996 M 0 -106 R D
4454 11996 M 0 -106 R D 5944 11996 M 0 -106 R D 6688 11996 M 0 -106 R D
7433 11996 M 0 -106 R D 8922 11996 M 0 -106 R D 9667 11996 M 0 -106 R D
10412 11996 M 0 -106 R D 11901 11996 M 0 -106 R D 12646 11996 M 0 -106 R D
13391 11996 M 0 -106 R D 14880 11996 M 0 -106 R D 15625 11996 M 0 -106 R D
16369 11996 M 0 -106 R D 2220 1408 M 0 10588 R D 2220 1408 M 298 0 R D
1385 1653 M -35 -11 R -24 -35 R -11 -59 R 0 -35 R 11 -58 R 24 -35 R 35 -12 R
23 0 R 35 12 R 23 35 R 12 58 R 0 35 R -12 59 R -23 35 R -35 11 R -23 0 R D
1572 1431 M -12 -11 R 12 -12 R 11 12 R -11 11 R D 1817 1572 M -12 -35 R
-23 -24 R -35 -11 R -12 0 R -35 11 R -23 24 R -12 35 R 0 11 R 12 35 R
23 24 R 35 11 R 12 0 R 35 -11 R 23 -24 R 12 -46 R 0 -59 R -12 -58 R
-23 -35 R -35 -12 R -23 0 R -36 12 R -11 23 R D 1969 1653 M -35 -11 R
-24 -35 R -11 -59 R 0 -35 R 11 -58 R 24 -35 R 35 -12 R 23 0 R 35 12 R
24 35 R 11 58 R 0 35 R -11 59 R -24 35 R -35 11 R -23 0 R D 2220 3526 M
298 0 R D 1385 3630 M -35 -11 R -24 -36 R -11 -58 R 0 -35 R 11 -58 R
24 -35 R 35 -12 R 23 0 R 35 12 R 23 35 R 12 58 R 0 35 R -12 58 R -23 36 R
-35 11 R -23 0 R D 1572 3408 M -12 -11 R 12 -12 R 11 12 R -11 11 R D
1817 3548 M -12 -35 R -23 -23 R -35 -12 R -12 0 R -35 12 R -23 23 R -12 35 R
0 12 R 12 35 R 23 24 R 35 11 R 12 0 R 35 -11 R 23 -24 R 12 -47 R 0 -58 R
-12 -58 R -23 -35 R -35 -12 R -23 0 R -36 12 R -11 23 R D 1910 3572 M 0 11 R
12 24 R 12 12 R 23 11 R 47 0 R 23 -11 R 12 -12 R 12 -24 R 0 -23 R -12 -23 R
-23 -35 R -117 -117 R 163 0 R D 2220 5643 M 298 0 R D 1385 5748 M -35 -12 R
-24 -35 R -11 -58 R 0 -35 R 11 -59 R 24 -35 R 35 -12 R 23 0 R 35 12 R
23 35 R 12 59 R 0 35 R -12 58 R -23 35 R -35 12 R -23 0 R D 1572 5526 M
-12 -12 R 12 -12 R 11 12 R -11 12 R D 1817 5666 M -12 -35 R -23 -23 R
-35 -12 R -12 0 R -35 12 R -23 23 R -12 35 R 0 12 R 12 35 R 23 23 R 35 12 R
12 0 R 35 -12 R 23 -23 R 12 -47 R 0 -58 R -12 -59 R -23 -35 R -35 -12 R
-23 0 R -36 12 R -11 24 R D 2016 5748 M -117 -164 R 175 0 R D 2016 5748 M
0 -246 R D 2220 7761 M 298 0 R D 1385 7865 M -35 -11 R -24 -35 R -11 -59 R
0 -35 R 11 -58 R 24 -35 R 35 -12 R 23 0 R 35 12 R 23 35 R 12 58 R 0 35 R
-12 59 R -23 35 R -35 11 R -23 0 R D 1572 7643 M -12 -11 R 12 -12 R 11 12 R
-11 11 R D 1817 7784 M -12 -35 R -23 -24 R -35 -11 R -12 0 R -35 11 R
-23 24 R -12 35 R 0 11 R 12 35 R 23 24 R 35 11 R 12 0 R 35 -11 R 23 -24 R
12 -46 R 0 -59 R -12 -58 R -23 -35 R -35 -12 R -23 0 R -36 12 R -11 23 R D
2051 7830 M -12 24 R -35 11 R -23 0 R -35 -11 R -24 -35 R -12 -59 R 0 -58 R
12 -47 R 24 -23 R 35 -12 R 11 0 R 35 12 R 24 23 R 11 35 R 0 12 R -11 35 R
-24 23 R -35 12 R -11 0 R -35 -12 R -24 -23 R -12 -35 R D 2220 9878 M
298 0 R D 1385 9983 M -35 -12 R -24 -35 R -11 -58 R 0 -35 R 11 -59 R
24 -35 R 35 -11 R 23 0 R 35 11 R 23 35 R 12 59 R 0 35 R -12 58 R -23 35 R
-35 12 R -23 0 R D 1572 9761 M -12 -12 R 12 -11 R 11 11 R -11 12 R D
1817 9901 M -12 -35 R -23 -23 R -35 -12 R -12 0 R -35 12 R -23 23 R -12 35 R
0 12 R 12 35 R 23 23 R 35 12 R 12 0 R 35 -12 R 23 -23 R 12 -47 R 0 -58 R
-12 -59 R -23 -35 R -35 -11 R -23 0 R -36 11 R -11 24 R D 1957 9983 M
-35 -12 R -12 -23 R 0 -23 R 12 -24 R 24 -11 R 46 -12 R 35 -12 R 24 -23 R
11 -24 R 0 -35 R -11 -23 R -12 -12 R -35 -11 R -47 0 R -35 11 R -12 12 R
-11 23 R 0 35 R 11 24 R 24 23 R 35 12 R 47 12 R 23 11 R 12 24 R 0 23 R
-12 23 R -35 12 R -47 0 R D 2220 11996 M 298 0 R D 1350 11948 M 23 12 R
35 35 R 0 -245 R D 1572 11773 M -12 -12 R 12 -11 R 11 11 R -11 12 R D
1735 11995 M -35 -12 R -23 -35 R -12 -58 R 0 -35 R 12 -59 R 23 -35 R
35 -11 R 24 0 R 35 11 R 23 35 R 12 59 R 0 35 R -12 58 R -23 35 R -35 12 R
-24 0 R D 1969 11995 M -35 -12 R -24 -35 R -11 -58 R 0 -35 R 11 -59 R
24 -35 R 35 -11 R 23 0 R 35 11 R 24 35 R 11 59 R 0 35 R -11 58 R -24 35 R
-35 12 R -23 0 R D 2220 1937 M 149 0 R D 2220 2467 M 149 0 R D 2220 2996 M
149 0 R D 2220 4055 M 149 0 R D 2220 4584 M 149 0 R D 2220 5114 M 149 0 R D
2220 6173 M 149 0 R D 2220 6702 M 149 0 R D 2220 7231 M 149 0 R D
2220 8290 M 149 0 R D 2220 8820 M 149 0 R D 2220 9349 M 149 0 R D
2220 10408 M 149 0 R D 2220 10937 M 149 0 R D 2220 11467 M 149 0 R D
713 5872 M 245 0 R D 713 5872 M 0 152 R D 830 5872 M 0 94 R D 958 5872 M
0 152 R D 713 6165 M 0 -24 R 12 -23 R 35 -12 R 198 0 R D 795 6071 M 0 82 R D
713 6305 M 0 -24 R 12 -23 R 35 -12 R 198 0 R D 795 6211 M 0 82 R D
713 6363 M 12 12 R -12 12 R -12 -12 R 12 -12 R D 795 6375 M 163 0 R D
830 6597 M -24 -23 R -11 -24 R 0 -35 R 11 -23 R 24 -24 R 35 -11 R 23 0 R
35 11 R 24 24 R 11 23 R 0 35 R -11 24 R -24 23 R D 713 6667 M 12 12 R
-12 11 R -12 -11 R 12 -12 R D 795 6679 M 163 0 R D 865 6760 M 0 141 R
-24 0 R -23 -12 R -12 -12 R -11 -23 R 0 -35 R 11 -23 R 24 -24 R 35 -12 R
23 0 R 35 12 R 24 24 R 11 23 R 0 35 R -11 23 R -24 24 R D 795 6982 M 163 0 R
D 841 6982 M -35 36 R -11 23 R 0 35 R 11 23 R 35 12 R 117 0 R D 830 7333 M
-24 -23 R -11 -24 R 0 -35 R 11 -23 R 24 -24 R 35 -11 R 23 0 R 35 11 R
24 24 R 11 23 R 0 35 R -11 24 R -24 23 R D 795 7391 M 163 71 R -163 70 R D
958 7462 M 59 -24 R 23 -23 R 12 -24 R 0 -11 R D 17114 1408 M 0 10588 R D
17114 1408 M -298 0 R D 17114 3526 M -298 0 R D 17114 5643 M -298 0 R D
17114 7761 M -298 0 R D 17114 9878 M -298 0 R D 17114 11996 M -298 0 R D
17114 1937 M -149 0 R D 17114 2467 M -149 0 R D 17114 2996 M -149 0 R D
17114 4055 M -149 0 R D 17114 4584 M -149 0 R D 17114 5114 M -149 0 R D
17114 6173 M -149 0 R D 17114 6702 M -149 0 R D 17114 7231 M -149 0 R D
17114 8290 M -149 0 R D 17114 8820 M -149 0 R D 17114 9349 M -149 0 R D
17114 10408 M -149 0 R D 17114 10937 M -149 0 R D 17114 11467 M -149 0 R D
3709 10272 M 15 -37 R 15 -27 R 15 -19 R 15 -10 R 15 -1 R 15 6 R 15 15 R
15 21 R 15 27 R 14 33 R 15 35 R 15 39 R 15 42 R 15 43 R 15 42 R 15 43 R
15 42 R 15 41 R 14 37 R 15 36 R 15 32 R 15 28 R 15 25 R 15 21 R 15 16 R
15 12 R 15 8 R 15 3 R 14 0 R 15 -5 R 15 -8 R 15 -11 R 15 -16 R 15 -17 R
15 -20 R 15 -24 R 15 -24 R 14 -26 R 15 -28 R 15 -28 R 15 -29 R 15 -30 R
15 -28 R 15 -29 R 15 -28 R 15 -28 R 15 -25 R 14 -25 R 15 -23 R 15 -21 R
15 -19 R 15 -18 R 15 -15 R 15 -14 R 15 -10 R 15 -9 R 14 -6 R 15 -3 R 15 -4 R
15 1 R 15 4 R 15 4 R 15 6 R 15 8 R 15 10 R 14 12 R 15 13 R 15 14 R 15 15 R
15 17 R 15 17 R 15 19 R 15 18 R 15 20 R 15 19 R 14 20 R 15 21 R 15 20 R
15 19 R 15 19 R 15 19 R 15 18 R 15 18 R 15 17 R 14 15 R 15 14 R 15 15 R
15 13 R 15 11 R 15 11 R 15 9 R 15 8 R 15 6 R 15 5 R 14 4 R 15 3 R 15 1 R
15 0 R 15 -2 R 15 -2 R 15 -4 R 15 -5 R 15 -6 R 14 -7 R 15 -9 R 15 -9 R
15 -10 R 15 -11 R 15 -12 R 15 -13 R 15 -13 R 15 -13 R 15 -15 R 14 -15 R
15 -15 R 15 -16 R 15 -14 R 15 -16 R 15 -16 R 15 -17 R 15 -16 R 15 -15 R
14 -17 R 15 -15 R 15 -16 R 15 -14 R 15 -15 R 15 -14 R 15 -14 R 15 -13 R
15 -12 R 14 -13 R 15 -11 R 15 -11 R 15 -10 R 15 -10 R 15 -9 R 15 -7 R
15 -7 R 15 -7 R 15 -5 R 14 -5 R 15 -5 R 15 -3 R 15 -2 R 15 -2 R 15 0 R
15 -1 R 15 1 R 15 1 R 14 2 R 15 3 R 15 3 R 15 5 R 15 4 R 15 5 R 15 7 R
15 7 R 15 6 R 15 9 R 14 7 R 15 10 R 15 9 R 15 10 R 15 9 R 15 11 R 15 11 R
15 11 R 15 12 R 14 10 R 15 13 R 15 12 R 15 11 R 15 13 R 15 13 R 15 11 R
15 14 R 15 12 R 15 13 R 14 12 R 15 13 R 15 12 R 15 12 R 15 12 R 15 12 R
15 12 R 15 11 R 15 12 R 14 10 R 15 12 R 15 9 R 15 11 R 15 9 R 15 10 R
15 10 R 15 8 R 15 8 R 15 8 R 14 8 R 15 8 R 15 6 R 15 6 R 15 7 R 15 5 R
15 5 R 15 6 R 15 5 R 14 3 R 15 4 R 15 4 R 15 2 R 15 2 R 15 2 R 15 2 R 15 1 R
15 0 R 14 1 R 15 0 R 15 -1 R 15 0 R 15 -2 R 15 -1 R 15 -2 R 15 -2 R 15 -2 R
15 -3 R 14 -3 R 15 -3 R 15 -4 R 15 -3 R 15 -6 R 15 -4 R 15 -4 R 15 -5 R
15 -5 R 14 -5 R 15 -5 R 15 -5 R 15 -7 R 15 -6 R 15 -5 R 15 -7 R 15 -6 R
15 -5 R 15 -7 R 14 -6 R 15 -8 R 15 -6 R 15 -6 R 15 -7 R 15 -6 R 15 -6 R
15 -8 R 15 -6 R 14 -6 R 15 -7 R 15 -6 R 15 -7 R 15 -6 R 15 -6 R 15 -6 R
15 -6 R 15 -5 R 15 -7 R 14 -5 R 15 -5 R 15 -5 R 15 -6 R 15 -5 R 15 -4 R
15 -4 R 15 -6 R 15 -4 R 14 -4 R 15 -4 R 15 -4 R 15 -3 R 15 -4 R 15 -2 R
15 -3 R 15 -4 R 15 -2 R 14 -2 R 15 -2 R 15 -2 R 15 -2 R 15 -1 R 15 -2 R
15 -3 R 15 -2 R 15 0 R 15 -1 R 14 0 R 15 0 R 15 1 R 15 0 R 15 2 R 15 1 R
15 1 R 15 1 R 15 2 R 14 2 R 15 2 R 15 2 R 15 2 R 15 3 R 15 3 R 15 3 R 15 3 R
15 3 R 15 3 R 14 5 R 15 3 R 15 4 R 15 4 R 15 4 R 15 5 R 15 4 R 15 5 R 15 4 R
14 6 R 15 4 R 15 6 R 15 6 R 15 5 R 15 5 R 15 5 R 15 6 R 15 6 R 15 6 R 14 6 R
15 6 R 15 5 R 15 7 R 15 5 R 15 6 R 15 7 R 15 6 R 15 5 R 14 7 R 15 6 R 15 6 R
15 7 R 15 6 R 15 8 R 15 6 R 15 6 R 15 7 R 14 6 R 15 7 R 15 7 R 15 6 R 15 6 R
15 7 R 15 6 R 15 7 R 15 6 R 15 6 R 14 7 R 15 5 R 15 6 R 15 7 R 15 5 R 15 6 R
15 6 R 15 6 R 15 5 R 14 5 R 15 6 R 15 5 R 15 5 R 15 6 R 15 5 R 15 5 R 15 4 R
15 6 R 15 4 R 14 4 R 15 6 R 15 4 R 15 4 R 15 3 R 15 5 R 15 4 R 15 4 R 15 3 R
14 4 R 15 3 R 15 4 R 15 3 R 15 3 R 15 3 R 15 2 R 15 3 R 15 3 R 15 2 R 14 3 R
15 2 R 15 2 R 15 1 R 15 3 R 15 1 R 15 3 R 15 1 R 15 1 R 14 1 R 15 1 R 15 1 R
15 1 R 15 0 R 15 1 R 15 0 R 15 1 R 15 0 R 14 0 R 15 0 R 15 0 R 15 -1 R
15 0 R 15 0 R 15 -1 R 15 -1 R 15 0 R 15 -1 R 14 -1 R 15 -1 R 15 -2 R 15 -2 R
15 -1 R 15 -2 R 15 -2 R 15 -1 R 15 -2 R 14 -2 R 15 -2 R 15 -2 R 15 -2 R
15 -3 R 15 -2 R 15 -2 R 15 -3 R 15 -2 R 15 -3 R 14 -2 R 15 -4 R 15 -3 R
15 -2 R 15 -3 R 15 -3 R 15 -3 R 15 -4 R 15 -3 R 14 -3 R 15 -4 R 15 -3 R
15 -4 R 15 -3 R 15 -4 R 15 -3 R 15 -3 R 15 -5 R 15 -3 R 14 -3 R 15 -4 R
15 -4 R 15 -4 R 15 -4 R 15 -4 R 15 -3 R 15 -4 R 15 -4 R 14 -4 R 15 -4 R
15 -3 R 15 -4 R 15 -5 R 15 -3 R 15 -4 R 15 -4 R 15 -5 R 15 -3 R 14 -4 R
15 -4 R 15 -3 R 15 -5 R 15 -4 R 15 -3 R 15 -4 R 15 -5 R 15 -3 R 14 -4 R
15 -3 R 15 -4 R 15 -4 R 15 -4 R 15 -3 R 15 -4 R 15 -3 R 15 -4 R 14 -4 R
15 -3 R 15 -4 R 15 -3 R 15 -4 R 15 -3 R 15 -3 R 15 -3 R 15 -3 R 15 -3 R
14 -4 R 15 -3 R 15 -2 R 15 -3 R 15 -3 R 15 -3 R 15 -3 R 15 -3 R 15 -2 R
14 -3 R 15 -2 R 15 -3 R 15 -2 R 15 -3 R 15 -2 R 15 -2 R 15 -2 R 15 -2 R
15 -2 R 14 -2 R 15 -2 R 15 -1 R 15 -3 R 15 -2 R 15 -2 R 15 -1 R 15 -1 R
15 -2 R 14 -1 R 15 -1 R 15 -1 R 15 -1 R 15 -1 R 15 -1 R 15 -1 R 15 -1 R
15 -2 R 15 0 R 14 -1 R 15 0 R 15 -1 R 15 0 R 15 -1 R 15 0 R 15 0 R 15 0 R
15 0 R 14 0 R 15 0 R 15 0 R 15 1 R 15 0 R 15 0 R 15 1 R 15 0 R 15 1 R 14 2 R
15 0 R 15 1 R 15 1 R 15 1 R 15 1 R 15 1 R 15 1 R 15 1 R 15 2 R 14 1 R 15 1 R
15 2 R 15 1 R 15 2 R 15 3 R 15 2 R 15 2 R 15 1 R 14 2 R 15 2 R 15 2 R 15 2 R
15 4 R 15 2 R 15 2 R 15 2 R 15 3 R 15 2 R 14 3 R 15 2 R 15 4 R 15 3 R 15 3 R
15 3 R 15 2 R 15 3 R 15 4 R 14 3 R 15 3 R 15 3 R 15 3 R 15 4 R 15 4 R 15 3 R
15 4 R 15 3 R 15 4 R 14 4 R 15 3 R 15 4 R 15 3 R 15 5 R 15 3 R 15 4 R 15 4 R
15 3 R 14 6 R 15 3 R 15 4 R 15 4 R 15 5 R 15 4 R 15 4 R 15 4 R 15 5 R 14 4 R
15 4 R 15 4 R 15 4 R 15 6 R 15 4 R 15 4 R 15 4 R 15 5 R 15 4 R 14 5 R 15 4 R
15 6 R 15 4 R 15 4 R 15 4 R 15 6 R 15 4 R 15 4 R 14 6 R 15 4 R 15 4 R 15 5 R
15 5 R 15 5 R 15 4 R 15 4 R 15 6 R 15 4 R 14 4 R 15 5 R 15 5 R 15 4 R 15 5 R
15 5 R 15 5 R 15 4 R 15 5 R 14 4 R 15 5 R 15 4 R 15 5 R 15 4 R 15 5 R 15 4 R
15 4 R 15 5 R 15 5 R 14 4 R 15 4 R 15 5 R 15 5 R 15 4 R 15 4 R 15 4 R 15 5 R
15 3 R 14 4 R 15 4 R 15 6 R 15 3 R 15 4 R 15 4 R 15 4 R 15 4 R 15 4 R 15 4 R
14 3 R 15 4 R 15 4 R 15 4 R 15 3 R 15 4 R 15 3 R 15 4 R 15 3 R 14 4 R 15 3 R
15 4 R 15 4 R 15 3 R 15 3 R 15 3 R 15 2 R 15 3 R 14 4 R 15 3 R 15 3 R 15 2 R
15 3 R 15 2 R 15 4 R 15 2 R 15 3 R 15 2 R 14 2 R 15 2 R 15 3 R 15 2 R 15 3 R
15 2 R 15 2 R 15 2 R 15 2 R 14 1 R 15 2 R 15 2 R 15 1 R 15 3 R 15 1 R 15 1 R
15 1 R 15 2 R 15 1 R 14 1 R 15 1 R 15 1 R 15 1 R 15 0 R D 14880 11205 M
15 1 R 15 1 R 15 0 R 15 1 R 14 0 R 15 0 R 15 1 R 15 0 R 15 0 R 15 0 R 15 0 R
15 0 R 15 0 R 15 -1 R 14 0 R 15 0 R 15 0 R 15 0 R 15 -1 R 15 -1 R 15 0 R
15 -1 R 15 -1 R 14 -2 R 15 -1 R 15 -1 R 15 -2 R 15 -2 R 15 -3 R 15 -2 R
15 -2 R 15 -2 R 14 -3 R 15 -2 R 15 -2 R 15 -3 R 15 -4 R 15 -2 R 15 -3 R
15 -3 R 15 -2 R 15 -3 R 14 -4 R 15 -3 R 15 -3 R 15 -3 R 15 -3 R 15 -3 R
15 -5 R 15 -3 R 15 -3 R 14 -4 R 15 -3 R 15 -5 R 15 -4 R 15 -3 R 15 -4 R
15 -5 R 15 -4 R 15 -4 R 15 -4 R 14 -5 R 15 -4 R 15 -5 R 15 -4 R 15 -5 R
15 -5 R 15 -4 R 15 -5 R 15 -6 R 14 -5 R 15 -4 R 15 -5 R 15 -6 R 15 -5 R
15 -5 R 15 -6 R 15 -5 R 15 -6 R 15 -6 R 14 -7 R 15 -6 R 15 -7 R 15 -6 R
15 -7 R 15 -7 R 15 -6 R 15 -8 R 15 -7 R 14 -7 R 15 -8 R 15 -7 R 15 -8 R
15 -7 R 15 -7 R 15 -9 R 15 -7 R 15 -8 R 14 -8 R 15 -8 R 15 -8 R 15 -9 R
15 -8 R 15 -8 R 15 -9 R 15 -8 R 15 -9 R 15 -9 R 14 -10 R 15 -8 R 15 -10 R
15 -8 R 15 -10 R 15 -9 R 15 -10 R 15 -10 R 15 -9 R 14 -10 R 15 -10 R
15 -10 R 15 -9 R 15 -11 R 15 -10 R 15 -10 R 15 -11 R 15 -10 R 15 -11 R
14 -10 R 15 -11 R 15 -10 R 15 -11 R 15 -12 R 15 -10 R 15 -12 R 15 -11 R
15 -11 R 14 -12 R 15 -11 R 15 -11 R 15 -13 R 15 -11 R 15 -12 R 15 -12 R
15 -11 R 15 -12 R 15 -13 R 14 -12 R 15 -12 R 15 -13 R 15 -11 R D
%%PageTrailer
end
restore
showpage
%%PageResources: font Helvetica
%%Trailer
restore
%%Pages: 1
%%DocumentNeededResources: font Helvetica
%%EOF
