%!PS-Adobe-3.0
%%BoundingBox: 54 360 558 720
%%Title: Graphics produced by IDL
%%For: peters11@pal-nat185-040-030.itap.purdue.edu, 
%%      /Users/peters11/validation_documents
%%Creator: IDL Version 6.3, Mac OS X (darwin i386 m32)
%%CreationDate: Mon Sep 12 14:02:22 2011
%%DocumentData: Clean7bit
%%LanguageLevel: 1
%%PageOrder: Ascend
%%Pages: (atend)
%%DocumentNeededResources: (atend)
%%EndComments
%%BeginProlog
save
%+ prolog.ps -- Prolog for IDL generated PostScript files
%+ Copyright (c) 1988-2006 Research Systems, Inc. All Rights Reserved.
%v 5
/$IDL_DICT 40 dict def $IDL_DICT begin /bdef { bind def } bind def /C
{currentpoint newpath moveto} bdef /CP {currentpoint} bdef /D {currentpoint
stroke moveto} bdef /F {closepath fill} bdef /K { setgray } bdef /M {moveto}
bdef /N {rmoveto} bdef /P {lineto} bdef /R {rlineto} bdef /S {gsave show
grestore} bdef /X {currentpoint pop} bdef /Z {gsave currentpoint lineto 20
setlinewidth 1 setlinecap stroke grestore} bdef /L0 {[] 0 setdash} bdef /L1
{[40 100] 0 setdash} bdef /L2 {[200 200] 0 setdash} bdef /L3 {[200 100 50
100] 0 setdash} bdef /L4 {[300 100 50 100 50 100 50 100] 0 setdash} bdef /L5
{[400 200] 0 setdash} bdef /STDFONT { findfont exch scalefont setfont } bdef
/ISOFONT { findfont dup length dict begin { 1 index /FID ne {def} {pop pop}
ifelse } forall /Encoding ISOLatin1Encoding def currentdict end /idltmpfont
exch definefont exch scalefont setfont } bdef /ISOBULLET { gsave /Helvetica
findfont exch scalefont setfont (\267) show currentpoint grestore moveto}
bdef /MITERLIMIT { 2.5 setmiterlimit } bdef end
%%EndProlog
%%Page: 0 1
%%PageResources: (atend)
%%PageOrientation: Portrait
%%PageBoundingBox: 54 360 558 720
%%BeginPageSetup
save
$IDL_DICT begin 54 360 translate 0.0283465 dup scale MITERLIMIT
%%IncludeResource: font Helvetica
423.333 /Helvetica STDFONT
%%EndPageSetup
10 setlinewidth L0 0.000 K 2220 1408 M 14894 0 R D 2220 1408 M 0 212 R D
1905 1067 M 0 12 R 11 23 R 12 12 R 23 11 R 47 0 R 23 -11 R 12 -12 R 12 -23 R
0 -24 R -12 -23 R -23 -35 R -117 -117 R 164 0 R D 2197 1125 M -35 -11 R
-24 -35 R -11 -59 R 0 -35 R 11 -58 R 24 -35 R 35 -12 R 23 0 R 35 12 R
24 35 R 11 58 R 0 35 R -11 59 R -24 35 R -35 11 R -23 0 R D 2430 1125 M
-35 -11 R -23 -35 R -12 -59 R 0 -35 R 12 -58 R 23 -35 R 35 -12 R 24 0 R
35 12 R 23 35 R 12 58 R 0 35 R -12 59 R -23 35 R -35 11 R -24 0 R D
5199 1408 M 0 212 R D 4989 1125 M -117 -163 R 175 0 R D 4989 1125 M 0 -245 R
D 5176 1125 M -36 -11 R -23 -35 R -12 -59 R 0 -35 R 12 -58 R 23 -35 R
36 -12 R 23 0 R 35 12 R 23 35 R 12 58 R 0 35 R -12 59 R -23 35 R -35 11 R
-23 0 R D 5409 1125 M -35 -11 R -23 -35 R -12 -59 R 0 -35 R 12 -58 R
23 -35 R 35 -12 R 24 0 R 35 12 R 23 35 R 12 58 R 0 35 R -12 59 R -23 35 R
-35 11 R -24 0 R D 8178 1408 M 0 212 R D 8002 1090 M -11 24 R -35 11 R
-24 0 R -35 -11 R -23 -35 R -12 -59 R 0 -58 R 12 -47 R 23 -23 R 35 -12 R
12 0 R 35 12 R 23 23 R 12 35 R 0 12 R -12 35 R -23 23 R -35 12 R -12 0 R
-35 -12 R -23 -23 R -12 -35 R D 8154 1125 M -35 -11 R -23 -35 R -12 -59 R
0 -35 R 12 -58 R 23 -35 R 35 -12 R 24 0 R 35 12 R 23 35 R 12 58 R 0 35 R
-12 59 R -23 35 R -35 11 R -24 0 R D 8388 1125 M -35 -11 R -23 -35 R
-12 -59 R 0 -35 R 12 -58 R 23 -35 R 35 -12 R 23 0 R 35 12 R 24 35 R 11 58 R
0 35 R -11 59 R -24 35 R -35 11 R -23 0 R D 11156 1408 M 0 212 R D
10888 1125 M -35 -11 R -12 -24 R 0 -23 R 12 -23 R 23 -12 R 47 -12 R 35 -11 R
23 -24 R 12 -23 R 0 -35 R -12 -24 R -11 -11 R -36 -12 R -46 0 R -35 12 R
-12 11 R -12 24 R 0 35 R 12 23 R 23 24 R 35 11 R 47 12 R 24 12 R 11 23 R
0 23 R -11 24 R -36 11 R -46 0 R D 11133 1125 M -35 -11 R -23 -35 R
-12 -59 R 0 -35 R 12 -58 R 23 -35 R 35 -12 R 23 0 R 36 12 R 23 35 R 12 58 R
0 35 R -12 59 R -23 35 R -36 11 R -23 0 R D 11367 1125 M -35 -11 R -24 -35 R
-11 -59 R 0 -35 R 11 -58 R 24 -35 R 35 -12 R 23 0 R 35 12 R 24 35 R 11 58 R
0 35 R -11 59 R -24 35 R -35 11 R -23 0 R D 14135 1408 M 0 212 R D
13726 1079 M 24 11 R 35 35 R 0 -245 R D 13995 1125 M -35 -11 R -23 -35 R
-12 -59 R 0 -35 R 12 -58 R 23 -35 R 35 -12 R 23 0 R 35 12 R 24 35 R 12 58 R
0 35 R -12 59 R -24 35 R -35 11 R -23 0 R D 14229 1125 M -35 -11 R -24 -35 R
-11 -59 R 0 -35 R 11 -58 R 24 -35 R 35 -12 R 23 0 R 35 12 R 24 35 R 11 58 R
0 35 R -11 59 R -24 35 R -35 11 R -23 0 R D 14462 1125 M -35 -11 R -23 -35 R
-12 -59 R 0 -35 R 12 -58 R 23 -35 R 35 -12 R 24 0 R 35 12 R 23 35 R 12 58 R
0 35 R -12 59 R -23 35 R -35 11 R -24 0 R D 17114 1408 M 0 212 R D
16705 1079 M 24 11 R 35 35 R 0 -245 R D 16915 1067 M 0 12 R 12 23 R 12 12 R
23 11 R 47 0 R 23 -11 R 12 -12 R 12 -23 R 0 -24 R -12 -23 R -23 -35 R
-117 -117 R 163 0 R D 17208 1125 M -35 -11 R -24 -35 R -12 -59 R 0 -35 R
12 -58 R 24 -35 R 35 -12 R 23 0 R 35 12 R 23 35 R 12 58 R 0 35 R -12 59 R
-23 35 R -35 11 R -23 0 R D 17441 1125 M -35 -11 R -23 -35 R -12 -59 R
0 -35 R 12 -58 R 23 -35 R 35 -12 R 24 0 R 35 12 R 23 35 R 12 58 R 0 35 R
-12 59 R -23 35 R -35 11 R -24 0 R D 2965 1408 M 0 106 R D 3709 1408 M
0 106 R D 4454 1408 M 0 106 R D 5944 1408 M 0 106 R D 6688 1408 M 0 106 R D
7433 1408 M 0 106 R D 8922 1408 M 0 106 R D 9667 1408 M 0 106 R D
10412 1408 M 0 106 R D 11901 1408 M 0 106 R D 12646 1408 M 0 106 R D
13391 1408 M 0 106 R D 14880 1408 M 0 106 R D 15625 1408 M 0 106 R D
16369 1408 M 0 106 R D 8131 668 M 58 -246 R 58 246 R 59 -246 R 58 246 R D
8563 586 M 0 -164 R D 8563 551 M -23 23 R -24 12 R -35 0 R -23 -12 R
-24 -23 R -11 -35 R 0 -23 R 11 -35 R 24 -24 R 23 -12 R 35 0 R 24 12 R
23 24 R D 8633 586 M 70 -164 R 70 164 R D 8832 516 M 140 0 R 0 23 R -12 24 R
-11 11 R -24 12 R -35 0 R -23 -12 R -24 -23 R -11 -35 R 0 -23 R 11 -35 R
24 -24 R 23 -12 R 35 0 R 24 12 R 23 24 R D 9054 668 M 0 -246 R D 9135 516 M
141 0 R 0 23 R -12 24 R -12 11 R -23 12 R -35 0 R -23 -12 R -24 -23 R
-12 -35 R 0 -23 R 12 -35 R 24 -24 R 23 -12 R 35 0 R 23 12 R 24 24 R D
9357 586 M 0 -164 R D 9357 539 M 36 35 R 23 12 R 35 0 R 23 -12 R 12 -35 R
0 -117 R D 9708 586 M 0 -199 R -12 -35 R -11 -11 R -24 -12 R -35 0 R
-23 12 R D 9708 551 M -23 23 R -24 12 R -35 0 R -23 -12 R -24 -23 R
-11 -35 R 0 -23 R 11 -35 R 24 -24 R 23 -12 R 35 0 R 24 12 R 23 24 R D
9813 668 M 0 -199 R 12 -35 R 23 -12 R 24 0 R D 9778 586 M 82 0 R D
9942 668 M 0 -246 R D 9942 539 M 35 35 R 23 12 R 35 0 R 24 -12 R 11 -35 R
0 -117 R D 10432 715 M -23 -24 R -23 -35 R -24 -47 R -11 -58 R 0 -47 R
11 -58 R 24 -59 R 23 -35 R 23 -23 R D 10514 586 M 0 -164 R D 10514 539 M
35 35 R 24 12 R 35 0 R 23 -12 R 12 -35 R 0 -117 R D 10736 586 M 0 -164 R D
10736 539 M 35 35 R 24 12 R 35 0 R 23 -12 R 12 -35 R 0 -117 R D 10865 539 M
35 35 R 23 12 R 35 0 R 24 -12 R 11 -35 R 0 -117 R D 11075 715 M 23 -24 R
24 -35 R 23 -47 R 12 -58 R 0 -47 R -12 -58 R -23 -59 R -24 -35 R -23 -23 R D
2220 11996 M 14894 0 R D 2220 11996 M 0 -212 R D 5199 11996 M 0 -212 R D
8178 11996 M 0 -212 R D 11156 11996 M 0 -212 R D 14135 11996 M 0 -212 R D
17114 11996 M 0 -212 R D 2965 11996 M 0 -106 R D 3709 11996 M 0 -106 R D
4454 11996 M 0 -106 R D 5944 11996 M 0 -106 R D 6688 11996 M 0 -106 R D
7433 11996 M 0 -106 R D 8922 11996 M 0 -106 R D 9667 11996 M 0 -106 R D
10412 11996 M 0 -106 R D 11901 11996 M 0 -106 R D 12646 11996 M 0 -106 R D
13391 11996 M 0 -106 R D 14880 11996 M 0 -106 R D 15625 11996 M 0 -106 R D
16369 11996 M 0 -106 R D 2220 1408 M 0 10588 R D 2220 1408 M 298 0 R D
1385 1653 M -35 -11 R -24 -35 R -11 -59 R 0 -35 R 11 -58 R 24 -35 R 35 -12 R
23 0 R 35 12 R 23 35 R 12 58 R 0 35 R -12 59 R -23 35 R -35 11 R -23 0 R D
1572 1431 M -12 -11 R 12 -12 R 11 12 R -11 11 R D 1735 1653 M -35 -11 R
-23 -35 R -12 -59 R 0 -35 R 12 -58 R 23 -35 R 35 -12 R 24 0 R 35 12 R
23 35 R 12 58 R 0 35 R -12 59 R -23 35 R -35 11 R -24 0 R D 1934 1607 M
23 11 R 35 35 R 0 -245 R D 2220 3526 M 298 0 R D 1385 3630 M -35 -11 R
-24 -36 R -11 -58 R 0 -35 R 11 -58 R 24 -35 R 35 -12 R 23 0 R 35 12 R
23 35 R 12 58 R 0 35 R -12 58 R -23 36 R -35 11 R -23 0 R D 1572 3408 M
-12 -11 R 12 -12 R 11 12 R -11 11 R D 1700 3583 M 24 12 R 35 35 R 0 -245 R D
1969 3630 M -35 -11 R -24 -36 R -11 -58 R 0 -35 R 11 -58 R 24 -35 R 35 -12 R
23 0 R 35 12 R 24 35 R 11 58 R 0 35 R -11 58 R -24 36 R -35 11 R -23 0 R D
2220 5643 M 298 0 R D 1350 5701 M 23 12 R 35 35 R 0 -246 R D 1572 5526 M
-12 -12 R 12 -12 R 11 12 R -11 12 R D 1735 5748 M -35 -12 R -23 -35 R
-12 -58 R 0 -35 R 12 -59 R 23 -35 R 35 -12 R 24 0 R 35 12 R 23 35 R 12 59 R
0 35 R -12 58 R -23 35 R -35 12 R -24 0 R D 1969 5748 M -35 -12 R -24 -35 R
-11 -58 R 0 -35 R 11 -59 R 24 -35 R 35 -12 R 23 0 R 35 12 R 24 35 R 11 59 R
0 35 R -11 58 R -24 35 R -35 12 R -23 0 R D 2220 7761 M 298 0 R D
1116 7819 M 23 11 R 35 35 R 0 -245 R D 1385 7865 M -35 -11 R -24 -35 R
-11 -59 R 0 -35 R 11 -58 R 24 -35 R 35 -12 R 23 0 R 35 12 R 23 35 R 12 58 R
0 35 R -12 59 R -23 35 R -35 11 R -23 0 R D 1572 7643 M -12 -11 R 12 -12 R
11 12 R -11 11 R D 1735 7865 M -35 -11 R -23 -35 R -12 -59 R 0 -35 R
12 -58 R 23 -35 R 35 -12 R 24 0 R 35 12 R 23 35 R 12 58 R 0 35 R -12 59 R
-23 35 R -35 11 R -24 0 R D 1969 7865 M -35 -11 R -24 -35 R -11 -59 R
0 -35 R 11 -58 R 24 -35 R 35 -12 R 23 0 R 35 12 R 24 35 R 11 58 R 0 35 R
-11 59 R -24 35 R -35 11 R -23 0 R D 2220 9878 M 298 0 R D 882 9936 M
24 12 R 35 35 R 0 -245 R D 1151 9983 M -35 -12 R -23 -35 R -12 -58 R 0 -35 R
12 -59 R 23 -35 R 35 -11 R 23 0 R 35 11 R 24 35 R 11 59 R 0 35 R -11 58 R
-24 35 R -35 12 R -23 0 R D 1385 9983 M -35 -12 R -24 -35 R -11 -58 R
0 -35 R 11 -59 R 24 -35 R 35 -11 R 23 0 R 35 11 R 23 35 R 12 59 R 0 35 R
-12 58 R -23 35 R -35 12 R -23 0 R D 1572 9761 M -12 -12 R 12 -11 R 11 11 R
-11 12 R D 1735 9983 M -35 -12 R -23 -35 R -12 -58 R 0 -35 R 12 -59 R
23 -35 R 35 -11 R 24 0 R 35 11 R 23 35 R 12 59 R 0 35 R -12 58 R -23 35 R
-35 12 R -24 0 R D 1969 9983 M -35 -12 R -24 -35 R -11 -58 R 0 -35 R
11 -59 R 24 -35 R 35 -11 R 23 0 R 35 11 R 24 35 R 11 59 R 0 35 R -11 58 R
-24 35 R -35 12 R -23 0 R D 2220 11996 M 298 0 R D 649 11948 M 23 12 R
35 35 R 0 -245 R D 917 11995 M -35 -12 R -23 -35 R -12 -58 R 0 -35 R
12 -59 R 23 -35 R 35 -11 R 24 0 R 35 11 R 23 35 R 12 59 R 0 35 R -12 58 R
-23 35 R -35 12 R -24 0 R D 1151 11995 M -35 -12 R -23 -35 R -12 -58 R
0 -35 R 12 -59 R 23 -35 R 35 -11 R 23 0 R 35 11 R 24 35 R 11 59 R 0 35 R
-11 58 R -24 35 R -35 12 R -23 0 R D 1385 11995 M -35 -12 R -24 -35 R
-11 -58 R 0 -35 R 11 -59 R 24 -35 R 35 -11 R 23 0 R 35 11 R 23 35 R 12 59 R
0 35 R -12 58 R -23 35 R -35 12 R -23 0 R D 1572 11773 M -12 -12 R 12 -11 R
11 11 R -11 12 R D 1735 11995 M -35 -12 R -23 -35 R -12 -58 R 0 -35 R
12 -59 R 23 -35 R 35 -11 R 24 0 R 35 11 R 23 35 R 12 59 R 0 35 R -12 58 R
-23 35 R -35 12 R -24 0 R D 1969 11995 M -35 -12 R -24 -35 R -11 -58 R
0 -35 R 11 -59 R 24 -35 R 35 -11 R 23 0 R 35 11 R 24 35 R 11 59 R 0 35 R
-11 58 R -24 35 R -35 12 R -23 0 R D 2220 2046 M 149 0 R D 2220 2418 M
149 0 R D 2220 2683 M 149 0 R D 2220 2888 M 149 0 R D 2220 3056 M 149 0 R D
2220 3198 M 149 0 R D 2220 3320 M 149 0 R D 2220 3429 M 149 0 R D
2220 4163 M 149 0 R D 2220 4536 M 149 0 R D 2220 4801 M 149 0 R D
2220 5006 M 149 0 R D 2220 5173 M 149 0 R D 2220 5315 M 149 0 R D
2220 5438 M 149 0 R D 2220 5546 M 149 0 R D 2220 6281 M 149 0 R D
2220 6654 M 149 0 R D 2220 6918 M 149 0 R D 2220 7123 M 149 0 R D
2220 7291 M 149 0 R D 2220 7433 M 149 0 R D 2220 7556 M 149 0 R D
2220 7664 M 149 0 R D 2220 8398 M 149 0 R D 2220 8771 M 149 0 R D
2220 9036 M 149 0 R D 2220 9241 M 149 0 R D 2220 9409 M 149 0 R D
2220 9550 M 149 0 R D 2220 9673 M 149 0 R D 2220 9782 M 149 0 R D
2220 10516 M 149 0 R D 2220 10889 M 149 0 R D 2220 11153 M 149 0 R D
2220 11359 M 149 0 R D 2220 11526 M 149 0 R D 2220 11668 M 149 0 R D
2220 11791 M 149 0 R D 2220 11899 M 149 0 R D 12 3565 M 245 0 R D 12 3565 M
0 105 R 11 35 R 12 12 R 24 11 R 35 0 R 23 -11 R 12 -12 R 11 -35 R 0 -105 R D
12 3810 M 245 0 R D 140 3810 M -35 35 R -11 24 R 0 35 R 11 23 R 35 12 R
117 0 R D 94 4079 M 11 -23 R 24 -24 R 35 -11 R 23 0 R 35 11 R 23 24 R
12 23 R 0 35 R -12 23 R -23 24 R -35 11 R -23 0 R -35 -11 R -24 -24 R
-11 -23 R 0 -35 R D 12 4266 M 198 0 R 35 12 R 12 23 R 0 23 R D 94 4231 M
0 82 R D 94 4441 M 11 -23 R 24 -24 R 35 -11 R 23 0 R 35 11 R 23 24 R 12 23 R
0 35 R -12 24 R -23 23 R -35 12 R -23 0 R -35 -12 R -24 -23 R -11 -24 R
0 -35 R D 94 4616 M 163 0 R D 140 4616 M -35 35 R -11 24 R 0 35 R 11 23 R
35 12 R 117 0 R D 12 5025 M 245 0 R D 12 5025 M 245 94 R -245 93 R 245 0 R D
164 5294 M 0 140 R -24 0 R -23 -11 R -12 -12 R -11 -23 R 0 -35 R 11 -24 R
24 -23 R 35 -12 R 23 0 R 35 12 R 23 23 R 12 24 R 0 35 R -12 23 R -23 23 R D
94 5645 M 163 0 R D 129 5645 M -24 -24 R -11 -23 R 0 -35 R 11 -24 R 24 -23 R
35 -12 R 23 0 R 35 12 R 23 23 R 12 24 R 0 35 R -12 23 R -23 24 R D 94 5738 M
163 0 R D 140 5738 M -35 35 R -11 24 R 0 35 R 11 23 R 35 12 R 117 0 R D
12 6147 M 245 0 R D 12 6147 M 0 152 R D 129 6147 M 0 94 R D 94 6357 M
163 0 R D 164 6357 M -35 12 R -24 23 R -11 24 R 0 35 R D 164 6498 M 0 140 R
-24 0 R -23 -12 R -12 -12 R -11 -23 R 0 -35 R 11 -23 R 24 -24 R 35 -11 R
23 0 R 35 11 R 23 24 R 12 23 R 0 35 R -12 23 R -23 24 R D 164 6708 M 0 140 R
-24 0 R -23 -12 R -12 -11 R -11 -24 R 0 -35 R 11 -23 R 24 -23 R 35 -12 R
23 0 R 35 12 R 23 23 R 12 23 R 0 35 R -12 24 R -23 23 R D 12 7117 M 245 0 R
D 12 7117 M 0 105 R 11 35 R 12 12 R 24 11 R 35 0 R 23 -11 R 12 -12 R
11 -35 R 0 -105 R D 94 7491 M 163 0 R D 129 7491 M -24 -24 R -11 -23 R
0 -35 R 11 -23 R 24 -24 R 35 -11 R 23 0 R 35 11 R 23 24 R 12 23 R 0 35 R
-12 23 R -23 24 R D 12 7596 M 198 0 R 35 12 R 12 23 R 0 23 R D 94 7561 M
0 82 R D 12 7724 M 245 0 R D 140 7724 M -35 35 R -11 24 R 0 35 R 11 23 R
35 12 R 117 0 R D -34 8215 M 23 -23 R 34 -24 R 47 -23 R 59 -12 R 46 0 R
59 12 R 58 23 R 35 24 R 24 23 R D 94 8297 M 163 0 R D 140 8297 M -35 35 R
-11 23 R 0 35 R 11 24 R 35 11 R 117 0 R D 140 8425 M -35 36 R -11 23 R
0 35 R 11 23 R 35 12 R 117 0 R D 12 8636 M 11 11 R -11 12 R -12 -12 R
12 -11 R D 94 8647 M 163 0 R D 129 8869 M -24 -23 R -11 -23 R 0 -35 R
11 -24 R 24 -23 R 35 -12 R 23 0 R 35 12 R 23 23 R 12 24 R 0 35 R -12 23 R
-23 23 R D 94 8951 M 163 0 R D 164 8951 M -35 12 R -24 23 R -11 24 R 0 35 R
D 94 9150 M 11 -23 R 24 -24 R 35 -12 R 23 0 R 35 12 R 23 24 R 12 23 R 0 35 R
-12 23 R -23 24 R -35 11 R -23 0 R -35 -11 R -24 -24 R -11 -23 R 0 -35 R D
94 9325 M 163 0 R D 140 9325 M -35 35 R -11 24 R 0 35 R 11 23 R 35 12 R
117 0 R D 129 9664 M -24 -12 R -11 -35 R 0 -35 R 11 -35 R 24 -12 R 23 12 R
12 24 R 11 58 R 12 23 R 23 12 R 12 0 R 23 -12 R 12 -35 R 0 -35 R -12 -35 R
-23 -12 R D -34 9734 M 23 23 R 34 24 R 47 23 R 59 12 R 46 0 R 59 -12 R
58 -23 R 35 -24 R 24 -23 R D 17114 1408 M 0 10588 R D 17114 1408 M -298 0 R
D 17114 3526 M -298 0 R D 17114 5643 M -298 0 R D 17114 7761 M -298 0 R D
17114 9878 M -298 0 R D 17114 11996 M -298 0 R D 17114 2046 M -149 0 R D
17114 2418 M -149 0 R D 17114 2683 M -149 0 R D 17114 2888 M -149 0 R D
17114 3056 M -149 0 R D 17114 3198 M -149 0 R D 17114 3320 M -149 0 R D
17114 3429 M -149 0 R D 17114 4163 M -149 0 R D 17114 4536 M -149 0 R D
17114 4801 M -149 0 R D 17114 5006 M -149 0 R D 17114 5173 M -149 0 R D
17114 5315 M -149 0 R D 17114 5438 M -149 0 R D 17114 5546 M -149 0 R D
17114 6281 M -149 0 R D 17114 6654 M -149 0 R D 17114 6918 M -149 0 R D
17114 7123 M -149 0 R D 17114 7291 M -149 0 R D 17114 7433 M -149 0 R D
17114 7556 M -149 0 R D 17114 7664 M -149 0 R D 17114 8398 M -149 0 R D
17114 8771 M -149 0 R D 17114 9036 M -149 0 R D 17114 9241 M -149 0 R D
17114 9409 M -149 0 R D 17114 9550 M -149 0 R D 17114 9673 M -149 0 R D
17114 9782 M -149 0 R D 17114 10516 M -149 0 R D 17114 10889 M -149 0 R D
17114 11153 M -149 0 R D 17114 11359 M -149 0 R D 17114 11526 M -149 0 R D
17114 11668 M -149 0 R D 17114 11791 M -149 0 R D 17114 11899 M -149 0 R D
4141 1408 M 15 11 R 15 10 R 15 10 R 15 11 R 15 11 R 15 11 R 15 11 R 15 11 R
14 11 R 15 11 R 15 12 R 15 11 R 15 12 R 15 12 R 15 12 R 15 13 R 15 12 R
15 13 R 14 13 R 15 13 R 15 13 R 15 14 R 15 14 R 15 14 R 15 15 R 15 14 R
15 15 R 14 16 R 15 16 R 15 16 R 15 16 R 15 18 R 15 17 R 15 18 R 15 19 R
15 19 R 14 20 R 15 20 R 15 21 R 15 22 R 15 23 R 15 24 R 15 25 R 15 27 R
15 27 R 15 30 R 14 31 R 15 33 R 15 35 R 15 38 R 15 41 R 15 45 R 15 50 R
15 56 R 15 65 R 14 75 R 15 91 R 15 116 R 15 167 R 15 314 R 15 628 R 15 18 R
15 18 R 15 18 R 15 19 R 14 18 R 15 18 R 15 19 R 15 18 R 15 19 R 15 18 R
15 19 R 15 19 R 15 18 R 14 19 R 15 19 R 15 19 R 15 19 R 15 19 R 15 20 R
15 19 R 15 19 R 15 19 R 15 20 R 14 19 R 15 20 R 15 19 R 15 20 R 15 20 R
15 20 R 15 19 R 15 20 R 15 20 R 14 20 R 15 20 R 15 20 R 15 21 R 15 20 R
15 20 R 15 20 R 15 21 R 15 20 R 14 20 R 15 21 R 15 20 R 15 21 R 15 20 R
15 21 R 15 21 R 15 20 R 15 21 R 15 20 R 14 21 R 15 21 R 15 20 R 15 21 R
15 21 R 15 20 R 15 21 R 15 20 R 15 21 R 14 20 R 15 21 R 15 20 R 15 20 R
15 21 R 15 20 R 15 20 R 15 20 R 15 19 R 15 20 R 14 20 R 15 19 R 15 19 R
15 19 R 15 19 R 15 19 R 15 19 R 15 18 R 15 18 R 14 18 R 15 17 R 15 17 R
15 17 R 15 17 R 15 16 R 15 16 R 15 16 R 15 15 R 15 15 R 14 15 R 15 14 R
15 13 R 15 14 R 15 12 R 15 13 R 15 12 R 15 11 R 15 11 R 14 10 R 15 10 R
15 10 R 15 9 R 15 9 R 15 8 R 15 8 R 15 8 R 15 8 R 15 7 R 14 7 R 15 8 R
15 7 R 15 7 R 15 7 R 15 7 R 15 7 R 15 7 R 15 7 R 14 7 R 15 6 R 15 7 R 15 7 R
15 7 R 15 7 R 15 7 R 15 7 R 15 7 R 14 7 R 15 7 R 15 7 R 15 6 R 15 7 R 15 7 R
15 7 R 15 7 R 15 7 R 15 7 R 14 7 R 15 7 R 15 7 R 15 6 R 15 7 R 15 7 R 15 7 R
15 7 R 15 7 R 14 7 R 15 7 R 15 7 R 15 6 R 15 7 R 15 7 R 15 7 R 15 7 R 15 7 R
15 7 R 14 7 R 15 7 R 15 7 R 15 6 R 15 7 R 15 7 R 15 7 R 15 7 R 15 7 R 14 7 R
15 7 R 15 7 R 15 7 R 15 7 R 15 6 R 15 7 R 15 7 R 15 7 R 15 7 R 14 7 R 15 7 R
15 7 R 15 7 R 15 7 R 15 7 R 15 7 R 15 6 R 15 7 R 14 7 R 15 7 R 15 7 R 15 7 R
15 7 R 15 7 R 15 7 R 15 7 R 15 7 R 14 7 R 15 7 R 15 7 R 15 7 R 15 7 R 15 7 R
15 7 R 15 7 R 15 7 R 15 7 R 14 7 R 15 7 R 15 6 R 15 7 R 15 7 R 15 7 R 15 7 R
15 7 R 15 7 R 14 7 R 15 7 R 15 8 R 15 7 R 15 7 R 15 7 R 15 7 R 15 7 R 15 7 R
15 7 R 14 7 R 15 7 R 15 7 R 15 7 R 15 7 R 15 7 R 15 7 R 15 7 R 15 7 R 14 7 R
15 7 R 15 8 R 15 7 R 15 7 R 15 7 R 15 7 R 15 7 R 15 7 R 15 7 R 14 7 R 15 8 R
15 7 R 15 7 R 15 7 R 15 7 R 15 7 R 15 7 R 15 8 R 14 7 R 15 7 R 15 7 R 15 7 R
15 8 R 15 7 R 15 7 R 15 7 R 15 7 R 14 8 R 15 7 R 15 7 R 15 7 R 15 8 R 15 7 R
15 7 R 15 7 R 15 8 R 15 7 R 14 7 R 15 8 R 15 7 R 15 7 R 15 8 R 15 7 R 15 7 R
15 8 R 15 7 R 14 7 R 15 8 R 15 7 R 15 7 R 15 8 R 15 7 R 15 8 R 15 7 R 15 7 R
15 8 R 14 7 R 15 8 R 15 7 R 15 8 R 15 7 R 15 7 R 15 8 R 15 7 R 15 8 R 14 7 R
15 8 R 15 8 R 15 7 R 15 8 R 15 7 R 15 8 R 15 7 R 15 8 R 15 7 R 14 8 R 15 8 R
15 7 R 15 8 R 15 8 R 15 7 R 15 8 R 15 8 R 15 7 R 14 8 R 15 8 R 15 7 R 15 8 R
15 8 R 15 7 R 15 8 R 15 8 R 15 8 R 14 8 R 15 7 R 15 8 R 15 8 R 15 8 R 15 8 R
15 8 R 15 7 R 15 8 R 15 8 R 14 8 R 15 8 R 15 8 R 15 8 R 15 8 R 15 8 R 15 8 R
15 8 R 15 8 R 14 8 R 15 8 R 15 8 R 15 8 R 15 8 R 15 8 R 15 8 R 15 8 R 15 8 R
15 8 R 14 9 R 15 8 R 15 8 R 15 8 R 15 8 R 15 9 R 15 8 R 15 8 R 15 8 R 14 9 R
15 8 R 15 8 R 15 8 R 15 9 R 15 8 R 15 9 R 15 8 R 15 8 R 15 9 R 14 8 R 15 9 R
15 8 R 15 9 R 15 8 R 15 9 R 15 8 R 15 9 R 15 8 R 14 9 R 15 9 R 15 8 R 15 9 R
15 8 R 15 9 R 15 9 R 15 9 R 15 8 R 15 9 R 14 9 R 15 9 R 15 8 R 15 9 R 15 9 R
15 9 R 15 9 R 15 9 R 15 9 R 14 9 R 15 9 R 15 9 R 15 9 R 15 9 R 15 9 R 15 9 R
15 9 R 15 9 R 14 9 R 15 9 R 15 10 R 15 9 R 15 9 R 15 9 R 15 10 R 15 9 R
15 9 R 15 10 R 14 9 R 15 9 R 15 10 R 15 9 R 15 10 R 15 9 R 15 10 R 15 9 R
15 10 R 14 10 R 15 9 R 15 10 R 15 10 R 15 9 R 15 10 R 15 10 R 15 10 R
15 10 R 15 9 R 14 10 R 15 10 R 15 10 R 15 10 R 15 10 R 15 10 R 15 10 R
15 10 R 15 10 R 14 11 R 15 10 R 15 10 R 15 10 R 15 11 R 15 10 R 15 10 R
15 11 R 15 10 R 15 11 R 14 10 R 15 11 R 15 10 R 15 11 R 15 10 R 15 11 R
15 11 R 15 11 R 15 10 R 14 11 R 15 11 R 15 11 R 15 11 R 15 11 R 15 11 R
15 11 R 15 11 R 15 11 R 14 11 R 15 11 R 15 12 R 15 11 R 15 11 R 15 12 R
15 11 R 15 12 R 15 11 R 15 12 R 14 11 R 15 12 R 15 12 R 15 11 R 15 12 R
15 12 R 15 12 R 15 12 R 15 12 R 14 12 R 15 12 R 15 12 R 15 12 R 15 13 R
15 12 R 15 12 R 15 13 R 15 12 R 15 13 R 14 12 R 15 13 R 15 13 R 15 13 R
15 12 R 15 13 R 15 13 R 15 13 R 15 13 R 14 13 R 15 14 R 15 13 R 15 13 R
15 13 R 15 14 R 15 13 R 15 14 R 15 14 R 15 13 R 14 14 R 15 14 R 15 14 R
15 14 R 15 14 R 15 14 R 15 15 R 15 14 R 15 14 R 14 15 R 15 14 R 15 15 R
15 15 R 15 14 R 15 15 R 15 15 R 15 15 R 15 16 R 14 15 R 15 15 R 15 16 R
15 15 R 15 16 R 15 15 R 15 16 R 15 16 R 15 16 R 15 16 R 14 16 R 15 17 R
15 16 R 15 17 R 15 16 R 15 17 R 15 17 R 15 17 R 15 17 R 14 17 R 15 18 R
15 17 R 15 18 R 15 18 R 15 17 R 15 18 R 15 18 R 15 19 R 15 18 R 14 19 R
15 18 R 15 19 R 15 19 R 15 19 R 15 19 R 15 20 R 15 19 R 15 20 R 14 20 R
15 20 R 15 20 R 15 21 R 15 20 R 15 21 R 15 21 R 15 21 R 15 21 R 15 22 R
14 21 R 15 22 R 15 22 R 15 23 R 15 22 R 15 23 R 15 23 R 15 23 R 15 23 R
14 24 R 15 24 R 15 24 R 15 24 R 15 24 R 15 25 R 15 25 R 15 26 R 15 25 R
15 26 R 14 26 R 15 27 R 15 26 R 15 27 R 15 27 R 15 28 R 15 28 R 15 28 R
15 29 R 14 29 R 15 29 R 15 29 R 15 30 R 15 30 R 15 31 R 15 31 R 15 31 R
15 32 R 14 32 R 15 32 R 15 33 R 15 33 R 15 34 R 15 34 R 15 34 R 15 35 R
15 35 R 15 36 R 14 36 R 15 37 R 15 36 R 15 38 R 15 37 R 15 38 R 0 1 R D L1
4107 1408 M 5 3 R 15 10 R 14 11 R 15 10 R 15 10 R 15 11 R 15 10 R 15 11 R
15 11 R 15 11 R 15 11 R 14 11 R 15 11 R 15 12 R 15 12 R 15 11 R 15 13 R
15 12 R 15 12 R 15 13 R 15 13 R 14 13 R 15 13 R 15 13 R 15 14 R 15 14 R
15 15 R 15 14 R 15 15 R 15 15 R 14 16 R 15 16 R 15 17 R 15 16 R 15 18 R
15 18 R 15 18 R 15 19 R 15 20 R 14 20 R 15 21 R 15 22 R 15 23 R 15 23 R
15 25 R 15 26 R 15 27 R 15 29 R 15 31 R 14 32 R 15 35 R 15 37 R 15 41 R
15 44 R 15 48 R 15 55 R 15 62 R 15 71 R 14 86 R 15 108 R 15 146 R 15 238 R
15 842 R 15 19 R 15 18 R 15 18 R 15 18 R 15 19 R 14 18 R 15 19 R 15 18 R
15 19 R 15 19 R 15 18 R 15 19 R 15 19 R 15 19 R 14 19 R 15 19 R 15 19 R
15 19 R 15 20 R 15 19 R 15 19 R 15 20 R 15 19 R 15 20 R 14 20 R 15 19 R
15 20 R 15 20 R 15 20 R 15 20 R 15 20 R 15 20 R 15 20 R 14 20 R 15 20 R
15 21 R 15 20 R 15 20 R 15 21 R 15 20 R 15 21 R 15 20 R 14 21 R 15 20 R
15 21 R 15 21 R 15 20 R 15 21 R 15 21 R 15 20 R 15 21 R 15 21 R 14 21 R
15 20 R 15 21 R 15 21 R 15 21 R 15 20 R 15 21 R 15 21 R 15 20 R 14 21 R
15 20 R 15 21 R 15 20 R 15 20 R 15 20 R 15 20 R 15 20 R 15 20 R 15 19 R
14 20 R 15 19 R 15 19 R 15 19 R 15 19 R 15 19 R 15 18 R 15 18 R 15 18 R
14 17 R 15 18 R 15 17 R 15 16 R 15 17 R 15 16 R 15 15 R 15 15 R 15 15 R
15 15 R 14 14 R 15 13 R 15 13 R 15 13 R 15 12 R 15 12 R 15 11 R 15 11 R
15 10 R 14 10 R 15 9 R 15 9 R 15 9 R 15 8 R 15 8 R 15 8 R 15 7 R 15 8 R
15 7 R 14 7 R 15 7 R 15 7 R 15 7 R 15 7 R 15 7 R 15 7 R 15 7 R 15 7 R 14 7 R
15 7 R 15 7 R 15 7 R 15 7 R 15 7 R 15 7 R 15 7 R 15 7 R 14 7 R 15 7 R 15 7 R
15 7 R 15 7 R 15 7 R 15 6 R 15 7 R 15 7 R 15 7 R 14 7 R 15 7 R 15 7 R 15 7 R
15 7 R 15 7 R 15 7 R 15 7 R 15 7 R 14 7 R 15 7 R 15 7 R 15 7 R 15 6 R 15 7 R
15 7 R 15 7 R 15 7 R 15 7 R 14 7 R 15 7 R 15 7 R 15 7 R 15 7 R 15 7 R 15 7 R
15 7 R 15 7 R 14 7 R 15 7 R 15 7 R 15 7 R 15 7 R 15 6 R 15 7 R 15 7 R 15 7 R
15 7 R 14 7 R 15 7 R 15 7 R 15 7 R 15 7 R 15 7 R 15 7 R 15 7 R 15 7 R 14 7 R
15 7 R 15 7 R 15 7 R 15 7 R 15 7 R 15 7 R 15 7 R 15 7 R 14 7 R 15 7 R 15 7 R
15 7 R 15 7 R 15 7 R 15 7 R 15 7 R 15 7 R 15 7 R 14 7 R 15 7 R 15 7 R 15 7 R
15 8 R 15 7 R 15 7 R 15 7 R 15 7 R 14 7 R 15 7 R 15 7 R 15 7 R 15 7 R 15 7 R
15 7 R 15 7 R 15 7 R 15 8 R 14 7 R 15 7 R 15 7 R 15 7 R 15 7 R 15 7 R 15 7 R
15 8 R 15 7 R 14 7 R 15 7 R 15 7 R 15 7 R 15 8 R 15 7 R 15 7 R 15 7 R 15 7 R
15 7 R 14 8 R 15 7 R 15 7 R 15 7 R 15 7 R 15 8 R 15 7 R 15 7 R 15 7 R 14 8 R
15 7 R 15 7 R 15 7 R 15 8 R 15 7 R 15 7 R 15 8 R 15 7 R 14 7 R 15 7 R 15 8 R
15 7 R 15 7 R 15 8 R 15 7 R 15 7 R 15 8 R 15 7 R 14 8 R 15 7 R 15 7 R 15 8 R
15 7 R 15 7 R 15 8 R 15 7 R 15 8 R 14 7 R 15 8 R 15 7 R 15 8 R 15 7 R 15 7 R
15 8 R 15 7 R 15 8 R 15 7 R 14 8 R 15 8 R 15 7 R 15 8 R 15 7 R 15 8 R 15 7 R
15 8 R 15 7 R 14 8 R 15 8 R 15 7 R 15 8 R 15 8 R 15 7 R 15 8 R 15 8 R 15 7 R
15 8 R 14 8 R 15 7 R 15 8 R 15 8 R 15 7 R 15 8 R 15 8 R 15 8 R 15 7 R 14 8 R
15 8 R 15 8 R 15 8 R 15 8 R 15 7 R 15 8 R 15 8 R 15 8 R 14 8 R 15 8 R 15 8 R
15 8 R 15 8 R 15 7 R 15 8 R 15 8 R 15 8 R 15 8 R 14 8 R 15 8 R 15 8 R 15 9 R
15 8 R 15 8 R 15 8 R 15 8 R 15 8 R 14 8 R 15 8 R 15 8 R 15 9 R 15 8 R 15 8 R
15 8 R 15 8 R 15 9 R 15 8 R 14 8 R 15 8 R 15 9 R 15 8 R 15 8 R 15 9 R 15 8 R
15 9 R 15 8 R 14 8 R 15 9 R 15 8 R 15 9 R 15 8 R 15 9 R 15 8 R 15 9 R 15 8 R
15 9 R 14 8 R 15 9 R 15 9 R 15 8 R 15 9 R 15 8 R 15 9 R 15 9 R 15 9 R 14 8 R
15 9 R 15 9 R 15 9 R 15 9 R 15 8 R 15 9 R 15 9 R 15 9 R 15 9 R 14 9 R 15 9 R
15 9 R 15 9 R 15 9 R 15 9 R 15 9 R 15 9 R 15 9 R 14 9 R 15 9 R 15 10 R
15 9 R 15 9 R 15 9 R 15 9 R 15 10 R 15 9 R 14 9 R 15 10 R 15 9 R 15 9 R
15 10 R 15 9 R 15 10 R 15 9 R 15 10 R 15 9 R 14 10 R 15 10 R 15 9 R 15 10 R
15 10 R 15 9 R 15 10 R 15 10 R 15 10 R 14 9 R 15 10 R 15 10 R 15 10 R
15 10 R 15 10 R 15 10 R 15 10 R 15 10 R 15 10 R 14 10 R 15 10 R 15 11 R
15 10 R 15 10 R 15 10 R 15 11 R 15 10 R 15 10 R 14 11 R 15 10 R 15 11 R
15 10 R 15 11 R 15 10 R 15 11 R 15 11 R 15 10 R 15 11 R 14 11 R 15 11 R
15 11 R 15 10 R 15 11 R 15 11 R 15 11 R 15 11 R 15 11 R 14 12 R 15 11 R
15 11 R 15 11 R 15 11 R 15 12 R 15 11 R 15 12 R 15 11 R 14 11 R 15 12 R
15 12 R 15 11 R 15 12 R 15 12 R 15 11 R 15 12 R 15 12 R 15 12 R 14 12 R
15 12 R 15 12 R 15 12 R 15 12 R 15 13 R 15 12 R 15 12 R 15 13 R 14 12 R
15 13 R 15 12 R 15 13 R 15 12 R 15 13 R 15 13 R 15 13 R 15 13 R 15 13 R
14 13 R 15 13 R 15 13 R 15 13 R 15 13 R 15 14 R 15 13 R 15 14 R 15 13 R
14 14 R 15 13 R 15 14 R 15 14 R 15 14 R 15 14 R 15 14 R 15 14 R 15 14 R
15 15 R 14 14 R 15 14 R 15 15 R 15 14 R 15 15 R 15 15 R 15 15 R 15 15 R
15 15 R 14 15 R 15 15 R 15 15 R 15 16 R 15 15 R 15 16 R 15 15 R 15 16 R
15 16 R 14 16 R 15 16 R 15 16 R 15 16 R 15 17 R 15 16 R 15 17 R 15 17 R
15 16 R 15 17 R 14 17 R 15 17 R 15 18 R 15 17 R 15 18 R 15 17 R 15 18 R
15 18 R 15 18 R 14 18 R 15 19 R 15 18 R 15 19 R 15 18 R 15 19 R 15 19 R
15 19 R 15 20 R 15 19 R 14 20 R 15 20 R 15 20 R 15 20 R 15 20 R 15 21 R
15 20 R 15 21 R 15 21 R 14 21 R 15 22 R 15 21 R 15 22 R 15 22 R 15 22 R
15 23 R 15 22 R 15 23 R 15 23 R 14 24 R 15 23 R 15 24 R 15 24 R 15 24 R
15 24 R 15 25 R 15 25 R 15 25 R 14 26 R 15 26 R 15 26 R 15 26 R 15 27 R
15 27 R 15 27 R 15 27 R 15 28 R 15 29 R 14 28 R 15 29 R 15 29 R 15 30 R
15 30 R 15 30 R 15 30 R 15 31 R 15 32 R 14 32 R 15 32 R 15 32 R 15 33 R
15 34 R 15 34 R 15 34 R 15 35 R 15 35 R 14 35 R 15 36 R 15 37 R 15 37 R
15 37 R 15 38 R 7 19 R D L2 4176 1408 M 10 7 R 15 10 R 15 11 R 15 11 R
15 11 R 15 11 R 14 11 R 15 11 R 15 12 R 15 11 R 15 12 R 15 12 R 15 12 R
15 12 R 15 13 R 15 12 R 14 13 R 15 13 R 15 14 R 15 13 R 15 14 R 15 14 R
15 14 R 15 15 R 15 15 R 14 15 R 15 15 R 15 16 R 15 17 R 15 16 R 15 17 R
15 18 R 15 18 R 15 19 R 14 19 R 15 20 R 15 21 R 15 21 R 15 22 R 15 23 R
15 25 R 15 25 R 15 26 R 15 28 R 14 30 R 15 31 R 15 33 R 15 36 R 15 38 R
15 42 R 15 46 R 15 51 R 15 57 R 14 65 R 15 78 R 15 95 R 15 124 R 15 186 R
15 452 R 15 366 R 15 18 R 15 18 R 15 18 R 14 18 R 15 19 R 15 18 R 15 18 R
15 19 R 15 18 R 15 19 R 15 18 R 15 19 R 14 18 R 15 19 R 15 19 R 15 19 R
15 19 R 15 19 R 15 19 R 15 19 R 15 19 R 15 19 R 14 20 R 15 19 R 15 19 R
15 20 R 15 19 R 15 20 R 15 20 R 15 19 R 15 20 R 14 20 R 15 20 R 15 20 R
15 20 R 15 20 R 15 20 R 15 20 R 15 20 R 15 20 R 14 21 R 15 20 R 15 20 R
15 21 R 15 20 R 15 21 R 15 20 R 15 20 R 15 21 R 15 20 R 14 21 R 15 21 R
15 20 R 15 21 R 15 20 R 15 21 R 15 20 R 15 21 R 15 20 R 14 20 R 15 21 R
15 20 R 15 20 R 15 20 R 15 21 R 15 20 R 15 19 R 15 20 R 15 20 R 14 20 R
15 19 R 15 19 R 15 20 R 15 19 R 15 19 R 15 18 R 15 19 R 15 18 R 14 18 R
15 18 R 15 17 R 15 18 R 15 17 R 15 16 R 15 17 R 15 16 R 15 15 R 15 16 R
14 15 R 15 14 R 15 14 R 15 14 R 15 14 R 15 12 R 15 13 R 15 12 R 15 11 R
14 11 R 15 11 R 15 10 R 15 10 R 15 9 R 15 9 R 15 9 R 15 8 R 15 8 R 15 8 R
14 7 R 15 8 R 15 7 R 15 7 R 15 7 R 15 7 R 15 7 R 15 7 R 15 7 R 14 7 R 15 7 R
15 7 R 15 7 R 15 6 R 15 7 R 15 7 R 15 7 R 15 7 R 14 7 R 15 7 R 15 6 R 15 7 R
15 7 R 15 7 R 15 7 R 15 7 R 15 7 R 15 6 R 14 7 R 15 7 R 15 7 R 15 7 R 15 7 R
15 6 R 15 7 R 15 7 R 15 7 R 14 7 R 15 7 R 15 7 R 15 6 R 15 7 R 15 7 R 15 7 R
15 7 R 15 7 R 15 7 R 14 6 R 15 7 R 15 7 R 15 7 R 15 7 R 15 7 R 15 6 R 15 7 R
15 7 R 14 7 R 15 7 R 15 7 R 15 7 R 15 6 R 15 7 R 15 7 R 15 7 R 15 7 R 15 7 R
14 7 R 15 7 R 15 6 R 15 7 R 15 7 R 15 7 R 15 7 R 15 7 R 15 7 R 14 6 R 15 7 R
15 7 R 15 7 R 15 7 R 15 7 R 15 7 R 15 7 R 15 7 R 14 6 R 15 7 R 15 7 R 15 7 R
15 7 R 15 7 R 15 7 R 15 7 R 15 7 R 15 7 R 14 7 R 15 7 R 15 6 R 15 7 R 15 7 R
15 7 R 15 7 R 15 7 R 15 7 R 14 7 R 15 7 R 15 7 R 15 7 R 15 7 R 15 7 R 15 7 R
15 7 R 15 7 R 15 7 R 14 7 R 15 7 R 15 7 R 15 7 R 15 7 R 15 7 R 15 7 R 15 7 R
15 7 R 14 7 R 15 7 R 15 7 R 15 7 R 15 7 R 15 7 R 15 7 R 15 7 R 15 7 R 15 7 R
14 7 R 15 7 R 15 7 R 15 7 R 15 7 R 15 7 R 15 7 R 15 8 R 15 7 R 14 7 R 15 7 R
15 7 R 15 7 R 15 7 R 15 7 R 15 8 R 15 7 R 15 7 R 14 7 R 15 7 R 15 7 R 15 7 R
15 8 R 15 7 R 15 7 R 15 7 R 15 7 R 15 8 R 14 7 R 15 7 R 15 7 R 15 7 R 15 8 R
15 7 R 15 7 R 15 7 R 15 8 R 14 7 R 15 7 R 15 8 R 15 7 R 15 7 R 15 7 R 15 8 R
15 7 R 15 7 R 15 8 R 14 7 R 15 7 R 15 8 R 15 7 R 15 8 R 15 7 R 15 7 R 15 8 R
15 7 R 14 8 R 15 7 R 15 7 R 15 8 R 15 7 R 15 8 R 15 7 R 15 8 R 15 7 R 15 8 R
14 7 R 15 8 R 15 7 R 15 8 R 15 7 R 15 8 R 15 7 R 15 8 R 15 8 R 14 7 R 15 8 R
15 7 R 15 8 R 15 8 R 15 7 R 15 8 R 15 8 R 15 7 R 14 8 R 15 8 R 15 7 R 15 8 R
15 8 R 15 7 R 15 8 R 15 8 R 15 8 R 15 7 R 14 8 R 15 8 R 15 8 R 15 8 R 15 8 R
15 7 R 15 8 R 15 8 R 15 8 R 14 8 R 15 8 R 15 8 R 15 8 R 15 8 R 15 8 R 15 8 R
15 7 R 15 8 R 15 8 R 14 9 R 15 8 R 15 8 R 15 8 R 15 8 R 15 8 R 15 8 R 15 8 R
15 8 R 14 8 R 15 8 R 15 9 R 15 8 R 15 8 R 15 8 R 15 9 R 15 8 R 15 8 R 15 8 R
14 9 R 15 8 R 15 8 R 15 9 R 15 8 R 15 8 R 15 9 R 15 8 R 15 9 R 14 8 R 15 8 R
15 9 R 15 8 R 15 9 R 15 8 R 15 9 R 15 9 R 15 8 R 15 9 R 14 8 R 15 9 R 15 9 R
15 8 R 15 9 R 15 9 R 15 8 R 15 9 R 15 9 R 14 9 R 15 8 R 15 9 R 15 9 R 15 9 R
15 9 R 15 9 R 15 9 R 15 9 R 14 9 R 15 9 R 15 9 R 15 9 R 15 9 R 15 9 R 15 9 R
15 9 R 15 9 R 15 9 R 14 9 R 15 10 R 15 9 R 15 9 R 15 9 R 15 10 R 15 9 R
15 9 R 15 10 R 14 9 R 15 10 R 15 9 R 15 10 R 15 9 R 15 10 R 15 9 R 15 10 R
15 9 R 15 10 R 14 10 R 15 9 R 15 10 R 15 10 R 15 10 R 15 9 R 15 10 R 15 10 R
15 10 R 14 10 R 15 10 R 15 10 R 15 10 R 15 10 R 15 10 R 15 10 R 15 10 R
15 10 R 15 10 R 14 11 R 15 10 R 15 10 R 15 11 R 15 10 R 15 10 R 15 11 R
15 10 R 15 11 R 14 10 R 15 11 R 15 10 R 15 11 R 15 11 R 15 10 R 15 11 R
15 11 R 15 11 R 14 11 R 15 10 R 15 11 R 15 11 R 15 11 R 15 11 R 15 12 R
15 11 R 15 11 R 15 11 R 14 11 R 15 12 R 15 11 R 15 11 R 15 12 R 15 11 R
15 12 R 15 11 R 15 12 R 14 12 R 15 11 R 15 12 R 15 12 R 15 12 R 15 12 R
15 12 R 15 12 R 15 12 R 15 12 R 14 12 R 15 12 R 15 12 R 15 13 R 15 12 R
15 13 R 15 12 R 15 13 R 15 12 R 14 13 R 15 12 R 15 13 R 15 13 R 15 13 R
15 13 R 15 13 R 15 13 R 15 13 R 15 13 R 14 14 R 15 13 R 15 13 R 15 14 R
15 13 R 15 14 R 15 14 R 15 13 R 15 14 R 14 14 R 15 14 R 15 14 R 15 14 R
15 14 R 15 14 R 15 15 R 15 14 R 15 15 R 14 14 R 15 15 R 15 15 R 15 14 R
15 15 R 15 15 R 15 15 R 15 16 R 15 15 R 15 15 R 14 16 R 15 15 R 15 16 R
15 16 R 15 15 R 15 16 R 15 16 R 15 16 R 15 17 R 14 16 R 15 16 R 15 17 R
15 17 R 15 16 R 15 17 R 15 17 R 15 17 R 15 18 R 15 17 R 14 18 R 15 17 R
15 18 R 15 18 R 15 18 R 15 18 R 15 18 R 15 19 R 15 18 R 14 19 R 15 19 R
15 19 R 15 19 R 15 19 R 15 19 R 15 20 R 15 20 R 15 20 R 15 20 R 14 20 R
15 20 R 15 21 R 15 21 R 15 20 R 15 22 R 15 21 R 15 21 R 15 22 R 14 22 R
15 22 R 15 22 R 15 23 R 15 22 R 15 23 R 15 23 R 15 24 R 15 23 R 15 24 R
14 24 R 15 24 R 15 25 R 15 25 R 15 25 R 15 25 R 15 25 R 15 26 R 15 26 R
14 27 R 15 26 R 15 27 R 15 27 R 15 28 R 15 28 R 15 28 R 15 28 R 15 29 R
14 29 R 15 29 R 15 30 R 15 30 R 15 30 R 15 31 R 15 31 R 15 32 R 15 31 R
15 33 R 14 32 R 15 33 R 15 33 R 15 34 R 15 34 R 15 34 R 15 35 R 15 35 R
15 36 R 14 36 R 15 36 R 15 36 R 15 37 R 15 37 R 15 38 R 12 32 R D L0
2886 11257 M 1598 0 R D 4833 11397 M 0 -246 R D 4751 11397 M 163 0 R D
4973 11291 M 210 0 R D 4973 11221 M 210 0 R D 5300 11350 M 23 12 R 35 35 R
0 -246 R D 5662 11397 M -117 -246 R D 5499 11397 M 163 0 R D 5756 11397 M
128 0 R -70 -94 R 35 0 R 24 -12 R 11 -11 R 12 -35 R 0 -24 R -12 -35 R
-23 -23 R -35 -12 R -35 0 R -35 12 R -12 12 R -12 23 R D 6165 11397 M
0 -246 R D 6328 11397 M -163 -164 R D 6223 11291 M 105 -140 R D L1
2886 10834 M 1598 0 R D L0 4833 10974 M 0 -245 R D 4751 10974 M 163 0 R D
4973 10869 M 210 0 R D 4973 10799 M 210 0 R D 5300 10927 M 23 12 R 35 35 R
0 -245 R D 5616 10974 M -117 -163 R 175 0 R D 5616 10974 M 0 -245 R D
5756 10974 M 128 0 R -70 -93 R 35 0 R 24 -12 R 11 -12 R 12 -35 R 0 -23 R
-12 -35 R -23 -23 R -35 -12 R -35 0 R -35 12 R -12 11 R -12 24 R D
6165 10974 M 0 -245 R D 6328 10974 M -163 -163 R D 6223 10869 M 105 -140 R D
L2 2886 10412 M 1598 0 R D L0 4833 10552 M 0 -246 R D 4751 10552 M 163 0 R D
4973 10447 M 210 0 R D 4973 10377 M 210 0 R D 5277 10493 M 0 12 R 11 23 R
12 12 R 23 12 R 47 0 R 24 -12 R 11 -12 R 12 -23 R 0 -23 R -12 -24 R
-23 -35 R -117 -117 R 164 0 R D 5569 10552 M -35 -12 R -24 -35 R -11 -58 R
0 -35 R 11 -59 R 24 -35 R 35 -12 R 23 0 R 35 12 R 24 35 R 11 59 R 0 35 R
-11 58 R -24 35 R -35 12 R -23 0 R D 5756 10552 M 128 0 R -70 -94 R 35 0 R
24 -11 R 11 -12 R 12 -35 R 0 -23 R -12 -35 R -23 -24 R -35 -12 R -35 0 R
-35 12 R -12 12 R -12 23 R D 6165 10552 M 0 -246 R D 6328 10552 M
-163 -164 R D 6223 10447 M 105 -141 R D 2486 11574 M 4022 0 R 0 -1479 R
-4022 0 R 0 1479 R D
%%PageTrailer
end
restore
showpage
%%PageResources: font Helvetica
%%Trailer
restore
%%Pages: 1
%%DocumentNeededResources: font Helvetica
%%EOF
