%!PS-Adobe-3.0
%%BoundingBox: 54 360 558 720
%%Title: Graphics produced by IDL
%%For: peters11@pal-nat185-046-194.itap.purdue.edu, 
%%      /Users/peters11/imsims/trunk/docs
%%Creator: IDL Version 6.3, Mac OS X (darwin i386 m32)
%%CreationDate: Fri Oct  7 10:49:24 2011
%%DocumentData: Clean7bit
%%LanguageLevel: 1
%%PageOrder: Ascend
%%Pages: (atend)
%%DocumentNeededResources: (atend)
%%EndComments
%%BeginProlog
save
%+ prolog.ps -- Prolog for IDL generated PostScript files
%+ Copyright (c) 1988-2006 Research Systems, Inc. All Rights Reserved.
%v 5
/$IDL_DICT 40 dict def $IDL_DICT begin /bdef { bind def } bind def /C
{currentpoint newpath moveto} bdef /CP {currentpoint} bdef /D {currentpoint
stroke moveto} bdef /F {closepath fill} bdef /K { setgray } bdef /M {moveto}
bdef /N {rmoveto} bdef /P {lineto} bdef /R {rlineto} bdef /S {gsave show
grestore} bdef /X {currentpoint pop} bdef /Z {gsave currentpoint lineto 20
setlinewidth 1 setlinecap stroke grestore} bdef /L0 {[] 0 setdash} bdef /L1
{[40 100] 0 setdash} bdef /L2 {[200 200] 0 setdash} bdef /L3 {[200 100 50
100] 0 setdash} bdef /L4 {[300 100 50 100 50 100 50 100] 0 setdash} bdef /L5
{[400 200] 0 setdash} bdef /STDFONT { findfont exch scalefont setfont } bdef
/ISOFONT { findfont dup length dict begin { 1 index /FID ne {def} {pop pop}
ifelse } forall /Encoding ISOLatin1Encoding def currentdict end /idltmpfont
exch definefont exch scalefont setfont } bdef /ISOBULLET { gsave /Helvetica
findfont exch scalefont setfont (\267) show currentpoint grestore moveto}
bdef /MITERLIMIT { 2.5 setmiterlimit } bdef end
%%EndProlog
%%Page: 0 1
%%PageResources: (atend)
%%PageOrientation: Portrait
%%PageBoundingBox: 54 360 558 720
%%BeginPageSetup
save
$IDL_DICT begin 54 360 translate 0.0283465 dup scale MITERLIMIT
%%IncludeResource: font Helvetica
423.333 /Helvetica STDFONT
%%EndPageSetup
10 setlinewidth L0 0.000 K 6841 12470 M -29 29 R -44 15 R -58 0 R -44 -15 R
-30 -29 R 0 -29 R 15 -29 R 15 -15 R 29 -14 R 88 -30 R 29 -14 R 14 -15 R
15 -29 R 0 -44 R -29 -29 R -44 -15 R -58 0 R -44 15 R -30 29 R D
6929 12514 M 14 -15 R 15 15 R -15 15 R -14 -15 R D 6943 12412 M 0 -205 R D
7060 12514 M 0 -307 R D 7162 12514 M 15 -15 R 14 15 R -14 15 R -15 -15 R D
7177 12412 M 0 -205 R D 7454 12368 M -29 29 R -29 15 R -44 0 R -29 -15 R
-29 -29 R -15 -44 R 0 -29 R 15 -44 R 29 -29 R 29 -15 R 44 0 R 29 15 R
29 29 R D 7615 12412 M -29 -15 R -29 -29 R -15 -44 R 0 -29 R 15 -44 R
29 -29 R 29 -15 R 44 0 R 29 15 R 29 29 R 15 44 R 0 29 R -15 44 R -29 29 R
-29 15 R -44 0 R D 7834 12412 M 0 -205 R D 7834 12353 M 44 44 R 29 15 R
44 0 R 29 -15 R 15 -44 R 0 -146 R D 8345 12514 M 0 -307 R D 8462 12412 M
0 -205 R D 8462 12353 M 44 44 R 29 15 R 44 0 R 29 -15 R 15 -44 R 0 -146 R D
8900 12514 M 0 -307 R D 8900 12368 M -29 29 R -29 15 R -44 0 R -29 -15 R
-29 -29 R -15 -44 R 0 -29 R 15 -44 R 29 -29 R 29 -15 R 44 0 R 29 15 R
29 29 R D 9003 12324 M 175 0 R 0 29 R -15 30 R -14 14 R -30 15 R -43 0 R
-30 -15 R -29 -29 R -14 -44 R 0 -29 R 14 -44 R 29 -29 R 30 -15 R 43 0 R
30 15 R 29 29 R D 9265 12412 M 161 -205 R D 9426 12412 M -161 -205 R D
9820 12412 M -29 -15 R -29 -29 R -15 -44 R 0 -29 R 15 -44 R 29 -29 R
29 -15 R 44 0 R 29 15 R 30 29 R 14 44 R 0 29 R -14 44 R -30 29 R -29 15 R
-44 0 R D 10127 12514 M -29 0 R -29 -15 R -15 -43 R 0 -249 R D 10010 12412 M
103 0 R D 10448 12514 M 0 -307 R D 10448 12514 M 132 0 R 44 -15 R 14 -14 R
15 -29 R 0 -30 R -15 -29 R -14 -14 R -44 -15 R -132 0 R D 10551 12368 M
102 -161 R D 10741 12324 M 175 0 R 0 29 R -15 30 R -14 14 R -30 15 R -43 0 R
-30 -15 R -29 -29 R -14 -44 R 0 -29 R 14 -44 R 29 -29 R 30 -15 R 43 0 R
30 15 R 29 29 R D 11106 12514 M -30 0 R -29 -15 R -14 -43 R 0 -249 R D
10989 12412 M 102 0 R D 11193 12412 M 0 -205 R D 11193 12324 M 15 44 R
29 29 R 29 15 R 44 0 R D 11544 12412 M 0 -205 R D 11544 12368 M -29 29 R
-30 15 R -43 0 R -30 -15 R -29 -29 R -14 -44 R 0 -29 R 14 -44 R 29 -29 R
30 -15 R 43 0 R 30 15 R 29 29 R D 11821 12368 M -29 29 R -29 15 R -44 0 R
-29 -15 R -29 -29 R -15 -44 R 0 -29 R 15 -44 R 29 -29 R 29 -15 R 44 0 R
29 15 R 29 29 R D 11938 12514 M 0 -248 R 15 -44 R 29 -15 R 29 0 R D
11894 12412 M 103 0 R D 12084 12514 M 15 -15 R 14 15 R -14 15 R -15 -15 R D
12099 12412 M 0 -205 R D 12274 12412 M -29 -15 R -29 -29 R -15 -44 R 0 -29 R
15 -44 R 29 -29 R 29 -15 R 44 0 R 29 15 R 29 29 R 15 44 R 0 29 R -15 44 R
-29 29 R -29 15 R -44 0 R D 12493 12412 M 0 -205 R D 12493 12353 M 44 44 R
29 15 R 44 0 R 29 -15 R 15 -44 R 0 -146 R D 2220 1408 M 14894 0 R D
2220 1408 M 0 212 R D 1905 1067 M 0 12 R 11 23 R 12 12 R 23 11 R 47 0 R
23 -11 R 12 -12 R 12 -23 R 0 -24 R -12 -23 R -23 -35 R -117 -117 R 164 0 R D
2197 1125 M -35 -11 R -24 -35 R -11 -59 R 0 -35 R 11 -58 R 24 -35 R 35 -12 R
23 0 R 35 12 R 24 35 R 11 58 R 0 35 R -11 59 R -24 35 R -35 11 R -23 0 R D
2430 1125 M -35 -11 R -23 -35 R -12 -59 R 0 -35 R 12 -58 R 23 -35 R 35 -12 R
24 0 R 35 12 R 23 35 R 12 58 R 0 35 R -12 59 R -23 35 R -35 11 R -24 0 R D
5202 1408 M 0 212 R D 4992 1125 M -117 -163 R 175 0 R D 4992 1125 M 0 -245 R
D 5179 1125 M -36 -11 R -23 -35 R -12 -59 R 0 -35 R 12 -58 R 23 -35 R
36 -12 R 23 0 R 35 12 R 23 35 R 12 58 R 0 35 R -12 59 R -23 35 R -35 11 R
-23 0 R D 5412 1125 M -35 -11 R -23 -35 R -12 -59 R 0 -35 R 12 -58 R
23 -35 R 35 -12 R 24 0 R 35 12 R 23 35 R 12 58 R 0 35 R -12 59 R -23 35 R
-35 11 R -24 0 R D 8184 1408 M 0 212 R D 8008 1090 M -11 24 R -35 11 R
-24 0 R -35 -11 R -23 -35 R -12 -59 R 0 -58 R 12 -47 R 23 -23 R 35 -12 R
12 0 R 35 12 R 23 23 R 12 35 R 0 12 R -12 35 R -23 23 R -35 12 R -12 0 R
-35 -12 R -23 -23 R -12 -35 R D 8160 1125 M -35 -11 R -23 -35 R -12 -59 R
0 -35 R 12 -58 R 23 -35 R 35 -12 R 24 0 R 35 12 R 23 35 R 12 58 R 0 35 R
-12 59 R -23 35 R -35 11 R -24 0 R D 8394 1125 M -35 -11 R -23 -35 R
-12 -59 R 0 -35 R 12 -58 R 23 -35 R 35 -12 R 23 0 R 35 12 R 24 35 R 11 58 R
0 35 R -11 59 R -24 35 R -35 11 R -23 0 R D 11165 1408 M 0 212 R D
10897 1125 M -35 -11 R -12 -24 R 0 -23 R 12 -23 R 23 -12 R 47 -12 R 35 -11 R
23 -24 R 12 -23 R 0 -35 R -12 -24 R -12 -11 R -35 -12 R -46 0 R -35 12 R
-12 11 R -12 24 R 0 35 R 12 23 R 23 24 R 35 11 R 47 12 R 23 12 R 12 23 R
0 23 R -12 24 R -35 11 R -46 0 R D 11142 1125 M -35 -11 R -23 -35 R
-12 -59 R 0 -35 R 12 -58 R 23 -35 R 35 -12 R 23 0 R 35 12 R 24 35 R 12 58 R
0 35 R -12 59 R -24 35 R -35 11 R -23 0 R D 11376 1125 M -35 -11 R -24 -35 R
-11 -59 R 0 -35 R 11 -58 R 24 -35 R 35 -12 R 23 0 R 35 12 R 24 35 R 11 58 R
0 35 R -11 59 R -24 35 R -35 11 R -23 0 R D 14147 1408 M 0 212 R D
13738 1079 M 24 11 R 35 35 R 0 -245 R D 14007 1125 M -35 -11 R -23 -35 R
-12 -59 R 0 -35 R 12 -58 R 23 -35 R 35 -12 R 23 0 R 35 12 R 24 35 R 11 58 R
0 35 R -11 59 R -24 35 R -35 11 R -23 0 R D 14241 1125 M -35 -11 R -24 -35 R
-11 -59 R 0 -35 R 11 -58 R 24 -35 R 35 -12 R 23 0 R 35 12 R 23 35 R 12 58 R
0 35 R -12 59 R -23 35 R -35 11 R -23 0 R D 14474 1125 M -35 -11 R -23 -35 R
-12 -59 R 0 -35 R 12 -58 R 23 -35 R 35 -12 R 24 0 R 35 12 R 23 35 R 12 58 R
0 35 R -12 59 R -23 35 R -35 11 R -24 0 R D 2966 1408 M 0 106 R D
3711 1408 M 0 106 R D 4456 1408 M 0 106 R D 5947 1408 M 0 106 R D
6693 1408 M 0 106 R D 7438 1408 M 0 106 R D 8929 1408 M 0 106 R D
9675 1408 M 0 106 R D 10420 1408 M 0 106 R D 11911 1408 M 0 106 R D
12656 1408 M 0 106 R D 13402 1408 M 0 106 R D 14893 1408 M 0 106 R D
15638 1408 M 0 106 R D 16384 1408 M 0 106 R D 8131 668 M 58 -246 R 58 246 R
59 -246 R 58 246 R D 8563 586 M 0 -164 R D 8563 551 M -23 23 R -24 12 R
-35 0 R -23 -12 R -24 -23 R -11 -35 R 0 -23 R 11 -35 R 24 -24 R 23 -12 R
35 0 R 24 12 R 23 24 R D 8633 586 M 70 -164 R 70 164 R D 8832 516 M 140 0 R
0 23 R -12 24 R -11 11 R -24 12 R -35 0 R -23 -12 R -24 -23 R -11 -35 R
0 -23 R 11 -35 R 24 -24 R 23 -12 R 35 0 R 24 12 R 23 24 R D 9054 668 M
0 -246 R D 9135 516 M 141 0 R 0 23 R -12 24 R -12 11 R -23 12 R -35 0 R
-23 -12 R -24 -23 R -12 -35 R 0 -23 R 12 -35 R 24 -24 R 23 -12 R 35 0 R
23 12 R 24 24 R D 9357 586 M 0 -164 R D 9357 539 M 36 35 R 23 12 R 35 0 R
23 -12 R 12 -35 R 0 -117 R D 9708 586 M 0 -199 R -12 -35 R -11 -11 R
-24 -12 R -35 0 R -23 12 R D 9708 551 M -23 23 R -24 12 R -35 0 R -23 -12 R
-24 -23 R -11 -35 R 0 -23 R 11 -35 R 24 -24 R 23 -12 R 35 0 R 24 12 R
23 24 R D 9813 668 M 0 -199 R 12 -35 R 23 -12 R 24 0 R D 9778 586 M 82 0 R D
9942 668 M 0 -246 R D 9942 539 M 35 35 R 23 12 R 35 0 R 24 -12 R 11 -35 R
0 -117 R D 10432 715 M -23 -24 R -23 -35 R -24 -47 R -11 -58 R 0 -47 R
11 -58 R 24 -59 R 23 -35 R 23 -23 R D 10514 586 M 0 -164 R D 10514 539 M
35 35 R 24 12 R 35 0 R 23 -12 R 12 -35 R 0 -117 R D 10736 586 M 0 -164 R D
10736 539 M 35 35 R 24 12 R 35 0 R 23 -12 R 12 -35 R 0 -117 R D 10865 539 M
35 35 R 23 12 R 35 0 R 24 -12 R 11 -35 R 0 -117 R D 11075 715 M 23 -24 R
24 -35 R 23 -47 R 12 -58 R 0 -47 R -12 -58 R -23 -59 R -24 -35 R -23 -23 R D
2220 11996 M 14894 0 R D 2220 11996 M 0 -212 R D 5202 11996 M 0 -212 R D
8184 11996 M 0 -212 R D 11165 11996 M 0 -212 R D 14147 11996 M 0 -212 R D
2966 11996 M 0 -106 R D 3711 11996 M 0 -106 R D 4456 11996 M 0 -106 R D
5947 11996 M 0 -106 R D 6693 11996 M 0 -106 R D 7438 11996 M 0 -106 R D
8929 11996 M 0 -106 R D 9675 11996 M 0 -106 R D 10420 11996 M 0 -106 R D
11911 11996 M 0 -106 R D 12656 11996 M 0 -106 R D 13402 11996 M 0 -106 R D
14893 11996 M 0 -106 R D 15638 11996 M 0 -106 R D 16384 11996 M 0 -106 R D
2220 1408 M 0 10588 R D 2220 1408 M 298 0 R D 1969 1653 M -35 -11 R
-24 -35 R -11 -59 R 0 -35 R 11 -58 R 24 -35 R 35 -12 R 23 0 R 35 12 R
24 35 R 11 58 R 0 35 R -11 59 R -24 35 R -35 11 R -23 0 R D 2220 3526 M
298 0 R D 1910 3572 M 0 11 R 12 24 R 12 12 R 23 11 R 47 0 R 23 -11 R
12 -12 R 12 -24 R 0 -23 R -12 -23 R -23 -35 R -117 -117 R 163 0 R D
2220 5643 M 298 0 R D 2016 5748 M -117 -164 R 175 0 R D 2016 5748 M 0 -246 R
D 2220 7761 M 298 0 R D 2051 7830 M -12 24 R -35 11 R -23 0 R -35 -11 R
-24 -35 R -12 -59 R 0 -58 R 12 -47 R 24 -23 R 35 -12 R 11 0 R 35 12 R
24 23 R 11 35 R 0 12 R -11 35 R -24 23 R -35 12 R -11 0 R -35 -12 R
-24 -23 R -12 -35 R D 2220 9878 M 298 0 R D 1957 9983 M -35 -12 R -12 -23 R
0 -23 R 12 -24 R 24 -11 R 46 -12 R 35 -12 R 24 -23 R 11 -24 R 0 -35 R
-11 -23 R -12 -12 R -35 -11 R -47 0 R -35 11 R -12 12 R -11 23 R 0 35 R
11 24 R 24 23 R 35 12 R 47 12 R 23 11 R 12 24 R 0 23 R -12 23 R -35 12 R
-47 0 R D 2220 11996 M 298 0 R D 1700 11948 M 24 12 R 35 35 R 0 -245 R D
1969 11995 M -35 -12 R -24 -35 R -11 -58 R 0 -35 R 11 -59 R 24 -35 R
35 -11 R 23 0 R 35 11 R 24 35 R 11 59 R 0 35 R -11 58 R -24 35 R -35 12 R
-23 0 R D 2220 1937 M 149 0 R D 2220 2467 M 149 0 R D 2220 2996 M 149 0 R D
2220 4055 M 149 0 R D 2220 4584 M 149 0 R D 2220 5114 M 149 0 R D
2220 6173 M 149 0 R D 2220 6702 M 149 0 R D 2220 7231 M 149 0 R D
2220 8290 M 149 0 R D 2220 8820 M 149 0 R D 2220 9349 M 149 0 R D
2220 10408 M 149 0 R D 2220 10937 M 149 0 R D 2220 11467 M 149 0 R D
1063 4967 M 246 0 R D 1145 5060 M 164 0 R D 1192 5060 M -35 35 R -12 24 R
0 35 R 12 23 R 35 12 R 117 0 R D 1063 5411 M 246 0 R D 1180 5411 M -23 -23 R
-12 -24 R 0 -35 R 12 -23 R 23 -24 R 35 -11 R 24 0 R 35 11 R 23 24 R 12 23 R
0 35 R -12 24 R -23 23 R D 1215 5493 M 0 140 R -23 0 R -23 -12 R -12 -11 R
-12 -24 R 0 -35 R 12 -23 R 23 -24 R 35 -11 R 24 0 R 35 11 R 23 24 R 12 23 R
0 35 R -12 24 R -23 23 R D 1145 5703 M 164 129 R D 1145 5832 M 164 -129 R D
1145 6147 M 12 -23 R 23 -24 R 35 -11 R 24 0 R 35 11 R 23 24 R 12 23 R 0 35 R
-12 23 R -23 24 R -35 12 R -24 0 R -35 -12 R -23 -24 R -12 -23 R 0 -35 R D
1063 6392 M 0 -23 R 12 -23 R 35 -12 R 199 0 R D 1145 6299 M 0 82 R D
1063 6649 M 246 0 R D 1063 6649 M 0 106 R 12 35 R 12 11 R 23 12 R 23 0 R
24 -12 R 12 -11 R 11 -35 R 0 -106 R D 1180 6731 M 129 82 R D 1215 6883 M
0 140 R -23 0 R -23 -11 R -12 -12 R -12 -23 R 0 -35 R 12 -24 R 23 -23 R
35 -12 R 24 0 R 35 12 R 23 23 R 12 24 R 0 35 R -12 23 R -23 23 R D
1063 7175 M 0 -23 R 12 -23 R 35 -12 R 199 0 R D 1145 7082 M 0 82 R D
1145 7245 M 164 0 R D 1215 7245 M -35 12 R -23 23 R -12 24 R 0 35 R D
1145 7526 M 164 0 R D 1180 7526 M -23 -24 R -12 -23 R 0 -35 R 12 -23 R
23 -24 R 35 -11 R 24 0 R 35 11 R 23 24 R 12 23 R 0 35 R -12 23 R -23 24 R D
1180 7748 M -23 -24 R -12 -23 R 0 -35 R 12 -23 R 23 -24 R 35 -11 R 24 0 R
35 11 R 23 24 R 12 23 R 0 35 R -12 23 R -23 24 R D 1063 7841 M 199 0 R
35 12 R 12 23 R 0 24 R D 1145 7806 M 0 82 R D 1063 7958 M 12 12 R -12 11 R
-11 -11 R 11 -12 R D 1145 7970 M 164 0 R D 1145 8110 M 12 -23 R 23 -24 R
35 -11 R 24 0 R 35 11 R 23 24 R 12 23 R 0 35 R -12 23 R -23 24 R -35 11 R
-24 0 R -35 -11 R -23 -24 R -12 -23 R 0 -35 R D 1145 8285 M 164 0 R D
1192 8285 M -35 35 R -12 24 R 0 35 R 12 23 R 35 12 R 117 0 R D 17114 1408 M
0 10588 R D 17114 1408 M -298 0 R D 17114 3526 M -298 0 R D 17114 5643 M
-298 0 R D 17114 7761 M -298 0 R D 17114 9878 M -298 0 R D 17114 11996 M
-298 0 R D 17114 1937 M -149 0 R D 17114 2467 M -149 0 R D 17114 2996 M
-149 0 R D 17114 4055 M -149 0 R D 17114 4584 M -149 0 R D 17114 5114 M
-149 0 R D 17114 6173 M -149 0 R D 17114 6702 M -149 0 R D 17114 7231 M
-149 0 R D 17114 8290 M -149 0 R D 17114 8820 M -149 0 R D 17114 9349 M
-149 0 R D 17114 10408 M -149 0 R D 17114 10937 M -149 0 R D 17114 11467 M
-149 0 R D 4375 11996 M 7 -68 R 15 -161 R 15 -156 R 15 -151 R 15 -146 R
14 -142 R 15 -138 R 15 -134 R 15 -129 R 15 -126 R 15 -122 R 15 -118 R
15 -115 R 15 -111 R 15 -109 R 15 -105 R 14 -102 R 15 -99 R 15 -97 R 15 -93 R
15 -92 R 15 -88 R 15 -86 R 15 -84 R 15 -81 R 15 -79 R 15 -77 R 14 -75 R
15 -73 R 15 -71 R 15 -69 R 15 -68 R 15 -65 R 15 -64 R 15 -62 R 15 -60 R
15 -59 R 15 -58 R 14 -56 R 15 -54 R 15 -53 R 15 -52 R 15 -51 R 15 -49 R
15 -48 R 15 -47 R 15 -45 R 15 -45 R 15 -43 R 14 -43 R 15 -41 R 15 -41 R
15 -39 R 15 -39 R 15 -38 R 15 -36 R 15 -36 R 15 -35 R 15 -35 R 15 -33 R
14 -33 R 15 -32 R 15 -31 R 15 -31 R 15 -29 R 15 -30 R 15 -28 R 15 -28 R
15 -27 R 15 -27 R 15 -26 R 14 -26 R 15 -25 R 15 -24 R 15 -24 R 15 -24 R
15 -23 R 15 -22 R 15 -22 R 15 -22 R 15 -21 R 15 -21 R 14 -20 R 15 -20 R
15 -20 R 15 -19 R 15 -18 R 15 -19 R 15 -18 R 15 -17 R 15 -18 R 15 -16 R
15 -17 R 14 -16 R 15 -16 R 15 -16 R 15 -15 R 15 -15 R 15 -15 R 15 -15 R
15 -14 R 15 -14 R 15 -14 R 14 -13 R 15 -13 R 15 -13 R 15 -13 R 15 -13 R
15 -12 R 15 -12 R 15 -12 R 15 -12 R 15 -11 R 15 -11 R 14 -11 R 15 -11 R
15 -11 R 15 -11 R 15 -10 R 15 -10 R 15 -10 R 15 -10 R 15 -9 R 15 -10 R
15 -9 R 14 -10 R 15 -9 R 15 -8 R 15 -9 R 15 -9 R 15 -8 R 15 -9 R 15 -8 R
15 -8 R 15 -8 R 15 -8 R 14 -7 R 15 -8 R 15 -7 R 15 -8 R 15 -7 R 15 -7 R
15 -7 R 15 -7 R 15 -7 R 15 -7 R 15 -6 R 14 -7 R 15 -6 R 15 -7 R 15 -6 R
15 -6 R 15 -6 R 15 -6 R 15 -6 R 15 -6 R 15 -5 R 15 -6 R 14 -6 R 15 -5 R
15 -6 R 15 -5 R 15 -5 R 15 -5 R 15 -6 R 15 -5 R 15 -5 R 15 -5 R 15 -4 R
14 -5 R 15 -5 R 15 -5 R 15 -4 R 15 -5 R 15 -4 R 15 -5 R 15 -4 R 15 -5 R
15 -4 R 15 -4 R 14 -4 R 15 -4 R 15 -4 R 15 -5 R 15 -3 R 15 -4 R 15 -4 R
15 -4 R 15 -4 R 15 -4 R 15 -3 R 14 -4 R 15 -4 R 15 -3 R 15 -4 R 15 -3 R
15 -4 R 15 -3 R 15 -3 R 15 -4 R 15 -3 R 15 -3 R 14 -4 R 15 -3 R 15 -3 R
15 -3 R 15 -3 R 15 -3 R 15 -3 R 15 -3 R 15 -3 R 15 -3 R 15 -3 R 14 -3 R
15 -3 R 15 -3 R 15 -2 R 15 -3 R 15 -3 R 15 -2 R 15 -3 R 15 -3 R 15 -2 R
15 -3 R 14 -3 R 15 -2 R 15 -3 R 15 -2 R 15 -3 R 15 -2 R 15 -2 R 15 -3 R
15 -2 R 15 -3 R 15 -2 R 14 -2 R 15 -2 R 15 -3 R 15 -2 R 15 -2 R 15 -2 R
15 -3 R 15 -2 R 15 -2 R 15 -2 R 15 -2 R 14 -2 R 15 -2 R 15 -2 R 15 -2 R
15 -2 R 15 -2 R 15 -2 R 15 -2 R 15 -2 R 15 -2 R 15 -2 R 14 -2 R 15 -2 R
15 -2 R 15 -1 R 15 -2 R 15 -2 R 15 -2 R 15 -2 R 15 -2 R 15 -1 R 15 -2 R
14 -2 R 15 -1 R 15 -2 R 15 -2 R 15 -2 R 15 -1 R 15 -2 R 15 -1 R 15 -2 R
15 -2 R 15 -1 R 14 -2 R 15 -1 R 15 -2 R 15 -2 R 15 -1 R 15 -2 R 15 -1 R
15 -2 R 15 -1 R 15 -2 R 15 -1 R 14 -2 R 15 -1 R 15 -2 R 15 -1 R 15 -1 R
15 -2 R 15 -1 R 15 -2 R 15 -1 R 15 -1 R 15 -2 R 14 -1 R 15 -1 R 15 -2 R
15 -1 R 15 -1 R 15 -2 R 15 -1 R 15 -1 R 15 -2 R 15 -1 R 15 -1 R 14 -1 R
15 -2 R 15 -1 R 15 -1 R 15 -1 R 15 -2 R 15 -1 R 15 -1 R 15 -1 R 15 -1 R
15 -1 R 14 -2 R 15 -1 R 15 -1 R 15 -1 R 15 -1 R 15 -1 R 15 -2 R 15 -1 R
15 -1 R 15 -1 R 15 -1 R 14 -1 R 15 -1 R 15 -1 R 15 -1 R 15 -1 R 15 -1 R
15 -2 R 15 -1 R 15 -1 R 15 -1 R 15 -1 R 14 -1 R 15 -1 R 15 -1 R 15 -1 R
15 -1 R 15 -1 R 15 -1 R 15 -1 R 15 -1 R 15 -1 R 15 -1 R 14 -1 R 15 -1 R
15 -1 R 15 -1 R 15 0 R 15 -1 R 15 -1 R 15 -1 R 15 -1 R 15 -1 R 15 -1 R
14 -1 R 15 -1 R 15 -1 R 15 -1 R 15 -1 R 15 0 R 15 -1 R 15 -1 R 15 -1 R
15 -1 R 15 -1 R 14 -1 R 15 0 R 15 -1 R 15 -1 R 15 -1 R 15 -1 R 15 -1 R
15 -1 R 15 0 R 15 -1 R 15 -1 R 14 -1 R 15 -1 R 15 0 R 15 -1 R 15 -1 R
15 -1 R 15 -1 R 15 0 R 15 -1 R 15 -1 R 15 -1 R 14 -1 R 15 0 R 15 -1 R
15 -1 R 15 -1 R 15 0 R 15 -1 R 15 -1 R 15 -1 R 15 0 R 15 -1 R 14 -1 R
15 -1 R 15 0 R 15 -1 R 15 -1 R 15 0 R 15 -1 R 15 -1 R 15 -1 R 15 0 R 15 -1 R
14 -1 R 15 0 R 15 -1 R 15 -1 R 15 0 R 15 -1 R 15 -1 R 15 -1 R 15 0 R 15 -1 R
15 -1 R 14 0 R 15 -1 R 15 -1 R 15 0 R 15 -1 R 15 -1 R 15 0 R 15 -1 R 15 0 R
15 -1 R 15 -1 R 14 0 R 15 -1 R 15 -1 R 15 0 R 15 -1 R 15 -1 R 15 0 R 15 -1 R
15 0 R 15 -1 R 15 -1 R 14 0 R 15 -1 R 15 0 R 15 -1 R 15 -1 R 15 0 R 15 -1 R
15 0 R 15 -1 R 15 -1 R 15 0 R 14 -1 R 15 0 R 15 -1 R 15 -1 R 15 0 R 15 -1 R
15 0 R 15 -1 R 15 0 R 15 -1 R 15 -1 R 14 0 R 15 -1 R 15 0 R 15 -1 R 15 0 R
15 -1 R 15 0 R 15 -1 R 15 -1 R 15 0 R 15 -1 R 14 0 R 15 -1 R 15 0 R 15 -1 R
15 0 R 15 -1 R 15 0 R 15 -1 R 15 0 R 15 -1 R 15 0 R 14 -1 R 15 -1 R 15 0 R
15 -1 R 15 0 R 15 -1 R 15 0 R 15 -1 R 15 0 R 15 -1 R 15 0 R 14 -1 R 15 0 R
15 -1 R 15 0 R 15 -1 R 15 0 R 15 -1 R 15 0 R 15 -1 R 15 0 R 15 -1 R 14 0 R
15 -1 R 15 0 R 15 0 R 15 -1 R 15 0 R 15 -1 R 15 0 R 15 -1 R 15 0 R 15 -1 R
14 0 R 15 -1 R 15 0 R 15 -1 R 15 0 R 15 -1 R 15 0 R 15 0 R 15 -1 R 15 0 R
15 -1 R 14 0 R 15 -1 R 15 0 R 15 -1 R 15 0 R 15 -1 R 15 0 R 15 0 R 15 -1 R
15 0 R 15 -1 R 14 0 R 15 -1 R 15 0 R 15 0 R 15 -1 R 15 0 R 15 -1 R 15 0 R
15 -1 R 15 0 R 15 0 R 14 -1 R 15 0 R 15 -1 R 15 0 R 15 -1 R 15 0 R 15 0 R
15 -1 R 15 0 R 15 -1 R 15 0 R 14 0 R 15 -1 R 15 0 R 15 -1 R 15 0 R 15 0 R
15 -1 R 15 0 R 15 -1 R 15 0 R 15 0 R 14 -1 R 15 0 R 15 -1 R 15 0 R 15 0 R
15 -1 R 15 0 R 15 -1 R 15 0 R 15 0 R 14 -1 R 15 0 R 15 0 R 15 -1 R 15 0 R
15 -1 R 15 0 R 15 0 R 15 -1 R 15 0 R 15 0 R 14 -1 R 15 0 R 15 -1 R 15 0 R
15 0 R 15 -1 R 15 0 R 15 0 R 15 -1 R 15 0 R 15 -1 R 14 0 R 15 0 R 15 -1 R
15 0 R 15 0 R 15 -1 R 15 0 R 15 0 R 15 -1 R 15 0 R 15 0 R 14 -1 R 15 0 R
15 -1 R 15 0 R 15 0 R 15 -1 R 15 0 R 15 0 R 15 -1 R 15 0 R 15 0 R 14 -1 R
15 0 R 15 0 R 15 -1 R 15 0 R 15 0 R 15 -1 R 15 0 R 15 0 R 15 -1 R 15 0 R
14 0 R 15 -1 R 15 0 R 15 0 R 15 -1 R 15 0 R 15 0 R 15 -1 R 15 0 R 15 0 R
15 -1 R 14 0 R 15 0 R 15 -1 R 15 0 R 15 0 R 15 -1 R 15 0 R 15 0 R 15 -1 R
15 0 R 15 0 R 14 0 R 15 -1 R 15 0 R 15 0 R 15 -1 R 15 0 R 15 0 R 15 -1 R
15 0 R 15 0 R 15 -1 R 14 0 R 15 0 R 15 0 R 15 -1 R 15 0 R 15 0 R 15 -1 R
15 0 R 15 0 R 15 -1 R 15 0 R 14 0 R 15 -1 R 15 0 R 15 0 R 15 0 R 15 -1 R
15 0 R 15 0 R 15 -1 R 15 0 R 15 0 R 14 0 R 15 -1 R 15 0 R 15 0 R 15 -1 R
15 0 R 15 0 R 15 0 R 15 -1 R 15 0 R 15 0 R 14 -1 R 15 0 R 15 0 R 15 0 R
15 -1 R 15 0 R 15 0 R 15 -1 R 15 0 R 15 0 R 15 0 R 14 -1 R 15 0 R 15 0 R
15 -1 R 15 0 R 15 0 R 15 0 R 15 -1 R 15 0 R 15 0 R 15 0 R 14 -1 R 15 0 R
15 0 R 15 -1 R 15 0 R 15 0 R 15 0 R 15 -1 R 15 0 R 15 0 R D 15549 5238 M
15 0 R 14 -1 R 15 0 R 15 0 R 15 0 R 15 -1 R 15 0 R 15 0 R 15 -1 R 15 0 R
15 0 R 15 0 R 14 -1 R 15 0 R 15 0 R 15 0 R 15 -1 R 15 0 R 15 0 R 15 0 R
15 -1 R 15 0 R 15 0 R 14 0 R 15 -1 R 15 0 R 15 0 R 15 0 R 15 -1 R 15 0 R
15 0 R 15 0 R 15 -1 R 15 0 R 14 0 R 15 0 R 15 -1 R 15 0 R 15 0 R 15 0 R
15 -1 R 15 0 R 15 0 R 15 0 R 15 -1 R 14 0 R 15 0 R 15 0 R 15 -1 R 15 0 R
15 0 R 15 0 R 15 0 R 15 -1 R 15 0 R 15 0 R 14 0 R 15 -1 R 15 0 R 15 0 R
15 0 R 15 -1 R 15 0 R 15 0 R 15 0 R 15 -1 R 15 0 R 14 0 R 15 0 R 15 0 R
15 -1 R 15 0 R 15 0 R 15 0 R 15 -1 R 15 0 R 15 0 R 15 0 R 14 0 R 15 -1 R
15 0 R 15 0 R 15 0 R 15 -1 R 15 0 R 15 0 R 15 0 R 15 0 R 15 -1 R 14 0 R
15 0 R 15 0 R 15 -1 R 15 0 R 15 0 R 15 0 R 15 0 R 15 -1 R 15 0 R 15 0 R
14 0 R 15 -1 R 15 0 R 15 0 R 15 0 R D
%%PageTrailer
end
restore
showpage
%%PageResources: font Helvetica
%%Trailer
restore
%%Pages: 1
%%DocumentNeededResources: font Helvetica
%%EOF
