%!PS-Adobe-3.0
%%BoundingBox: 54 360 558 720
%%Title: Graphics produced by IDL
%%For: peters11@pal-nat185-040-030.itap.purdue.edu, 
%%      /Users/peters11/imsims/trunk
%%Creator: IDL Version 6.3, Mac OS X (darwin i386 m32)
%%CreationDate: Thu Sep 15 11:15:09 2011
%%DocumentData: Clean7bit
%%LanguageLevel: 1
%%PageOrder: Ascend
%%Pages: (atend)
%%DocumentNeededResources: (atend)
%%EndComments
%%BeginProlog
save
%+ prolog.ps -- Prolog for IDL generated PostScript files
%+ Copyright (c) 1988-2006 Research Systems, Inc. All Rights Reserved.
%v 5
/$IDL_DICT 40 dict def $IDL_DICT begin /bdef { bind def } bind def /C
{currentpoint newpath moveto} bdef /CP {currentpoint} bdef /D {currentpoint
stroke moveto} bdef /F {closepath fill} bdef /K { setgray } bdef /M {moveto}
bdef /N {rmoveto} bdef /P {lineto} bdef /R {rlineto} bdef /S {gsave show
grestore} bdef /X {currentpoint pop} bdef /Z {gsave currentpoint lineto 20
setlinewidth 1 setlinecap stroke grestore} bdef /L0 {[] 0 setdash} bdef /L1
{[40 100] 0 setdash} bdef /L2 {[200 200] 0 setdash} bdef /L3 {[200 100 50
100] 0 setdash} bdef /L4 {[300 100 50 100 50 100 50 100] 0 setdash} bdef /L5
{[400 200] 0 setdash} bdef /STDFONT { findfont exch scalefont setfont } bdef
/ISOFONT { findfont dup length dict begin { 1 index /FID ne {def} {pop pop}
ifelse } forall /Encoding ISOLatin1Encoding def currentdict end /idltmpfont
exch definefont exch scalefont setfont } bdef /ISOBULLET { gsave /Helvetica
findfont exch scalefont setfont (\267) show currentpoint grestore moveto}
bdef /MITERLIMIT { 2.5 setmiterlimit } bdef end
%%EndProlog
%%Page: 0 1
%%PageResources: (atend)
%%PageOrientation: Portrait
%%PageBoundingBox: 54 360 558 720
%%BeginPageSetup
save
$IDL_DICT begin 54 360 translate 0.0283465 dup scale MITERLIMIT
%%IncludeResource: font Helvetica
423.333 /Helvetica STDFONT
%%EndPageSetup
10 setlinewidth L0 0.000 K 2457 12571 M -8 14 R -14 15 R -15 7 R -29 0 R
-15 -7 R -14 -15 R -8 -14 R -7 -22 R 0 -37 R 7 -22 R 8 -14 R 14 -15 R
15 -7 R 29 0 R 15 7 R 14 15 R 8 14 R D 2508 12556 M 0 -73 R 7 -22 R 15 -7 R
22 0 R 14 7 R 22 22 R D 2588 12556 M 0 -102 R D 2646 12556 M 0 -102 R D
2646 12527 M 22 22 R 15 7 R 22 0 R 14 -7 R 8 -22 R 0 -73 R D 2727 12527 M
22 22 R 14 7 R 22 0 R 15 -7 R 7 -22 R 0 -73 R D 2866 12556 M 0 -73 R 7 -22 R
14 -7 R 22 0 R 15 7 R 22 22 R D 2946 12556 M 0 -102 R D 3004 12607 M
0 -153 R D 3143 12556 M 0 -102 R D 3143 12534 M -15 15 R -14 7 R -22 0 R
-15 -7 R -14 -15 R -8 -22 R 0 -15 R 8 -21 R 14 -15 R 15 -7 R 22 0 R 14 7 R
15 15 R D 3209 12607 M 0 -124 R 7 -22 R 15 -7 R 14 0 R D 3187 12556 M 51 0 R
D 3282 12607 M 7 -7 R 7 7 R -7 7 R -7 -7 R D 3289 12556 M 0 -102 R D
3333 12556 M 44 -102 R 44 102 R D 3457 12512 M 88 0 R 0 15 R -8 14 R -7 8 R
-15 7 R -21 0 R -15 -7 R -15 -15 R -7 -22 R 0 -15 R 7 -21 R 15 -15 R 15 -7 R
21 0 R 15 7 R 15 15 R D 3713 12556 M 0 -102 R D 3713 12527 M 22 22 R 14 7 R
22 0 R 15 -7 R 7 -22 R 0 -73 R D 3851 12556 M 0 -73 R 8 -22 R 14 -7 R 22 0 R
15 7 R 22 22 R D 3932 12556 M 0 -102 R D 3990 12556 M 0 -102 R D
3990 12527 M 22 22 R 15 7 R 22 0 R 14 -7 R 7 -22 R 0 -73 R D 4070 12527 M
22 22 R 15 7 R 22 0 R 14 -7 R 8 -22 R 0 -73 R D 4209 12607 M 0 -153 R D
4209 12534 M 15 15 R 14 7 R 22 0 R 15 -7 R 15 -15 R 7 -22 R 0 -15 R -7 -21 R
-15 -15 R -15 -7 R -22 0 R -14 7 R -15 15 R D 4341 12512 M 87 0 R 0 15 R
-7 14 R -7 8 R -15 7 R -22 0 R -14 -7 R -15 -15 R -7 -22 R 0 -15 R 7 -21 R
15 -15 R 14 -7 R 22 0 R 15 7 R 14 15 R D 4479 12556 M 0 -102 R D
4479 12512 M 8 22 R 14 15 R 15 7 R 22 0 R D 4720 12556 M -14 -7 R -15 -15 R
-7 -22 R 0 -15 R 7 -21 R 15 -15 R 14 -7 R 22 0 R 15 7 R 15 15 R 7 21 R
0 15 R -7 22 R -15 15 R -15 7 R -22 0 R D 4874 12607 M -15 0 R -14 -7 R
-8 -22 R 0 -124 R D 4815 12556 M 51 0 R D 5115 12556 M 0 -102 R D
5115 12534 M -15 15 R -14 7 R -22 0 R -15 -7 R -15 -15 R -7 -22 R 0 -15 R
7 -21 R 15 -15 R 15 -7 R 22 0 R 14 7 R 15 15 R D 5173 12556 M 0 -102 R D
5173 12527 M 22 22 R 15 7 R 22 0 R 14 -7 R 7 -22 R 0 -73 R D 5253 12527 M
22 22 R 15 7 R 22 0 R 15 -7 R 7 -22 R 0 -73 R D 5392 12556 M 0 -161 R D
5392 12534 M 15 15 R 14 7 R 22 0 R 15 -7 R 15 -15 R 7 -22 R 0 -15 R -7 -21 R
-15 -15 R -15 -7 R -22 0 R -14 7 R -15 15 R D 5531 12607 M 0 -153 R D
5582 12607 M 7 -7 R 8 7 R -8 7 R -7 -7 R D 5589 12556 M 0 -102 R D
5692 12607 M -15 0 R -15 -7 R -7 -22 R 0 -124 R D 5633 12556 M 51 0 R D
5728 12607 M 7 -7 R 8 7 R -8 7 R -7 -7 R D 5735 12556 M 0 -102 R D
5787 12512 M 87 0 R 0 15 R -7 14 R -7 8 R -15 7 R -22 0 R -15 -7 R -14 -15 R
-7 -22 R 0 -15 R 7 -21 R 14 -15 R 15 -7 R 22 0 R 15 7 R 14 15 R D
5925 12556 M 0 -102 R D 5925 12512 M 8 22 R 14 15 R 15 7 R 22 0 R D
6093 12534 M -7 15 R -22 7 R -22 0 R -22 -7 R -7 -15 R 7 -15 R 15 -7 R
36 -7 R 15 -8 R 7 -14 R 0 -7 R -7 -15 R -22 -7 R -22 0 R -22 7 R -7 15 R D
6334 12534 M -7 15 R -22 7 R -22 0 R -22 -7 R -7 -15 R 7 -15 R 15 -7 R
36 -7 R 15 -8 R 7 -14 R 0 -7 R -7 -15 R -22 -7 R -22 0 R -22 7 R -7 15 R D
6378 12607 M 7 -7 R 8 7 R -8 7 R -7 -7 R D 6385 12556 M 0 -102 R D
6444 12556 M 0 -102 R D 6444 12527 M 22 22 R 14 7 R 22 0 R 15 -7 R 7 -22 R
0 -73 R D 6524 12527 M 22 22 R 15 7 R 22 0 R 14 -7 R 7 -22 R 0 -73 R D
6663 12556 M 0 -73 R 7 -22 R 15 -7 R 22 0 R 14 7 R 22 22 R D 6743 12556 M
0 -102 R D 6802 12607 M 0 -153 R D 6940 12556 M 0 -102 R D 6940 12534 M
-14 15 R -15 7 R -22 0 R -14 -7 R -15 -15 R -7 -22 R 0 -15 R 7 -21 R
15 -15 R 14 -7 R 22 0 R 15 7 R 14 15 R D 7006 12607 M 0 -124 R 7 -22 R
15 -7 R 15 0 R D 6984 12556 M 51 0 R D 7079 12512 M 88 0 R 0 15 R -8 14 R
-7 8 R -14 7 R -22 0 R -15 -7 R -15 -15 R -7 -22 R 0 -15 R 7 -21 R 15 -15 R
15 -7 R 22 0 R 14 7 R 15 15 R D 7298 12607 M 0 -153 R D 7298 12534 M
-14 15 R -15 7 R -22 0 R -14 -7 R -15 -15 R -7 -22 R 0 -15 R 7 -21 R
15 -15 R 14 -7 R 22 0 R 15 7 R 14 15 R D 1110 7054 M 7447 0 R D 1110 7054 M
0 106 R D 894 6884 M 0 5 R 6 12 R 6 6 R 11 6 R 24 0 R 11 -6 R 6 -6 R 6 -12 R
0 -11 R -6 -12 R -11 -18 R -59 -58 R 82 0 R D 1040 6913 M -18 -6 R -11 -18 R
-6 -29 R 0 -17 R 6 -30 R 11 -17 R 18 -6 R 12 0 R 17 6 R 12 17 R 6 30 R
0 17 R -6 29 R -12 18 R -17 6 R -12 0 R D 1157 6913 M -18 -6 R -11 -18 R
-6 -29 R 0 -17 R 6 -30 R 11 -17 R 18 -6 R 12 0 R 17 6 R 12 17 R 6 30 R
0 17 R -6 29 R -12 18 R -17 6 R -12 0 R D 1297 6913 M -58 -82 R 87 0 R D
1297 6913 M 0 -123 R D 2972 7054 M 0 106 R D 2756 6884 M 0 5 R 6 12 R 5 6 R
12 6 R 23 0 R 12 -6 R 6 -6 R 6 -12 R 0 -11 R -6 -12 R -12 -18 R -58 -58 R
82 0 R D 2902 6913 M -18 -6 R -11 -18 R -6 -29 R 0 -17 R 6 -30 R 11 -17 R
18 -6 R 11 0 R 18 6 R 12 17 R 5 30 R 0 17 R -5 29 R -12 18 R -18 6 R -11 0 R
D 3019 6913 M -18 -6 R -12 -18 R -5 -29 R 0 -17 R 5 -30 R 12 -17 R 18 -6 R
11 0 R 18 6 R 11 17 R 6 30 R 0 17 R -6 29 R -11 18 R -18 6 R -11 0 R D
3176 6895 M -6 12 R -17 6 R -12 0 R -17 -6 R -12 -18 R -6 -29 R 0 -29 R
6 -23 R 12 -12 R 17 -6 R 6 0 R 18 6 R 11 12 R 6 17 R 0 6 R -6 17 R -11 12 R
-18 6 R -6 0 R -17 -6 R -12 -12 R -6 -17 R D 4834 7054 M 0 106 R D
4617 6884 M 0 5 R 6 12 R 6 6 R 12 6 R 23 0 R 12 -6 R 6 -6 R 6 -12 R 0 -11 R
-6 -12 R -12 -18 R -58 -58 R 81 0 R D 4763 6913 M -17 -6 R -12 -18 R
-6 -29 R 0 -17 R 6 -30 R 12 -17 R 17 -6 R 12 0 R 18 6 R 11 17 R 6 30 R
0 17 R -6 29 R -11 18 R -18 6 R -12 0 R D 4880 6913 M -17 -6 R -12 -18 R
-6 -29 R 0 -17 R 6 -30 R 12 -17 R 17 -6 R 12 0 R 18 6 R 11 17 R 6 30 R
0 17 R -6 29 R -11 18 R -18 6 R -12 0 R D 4991 6913 M -17 -6 R -6 -12 R
0 -11 R 6 -12 R 11 -6 R 24 -6 R 17 -6 R 12 -11 R 6 -12 R 0 -18 R -6 -11 R
-6 -6 R -17 -6 R -24 0 R -17 6 R -6 6 R -6 11 R 0 18 R 6 12 R 12 11 R 17 6 R
24 6 R 11 6 R 6 12 R 0 11 R -6 12 R -17 6 R -24 0 R D 6695 7054 M 0 106 R D
6479 6884 M 0 5 R 6 12 R 6 6 R 12 6 R 23 0 R 12 -6 R 5 -6 R 6 -12 R 0 -11 R
-6 -12 R -11 -18 R -59 -58 R 82 0 R D 6625 6913 M -17 -6 R -12 -18 R
-6 -29 R 0 -17 R 6 -30 R 12 -17 R 17 -6 R 12 0 R 17 6 R 12 17 R 6 30 R
0 17 R -6 29 R -12 18 R -17 6 R -12 0 R D 6725 6889 M 11 6 R 18 18 R
0 -123 R D 6859 6913 M -18 -6 R -11 -18 R -6 -29 R 0 -17 R 6 -30 R 11 -17 R
18 -6 R 12 0 R 17 6 R 12 17 R 6 30 R 0 17 R -6 29 R -12 18 R -17 6 R -12 0 R
D 8557 7054 M 0 106 R D 8341 6884 M 0 5 R 6 12 R 6 6 R 11 6 R 24 0 R 11 -6 R
6 -6 R 6 -12 R 0 -11 R -6 -12 R -11 -18 R -59 -58 R 82 0 R D 8487 6913 M
-18 -6 R -11 -18 R -6 -29 R 0 -17 R 6 -30 R 11 -17 R 18 -6 R 12 0 R 17 6 R
12 17 R 6 30 R 0 17 R -6 29 R -12 18 R -17 6 R -12 0 R D 8586 6889 M 12 6 R
18 18 R 0 -123 R D 8691 6884 M 0 5 R 6 12 R 6 6 R 12 6 R 23 0 R 12 -6 R
6 -6 R 6 -12 R 0 -11 R -6 -12 R -12 -18 R -58 -58 R 81 0 R D 1576 7054 M
0 53 R D 2041 7054 M 0 53 R D 2506 7054 M 0 53 R D 3437 7054 M 0 53 R D
3903 7054 M 0 53 R D 4368 7054 M 0 53 R D 5299 7054 M 0 53 R D 5764 7054 M
0 53 R D 6230 7054 M 0 53 R D 7161 7054 M 0 53 R D 7626 7054 M 0 53 R D
8092 7054 M 0 53 R D 1110 12348 M 7447 0 R D 1110 12348 M 0 -106 R D
2972 12348 M 0 -106 R D 4834 12348 M 0 -106 R D 6695 12348 M 0 -106 R D
8557 12348 M 0 -106 R D 1576 12348 M 0 -53 R D 2041 12348 M 0 -53 R D
2506 12348 M 0 -53 R D 3437 12348 M 0 -53 R D 3903 12348 M 0 -53 R D
4368 12348 M 0 -53 R D 5299 12348 M 0 -53 R D 5764 12348 M 0 -53 R D
6230 12348 M 0 -53 R D 7161 12348 M 0 -53 R D 7626 12348 M 0 -53 R D
8092 12348 M 0 -53 R D 1110 7054 M 0 5294 R D 1110 7054 M 149 0 R D
984 7177 M -17 -6 R -12 -18 R -6 -29 R 0 -17 R 6 -30 R 12 -17 R 17 -6 R
12 0 R 18 6 R 11 17 R 6 30 R 0 17 R -6 29 R -11 18 R -18 6 R -12 0 R D
1110 8113 M 149 0 R D 521 8136 M 0 6 R 6 11 R 5 6 R 12 6 R 23 0 R 12 -6 R
6 -6 R 6 -11 R 0 -12 R -6 -12 R -12 -17 R -58 -59 R 82 0 R D 643 8142 M
82 -82 R D 725 8142 M -82 -82 R D 778 8142 M 11 6 R 18 17 R 0 -123 R D
912 8165 M -17 -6 R -12 -17 R -6 -29 R 0 -18 R 6 -29 R 12 -18 R 17 -6 R
12 0 R 17 6 R 12 18 R 6 29 R 0 18 R -6 29 R -12 17 R -17 6 R -12 0 R D
1037 8196 M -4 8 R -11 3 R -7 0 R -11 -3 R -7 -11 R -4 -18 R 0 -18 R 4 -15 R
7 -7 R 11 -4 R 3 0 R 11 4 R 8 7 R 3 11 R 0 4 R -3 10 R -8 8 R -11 3 R -3 0 R
-11 -3 R -7 -8 R -4 -10 R D 1110 9172 M 149 0 R D 573 9224 M -58 -82 R
88 0 R D 573 9224 M 0 -123 R D 643 9201 M 82 -82 R D 725 9201 M -82 -82 R D
778 9201 M 11 5 R 18 18 R 0 -123 R D 912 9224 M -17 -6 R -12 -17 R -6 -30 R
0 -17 R 6 -29 R 12 -18 R 17 -6 R 12 0 R 17 6 R 12 18 R 6 29 R 0 17 R -6 30 R
-12 17 R -17 6 R -12 0 R D 1037 9255 M -4 7 R -11 4 R -7 0 R -11 -4 R
-7 -10 R -4 -19 R 0 -18 R 4 -14 R 7 -7 R 11 -4 R 3 0 R 11 4 R 8 7 R 3 11 R
0 3 R -3 11 R -8 7 R -11 4 R -3 0 R -11 -4 R -7 -7 R -4 -11 R D 1110 10230 M
149 0 R D 591 10265 M -6 12 R -18 6 R -11 0 R -18 -6 R -11 -18 R -6 -29 R
0 -29 R 6 -23 R 11 -12 R 18 -6 R 6 0 R 17 6 R 12 12 R 6 17 R 0 6 R -6 17 R
-12 12 R -17 6 R -6 0 R -18 -6 R -11 -12 R -6 -17 R D 643 10259 M 82 -81 R D
725 10259 M -82 -81 R D 778 10259 M 11 6 R 18 18 R 0 -123 R D 912 10283 M
-17 -6 R -12 -18 R -6 -29 R 0 -17 R 6 -30 R 12 -17 R 17 -6 R 12 0 R 17 6 R
12 17 R 6 30 R 0 17 R -6 29 R -12 18 R -17 6 R -12 0 R D 1037 10314 M -4 7 R
-11 4 R -7 0 R -11 -4 R -7 -11 R -4 -18 R 0 -18 R 4 -14 R 7 -8 R 11 -3 R
3 0 R 11 3 R 8 8 R 3 11 R 0 3 R -3 11 R -8 7 R -11 4 R -3 0 R -11 -4 R
-7 -7 R -4 -11 R D 1110 11289 M 149 0 R D 544 11342 M -17 -6 R -6 -12 R
0 -12 R 6 -11 R 11 -6 R 24 -6 R 17 -6 R 12 -12 R 6 -11 R 0 -18 R -6 -11 R
-6 -6 R -18 -6 R -23 0 R -17 6 R -6 6 R -6 11 R 0 18 R 6 11 R 11 12 R 18 6 R
23 6 R 12 6 R 6 11 R 0 12 R -6 12 R -18 6 R -23 0 R D 643 11318 M 82 -82 R D
725 11318 M -82 -82 R D 778 11318 M 11 6 R 18 18 R 0 -123 R D 912 11342 M
-17 -6 R -12 -18 R -6 -29 R 0 -18 R 6 -29 R 12 -17 R 17 -6 R 12 0 R 17 6 R
12 17 R 6 29 R 0 18 R -6 29 R -12 18 R -17 6 R -12 0 R D 1037 11373 M -4 7 R
-11 4 R -7 0 R -11 -4 R -7 -11 R -4 -18 R 0 -18 R 4 -14 R 7 -8 R 11 -3 R
3 0 R 11 3 R 8 8 R 3 10 R 0 4 R -3 11 R -8 7 R -11 4 R -3 0 R -11 -4 R
-7 -7 R -4 -11 R D 1110 12348 M 149 0 R D 532 12324 M 12 6 R 18 18 R
0 -123 R D 643 12324 M 82 -82 R D 725 12324 M -82 -82 R D 778 12324 M 11 6 R
18 18 R 0 -123 R D 912 12348 M -17 -6 R -12 -18 R -6 -29 R 0 -18 R 6 -29 R
12 -17 R 17 -6 R 12 0 R 17 6 R 12 17 R 6 29 R 0 18 R -6 29 R -12 18 R
-17 6 R -12 0 R D 1040 12390 M -36 -76 R D 989 12390 M 51 0 R D 1110 7319 M
75 0 R D 1110 7583 M 75 0 R D 1110 7848 M 75 0 R D 1110 8378 M 75 0 R D
1110 8642 M 75 0 R D 1110 8907 M 75 0 R D 1110 9436 M 75 0 R D 1110 9701 M
75 0 R D 1110 9966 M 75 0 R D 1110 10495 M 75 0 R D 1110 10760 M 75 0 R D
1110 11025 M 75 0 R D 1110 11554 M 75 0 R D 1110 11819 M 75 0 R D
1110 12083 M 75 0 R D 8557 7054 M 0 5294 R D 8557 7054 M -149 0 R D
8557 8113 M -149 0 R D 8557 9172 M -149 0 R D 8557 10230 M -149 0 R D
8557 11289 M -149 0 R D 8557 12348 M -149 0 R D 8557 7319 M -74 0 R D
8557 7583 M -74 0 R D 8557 7848 M -74 0 R D 8557 8378 M -74 0 R D
8557 8642 M -74 0 R D 8557 8907 M -74 0 R D 8557 9436 M -74 0 R D
8557 9701 M -74 0 R D 8557 9966 M -74 0 R D 8557 10495 M -74 0 R D
8557 10760 M -74 0 R D 8557 11025 M -74 0 R D 8557 11554 M -74 0 R D
8557 11819 M -74 0 R D 8557 12083 M -74 0 R D 1343 7054 M 853 0 R 543 8 R
310 0 R 78 2 R 1862 1 R 0 2 R 0 2 R 853 9 R 1396 1441 R 311 1441 R
465 1697 R D 12146 12607 M 0 -153 R D 12095 12607 M 102 0 R D 12234 12607 M
0 -153 R D 12234 12527 M 22 22 R 14 7 R 22 0 R 15 -7 R 7 -22 R 0 -73 R D
12402 12556 M -15 -7 R -14 -15 R -8 -22 R 0 -15 R 8 -21 R 14 -15 R 15 -7 R
22 0 R 14 7 R 15 15 R 7 21 R 0 15 R -7 22 R -15 15 R -14 7 R -22 0 R D
12511 12556 M 0 -73 R 8 -22 R 14 -7 R 22 0 R 15 7 R 22 22 R D 12592 12556 M
0 -102 R D 12723 12534 M -7 15 R -22 7 R -22 0 R -22 -7 R -7 -15 R 7 -15 R
15 -7 R 36 -7 R 15 -8 R 7 -14 R 0 -7 R -7 -15 R -22 -7 R -22 0 R -22 7 R
-7 15 R D 12855 12556 M 0 -102 R D 12855 12534 M -15 15 R -15 7 R -22 0 R
-14 -7 R -15 -15 R -7 -22 R 0 -15 R 7 -21 R 15 -15 R 14 -7 R 22 0 R 15 7 R
15 15 R D 12913 12556 M 0 -102 R D 12913 12527 M 22 22 R 15 7 R 21 0 R
15 -7 R 7 -22 R 0 -73 R D 13132 12607 M 0 -153 R D 13132 12534 M -15 15 R
-14 7 R -22 0 R -15 -7 R -14 -15 R -8 -22 R 0 -15 R 8 -21 R 14 -15 R 15 -7 R
22 0 R 14 7 R 15 15 R D 13264 12534 M -8 15 R -22 7 R -22 0 R -22 -7 R
-7 -15 R 7 -15 R 15 -7 R 37 -7 R 14 -8 R 8 -14 R 0 -7 R -8 -15 R -22 -7 R
-22 0 R -22 7 R -7 15 R D 13461 12556 M -15 -7 R -15 -15 R -7 -22 R 0 -15 R
7 -21 R 15 -15 R 15 -7 R 22 0 R 14 7 R 15 15 R 7 21 R 0 15 R -7 22 R
-15 15 R -14 7 R -22 0 R D 13614 12607 M -15 0 R -14 -7 R -7 -22 R 0 -124 R
D 13556 12556 M 51 0 R D 13775 12607 M 0 -153 R 87 0 R D 13892 12607 M
7 -7 R 7 7 R -7 7 R -7 -7 R D 13899 12556 M 0 -102 R D 13957 12556 M
0 -102 R D 13957 12527 M 22 22 R 15 7 R 22 0 R 14 -7 R 8 -22 R 0 -73 R D
14089 12512 M 87 0 R 0 15 R -7 14 R -7 8 R -15 7 R -22 0 R -14 -7 R
-15 -15 R -7 -22 R 0 -15 R 7 -21 R 15 -15 R 14 -7 R 22 0 R 15 7 R 14 15 R D
14300 12534 M -7 15 R -22 7 R -22 0 R -22 -7 R -7 -15 R 7 -15 R 15 -7 R
37 -7 R 14 -8 R 7 -14 R 0 -7 R -7 -15 R -22 -7 R -22 0 R -22 7 R -7 15 R D
14498 12556 M -15 -7 R -15 -15 R -7 -22 R 0 -15 R 7 -21 R 15 -15 R 15 -7 R
22 0 R 14 7 R 15 15 R 7 21 R 0 15 R -7 22 R -15 15 R -14 7 R -22 0 R D
14651 12607 M -15 0 R -14 -7 R -7 -22 R 0 -124 R D 14593 12556 M 51 0 R D
14914 12571 M -7 14 R -15 15 R -15 7 R -29 0 R -14 -7 R -15 -15 R -7 -14 R
-8 -22 R 0 -37 R 8 -22 R 7 -14 R 15 -15 R 14 -7 R 29 0 R 15 7 R 15 15 R
7 14 R D 14994 12556 M -14 -7 R -15 -15 R -7 -22 R 0 -15 R 7 -21 R 15 -15 R
14 -7 R 22 0 R 15 7 R 14 15 R 8 21 R 0 15 R -8 22 R -14 15 R -15 7 R -22 0 R
D 15184 12607 M 0 -153 R D 15184 12534 M -14 15 R -15 7 R -22 0 R -15 -7 R
-14 -15 R -8 -22 R 0 -15 R 8 -21 R 14 -15 R 15 -7 R 22 0 R 15 7 R 14 15 R D
15235 12512 M 88 0 R 0 15 R -7 14 R -8 8 R -14 7 R -22 0 R -15 -7 R
-14 -15 R -8 -22 R 0 -15 R 8 -21 R 14 -15 R 15 -7 R 22 0 R 14 7 R 15 15 R D
10000 7054 M 7447 0 R D 10000 7054 M 0 106 R D 9784 6884 M 0 5 R 6 12 R
6 6 R 11 6 R 24 0 R 11 -6 R 6 -6 R 6 -12 R 0 -11 R -6 -12 R -11 -18 R
-59 -58 R 82 0 R D 9930 6913 M -18 -6 R -11 -18 R -6 -29 R 0 -17 R 6 -30 R
11 -17 R 18 -6 R 12 0 R 17 6 R 12 17 R 6 30 R 0 17 R -6 29 R -12 18 R
-17 6 R -12 0 R D 10047 6913 M -18 -6 R -11 -18 R -6 -29 R 0 -17 R 6 -30 R
11 -17 R 18 -6 R 12 0 R 17 6 R 12 17 R 6 30 R 0 17 R -6 29 R -12 18 R
-17 6 R -12 0 R D 10187 6913 M -58 -82 R 87 0 R D 10187 6913 M 0 -123 R D
11862 7054 M 0 106 R D 11646 6884 M 0 5 R 6 12 R 5 6 R 12 6 R 23 0 R 12 -6 R
6 -6 R 6 -12 R 0 -11 R -6 -12 R -12 -18 R -58 -58 R 82 0 R D 11792 6913 M
-18 -6 R -11 -18 R -6 -29 R 0 -17 R 6 -30 R 11 -17 R 18 -6 R 11 0 R 18 6 R
12 17 R 5 30 R 0 17 R -5 29 R -12 18 R -18 6 R -11 0 R D 11909 6913 M
-18 -6 R -12 -18 R -5 -29 R 0 -17 R 5 -30 R 12 -17 R 18 -6 R 11 0 R 18 6 R
11 17 R 6 30 R 0 17 R -6 29 R -11 18 R -18 6 R -11 0 R D 12066 6895 M
-6 12 R -17 6 R -12 0 R -17 -6 R -12 -18 R -6 -29 R 0 -29 R 6 -23 R 12 -12 R
17 -6 R 6 0 R 18 6 R 11 12 R 6 17 R 0 6 R -6 17 R -11 12 R -18 6 R -6 0 R
-17 -6 R -12 -12 R -6 -17 R D 13724 7054 M 0 106 R D 13507 6884 M 0 5 R
6 12 R 6 6 R 12 6 R 23 0 R 12 -6 R 6 -6 R 6 -12 R 0 -11 R -6 -12 R -12 -18 R
-58 -58 R 81 0 R D 13653 6913 M -17 -6 R -12 -18 R -6 -29 R 0 -17 R 6 -30 R
12 -17 R 17 -6 R 12 0 R 18 6 R 11 17 R 6 30 R 0 17 R -6 29 R -11 18 R
-18 6 R -12 0 R D 13770 6913 M -17 -6 R -12 -18 R -6 -29 R 0 -17 R 6 -30 R
12 -17 R 17 -6 R 12 0 R 18 6 R 11 17 R 6 30 R 0 17 R -6 29 R -11 18 R
-18 6 R -12 0 R D 13881 6913 M -17 -6 R -6 -12 R 0 -11 R 6 -12 R 11 -6 R
24 -6 R 17 -6 R 12 -11 R 6 -12 R 0 -18 R -6 -11 R -6 -6 R -17 -6 R -24 0 R
-17 6 R -6 6 R -6 11 R 0 18 R 6 12 R 12 11 R 17 6 R 24 6 R 11 6 R 6 12 R
0 11 R -6 12 R -17 6 R -24 0 R D 15585 7054 M 0 106 R D 15369 6884 M 0 5 R
6 12 R 6 6 R 12 6 R 23 0 R 12 -6 R 5 -6 R 6 -12 R 0 -11 R -6 -12 R -11 -18 R
-59 -58 R 82 0 R D 15515 6913 M -17 -6 R -12 -18 R -6 -29 R 0 -17 R 6 -30 R
12 -17 R 17 -6 R 12 0 R 17 6 R 12 17 R 6 30 R 0 17 R -6 29 R -12 18 R
-17 6 R -12 0 R D 15615 6889 M 11 6 R 18 18 R 0 -123 R D 15749 6913 M
-18 -6 R -11 -18 R -6 -29 R 0 -17 R 6 -30 R 11 -17 R 18 -6 R 12 0 R 17 6 R
12 17 R 6 30 R 0 17 R -6 29 R -12 18 R -17 6 R -12 0 R D 17447 7054 M
0 106 R D 17231 6884 M 0 5 R 6 12 R 6 6 R 11 6 R 24 0 R 11 -6 R 6 -6 R
6 -12 R 0 -11 R -6 -12 R -11 -18 R -59 -58 R 82 0 R D 17377 6913 M -18 -6 R
-11 -18 R -6 -29 R 0 -17 R 6 -30 R 11 -17 R 18 -6 R 12 0 R 17 6 R 12 17 R
6 30 R 0 17 R -6 29 R -12 18 R -17 6 R -12 0 R D 17476 6889 M 12 6 R 18 18 R
0 -123 R D 17581 6884 M 0 5 R 6 12 R 6 6 R 12 6 R 23 0 R 12 -6 R 6 -6 R
6 -12 R 0 -11 R -6 -12 R -12 -18 R -58 -58 R 81 0 R D 10466 7054 M 0 53 R D
10931 7054 M 0 53 R D 11396 7054 M 0 53 R D 12327 7054 M 0 53 R D
12793 7054 M 0 53 R D 13258 7054 M 0 53 R D 14189 7054 M 0 53 R D
14654 7054 M 0 53 R D 15120 7054 M 0 53 R D 16051 7054 M 0 53 R D
16516 7054 M 0 53 R D 16982 7054 M 0 53 R D 10000 12348 M 7447 0 R D
10000 12348 M 0 -106 R D 11862 12348 M 0 -106 R D 13724 12348 M 0 -106 R D
15585 12348 M 0 -106 R D 17447 12348 M 0 -106 R D 10466 12348 M 0 -53 R D
10931 12348 M 0 -53 R D 11396 12348 M 0 -53 R D 12327 12348 M 0 -53 R D
12793 12348 M 0 -53 R D 13258 12348 M 0 -53 R D 14189 12348 M 0 -53 R D
14654 12348 M 0 -53 R D 15120 12348 M 0 -53 R D 16051 12348 M 0 -53 R D
16516 12348 M 0 -53 R D 16982 12348 M 0 -53 R D 10000 7054 M 0 5294 R D
10000 7054 M 149 0 R D 9874 7177 M -17 -6 R -12 -18 R -6 -29 R 0 -17 R
6 -30 R 12 -17 R 17 -6 R 12 0 R 18 6 R 11 17 R 6 30 R 0 17 R -6 29 R
-11 18 R -18 6 R -12 0 R D 10000 8113 M 149 0 R D 9740 8142 M 12 6 R 17 17 R
0 -123 R D 9874 8165 M -17 -6 R -12 -17 R -6 -29 R 0 -18 R 6 -29 R 12 -18 R
17 -6 R 12 0 R 18 6 R 11 18 R 6 29 R 0 18 R -6 29 R -11 17 R -18 6 R -12 0 R
D 10000 9172 M 149 0 R D 9728 9195 M 0 6 R 6 11 R 6 6 R 12 6 R 23 0 R
12 -6 R 6 -6 R 6 -11 R 0 -12 R -6 -12 R -12 -17 R -58 -59 R 81 0 R D
9874 9224 M -17 -6 R -12 -17 R -6 -30 R 0 -17 R 6 -29 R 12 -18 R 17 -6 R
12 0 R 18 6 R 11 18 R 6 29 R 0 17 R -6 30 R -11 17 R -18 6 R -12 0 R D
10000 10230 M 149 0 R D 9734 10283 M 65 0 R -36 -47 R 18 0 R 12 -6 R 6 -6 R
5 -17 R 0 -12 R -5 -17 R -12 -12 R -18 -6 R -17 0 R -18 6 R -6 6 R -5 11 R D
9874 10283 M -17 -6 R -12 -18 R -6 -29 R 0 -17 R 6 -30 R 12 -17 R 17 -6 R
12 0 R 18 6 R 11 17 R 6 30 R 0 17 R -6 29 R -11 18 R -18 6 R -12 0 R D
10000 11289 M 149 0 R D 9781 11342 M -58 -82 R 87 0 R D 9781 11342 M
0 -123 R D 9874 11342 M -17 -6 R -12 -18 R -6 -29 R 0 -18 R 6 -29 R 12 -17 R
17 -6 R 12 0 R 18 6 R 11 17 R 6 29 R 0 18 R -6 29 R -11 18 R -18 6 R -12 0 R
D 10000 12348 M 149 0 R D 9793 12348 M -59 0 R -6 -53 R 6 6 R 18 6 R 17 0 R
18 -6 R 12 -12 R 5 -17 R 0 -12 R -5 -18 R -12 -11 R -18 -6 R -17 0 R -18 6 R
-6 6 R -5 11 R D 9874 12348 M -17 -6 R -12 -18 R -6 -29 R 0 -18 R 6 -29 R
12 -17 R 17 -6 R 12 0 R 18 6 R 11 17 R 6 29 R 0 18 R -6 29 R -11 18 R
-18 6 R -12 0 R D 10000 7160 M 75 0 R D 10000 7266 M 75 0 R D 10000 7372 M
75 0 R D 10000 7478 M 75 0 R D 10000 7583 M 75 0 R D 10000 7689 M 75 0 R D
10000 7795 M 75 0 R D 10000 7901 M 75 0 R D 10000 8007 M 75 0 R D
10000 8219 M 75 0 R D 10000 8325 M 75 0 R D 10000 8431 M 75 0 R D
10000 8536 M 75 0 R D 10000 8642 M 75 0 R D 10000 8748 M 75 0 R D
10000 8854 M 75 0 R D 10000 8960 M 75 0 R D 10000 9066 M 75 0 R D
10000 9278 M 75 0 R D 10000 9383 M 75 0 R D 10000 9489 M 75 0 R D
10000 9595 M 75 0 R D 10000 9701 M 75 0 R D 10000 9807 M 75 0 R D
10000 9913 M 75 0 R D 10000 10019 M 75 0 R D 10000 10125 M 75 0 R D
10000 10336 M 75 0 R D 10000 10442 M 75 0 R D 10000 10548 M 75 0 R D
10000 10654 M 75 0 R D 10000 10760 M 75 0 R D 10000 10866 M 75 0 R D
10000 10972 M 75 0 R D 10000 11078 M 75 0 R D 10000 11183 M 75 0 R D
10000 11395 M 75 0 R D 10000 11501 M 75 0 R D 10000 11607 M 75 0 R D
10000 11713 M 75 0 R D 10000 11819 M 75 0 R D 10000 11925 M 75 0 R D
10000 12030 M 75 0 R D 10000 12136 M 75 0 R D 10000 12242 M 75 0 R D
17447 7054 M 0 5294 R D 17447 7054 M -149 0 R D 17447 8113 M -149 0 R D
17447 9172 M -149 0 R D 17447 10230 M -149 0 R D 17447 11289 M -149 0 R D
17447 12348 M -149 0 R D 17447 7160 M -74 0 R D 17447 7266 M -74 0 R D
17447 7372 M -74 0 R D 17447 7478 M -74 0 R D 17447 7583 M -74 0 R D
17447 7689 M -74 0 R D 17447 7795 M -74 0 R D 17447 7901 M -74 0 R D
17447 8007 M -74 0 R D 17447 8219 M -74 0 R D 17447 8325 M -74 0 R D
17447 8431 M -74 0 R D 17447 8536 M -74 0 R D 17447 8642 M -74 0 R D
17447 8748 M -74 0 R D 17447 8854 M -74 0 R D 17447 8960 M -74 0 R D
17447 9066 M -74 0 R D 17447 9278 M -74 0 R D 17447 9383 M -74 0 R D
17447 9489 M -74 0 R D 17447 9595 M -74 0 R D 17447 9701 M -74 0 R D
17447 9807 M -74 0 R D 17447 9913 M -74 0 R D 17447 10019 M -74 0 R D
17447 10125 M -74 0 R D 17447 10336 M -74 0 R D 17447 10442 M -74 0 R D
17447 10548 M -74 0 R D 17447 10654 M -74 0 R D 17447 10760 M -74 0 R D
17447 10866 M -74 0 R D 17447 10972 M -74 0 R D 17447 11078 M -74 0 R D
17447 11183 M -74 0 R D 17447 11395 M -74 0 R D 17447 11501 M -74 0 R D
17447 11607 M -74 0 R D 17447 11713 M -74 0 R D 17447 11819 M -74 0 R D
17447 11925 M -74 0 R D 17447 12030 M -74 0 R D 17447 12136 M -74 0 R D
17447 12242 M -74 0 R D 10155 7054 M 931 466 R 3646 222 R 466 307 R
232 456 R 233 1111 R 1164 2256 R D 3756 6221 M -7 14 R -14 15 R -15 7 R
-29 0 R -15 -7 R -14 -15 R -8 -14 R -7 -22 R 0 -37 R 7 -22 R 8 -14 R
14 -15 R 15 -7 R 29 0 R 15 7 R 14 15 R 7 14 R D 3808 6206 M 0 -73 R 7 -22 R
14 -7 R 22 0 R 15 7 R 22 22 R D 3888 6206 M 0 -102 R D 3946 6206 M 0 -102 R
D 3946 6177 M 22 22 R 15 7 R 22 0 R 14 -7 R 8 -22 R 0 -73 R D 4027 6177 M
22 22 R 14 7 R 22 0 R 15 -7 R 7 -22 R 0 -73 R D 4165 6206 M 0 -73 R 8 -22 R
14 -7 R 22 0 R 15 7 R 22 22 R D 4246 6206 M 0 -102 R D 4304 6257 M 0 -153 R
D 4443 6206 M 0 -102 R D 4443 6184 M -15 15 R -14 7 R -22 0 R -15 -7 R
-14 -15 R -8 -22 R 0 -15 R 8 -21 R 14 -15 R 15 -7 R 22 0 R 14 7 R 15 15 R D
4509 6257 M 0 -124 R 7 -22 R 15 -7 R 14 0 R D 4487 6206 M 51 0 R D
4582 6257 M 7 -7 R 7 7 R -7 7 R -7 -7 R D 4589 6206 M 0 -102 R D 4633 6206 M
44 -102 R 43 102 R D 4757 6162 M 88 0 R 0 15 R -8 14 R -7 8 R -15 7 R
-22 0 R -14 -7 R -15 -15 R -7 -22 R 0 -15 R 7 -21 R 15 -15 R 14 -7 R 22 0 R
15 7 R 15 15 R D 5013 6257 M 0 -153 R D 5013 6257 M 65 0 R 22 -7 R 7 -8 R
8 -14 R 0 -15 R -8 -14 R -7 -8 R -22 -7 R -65 0 R D 5064 6184 M 51 -80 R D
5159 6162 M 87 0 R 0 15 R -7 14 R -7 8 R -15 7 R -22 0 R -15 -7 R -14 -15 R
-7 -22 R 0 -15 R 7 -21 R 14 -15 R 15 -7 R 22 0 R 15 7 R 14 15 R D
5283 6206 M 44 -102 R 43 102 R D 5407 6257 M 7 -7 R 7 7 R -7 7 R -7 -7 R D
5414 6206 M 0 -102 R D 5546 6184 M -8 15 R -22 7 R -22 0 R -21 -7 R -8 -15 R
8 -15 R 14 -7 R 37 -7 R 14 -8 R 8 -14 R 0 -7 R -8 -15 R -22 -7 R -22 0 R
-21 7 R -8 15 R D 5589 6257 M 8 -7 R 7 7 R -7 7 R -8 -7 R D 5597 6206 M
0 -102 R D 5684 6206 M -14 -7 R -15 -15 R -7 -22 R 0 -15 R 7 -21 R 15 -15 R
14 -7 R 22 0 R 15 7 R 14 15 R 8 21 R 0 15 R -8 22 R -14 15 R -15 7 R -22 0 R
D 5794 6206 M 0 -102 R D 5794 6177 M 22 22 R 14 7 R 22 0 R 15 -7 R 7 -22 R
0 -73 R D 6006 6184 M -8 15 R -22 7 R -21 0 R -22 -7 R -8 -15 R 8 -15 R
14 -7 R 37 -7 R 14 -8 R 8 -14 R 0 -7 R -8 -15 R -22 -7 R -21 0 R -22 7 R
-8 15 R D 1110 704 M 7447 0 R D 1110 704 M 0 106 R D 894 534 M 0 5 R 6 12 R
6 6 R 11 6 R 24 0 R 11 -6 R 6 -6 R 6 -12 R 0 -11 R -6 -12 R -11 -18 R
-59 -58 R 82 0 R D 1040 563 M -18 -6 R -11 -18 R -6 -29 R 0 -17 R 6 -30 R
11 -17 R 18 -6 R 12 0 R 17 6 R 12 17 R 6 30 R 0 17 R -6 29 R -12 18 R
-17 6 R -12 0 R D 1157 563 M -18 -6 R -11 -18 R -6 -29 R 0 -17 R 6 -30 R
11 -17 R 18 -6 R 12 0 R 17 6 R 12 17 R 6 30 R 0 17 R -6 29 R -12 18 R
-17 6 R -12 0 R D 1297 563 M -58 -82 R 87 0 R D 1297 563 M 0 -123 R D
2972 704 M 0 106 R D 2756 534 M 0 5 R 6 12 R 5 6 R 12 6 R 23 0 R 12 -6 R
6 -6 R 6 -12 R 0 -11 R -6 -12 R -12 -18 R -58 -58 R 82 0 R D 2902 563 M
-18 -6 R -11 -18 R -6 -29 R 0 -17 R 6 -30 R 11 -17 R 18 -6 R 11 0 R 18 6 R
12 17 R 5 30 R 0 17 R -5 29 R -12 18 R -18 6 R -11 0 R D 3019 563 M -18 -6 R
-12 -18 R -5 -29 R 0 -17 R 5 -30 R 12 -17 R 18 -6 R 11 0 R 18 6 R 11 17 R
6 30 R 0 17 R -6 29 R -11 18 R -18 6 R -11 0 R D 3176 545 M -6 12 R -17 6 R
-12 0 R -17 -6 R -12 -18 R -6 -29 R 0 -29 R 6 -23 R 12 -12 R 17 -6 R 6 0 R
18 6 R 11 12 R 6 17 R 0 6 R -6 17 R -11 12 R -18 6 R -6 0 R -17 -6 R
-12 -12 R -6 -17 R D 4834 704 M 0 106 R D 4617 534 M 0 5 R 6 12 R 6 6 R
12 6 R 23 0 R 12 -6 R 6 -6 R 6 -12 R 0 -11 R -6 -12 R -12 -18 R -58 -58 R
81 0 R D 4763 563 M -17 -6 R -12 -18 R -6 -29 R 0 -17 R 6 -30 R 12 -17 R
17 -6 R 12 0 R 18 6 R 11 17 R 6 30 R 0 17 R -6 29 R -11 18 R -18 6 R -12 0 R
D 4880 563 M -17 -6 R -12 -18 R -6 -29 R 0 -17 R 6 -30 R 12 -17 R 17 -6 R
12 0 R 18 6 R 11 17 R 6 30 R 0 17 R -6 29 R -11 18 R -18 6 R -12 0 R D
4991 563 M -17 -6 R -6 -12 R 0 -11 R 6 -12 R 11 -6 R 24 -6 R 17 -6 R
12 -11 R 6 -12 R 0 -18 R -6 -11 R -6 -6 R -17 -6 R -24 0 R -17 6 R -6 6 R
-6 11 R 0 18 R 6 12 R 12 11 R 17 6 R 24 6 R 11 6 R 6 12 R 0 11 R -6 12 R
-17 6 R -24 0 R D 6695 704 M 0 106 R D 6479 534 M 0 5 R 6 12 R 6 6 R 12 6 R
23 0 R 12 -6 R 5 -6 R 6 -12 R 0 -11 R -6 -12 R -11 -18 R -59 -58 R 82 0 R D
6625 563 M -17 -6 R -12 -18 R -6 -29 R 0 -17 R 6 -30 R 12 -17 R 17 -6 R
12 0 R 17 6 R 12 17 R 6 30 R 0 17 R -6 29 R -12 18 R -17 6 R -12 0 R D
6725 539 M 11 6 R 18 18 R 0 -123 R D 6859 563 M -18 -6 R -11 -18 R -6 -29 R
0 -17 R 6 -30 R 11 -17 R 18 -6 R 12 0 R 17 6 R 12 17 R 6 30 R 0 17 R -6 29 R
-12 18 R -17 6 R -12 0 R D 8557 704 M 0 106 R D 8341 534 M 0 5 R 6 12 R
6 6 R 11 6 R 24 0 R 11 -6 R 6 -6 R 6 -12 R 0 -11 R -6 -12 R -11 -18 R
-59 -58 R 82 0 R D 8487 563 M -18 -6 R -11 -18 R -6 -29 R 0 -17 R 6 -30 R
11 -17 R 18 -6 R 12 0 R 17 6 R 12 17 R 6 30 R 0 17 R -6 29 R -12 18 R
-17 6 R -12 0 R D 8586 539 M 12 6 R 18 18 R 0 -123 R D 8691 534 M 0 5 R
6 12 R 6 6 R 12 6 R 23 0 R 12 -6 R 6 -6 R 6 -12 R 0 -11 R -6 -12 R -12 -18 R
-58 -58 R 81 0 R D 1576 704 M 0 53 R D 2041 704 M 0 53 R D 2506 704 M 0 53 R
D 3437 704 M 0 53 R D 3903 704 M 0 53 R D 4368 704 M 0 53 R D 5299 704 M
0 53 R D 5764 704 M 0 53 R D 6230 704 M 0 53 R D 7161 704 M 0 53 R D
7626 704 M 0 53 R D 8092 704 M 0 53 R D 1110 5998 M 7447 0 R D 1110 5998 M
0 -106 R D 2972 5998 M 0 -106 R D 4834 5998 M 0 -106 R D 6695 5998 M
0 -106 R D 8557 5998 M 0 -106 R D 1576 5998 M 0 -53 R D 2041 5998 M 0 -53 R
D 2506 5998 M 0 -53 R D 3437 5998 M 0 -53 R D 3903 5998 M 0 -53 R D
4368 5998 M 0 -53 R D 5299 5998 M 0 -53 R D 5764 5998 M 0 -53 R D
6230 5998 M 0 -53 R D 7161 5998 M 0 -53 R D 7626 5998 M 0 -53 R D
8092 5998 M 0 -53 R D 1110 704 M 0 5294 R D 1110 704 M 149 0 R D 984 827 M
-17 -6 R -12 -18 R -6 -29 R 0 -17 R 6 -30 R 12 -17 R 17 -6 R 12 0 R 18 6 R
11 17 R 6 30 R 0 17 R -6 29 R -11 18 R -18 6 R -12 0 R D 1110 2028 M 149 0 R
D 786 2080 M -59 0 R -5 -53 R 5 6 R 18 6 R 17 0 R 18 -6 R 12 -12 R 6 -17 R
0 -12 R -6 -17 R -12 -12 R -18 -6 R -17 0 R -18 6 R -5 6 R -6 12 R D
868 2080 M -18 -6 R -12 -18 R -5 -29 R 0 -17 R 5 -29 R 12 -18 R 18 -6 R
11 0 R 18 6 R 12 18 R 5 29 R 0 17 R -5 29 R -12 18 R -18 6 R -11 0 R D
984 2080 M -17 -6 R -12 -18 R -6 -29 R 0 -17 R 6 -29 R 12 -18 R 17 -6 R
12 0 R 18 6 R 11 18 R 6 29 R 0 17 R -6 29 R -11 18 R -18 6 R -12 0 R D
1110 3351 M 149 0 R D 616 3380 M 12 6 R 18 17 R 0 -122 R D 751 3403 M
-18 -5 R -11 -18 R -6 -29 R 0 -18 R 6 -29 R 11 -17 R 18 -6 R 11 0 R 18 6 R
12 17 R 6 29 R 0 18 R -6 29 R -12 18 R -18 5 R -11 0 R D 868 3403 M -18 -5 R
-12 -18 R -5 -29 R 0 -18 R 5 -29 R 12 -17 R 18 -6 R 11 0 R 18 6 R 12 17 R
5 29 R 0 18 R -5 29 R -12 18 R -18 5 R -11 0 R D 984 3403 M -17 -5 R
-12 -18 R -6 -29 R 0 -18 R 6 -29 R 12 -17 R 17 -6 R 12 0 R 18 6 R 11 17 R
6 29 R 0 18 R -6 29 R -11 18 R -18 5 R -12 0 R D 1110 4675 M 149 0 R D
616 4703 M 12 6 R 18 18 R 0 -123 R D 786 4727 M -59 0 R -5 -53 R 5 6 R
18 6 R 17 0 R 18 -6 R 12 -12 R 6 -17 R 0 -12 R -6 -17 R -12 -12 R -18 -6 R
-17 0 R -18 6 R -5 6 R -6 12 R D 868 4727 M -18 -6 R -12 -18 R -5 -29 R
0 -17 R 5 -29 R 12 -18 R 18 -6 R 11 0 R 18 6 R 12 18 R 5 29 R 0 17 R -5 29 R
-12 18 R -18 6 R -11 0 R D 984 4727 M -17 -6 R -12 -18 R -6 -29 R 0 -17 R
6 -29 R 12 -18 R 17 -6 R 12 0 R 18 6 R 11 18 R 6 29 R 0 17 R -6 29 R
-11 18 R -18 6 R -12 0 R D 1110 5998 M 149 0 R D 605 5968 M 0 6 R 6 12 R
5 6 R 12 6 R 23 0 R 12 -6 R 6 -6 R 6 -12 R 0 -12 R -6 -11 R -12 -18 R
-58 -58 R 82 0 R D 751 5998 M -18 -6 R -11 -18 R -6 -29 R 0 -18 R 6 -29 R
11 -17 R 18 -6 R 11 0 R 18 6 R 12 17 R 6 29 R 0 18 R -6 29 R -12 18 R
-18 6 R -11 0 R D 868 5998 M -18 -6 R -12 -18 R -5 -29 R 0 -18 R 5 -29 R
12 -17 R 18 -6 R 11 0 R 18 6 R 12 17 R 5 29 R 0 18 R -5 29 R -12 18 R
-18 6 R -11 0 R D 984 5998 M -17 -6 R -12 -18 R -6 -29 R 0 -18 R 6 -29 R
12 -17 R 17 -6 R 12 0 R 18 6 R 11 17 R 6 29 R 0 18 R -6 29 R -11 18 R
-18 6 R -12 0 R D 1110 969 M 75 0 R D 1110 1233 M 75 0 R D 1110 1498 M
75 0 R D 1110 1763 M 75 0 R D 1110 2292 M 75 0 R D 1110 2557 M 75 0 R D
1110 2822 M 75 0 R D 1110 3086 M 75 0 R D 1110 3616 M 75 0 R D 1110 3880 M
75 0 R D 1110 4145 M 75 0 R D 1110 4410 M 75 0 R D 1110 4939 M 75 0 R D
1110 5204 M 75 0 R D 1110 5469 M 75 0 R D 1110 5733 M 75 0 R D 8557 704 M
0 5294 R D 8557 704 M -149 0 R D 8557 2028 M -149 0 R D 8557 3351 M -149 0 R
D 8557 4675 M -149 0 R D 8557 5998 M -149 0 R D 8557 969 M -74 0 R D
8557 1233 M -74 0 R D 8557 1498 M -74 0 R D 8557 1763 M -74 0 R D
8557 2292 M -74 0 R D 8557 2557 M -74 0 R D 8557 2822 M -74 0 R D
8557 3086 M -74 0 R D 8557 3616 M -74 0 R D 8557 3880 M -74 0 R D
8557 4145 M -74 0 R D 8557 4410 M -74 0 R D 8557 4939 M -74 0 R D
8557 5204 M -74 0 R D 8557 5469 M -74 0 R D 8557 5733 M -74 0 R D 2041 704 M
931 27 R 931 66 R 931 95 R 930 228 R 931 1270 R 931 1668 R 698 1286 R D
12135 6257 M 0 -153 R D 12135 6257 M 66 0 R 22 -7 R 7 -8 R 8 -14 R 0 -15 R
-8 -14 R -7 -8 R -22 -7 R -66 0 R D 12186 6184 M 52 -80 R D 12281 6162 M
88 0 R 0 15 R -7 14 R -8 8 R -14 7 R -22 0 R -15 -7 R -14 -15 R -8 -22 R
0 -15 R 8 -21 R 14 -15 R 15 -7 R 22 0 R 14 7 R 15 15 R D 12405 6206 M
44 -102 R 44 102 R D 12530 6257 M 7 -7 R 7 7 R -7 7 R -7 -7 R D 12537 6206 M
0 -102 R D 12668 6184 M -7 15 R -22 7 R -22 0 R -22 -7 R -7 -15 R 7 -15 R
15 -7 R 36 -7 R 15 -8 R 7 -14 R 0 -7 R -7 -15 R -22 -7 R -22 0 R -22 7 R
-7 15 R D 12712 6257 M 7 -7 R 8 7 R -8 7 R -7 -7 R D 12719 6206 M 0 -102 R D
12807 6206 M -14 -7 R -15 -15 R -7 -22 R 0 -15 R 7 -21 R 15 -15 R 14 -7 R
22 0 R 15 7 R 14 15 R 8 21 R 0 15 R -8 22 R -14 15 R -15 7 R -22 0 R D
12917 6206 M 0 -102 R D 12917 6177 M 22 22 R 14 7 R 22 0 R 15 -7 R 7 -22 R
0 -73 R D 13128 6184 M -7 15 R -22 7 R -22 0 R -22 -7 R -7 -15 R 7 -15 R
15 -7 R 37 -7 R 14 -8 R 7 -14 R 0 -7 R -7 -15 R -22 -7 R -22 0 R -22 7 R
-7 15 R D 13296 6206 M 0 -161 R D 13296 6184 M 15 15 R 15 7 R 22 0 R 14 -7 R
15 -15 R 7 -22 R 0 -15 R -7 -21 R -15 -15 R -14 -7 R -22 0 R -15 7 R
-15 15 R D 13428 6162 M 87 0 R 0 15 R -7 14 R -7 8 R -15 7 R -22 0 R
-14 -7 R -15 -15 R -7 -22 R 0 -15 R 7 -21 R 15 -15 R 14 -7 R 22 0 R 15 7 R
14 15 R D 13567 6206 M 0 -102 R D 13567 6162 M 7 22 R 14 15 R 15 7 R 22 0 R
D 13778 6257 M 0 -153 R 88 0 R D 13895 6257 M 8 -7 R 7 7 R -7 7 R -8 -7 R D
13903 6206 M 0 -102 R D 13961 6206 M 0 -102 R D 13961 6177 M 22 22 R 14 7 R
22 0 R 15 -7 R 7 -22 R 0 -73 R D 14092 6162 M 88 0 R 0 15 R -7 14 R -8 8 R
-14 7 R -22 0 R -15 -7 R -14 -15 R -8 -22 R 0 -15 R 8 -21 R 14 -15 R 15 -7 R
22 0 R 14 7 R 15 15 R D 14304 6184 M -7 15 R -22 7 R -22 0 R -22 -7 R
-7 -15 R 7 -15 R 15 -7 R 36 -7 R 15 -8 R 7 -14 R 0 -7 R -7 -15 R -22 -7 R
-22 0 R -22 7 R -7 15 R D 14501 6206 M -14 -7 R -15 -15 R -7 -22 R 0 -15 R
7 -21 R 15 -15 R 14 -7 R 22 0 R 15 7 R 14 15 R 8 21 R 0 15 R -8 22 R
-14 15 R -15 7 R -22 0 R D 14655 6257 M -15 0 R -15 -7 R -7 -22 R 0 -124 R D
14596 6206 M 51 0 R D 14896 6184 M -15 15 R -15 7 R -21 0 R -15 -7 R
-15 -15 R -7 -22 R 0 -15 R 7 -21 R 15 -15 R 15 -7 R 21 0 R 15 7 R 15 15 R D
14976 6206 M -15 -7 R -14 -15 R -8 -22 R 0 -15 R 8 -21 R 14 -15 R 15 -7 R
22 0 R 15 7 R 14 15 R 7 21 R 0 15 R -7 22 R -14 15 R -15 7 R -22 0 R D
15166 6257 M 0 -153 R D 15166 6184 M -15 15 R -14 7 R -22 0 R -15 -7 R
-14 -15 R -8 -22 R 0 -15 R 8 -21 R 14 -15 R 15 -7 R 22 0 R 14 7 R 15 15 R D
15217 6162 M 88 0 R 0 15 R -8 14 R -7 8 R -15 7 R -22 0 R -14 -7 R -15 -15 R
-7 -22 R 0 -15 R 7 -21 R 15 -15 R 14 -7 R 22 0 R 15 7 R 15 15 R D
10000 704 M 7447 0 R D 10000 704 M 0 106 R D 9784 534 M 0 5 R 6 12 R 6 6 R
11 6 R 24 0 R 11 -6 R 6 -6 R 6 -12 R 0 -11 R -6 -12 R -11 -18 R -59 -58 R
82 0 R D 9930 563 M -18 -6 R -11 -18 R -6 -29 R 0 -17 R 6 -30 R 11 -17 R
18 -6 R 12 0 R 17 6 R 12 17 R 6 30 R 0 17 R -6 29 R -12 18 R -17 6 R -12 0 R
D 10047 563 M -18 -6 R -11 -18 R -6 -29 R 0 -17 R 6 -30 R 11 -17 R 18 -6 R
12 0 R 17 6 R 12 17 R 6 30 R 0 17 R -6 29 R -12 18 R -17 6 R -12 0 R D
10187 563 M -58 -82 R 87 0 R D 10187 563 M 0 -123 R D 11862 704 M 0 106 R D
11646 534 M 0 5 R 6 12 R 5 6 R 12 6 R 23 0 R 12 -6 R 6 -6 R 6 -12 R 0 -11 R
-6 -12 R -12 -18 R -58 -58 R 82 0 R D 11792 563 M -18 -6 R -11 -18 R
-6 -29 R 0 -17 R 6 -30 R 11 -17 R 18 -6 R 11 0 R 18 6 R 12 17 R 5 30 R
0 17 R -5 29 R -12 18 R -18 6 R -11 0 R D 11909 563 M -18 -6 R -12 -18 R
-5 -29 R 0 -17 R 5 -30 R 12 -17 R 18 -6 R 11 0 R 18 6 R 11 17 R 6 30 R
0 17 R -6 29 R -11 18 R -18 6 R -11 0 R D 12066 545 M -6 12 R -17 6 R
-12 0 R -17 -6 R -12 -18 R -6 -29 R 0 -29 R 6 -23 R 12 -12 R 17 -6 R 6 0 R
18 6 R 11 12 R 6 17 R 0 6 R -6 17 R -11 12 R -18 6 R -6 0 R -17 -6 R
-12 -12 R -6 -17 R D 13724 704 M 0 106 R D 13507 534 M 0 5 R 6 12 R 6 6 R
12 6 R 23 0 R 12 -6 R 6 -6 R 6 -12 R 0 -11 R -6 -12 R -12 -18 R -58 -58 R
81 0 R D 13653 563 M -17 -6 R -12 -18 R -6 -29 R 0 -17 R 6 -30 R 12 -17 R
17 -6 R 12 0 R 18 6 R 11 17 R 6 30 R 0 17 R -6 29 R -11 18 R -18 6 R -12 0 R
D 13770 563 M -17 -6 R -12 -18 R -6 -29 R 0 -17 R 6 -30 R 12 -17 R 17 -6 R
12 0 R 18 6 R 11 17 R 6 30 R 0 17 R -6 29 R -11 18 R -18 6 R -12 0 R D
13881 563 M -17 -6 R -6 -12 R 0 -11 R 6 -12 R 11 -6 R 24 -6 R 17 -6 R
12 -11 R 6 -12 R 0 -18 R -6 -11 R -6 -6 R -17 -6 R -24 0 R -17 6 R -6 6 R
-6 11 R 0 18 R 6 12 R 12 11 R 17 6 R 24 6 R 11 6 R 6 12 R 0 11 R -6 12 R
-17 6 R -24 0 R D 15585 704 M 0 106 R D 15369 534 M 0 5 R 6 12 R 6 6 R
12 6 R 23 0 R 12 -6 R 5 -6 R 6 -12 R 0 -11 R -6 -12 R -11 -18 R -59 -58 R
82 0 R D 15515 563 M -17 -6 R -12 -18 R -6 -29 R 0 -17 R 6 -30 R 12 -17 R
17 -6 R 12 0 R 17 6 R 12 17 R 6 30 R 0 17 R -6 29 R -12 18 R -17 6 R -12 0 R
D 15615 539 M 11 6 R 18 18 R 0 -123 R D 15749 563 M -18 -6 R -11 -18 R
-6 -29 R 0 -17 R 6 -30 R 11 -17 R 18 -6 R 12 0 R 17 6 R 12 17 R 6 30 R
0 17 R -6 29 R -12 18 R -17 6 R -12 0 R D 17447 704 M 0 106 R D 17231 534 M
0 5 R 6 12 R 6 6 R 11 6 R 24 0 R 11 -6 R 6 -6 R 6 -12 R 0 -11 R -6 -12 R
-11 -18 R -59 -58 R 82 0 R D 17377 563 M -18 -6 R -11 -18 R -6 -29 R 0 -17 R
6 -30 R 11 -17 R 18 -6 R 12 0 R 17 6 R 12 17 R 6 30 R 0 17 R -6 29 R
-12 18 R -17 6 R -12 0 R D 17476 539 M 12 6 R 18 18 R 0 -123 R D 17581 534 M
0 5 R 6 12 R 6 6 R 12 6 R 23 0 R 12 -6 R 6 -6 R 6 -12 R 0 -11 R -6 -12 R
-12 -18 R -58 -58 R 81 0 R D 10466 704 M 0 53 R D 10931 704 M 0 53 R D
11396 704 M 0 53 R D 12327 704 M 0 53 R D 12793 704 M 0 53 R D 13258 704 M
0 53 R D 14189 704 M 0 53 R D 14654 704 M 0 53 R D 15120 704 M 0 53 R D
16051 704 M 0 53 R D 16516 704 M 0 53 R D 16982 704 M 0 53 R D 10000 5998 M
7447 0 R D 10000 5998 M 0 -106 R D 11862 5998 M 0 -106 R D 13724 5998 M
0 -106 R D 15585 5998 M 0 -106 R D 17447 5998 M 0 -106 R D 10466 5998 M
0 -53 R D 10931 5998 M 0 -53 R D 11396 5998 M 0 -53 R D 12327 5998 M 0 -53 R
D 12793 5998 M 0 -53 R D 13258 5998 M 0 -53 R D 14189 5998 M 0 -53 R D
14654 5998 M 0 -53 R D 15120 5998 M 0 -53 R D 16051 5998 M 0 -53 R D
16516 5998 M 0 -53 R D 16982 5998 M 0 -53 R D 10000 704 M 0 5294 R D
10000 704 M 149 0 R D 9582 827 M -17 -6 R -12 -18 R -6 -29 R 0 -17 R 6 -30 R
12 -17 R 17 -6 R 12 0 R 18 6 R 11 17 R 6 30 R 0 17 R -6 29 R -11 18 R
-18 6 R -12 0 R D 9676 716 M -6 -6 R 6 -6 R 6 6 R -6 6 R D 9758 827 M
-18 -6 R -12 -18 R -5 -29 R 0 -17 R 5 -30 R 12 -17 R 18 -6 R 11 0 R 18 6 R
12 17 R 5 30 R 0 17 R -5 29 R -12 18 R -18 6 R -11 0 R D 9874 827 M -17 -6 R
-12 -18 R -6 -29 R 0 -17 R 6 -30 R 12 -17 R 17 -6 R 12 0 R 18 6 R 11 17 R
6 30 R 0 17 R -6 29 R -11 18 R -18 6 R -12 0 R D 10000 1763 M 149 0 R D
9582 1815 M -17 -6 R -12 -17 R -6 -29 R 0 -18 R 6 -29 R 12 -18 R 17 -6 R
12 0 R 18 6 R 11 18 R 6 29 R 0 18 R -6 29 R -11 17 R -18 6 R -12 0 R D
9676 1704 M -6 -6 R 6 -6 R 6 6 R -6 6 R D 9758 1815 M -18 -6 R -12 -17 R
-5 -29 R 0 -18 R 5 -29 R 12 -18 R 18 -6 R 11 0 R 18 6 R 12 18 R 5 29 R
0 18 R -5 29 R -12 17 R -18 6 R -11 0 R D 9845 1786 M 0 6 R 6 11 R 6 6 R
12 6 R 23 0 R 12 -6 R 6 -6 R 5 -11 R 0 -12 R -5 -12 R -12 -17 R -59 -59 R
82 0 R D 10000 2822 M 149 0 R D 9582 2874 M -17 -6 R -12 -17 R -6 -30 R
0 -17 R 6 -29 R 12 -18 R 17 -6 R 12 0 R 18 6 R 11 18 R 6 29 R 0 17 R -6 30 R
-11 17 R -18 6 R -12 0 R D 9676 2763 M -6 -6 R 6 -6 R 6 6 R -6 6 R D
9758 2874 M -18 -6 R -12 -17 R -5 -30 R 0 -17 R 5 -29 R 12 -18 R 18 -6 R
11 0 R 18 6 R 12 18 R 5 29 R 0 17 R -5 30 R -12 17 R -18 6 R -11 0 R D
9898 2874 M -59 -82 R 88 0 R D 9898 2874 M 0 -123 R D 10000 3880 M 149 0 R D
9582 3933 M -17 -6 R -12 -18 R -6 -29 R 0 -17 R 6 -30 R 12 -17 R 17 -6 R
12 0 R 18 6 R 11 17 R 6 30 R 0 17 R -6 29 R -11 18 R -18 6 R -12 0 R D
9676 3822 M -6 -6 R 6 -6 R 6 6 R -6 6 R D 9758 3933 M -18 -6 R -12 -18 R
-5 -29 R 0 -17 R 5 -30 R 12 -17 R 18 -6 R 11 0 R 18 6 R 12 17 R 5 30 R
0 17 R -5 29 R -12 18 R -18 6 R -11 0 R D 9915 3915 M -5 12 R -18 6 R
-12 0 R -17 -6 R -12 -18 R -6 -29 R 0 -29 R 6 -23 R 12 -12 R 17 -6 R 6 0 R
18 6 R 11 12 R 6 17 R 0 6 R -6 17 R -11 12 R -18 6 R -6 0 R -17 -6 R
-12 -12 R -6 -17 R D 10000 4939 M 149 0 R D 9582 4992 M -17 -6 R -12 -18 R
-6 -29 R 0 -18 R 6 -29 R 12 -17 R 17 -6 R 12 0 R 18 6 R 11 17 R 6 29 R
0 18 R -6 29 R -11 18 R -18 6 R -12 0 R D 9676 4881 M -6 -6 R 6 -6 R 6 6 R
-6 6 R D 9758 4992 M -18 -6 R -12 -18 R -5 -29 R 0 -18 R 5 -29 R 12 -17 R
18 -6 R 11 0 R 18 6 R 12 17 R 5 29 R 0 18 R -5 29 R -12 18 R -18 6 R -11 0 R
D 9869 4992 M -18 -6 R -6 -12 R 0 -12 R 6 -11 R 12 -6 R 23 -6 R 18 -6 R
11 -12 R 6 -11 R 0 -18 R -6 -11 R -5 -6 R -18 -6 R -23 0 R -18 6 R -6 6 R
-6 11 R 0 18 R 6 11 R 12 12 R 17 6 R 24 6 R 12 6 R 5 11 R 0 12 R -5 12 R
-18 6 R -23 0 R D 10000 5998 M 149 0 R D 9582 5998 M -17 -6 R -12 -18 R
-6 -29 R 0 -18 R 6 -29 R 12 -17 R 17 -6 R 12 0 R 18 6 R 11 17 R 6 29 R
0 18 R -6 29 R -11 18 R -18 6 R -12 0 R D 9676 5887 M -6 -6 R 6 -6 R 6 6 R
-6 6 R D 9740 5974 M 12 6 R 17 18 R 0 -123 R D 9874 5998 M -17 -6 R
-12 -18 R -6 -29 R 0 -18 R 6 -29 R 12 -17 R 17 -6 R 12 0 R 18 6 R 11 17 R
6 29 R 0 18 R -6 29 R -11 18 R -18 6 R -12 0 R D 10000 969 M 75 0 R D
10000 1233 M 75 0 R D 10000 1498 M 75 0 R D 10000 2028 M 75 0 R D
10000 2292 M 75 0 R D 10000 2557 M 75 0 R D 10000 3086 M 75 0 R D
10000 3351 M 75 0 R D 10000 3616 M 75 0 R D 10000 4145 M 75 0 R D
10000 4410 M 75 0 R D 10000 4675 M 75 0 R D 10000 5204 M 75 0 R D
10000 5469 M 75 0 R D 10000 5733 M 75 0 R D 17447 704 M 0 5294 R D
17447 704 M -149 0 R D 17447 1763 M -149 0 R D 17447 2822 M -149 0 R D
17447 3880 M -149 0 R D 17447 4939 M -149 0 R D 17447 5998 M -149 0 R D
17447 969 M -74 0 R D 17447 1233 M -74 0 R D 17447 1498 M -74 0 R D
17447 2028 M -74 0 R D 17447 2292 M -74 0 R D 17447 2557 M -74 0 R D
17447 3086 M -74 0 R D 17447 3351 M -74 0 R D 17447 3616 M -74 0 R D
17447 4145 M -74 0 R D 17447 4410 M -74 0 R D 17447 4675 M -74 0 R D
17447 5204 M -74 0 R D 17447 5469 M -74 0 R D 17447 5733 M -74 0 R D
10000 1426 M 1 4 R 1 3 R 1 4 R 1 4 R 1 4 R 1 4 R 1 3 R 1 5 R 0 4 R 1 4 R
1 4 R 1 4 R 1 4 R 1 5 R 1 4 R 1 4 R 1 4 R 1 5 R 1 5 R 1 4 R 1 5 R 1 5 R
0 4 R 1 6 R 1 4 R 1 5 R 1 5 R 1 5 R 1 6 R 1 5 R 1 6 R 1 5 R 1 6 R 1 6 R
1 5 R 1 6 R 1 6 R 0 6 R 1 6 R 1 6 R 1 7 R 1 6 R 1 6 R 1 7 R 1 7 R 1 7 R
1 7 R 1 6 R 1 7 R 1 8 R 1 8 R 0 7 R 1 8 R 1 7 R 1 9 R 1 8 R 1 8 R 1 8 R
1 9 R 1 9 R 1 9 R 1 9 R 1 9 R 1 9 R 1 9 R 1 11 R 0 10 R 1 10 R 1 10 R 1 11 R
1 11 R 1 11 R 1 11 R 1 12 R 1 11 R 1 13 R 1 12 R 1 13 R 1 12 R 1 13 R 1 15 R
0 14 R 1 14 R 1 14 R 1 14 R 1 17 R 1 15 R 1 16 R 1 16 R 1 16 R 1 17 R 1 20 R
1 18 R 1 18 R 0 19 R 1 19 R 1 22 R 1 21 R 1 21 R 1 22 R 1 22 R 1 26 R 1 24 R
1 25 R 1 25 R 1 26 R 1 31 R 1 28 R 1 29 R 0 30 R 1 31 R 1 36 R 1 33 R 1 35 R
1 36 R 1 38 R 1 39 R 1 45 R 1 43 R 1 44 R 1 46 R 1 48 R 1 56 R 1 53 R 0 55 R
1 58 R 1 61 R 1 72 R 1 67 R 1 71 R 1 75 R 1 80 R 1 94 R 1 90 R 1 95 R
1 101 R 1 108 R 0 115 R 2 139 R 0 133 R 1 144 R 1 155 R 1 167 R 1 206 R
1 201 R 1 220 R 1 241 R 0 72 R D 10155 5998 M 0 -5294 R D 10928 704 M 1 0 R
1 0 R 1 0 R 1 0 R 1 0 R 1 1 R 1 0 R 1 0 R 1 0 R 1 0 R 1 0 R 1 0 R 1 1 R
1 0 R 1 0 R 1 0 R 1 0 R 1 0 R 1 0 R 1 1 R 1 0 R 1 0 R 1 0 R 1 0 R 1 0 R
1 1 R 1 0 R 1 0 R 1 0 R 1 0 R 1 0 R 1 0 R 1 1 R 1 0 R 1 0 R 1 0 R 1 0 R
1 0 R 1 0 R 1 1 R 1 0 R 1 0 R 1 0 R 1 0 R 1 0 R 1 0 R 1 0 R 1 1 R 1 0 R
1 0 R 1 0 R 1 0 R 1 0 R 1 1 R 1 0 R 1 0 R 1 0 R 1 0 R 1 0 R 1 0 R 1 0 R
1 1 R 1 0 R 1 0 R 1 0 R 1 0 R 1 0 R 1 0 R 1 1 R 1 0 R 1 0 R 1 0 R 1 0 R
1 0 R 1 0 R 1 0 R 1 1 R 1 0 R 1 0 R 1 0 R 1 0 R 1 0 R 1 0 R 1 0 R 1 1 R
1 0 R 1 0 R 1 0 R 1 0 R 1 0 R 1 0 R 1 0 R 1 1 R 1 0 R 1 0 R 1 0 R 1 0 R
1 0 R 1 0 R 1 0 R 1 1 R 1 0 R 1 0 R 1 0 R 1 0 R 1 0 R 1 0 R 1 0 R 1 1 R
1 0 R 1 0 R 1 0 R 1 0 R 1 0 R 1 0 R 1 0 R 2 1 R 1 0 R 1 0 R 1 0 R 1 0 R
1 0 R 1 0 R 1 0 R 1 1 R 1 0 R 1 0 R 1 0 R 1 0 R 1 0 R 1 0 R 1 0 R 1 0 R
1 1 R 1 0 R 1 0 R 1 0 R 1 0 R 1 0 R 1 0 R 1 0 R 1 0 R 1 1 R 1 0 R 1 0 R
1 0 R 1 0 R 1 0 R 1 0 R 1 0 R 1 0 R 1 1 R 1 0 R 1 0 R 1 0 R 1 0 R 1 0 R
1 0 R 1 0 R 1 1 R 1 0 R 1 0 R 1 0 R 1 0 R 1 0 R 1 0 R 1 0 R 1 0 R 1 1 R
1 0 R 1 0 R 1 0 R 1 0 R 1 0 R 1 0 R 1 1 R 1 0 R 1 0 R 1 0 R 1 0 R 1 0 R
1 0 R 1 0 R 1 1 R 1 0 R 1 0 R 1 0 R 1 0 R 1 0 R 1 0 R 1 0 R 1 0 R 1 1 R
1 0 R 1 0 R 1 0 R 1 0 R 1 0 R 1 0 R 1 1 R 1 0 R 1 0 R 1 0 R 1 0 R 1 0 R
1 0 R 1 0 R 1 0 R 1 1 R 1 0 R 1 0 R 1 0 R 1 0 R 1 0 R 1 0 R 1 1 R 1 0 R
1 0 R 1 0 R 1 0 R 1 0 R 1 0 R 1 0 R 1 0 R 0 1 R 1 0 R 1 0 R 1 0 R 1 0 R
1 0 R 1 0 R 1 0 R 1 0 R 1 1 R 1 0 R 1 0 R 1 0 R 1 0 R 1 0 R 1 0 R 1 1 R
1 0 R 1 0 R 1 0 R 1 0 R 1 0 R 1 0 R 1 0 R 1 0 R 1 1 R 1 0 R 1 0 R 1 0 R
1 0 R 1 0 R 1 0 R 1 0 R 1 1 R 1 0 R 1 0 R 1 0 R 1 0 R 1 0 R 1 0 R 1 0 R
0 1 R 1 0 R 1 0 R 1 0 R 1 0 R 1 0 R 1 0 R 1 0 R 1 0 R 1 1 R 1 0 R 1 0 R
1 0 R 1 0 R 1 0 R 1 0 R 1 0 R 1 1 R 1 0 R 1 0 R 1 0 R 1 0 R 1 0 R 1 0 R
1 0 R 1 0 R 1 1 R 1 0 R 1 0 R 1 0 R 1 0 R 1 0 R 1 0 R 1 1 R 1 0 R 1 0 R
1 0 R 1 0 R 1 0 R 1 0 R 1 0 R 1 1 R 1 0 R 1 0 R 1 0 R 1 0 R 1 0 R 1 0 R
1 0 R 1 0 R 1 1 R 1 0 R 1 0 R 1 0 R 1 0 R 1 0 R 1 0 R 1 0 R 1 1 R 1 0 R
1 0 R 1 0 R 1 0 R 1 0 R 1 0 R 1 0 R 1 0 R 1 1 R 1 0 R 1 0 R 1 0 R 1 0 R
1 0 R 1 0 R 1 0 R 1 1 R 1 0 R 1 0 R 1 0 R 1 0 R 1 0 R 1 0 R 1 1 R 1 0 R
1 0 R 1 0 R 1 0 R 1 0 R 1 0 R 1 0 R 1 0 R 1 1 R 1 0 R 1 0 R 1 0 R 1 0 R
1 0 R 1 0 R 1 0 R 1 1 R 1 0 R 1 0 R 1 0 R 1 0 R 1 0 R 1 0 R 1 0 R 1 0 R
0 1 R 1 0 R 1 0 R 1 0 R 1 0 R 1 0 R 1 0 R 1 0 R 1 0 R 1 1 R 1 0 R 1 0 R
1 0 R 1 0 R 1 0 R 1 0 R 1 0 R 1 1 R 1 0 R 1 0 R 1 0 R 1 0 R 1 0 R 1 0 R
1 0 R 1 0 R 1 1 R 1 0 R 1 0 R 1 0 R 1 0 R 1 0 R 1 0 R 1 0 R 1 1 R 1 0 R
1 0 R 1 0 R 1 0 R 1 0 R 1 0 R 2 0 R 0 1 R 1 0 R 1 0 R 1 0 R 1 0 R 1 0 R
1 0 R 1 0 R 1 0 R 1 1 R 1 0 R 1 0 R 1 0 R 1 0 R 1 0 R 1 0 R 1 0 R 1 0 R
1 1 R 1 0 R 1 0 R 1 0 R 1 0 R 1 0 R 1 0 R 1 0 R 1 0 R 0 1 R 1 0 R 1 0 R
1 0 R 1 0 R 1 0 R 1 0 R 1 0 R 1 0 R 1 1 R 1 0 R 1 0 R 1 0 R 1 0 R 1 0 R
1 0 R 1 0 R 1 1 R 1 0 R 1 0 R 1 0 R 1 0 R 1 0 R 1 0 R 1 0 R 1 0 R 1 1 R
1 0 R 1 0 R 1 0 R 1 0 R 1 0 R 1 0 R 1 0 R 1 1 R 1 0 R 1 0 R 1 0 R 1 0 R
1 0 R 1 0 R 1 0 R 1 1 R 1 0 R 1 0 R 1 0 R 1 0 R 1 0 R 1 0 R 1 0 R 1 0 R
1 0 R 1 1 R 1 0 R 1 0 R 1 0 R 1 0 R 1 0 R 1 0 R 1 0 R 1 1 R 1 0 R 1 0 R
1 0 R 1 0 R 1 0 R 1 0 R 1 0 R 1 1 R 1 0 R 1 0 R 1 0 R 1 0 R 1 0 R 1 0 R
1 0 R 1 0 R 1 1 R 1 0 R 1 0 R 1 0 R 1 0 R 1 0 R 1 0 R 1 0 R 1 0 R 1 1 R
1 0 R 1 0 R 1 0 R 1 0 R 1 0 R 1 0 R 1 0 R 1 0 R 1 1 R 1 0 R 1 0 R 1 0 R
1 0 R 1 0 R 1 0 R 1 0 R 1 0 R 1 1 R 1 0 R 1 0 R 1 0 R 2 0 R 1 0 R 1 0 R
1 1 R 1 0 R 1 0 R 1 0 R 1 0 R 1 0 R 1 0 R 1 0 R 1 0 R 1 1 R 1 0 R 1 0 R
1 0 R 1 0 R 1 0 R 1 0 R 1 0 R 1 0 R 1 1 R 1 0 R 1 0 R 1 0 R 1 0 R 1 0 R
1 0 R 1 0 R 1 1 R 1 0 R 1 0 R 1 0 R 1 0 R 1 0 R 1 0 R 1 0 R 1 0 R 1 0 R
1 1 R 1 0 R 1 0 R 1 0 R 1 0 R 1 0 R 1 0 R 1 0 R 1 1 R 1 0 R 1 0 R 1 0 R
1 0 R 1 0 R 1 0 R 1 0 R 1 0 R 1 1 R 1 0 R 1 0 R 1 0 R 1 0 R 1 0 R 1 0 R
1 0 R 1 0 R 1 1 R 1 0 R 1 0 R 1 0 R 1 0 R 1 0 R 1 0 R 1 0 R 1 0 R 1 1 R
1 0 R 1 0 R 1 0 R 1 0 R 1 0 R 1 0 R 1 0 R 1 1 R 1 0 R 1 0 R 1 0 R 1 0 R
1 0 R 1 0 R 1 0 R 1 0 R 1 0 R 1 1 R 1 0 R 1 0 R 1 0 R 1 0 R 1 0 R 1 0 R
1 0 R 1 1 R 1 0 R 1 0 R 1 0 R 1 0 R 1 0 R 1 0 R 1 0 R 1 0 R 1 1 R 1 0 R
1 0 R 1 0 R 1 0 R 1 0 R 1 0 R 1 0 R 1 0 R 1 0 R 1 1 R 1 0 R 1 0 R 1 0 R
1 0 R 1 0 R 1 0 R 1 0 R 1 1 R 1 0 R 1 0 R 1 0 R 1 0 R 1 0 R 1 0 R 1 0 R
1 0 R 1 1 R 1 0 R 1 0 R 1 0 R 1 0 R 1 0 R 1 0 R 1 0 R 1 0 R 1 0 R 1 1 R
1 0 R 1 0 R 1 0 R 1 0 R 1 0 R 1 0 R 1 0 R 1 1 R 1 0 R 1 0 R 1 0 R 1 0 R
1 0 R 1 0 R 1 0 R 1 0 R 1 1 R 1 0 R 1 0 R 1 0 R 1 0 R 1 0 R 1 0 R 1 0 R
1 0 R 1 0 R 1 1 R 2 0 R 1 0 R 1 0 R 1 0 R 1 0 R 1 0 R 1 0 R 1 1 R 1 0 R
1 0 R 1 0 R 1 0 R 1 0 R 1 0 R 1 0 R 1 1 R 1 0 R 1 0 R 1 0 R 1 0 R 1 0 R
1 0 R 1 0 R 1 0 R 1 0 R 1 1 R D 11677 794 M 1 0 R 1 0 R 1 0 R 1 0 R 1 0 R
1 0 R 1 0 R 1 0 R 1 1 R 1 0 R 1 0 R 1 0 R 1 0 R 1 0 R 1 0 R 1 0 R 1 0 R
1 1 R 1 0 R 1 0 R 1 0 R 1 0 R 1 0 R 1 0 R 1 0 R 1 0 R 1 0 R 1 1 R 1 0 R
1 0 R 1 0 R 1 0 R 1 0 R 1 0 R 1 0 R 1 0 R 1 1 R 1 0 R 1 0 R 1 0 R 1 0 R
1 0 R 1 0 R 1 0 R 1 0 R 1 1 R 1 0 R 1 0 R 1 0 R 1 0 R 1 0 R 1 0 R 1 0 R
1 0 R 1 0 R 0 1 R 1 0 R 1 0 R 1 0 R 1 0 R 1 0 R 1 0 R 1 0 R 1 0 R 1 0 R
1 1 R 1 0 R 1 0 R 1 0 R 1 0 R 1 0 R 1 0 R 1 0 R 1 0 R 1 1 R 1 0 R 1 0 R
1 0 R 1 0 R 1 0 R 1 0 R 1 0 R 1 0 R 1 1 R 1 0 R 1 0 R 1 0 R 1 0 R 1 0 R
1 0 R 1 0 R 1 0 R 1 0 R 1 1 R 1 0 R 1 0 R 1 0 R 1 0 R 1 0 R 1 0 R 1 0 R
1 0 R 1 1 R 1 0 R 1 0 R 1 0 R 1 0 R 1 0 R 1 0 R 1 0 R 1 0 R 1 1 R 1 0 R
1 0 R 1 0 R 1 0 R 1 0 R 1 0 R 1 0 R 1 0 R 1 0 R 1 1 R 1 0 R 1 0 R 1 0 R
1 0 R 1 0 R 1 0 R 1 0 R 1 0 R 1 1 R 1 0 R 1 0 R 1 0 R 1 0 R 1 0 R 1 0 R
1 0 R 1 0 R 1 1 R 1 0 R 1 0 R 1 0 R 1 0 R 1 0 R 1 0 R 1 0 R 1 0 R 1 0 R
1 0 R 0 1 R 1 0 R 1 0 R 1 0 R 1 0 R 1 0 R 1 0 R 1 0 R 1 0 R 1 0 R 1 1 R
1 0 R 1 0 R 1 0 R 1 0 R 1 0 R 1 0 R 1 0 R 1 0 R 1 1 R 1 0 R 1 0 R 1 0 R
1 0 R 1 0 R 1 0 R 1 0 R 1 0 R 1 1 R 1 0 R 1 0 R 1 0 R 1 0 R 1 0 R 1 0 R
1 0 R 1 0 R 1 1 R 1 0 R 1 0 R 1 0 R 0 1 R 1 0 R 1 0 R 1 0 R 1 1 R 1 0 R
1 0 R 1 0 R 1 1 R 1 0 R 1 0 R 1 0 R 1 1 R 1 0 R 1 0 R 0 1 R 1 0 R 1 0 R
1 0 R 1 1 R 1 0 R 1 0 R 1 0 R 1 1 R 1 0 R 1 0 R 1 0 R 1 1 R 1 0 R 1 0 R
1 1 R 1 0 R 1 0 R 1 0 R 1 1 R 1 0 R 1 0 R 1 0 R 1 1 R 1 0 R 1 0 R 1 0 R
0 1 R 1 0 R 1 0 R 1 1 R 1 0 R 1 0 R 1 0 R 1 1 R 1 0 R 1 0 R 1 0 R 1 1 R
1 0 R 1 0 R 1 0 R 0 1 R 1 0 R 1 0 R 1 0 R 1 1 R 1 0 R 1 0 R 1 0 R 1 1 R
1 0 R 1 0 R 1 0 R 1 1 R 1 0 R 1 0 R 1 1 R 1 0 R 1 0 R 1 1 R 1 0 R 1 0 R
1 0 R 1 1 R 1 0 R 1 0 R 1 0 R 1 1 R 2 0 R 1 1 R 1 0 R 1 0 R 1 0 R 1 1 R
1 0 R 1 0 R 1 0 R 1 1 R 1 0 R 1 0 R 1 0 R 0 1 R 1 0 R 1 0 R 1 0 R 1 1 R
1 0 R 1 0 R 1 0 R 1 1 R 1 0 R 1 0 R 1 0 R 1 1 R 1 0 R 1 0 R 1 1 R 1 0 R
1 0 R 1 0 R 1 1 R 1 0 R 1 0 R 1 0 R 1 1 R 1 0 R 1 0 R 1 1 R 1 0 R 1 0 R
1 1 R 1 0 R 1 0 R 1 0 R 1 1 R 1 0 R 1 0 R 1 0 R 1 1 R 1 0 R 1 0 R 1 0 R
1 1 R 1 0 R 1 0 R 1 1 R 1 0 R 1 0 R 1 0 R 1 1 R 1 0 R 1 0 R 1 0 R 1 1 R
1 0 R 1 0 R 1 1 R 1 0 R 1 0 R 1 0 R 1 1 R 1 0 R 1 0 R 1 0 R 1 1 R 1 0 R
1 0 R 1 0 R 1 1 R 1 0 R 1 0 R 1 1 R 1 0 R 1 0 R 1 0 R 1 1 R 1 0 R 1 0 R
1 0 R 1 1 R 1 0 R 1 0 R 1 0 R 0 1 R 1 0 R 1 0 R 1 0 R 1 1 R 1 0 R 1 0 R
1 0 R 1 1 R 1 0 R 1 0 R 1 0 R 1 1 R 1 0 R 1 0 R 1 1 R 1 0 R 1 0 R 1 0 R
1 1 R 1 0 R 1 0 R 1 0 R 1 1 R 1 0 R 1 0 R 1 0 R 1 1 R 1 0 R 1 0 R 1 1 R
1 0 R 1 0 R 1 0 R 1 1 R 1 0 R 1 0 R 1 0 R 1 1 R 1 0 R 1 0 R 2 1 R 1 0 R
1 0 R 1 1 R 1 0 R 1 0 R 1 0 R 1 1 R 1 0 R 1 0 R 1 0 R 1 1 R 1 0 R 1 0 R
1 1 R 1 0 R 1 0 R 1 0 R 1 0 R 1 1 R 1 0 R 1 0 R 1 0 R 1 1 R 1 0 R 1 0 R
1 0 R 0 1 R 1 0 R 1 0 R 1 0 R 1 1 R 1 0 R 1 0 R 1 0 R 1 1 R 1 0 R 1 0 R
1 0 R 1 1 R 1 0 R 1 0 R 1 1 R 1 0 R 1 0 R 1 0 R 1 1 R 1 0 R 1 0 R 1 0 R
1 1 R 1 0 R 1 0 R 1 0 R 0 1 R 1 0 R 1 0 R 1 0 R 1 1 R 1 0 R 1 0 R 1 0 R
1 1 R 1 0 R 1 0 R 1 0 R 1 1 R 1 0 R 1 0 R 1 1 R 1 0 R 1 0 R 1 0 R 1 0 R
1 1 R 1 0 R 1 0 R 1 0 R 1 1 R 1 0 R 1 0 R 1 0 R 1 1 R 1 0 R 1 0 R 1 1 R
1 0 R 1 0 R 1 0 R 1 1 R 1 0 R 1 0 R 1 0 R 1 1 R 1 0 R 1 0 R 1 1 R 1 0 R
1 0 R 1 0 R 1 1 R 1 0 R 1 0 R 1 0 R 1 1 R 1 0 R 1 0 R 1 0 R 1 0 R 1 1 R
1 0 R 1 0 R 1 1 R 1 0 R 1 0 R 1 0 R 1 1 R 1 0 R 1 0 R 1 0 R 1 1 R 1 0 R
1 0 R 1 1 R 1 0 R 1 0 R 1 0 R 1 1 R 1 0 R 1 0 R 1 0 R 1 0 R 1 1 R 1 0 R
1 0 R 1 0 R 0 1 R 1 0 R 1 0 R 1 0 R 1 1 R 1 0 R 1 0 R 1 0 R 1 1 R 1 0 R
1 0 R 1 0 R 1 1 R 1 0 R 1 0 R 1 1 R 1 0 R 1 0 R 1 0 R 1 0 R 1 1 R 1 0 R
1 0 R 1 0 R 1 1 R 1 0 R 1 0 R 1 0 R 1 1 R 1 0 R 1 0 R 1 1 R 1 0 R 1 0 R
1 0 R 1 1 R 1 0 R 1 0 R 1 0 R 1 1 R 1 0 R 2 0 R 1 1 R 1 0 R 1 0 R 1 0 R
1 1 R 1 0 R 1 0 R 1 0 R 1 1 R 1 0 R 1 0 R 1 0 R 0 1 R 1 0 R 1 0 R 1 0 R
1 1 R 1 0 R 1 0 R 1 0 R 1 0 R 1 1 R 1 0 R 1 0 R 1 0 R 1 1 R 1 0 R 1 0 R
1 1 R 1 0 R 1 0 R 1 0 R 1 1 R 1 0 R 1 0 R 1 0 R 1 0 R 1 1 R 1 0 R 1 0 R
1 0 R 0 1 R 1 0 R 1 0 R 1 0 R 1 1 R 1 0 R 1 0 R 1 0 R 1 1 R 1 0 R 1 0 R
1 0 R 1 0 R 1 1 R 1 0 R 1 0 R 1 1 R 1 0 R 1 0 R 1 0 R 1 1 R 1 0 R 1 0 R
1 0 R 1 1 R 1 0 R 1 0 R 1 0 R 1 1 R 1 0 R 1 0 R 1 0 R 1 1 R 1 0 R 1 0 R
1 0 R 1 1 R 1 0 R 1 0 R 1 0 R 1 1 R 1 0 R 1 0 R 1 0 R 1 1 R 1 0 R 1 0 R
1 0 R 1 1 R 1 0 R 1 0 R 1 0 R 1 1 R 1 0 R 1 0 R 1 0 R 1 1 R 1 0 R 1 0 R
1 0 R 1 1 R 1 0 R 1 0 R 1 0 R 1 1 R 1 0 R 1 0 R 1 0 R 0 1 R 1 0 R 1 0 R
1 0 R 1 0 R 1 1 R 1 0 R 1 0 R 1 0 R 1 1 R 1 0 R 1 0 R 1 0 R 1 1 R 1 0 R
1 0 R 1 0 R 1 1 R 1 0 R 1 0 R 1 0 R 1 1 R 1 0 R 1 0 R 1 0 R 1 1 R 1 0 R
1 0 R 1 0 R 1 1 R 1 0 R 1 0 R 1 0 R 1 1 R 1 0 R 1 0 R 1 0 R 1 1 R 1 0 R
1 0 R 1 0 R 1 1 R 1 0 R 1 0 R 1 0 R 1 1 R 1 0 R 1 0 R 1 0 R 1 1 R 1 0 R
1 0 R D 12416 959 M 1 0 R 1 0 R 1 1 R 1 0 R 1 0 R 1 1 R 1 0 R 1 0 R 1 0 R
1 0 R 1 1 R 1 0 R 1 0 R 1 0 R 1 1 R 1 0 R 1 0 R 1 1 R 1 0 R 1 0 R 1 0 R
1 0 R 1 1 R 1 0 R 1 0 R 1 0 R 1 1 R 1 0 R 1 0 R 1 1 R 1 0 R 1 0 R 1 0 R
1 0 R 1 1 R 1 0 R 1 0 R 1 0 R 1 1 R 1 0 R 1 0 R 1 0 R 1 1 R 1 0 R 1 0 R
1 0 R 1 1 R 1 0 R 1 0 R 1 0 R 1 1 R 1 0 R 1 0 R 1 0 R 1 0 R 1 1 R 1 0 R
1 0 R 1 1 R 1 0 R 1 0 R 1 0 R 1 0 R 1 1 R 1 0 R 1 0 R 1 0 R 1 1 R 1 0 R
1 0 R 1 1 R 1 0 R 1 0 R 1 0 R 1 0 R 1 1 R 1 0 R 1 0 R 1 0 R 1 1 R 1 0 R
1 0 R 1 0 R 1 0 R 0 1 R 1 0 R 1 0 R 1 0 R 1 1 R 1 0 R 1 0 R 1 0 R 1 0 R
1 1 R 1 0 R 1 0 R 1 0 R 0 1 R 1 0 R 1 0 R 1 0 R 1 1 R 1 0 R 1 0 R 1 0 R
1 0 R 1 1 R 1 0 R 1 0 R 1 0 R 1 1 R 1 0 R 1 0 R 1 0 R 1 1 R 1 0 R 1 0 R
1 0 R 1 1 R 1 0 R 1 0 R 1 0 R 1 0 R 1 1 R 1 0 R 1 0 R 1 1 R 1 0 R 1 0 R
1 0 R 1 0 R 1 1 R 1 0 R 1 0 R 1 0 R 1 1 R 1 0 R 1 0 R 2 0 R 0 1 R 1 0 R
1 0 R 1 0 R 1 1 R 1 0 R 1 0 R 1 0 R 1 0 R 1 1 R 1 0 R 1 0 R 1 0 R 0 1 R
1 0 R 1 0 R 1 0 R 1 0 R 1 1 R 1 0 R 1 0 R 1 0 R 1 1 R 1 0 R 1 0 R 1 0 R
1 0 R 1 1 R 1 0 R 1 0 R 1 1 R 1 0 R 1 0 R 1 0 R 1 0 R 1 1 R 1 0 R 1 0 R
1 0 R 1 1 R 1 0 R 1 0 R 1 0 R 1 1 R 1 0 R 1 0 R 1 0 R 1 1 R 1 0 R 1 0 R
1 0 R 1 0 R 1 1 R 1 0 R 1 0 R 1 1 R 1 0 R 1 0 R 1 0 R 1 0 R 1 1 R 1 0 R
1 0 R 1 0 R 1 1 R 1 0 R 1 0 R 1 0 R 1 1 R 1 0 R 1 0 R 1 0 R 1 0 R 1 1 R
1 0 R 1 0 R 1 0 R 1 1 R 1 0 R 1 0 R 1 0 R 1 0 R 0 1 R 1 0 R 1 0 R 1 0 R
1 1 R 1 0 R 1 0 R 1 0 R 1 0 R 1 1 R 1 0 R 1 0 R 1 0 R 1 1 R 1 0 R 1 0 R
1 0 R 1 1 R 1 0 R 1 0 R 1 0 R 1 1 R 1 0 R 1 0 R 1 0 R 1 0 R 1 1 R 1 0 R
1 0 R 1 0 R 1 1 R 1 0 R 1 0 R 1 0 R 1 1 R 1 0 R 1 0 R 1 0 R 1 0 R 1 1 R
1 0 R 1 0 R 1 0 R 1 1 R 1 0 R 1 0 R 1 0 R 1 1 R 1 0 R 1 0 R 1 0 R 1 0 R
1 1 R 1 0 R 1 0 R 1 1 R 1 0 R 1 0 R 1 0 R 1 0 R 1 1 R 1 0 R 1 0 R 1 0 R
1 0 R 1 1 R 1 0 R 1 0 R 1 1 R 1 0 R 1 0 R 1 0 R 1 0 R 1 1 R 1 0 R 1 0 R
1 0 R 1 0 R 1 1 R 1 0 R 1 0 R 1 0 R 0 1 R 1 0 R 1 0 R 1 0 R 1 0 R 1 1 R
1 0 R 1 0 R 1 0 R 1 1 R 1 0 R 1 0 R 1 0 R 1 0 R 1 1 R 1 0 R 1 0 R 1 0 R
1 1 R 1 0 R 1 0 R 1 0 R 1 0 R 1 1 R 1 0 R 1 0 R 1 0 R 0 1 R 1 0 R 1 0 R
1 0 R 1 0 R 1 1 R 1 0 R 1 0 R 1 0 R 1 0 R 1 1 R 1 0 R 1 0 R 1 0 R 1 1 R
1 0 R 1 0 R 1 0 R 1 1 R 1 0 R 1 0 R 1 0 R 1 0 R 1 1 R 1 0 R 1 0 R 1 0 R
1 1 R 1 0 R 1 0 R 1 0 R 1 1 R 1 0 R 1 0 R 1 0 R 1 0 R 1 1 R 1 0 R 1 0 R
1 0 R 1 1 R 1 0 R 1 0 R 1 0 R 1 1 R 1 0 R 1 0 R 1 0 R 1 0 R 1 1 R 1 0 R
1 0 R 1 0 R 1 1 R 1 0 R 1 0 R 0 1 R 1 0 R 1 0 R 1 1 R 1 0 R 1 0 R 1 0 R
1 1 R 1 0 R 1 0 R 1 1 R 1 0 R 1 0 R 1 1 R 1 0 R 1 1 R 1 0 R 1 0 R 1 1 R
1 0 R 1 0 R 1 1 R 1 0 R 1 0 R 1 1 R 1 0 R 1 0 R 1 1 R 1 0 R 1 0 R 1 1 R
1 0 R 1 0 R 1 1 R 1 0 R 1 0 R 1 1 R 1 0 R 1 0 R 1 1 R 1 0 R 1 1 R 1 0 R
1 0 R 1 1 R 1 0 R 1 0 R 1 0 R 1 1 R 1 0 R 1 0 R 1 1 R 1 0 R 1 0 R 1 1 R
1 0 R 1 1 R 1 0 R 1 0 R 1 1 R 1 0 R 1 0 R 1 0 R 1 1 R 1 0 R 1 0 R 1 1 R
2 0 R 0 1 R 1 0 R 1 0 R 1 1 R 1 0 R 1 0 R 1 1 R 1 0 R 1 0 R 1 1 R 1 0 R
1 0 R 1 0 R 0 1 R 1 0 R 1 0 R 1 1 R 1 0 R 1 0 R 1 1 R 1 0 R 1 0 R 1 1 R
1 0 R 1 0 R 1 1 R 1 0 R 1 0 R 1 1 R 1 0 R 1 0 R 1 1 R 1 0 R 1 0 R 1 1 R
1 0 R 1 0 R 1 1 R 1 0 R 1 0 R 1 1 R 1 0 R 1 0 R 1 1 R 1 0 R 1 0 R 1 1 R
1 0 R 1 0 R 1 1 R 1 0 R 1 0 R 1 1 R 1 0 R 1 0 R 0 1 R 1 0 R 1 0 R 1 0 R
1 1 R 1 0 R 1 0 R 1 1 R 1 0 R 1 0 R 1 1 R 1 0 R 1 0 R 1 1 R 1 0 R 1 1 R
1 0 R 1 0 R 1 0 R 1 1 R 1 0 R 1 0 R 1 1 R 1 0 R 1 0 R 1 1 R 1 0 R 1 0 R
0 1 R 1 0 R 1 0 R 1 1 R 1 0 R 1 0 R 1 0 R 1 1 R 1 0 R 1 0 R 1 1 R 1 0 R
1 0 R 1 1 R 1 0 R 1 0 R 1 1 R 1 0 R 1 0 R 1 1 R 1 0 R 1 0 R 1 1 R 1 0 R
1 0 R 1 1 R 1 0 R 1 0 R 0 1 R 1 0 R 1 0 R 1 0 R 1 1 R 1 0 R 1 0 R 1 1 R
1 0 R 1 0 R 1 1 R 1 0 R 1 0 R 1 1 R 1 0 R 1 0 R 1 1 R 1 0 R 1 0 R 1 1 R
1 0 R 1 0 R 1 1 R 1 0 R 1 0 R 1 1 R 1 0 R 1 0 R 1 1 R 1 0 R 1 0 R 1 1 R
1 0 R 1 0 R 1 1 R 1 0 R 1 0 R 1 0 R 1 1 R 1 0 R 1 0 R 0 1 R 1 0 R 1 0 R
1 1 R 1 0 R 1 0 R 1 1 R 1 0 R 1 0 R 1 0 R 1 1 R 1 0 R 1 0 R 1 1 R 1 0 R
1 1 R 1 0 R 1 0 R 1 1 R 1 0 R 1 0 R 1 0 R 1 1 R 1 0 R 1 0 R 1 1 R 1 0 R
2 1 R 1 0 R 1 0 R 1 1 R 1 0 R 1 0 R 1 1 R 1 0 R 1 0 R 1 1 R 1 0 R 1 0 R
1 0 R 0 1 R 1 0 R 1 0 R 1 1 R 1 0 R 1 0 R 1 1 R 1 0 R 1 0 R 1 0 R 1 1 R
1 0 R 1 0 R 1 1 R 1 0 R 1 1 R 1 0 R 1 0 R 1 1 R 1 0 R 1 0 R 1 0 R 1 1 R
1 0 R 1 0 R 1 1 R 1 0 R 1 0 R 0 1 R 1 0 R 1 0 R 1 0 R 1 1 R 1 0 R 1 0 R
1 1 R 1 0 R 1 0 R 1 1 R 1 0 R 1 0 R 1 0 R 1 1 R 1 0 R 1 1 R 1 0 R 1 0 R
1 1 R 1 0 R 1 0 R 1 0 R 1 1 R 1 0 R 1 0 R 1 1 R 1 0 R 1 0 R 0 1 R 1 0 R
1 0 R 1 0 R 1 1 R 1 0 R 1 0 R 1 1 R 1 0 R 1 0 R 1 1 R 1 0 R 1 0 R 1 1 R
1 0 R 1 0 R 1 1 R 1 0 R 1 0 R 1 1 R 1 0 R 1 0 R 1 0 R 1 1 R 1 0 R 1 0 R
1 1 R 1 0 R 1 0 R 1 1 R 1 0 R 1 0 R 1 1 R 1 0 R 1 0 R 1 1 R 1 0 R 1 0 R
1 0 R 1 1 R 1 0 R 1 1 R 1 0 R 1 0 R 1 1 R 1 0 R 1 0 R D 13152 1167 M 1 0 R
1 1 R 1 0 R 1 0 R 1 1 R 1 0 R 2 1 R 1 0 R 1 0 R 1 1 R 1 0 R 1 0 R 1 1 R
1 0 R 1 0 R 1 0 R 1 1 R 1 0 R 1 0 R 0 1 R 1 0 R 1 0 R 1 1 R 1 0 R 1 0 R
1 0 R 1 1 R 1 0 R 1 0 R 1 1 R 1 0 R 1 0 R 1 0 R 1 1 R 1 0 R 1 1 R 1 0 R
1 0 R 1 1 R 1 0 R 1 0 R 1 0 R 1 1 R 1 0 R 1 0 R 1 1 R 1 0 R 1 0 R 1 1 R
1 0 R 1 0 R 1 1 R 1 0 R 1 0 R 1 1 R 1 0 R 1 0 R 1 0 R 1 1 R 1 0 R 1 0 R
0 1 R 1 0 R 1 0 R 1 0 R 1 1 R 1 0 R 1 0 R 1 1 R 1 0 R 1 0 R 1 1 R 1 0 R
1 0 R 1 0 R 0 1 R 1 0 R 1 0 R 1 1 R 1 0 R 1 0 R 1 0 R 1 1 R 1 0 R 1 0 R
1 1 R 1 0 R 1 0 R 1 0 R 1 1 R 1 0 R 1 1 R 1 0 R 1 0 R 1 0 R 1 1 R 1 0 R
1 0 R 1 1 R 1 0 R 1 0 R 1 1 R 1 0 R 1 0 R 1 1 R 1 0 R 1 0 R 1 1 R 1 0 R
1 0 R 1 0 R 1 1 R 1 0 R 1 0 R 1 1 R 1 0 R 1 0 R 1 1 R 1 0 R 1 0 R 1 1 R
1 0 R 1 0 R 1 0 R 1 1 R 1 0 R 1 0 R 1 1 R 1 0 R 1 0 R 1 1 R 1 0 R 1 0 R
1 1 R 1 0 R 1 0 R 1 1 R 1 0 R 1 0 R 1 0 R 1 1 R 1 0 R 1 0 R 0 1 R 1 0 R
1 0 R 1 0 R 1 1 R 1 0 R 1 0 R 1 1 R 1 0 R 1 0 R 1 0 R 1 1 R 1 0 R 1 0 R
1 1 R 1 0 R 1 0 R 1 1 R 1 0 R 1 0 R 1 1 R 1 0 R 1 0 R 1 0 R 1 1 R 1 0 R
1 0 R 1 1 R 1 0 R 1 0 R 1 1 R 1 0 R 1 0 R 1 1 R 1 0 R 1 0 R 1 0 R 1 1 R
1 0 R 1 0 R 1 1 R 1 0 R 1 0 R 1 1 R 1 0 R 1 0 R 1 1 R 1 0 R 1 0 R 1 0 R
1 1 R 1 0 R 1 0 R 1 1 R 1 0 R 1 0 R 1 1 R 1 0 R 1 0 R 1 1 R 1 0 R 1 0 R
1 0 R 1 1 R 1 0 R 1 0 R 1 1 R 1 0 R 1 0 R 1 1 R 1 0 R 1 0 R 1 1 R 1 0 R
1 0 R 1 0 R 1 1 R 1 0 R 1 0 R 1 1 R 1 0 R 1 0 R 1 0 R 0 1 R 1 0 R 1 0 R
1 1 R 1 0 R 1 0 R 1 0 R 1 1 R 1 0 R 1 0 R 1 1 R 1 0 R 1 0 R 1 0 R 0 1 R
1 0 R 1 0 R 1 0 R 1 1 R 1 0 R 1 0 R 1 1 R 1 0 R 1 0 R 1 0 R 1 1 R 1 0 R
1 0 R 1 1 R 1 0 R 1 0 R 1 1 R 1 0 R 1 0 R 1 1 R 1 0 R 1 0 R 1 0 R 1 1 R
1 0 R 1 0 R 1 1 R 1 0 R 1 0 R 1 1 R 1 0 R 1 0 R 1 1 R 1 0 R 1 0 R 1 0 R
1 1 R 1 0 R 1 0 R 1 0 R 0 1 R 1 0 R 1 0 R 1 1 R 1 0 R 1 0 R 1 0 R 1 1 R
1 0 R 1 0 R 1 1 R 1 0 R 1 0 R 1 0 R 1 1 R 1 0 R 1 1 R 1 0 R 1 0 R 1 0 R
1 1 R 1 0 R 1 0 R 1 0 R 1 1 R 1 0 R 1 0 R 1 1 R 1 0 R 1 0 R 1 1 R 1 0 R
1 0 R 1 1 R 1 0 R 1 0 R 1 0 R 1 1 R 1 0 R 1 0 R 1 0 R 0 1 R 2 0 R 1 1 R
1 0 R 1 0 R 1 0 R 1 1 R 1 0 R 1 0 R 1 1 R 1 0 R 1 0 R 1 0 R 1 1 R 1 0 R
1 1 R 1 0 R 1 0 R 1 0 R 1 1 R 1 0 R 1 0 R 1 0 R 1 1 R 1 0 R 1 0 R 1 1 R
1 0 R 1 0 R 1 1 R 1 0 R 1 0 R 1 0 R 1 1 R 1 0 R 1 0 R 1 1 R 1 0 R 1 0 R
1 0 R 1 1 R 1 0 R 1 1 R 1 0 R 1 0 R 1 0 R 1 1 R 1 0 R 1 0 R 1 0 R 1 1 R
1 0 R 1 0 R 1 1 R 1 0 R 1 0 R 1 1 R 1 0 R 1 0 R 1 0 R 1 1 R 1 0 R 1 0 R
1 1 R 1 0 R 1 0 R 1 0 R 1 1 R 1 0 R 1 0 R 1 1 R 1 0 R 1 0 R 1 1 R 1 0 R
1 0 R 1 0 R 1 1 R 1 0 R 1 0 R 1 1 R 1 0 R 1 0 R 1 1 R 1 0 R 1 0 R 1 0 R
1 1 R 1 0 R 1 0 R 1 1 R 1 0 R 1 0 R 1 0 R 1 1 R 1 0 R 1 0 R 1 1 R 1 0 R
1 0 R 1 1 R 1 0 R 1 0 R 1 0 R 1 1 R 1 0 R 1 0 R 1 0 R 1 1 R 1 0 R 1 0 R
1 1 R 1 0 R 1 0 R 1 1 R 1 0 R 1 0 R 1 0 R 1 1 R 1 0 R 1 0 R 1 0 R 1 1 R
1 0 R 1 1 R 1 0 R 1 0 R 1 0 R 1 1 R 1 0 R 1 0 R 1 0 R 1 1 R 1 0 R 1 0 R
0 1 R 1 0 R 1 0 R 1 0 R 1 1 R 1 0 R 1 0 R 1 0 R 1 1 R 1 0 R 1 0 R 1 1 R
1 0 R 1 0 R 1 0 R 0 1 R 1 0 R 1 0 R 1 0 R 1 1 R 1 0 R 1 0 R 1 0 R 1 1 R
1 0 R 1 0 R 1 1 R 1 0 R 1 0 R 1 0 R 0 1 R 1 0 R 1 0 R 1 0 R 1 1 R 1 0 R
1 0 R 1 1 R 1 0 R 1 0 R 1 0 R 1 1 R 1 0 R 2 0 R 0 1 R 1 0 R 1 0 R 1 0 R
1 1 R 1 0 R 1 0 R 1 1 R 1 0 R 1 0 R 1 0 R 1 1 R 1 0 R 1 0 R 1 1 R 1 0 R
1 0 R 1 1 R 1 0 R 1 0 R 1 0 R 1 1 R 1 0 R 1 0 R 1 0 R 1 1 R 1 0 R 1 0 R
1 1 R 1 0 R 1 0 R 1 1 R 1 0 R 1 0 R 1 0 R 1 1 R 1 0 R 1 0 R 1 0 R 1 1 R
1 0 R 1 0 R 1 1 R 1 0 R 1 0 R 1 1 R 1 0 R 1 0 R 1 0 R 1 1 R 1 0 R 1 0 R
1 0 R 1 1 R 1 0 R 1 0 R 1 1 R 1 0 R 1 0 R 1 1 R 1 0 R 1 0 R 1 0 R 1 1 R
1 0 R 1 0 R 1 0 R 1 1 R 1 0 R 1 0 R 1 1 R 1 0 R 1 0 R 1 0 R 1 1 R 1 0 R
1 0 R 1 1 R 1 0 R 1 0 R 0 1 R 1 0 R 1 1 R 1 1 R 1 1 R 1 0 R 1 1 R 1 1 R
1 1 R 1 0 R 1 1 R 1 1 R 1 0 R 1 1 R 1 1 R 1 1 R 1 1 R 1 1 R 1 0 R 1 1 R
1 1 R 1 0 R 1 1 R 1 1 R 1 1 R 1 0 R 1 1 R 1 1 R 1 0 R 0 1 R 1 1 R 1 0 R
1 1 R 1 1 R 1 1 R 1 0 R 1 1 R 1 1 R 1 0 R 1 1 R 1 1 R 1 1 R 2 1 R 0 1 R
1 0 R 1 1 R 1 1 R 1 1 R 1 0 R 1 1 R 1 1 R 1 0 R 1 1 R 1 1 R 1 0 R 1 1 R
0 1 R 1 1 R 1 0 R 1 1 R 1 1 R 1 0 R 1 1 R 1 1 R 1 0 R 1 1 R 1 1 R 1 1 R
1 0 R 1 1 R 1 1 R 1 1 R 1 1 R 1 1 R 1 0 R 1 1 R 1 1 R 1 0 R 1 1 R 1 1 R
1 0 R 1 1 R 1 1 R 1 1 R 1 0 R 0 1 R 1 1 R 1 0 R 1 1 R 1 1 R 1 0 R 1 1 R
1 1 R 1 1 R 1 0 R 1 1 R 1 1 R 1 0 R 1 1 R 0 1 R 1 0 R 1 1 R 1 1 R 1 1 R
1 0 R 1 1 R 1 1 R 1 0 R 1 1 R 1 1 R 1 0 R 1 1 R 1 1 R 1 1 R 1 1 R 1 1 R
1 0 R 1 1 R 1 1 R 1 0 R 1 1 R 1 1 R 1 0 R 1 1 R 1 1 R 1 1 R 1 0 R 0 1 R
1 1 R 1 0 R 1 1 R 1 1 R 1 0 R 1 1 R 1 1 R 1 0 R 1 1 R 1 1 R 1 1 R 1 0 R
1 1 R 0 1 R 1 0 R 1 1 R 1 1 R 1 0 R 1 1 R 1 1 R 1 0 R 1 1 R 1 1 R 1 1 R
1 0 R 1 1 R 1 1 R 1 0 R 0 1 R 1 1 R 1 0 R 1 1 R 1 1 R 1 0 R 1 1 R 1 1 R
1 0 R 1 1 R 1 1 R 1 1 R 1 0 R D 13885 1460 M 1 1 R 1 1 R 1 1 R 1 1 R 1 0 R
1 1 R 1 1 R 1 1 R 1 0 R 1 1 R 1 1 R 1 0 R 1 1 R 1 1 R 1 1 R 1 1 R 1 0 R
1 1 R 1 1 R 1 0 R 1 1 R 1 1 R 1 1 R 1 0 R 1 1 R 1 1 R 1 0 R 1 1 R 0 1 R
1 0 R 1 1 R 1 1 R 1 0 R 1 1 R 1 1 R 1 0 R 1 1 R 1 1 R 1 0 R 1 1 R 1 1 R
1 1 R 1 0 R 0 1 R 1 1 R 1 0 R 1 1 R 1 1 R 1 0 R 1 1 R 1 1 R 1 0 R 1 1 R
1 1 R 1 0 R 1 1 R 1 1 R 1 0 R 0 1 R 1 1 R 1 0 R 1 1 R 1 1 R 1 1 R 1 0 R
1 1 R 1 1 R 1 0 R 1 1 R 1 1 R 1 0 R 0 1 R 1 1 R 1 0 R 1 1 R 1 1 R 1 0 R
1 1 R 1 1 R 1 0 R 1 1 R 1 1 R 1 1 R 1 0 R 1 1 R 1 1 R 1 1 R 1 1 R 1 0 R
1 1 R 1 1 R 1 0 R 1 1 R 1 1 R 1 0 R 1 1 R 1 1 R 1 0 R 1 1 R 1 1 R 1 1 R
1 1 R 1 0 R 1 1 R 1 1 R 1 0 R 1 1 R 1 1 R 1 0 R 1 1 R 1 1 R 1 0 R 1 1 R
0 1 R 1 1 R 1 0 R 1 1 R 1 1 R 1 0 R 1 1 R 1 1 R 1 0 R 1 1 R 1 1 R 1 0 R
1 1 R 1 1 R 1 0 R 0 1 R 1 1 R 1 0 R 1 1 R 1 1 R 1 0 R 1 1 R 1 1 R 1 0 R
1 1 R 1 1 R 1 0 R 1 1 R 1 1 R 1 1 R 1 1 R 1 0 R 1 1 R 1 1 R 1 0 R 1 1 R
1 1 R 1 0 R 1 1 R 1 1 R 1 0 R 1 1 R 0 1 R 1 0 R 1 1 R 1 1 R 1 0 R 1 1 R
1 1 R 1 0 R 1 1 R 1 1 R 1 0 R 1 1 R 1 1 R 1 1 R 1 0 R 0 1 R 1 0 R 1 1 R
1 1 R 1 1 R 1 0 R 1 1 R 1 0 R 1 1 R 1 1 R 1 1 R 1 0 R 1 1 R 1 1 R 1 0 R
0 1 R 1 1 R 1 0 R 1 1 R 1 1 R 1 0 R 1 1 R 1 0 R 1 1 R 1 1 R 1 1 R 1 0 R
1 1 R 2 1 R 0 1 R 1 1 R 1 0 R 1 1 R 1 1 R 1 0 R 1 1 R 1 0 R 1 1 R 1 1 R
1 1 R 1 0 R 1 1 R 1 1 R 1 1 R 1 0 R 1 1 R 1 1 R 1 0 R 1 1 R 1 1 R 1 0 R
1 1 R 1 1 R 1 0 R 1 1 R 1 1 R 1 1 R 1 1 R 1 0 R 1 1 R 1 1 R 1 0 R 1 1 R
1 1 R 1 0 R 1 1 R 1 1 R 1 0 R 1 1 R 1 1 R 1 1 R 1 1 R 1 0 R 1 1 R 1 1 R
1 0 R 1 1 R 1 1 R 1 0 R 1 1 R 1 1 R 1 0 R 1 1 R 0 1 R 1 0 R 1 1 R 1 1 R
1 0 R 1 1 R 1 1 R 1 0 R 1 1 R 1 0 R 1 1 R 1 1 R 1 0 R 1 1 R 0 1 R 1 0 R
1 1 R 1 1 R 1 0 R 1 1 R 1 1 R 1 0 R 1 1 R 1 1 R 1 0 R 1 1 R 1 1 R 1 0 R
1 1 R 0 1 R 1 0 R 1 1 R 1 1 R 1 0 R 1 1 R 1 1 R 1 0 R 1 1 R 1 1 R 1 0 R
1 1 R 1 1 R 1 0 R 0 1 R 1 0 R 1 1 R 1 1 R 1 0 R 1 1 R 1 1 R 1 0 R 1 1 R
1 1 R 1 0 R 1 1 R 1 1 R 1 0 R 1 1 R 0 1 R 1 0 R 1 1 R 1 0 R 1 1 R 1 1 R
1 0 R 1 1 R 1 1 R 1 0 R 1 1 R 1 1 R 1 0 R 1 1 R 1 1 R 1 1 R 1 1 R 1 0 R
1 1 R 1 1 R 1 0 R 1 1 R 1 1 R 1 0 R 1 1 R 1 1 R 1 0 R 0 1 R 1 0 R 1 1 R
1 1 R 1 0 R 1 1 R 1 1 R 1 0 R 1 1 R 1 1 R 1 0 R 1 1 R 1 1 R 1 0 R 1 1 R
0 1 R 1 0 R 1 1 R 1 0 R 1 1 R 1 1 R 1 0 R 1 1 R 1 1 R 1 0 R 1 1 R 1 1 R
1 0 R 1 1 R 1 1 R 1 1 R 1 0 R 1 1 R 1 1 R 1 0 R 1 1 R 1 1 R 1 0 R 1 1 R
1 1 R 1 0 R 1 1 R 0 1 R 2 0 R 0 1 R 1 1 R 1 0 R 1 1 R 1 0 R 1 1 R 1 1 R
1 0 R 1 1 R 1 1 R 1 0 R 1 1 R 1 1 R 1 1 R 1 1 R 1 0 R 1 1 R 1 0 R 1 1 R
1 1 R 1 0 R 1 1 R 1 1 R 1 0 R 1 1 R 1 1 R 1 0 R 0 1 R 1 0 R 1 1 R 1 1 R
1 0 R 1 1 R 1 1 R 1 0 R 1 1 R 1 1 R 1 0 R 1 1 R 1 1 R 1 0 R 0 1 R 1 0 R
1 1 R 1 1 R 1 0 R 1 1 R 1 1 R 1 0 R 1 1 R 1 1 R 1 0 R 1 1 R 1 0 R 1 1 R
1 1 R 1 1 R 1 1 R 1 0 R 1 1 R 1 1 R 1 0 R 1 1 R 1 0 R 1 1 R 1 1 R 1 0 R
1 1 R 1 1 R 1 1 R 1 1 R 1 0 R 1 1 R 1 0 R 1 1 R 1 1 R 1 0 R 1 1 R 1 1 R
1 0 R 1 1 R 1 1 R 1 1 R 1 1 R 1 0 R 1 1 R 1 0 R 1 1 R 1 1 R 1 0 R 1 1 R
1 1 R 1 0 R 1 1 R 1 0 R 1 1 R 0 1 R 1 0 R 1 1 R 1 1 R 1 0 R 1 1 R 1 0 R
1 1 R 1 1 R 1 0 R 1 1 R 1 1 R 1 0 R 1 1 R 1 1 R 1 1 R 1 0 R 1 1 R 1 1 R
1 0 R 1 1 R 1 1 R 1 0 R 1 1 R 1 1 R 1 0 R 1 1 R 2 1 R 0 1 R 1 0 R 1 1 R
1 1 R 1 0 R 1 1 R 1 0 R 1 1 R 1 1 R 1 0 R 1 1 R 1 1 R 1 0 R 0 1 R 1 0 R
1 1 R 1 1 R 1 0 R 1 1 R 1 1 R 1 0 R 1 1 R 1 0 R 1 1 R 1 1 R 1 0 R 1 1 R
1 1 R 1 1 R 1 1 R 1 0 R 1 1 R 1 0 R 1 1 R 1 1 R 1 0 R 1 1 R 1 0 R 1 1 R
1 1 R 1 0 R 1 1 R 0 1 R 1 0 R 1 1 R 1 1 R 1 0 R 1 1 R 1 0 R 1 1 R 1 1 R
1 0 R 1 1 R 1 0 R 1 1 R 1 1 R 1 1 R 1 1 R 1 0 R 1 1 R 1 0 R 1 1 R 1 1 R
1 0 R 1 1 R 1 1 R 1 0 R 1 1 R 1 0 R 0 1 R 1 1 R 1 0 R 1 1 R 1 1 R 1 0 R
1 1 R 1 0 R 1 1 R 1 1 R 1 0 R 1 1 R 1 1 R 1 0 R 1 1 R 1 1 R 1 1 R 1 0 R
1 1 R 1 0 R 1 1 R 1 1 R 1 0 R 1 1 R 1 1 R 1 0 R 1 1 R 1 0 R 0 1 R 1 1 R
1 0 R 1 1 R 1 1 R 1 0 R 1 1 R 1 0 R 1 1 R 1 1 R 1 0 R 1 1 R 1 0 R 1 1 R
1 1 R 1 1 R 1 1 R 1 0 R 1 1 R 1 0 R 1 1 R 1 1 R 1 0 R 1 1 R 1 1 R 1 0 R
1 1 R 1 0 R 1 1 R 0 1 R 1 0 R 1 1 R 1 0 R 1 1 R 1 1 R 1 0 R 1 1 R 1 0 R
1 1 R 1 1 R 1 0 R 1 1 R 0 1 R 1 0 R 1 1 R 1 0 R 1 1 R 1 1 R 1 0 R 1 1 R
1 1 R 1 0 R 1 1 R 1 0 R 1 1 R 1 1 R 1 0 R 0 1 R 1 0 R 1 1 R 1 1 R 1 0 R
1 1 R 1 0 R 1 1 R 1 1 R 1 0 R 1 1 R 1 1 R 1 0 R 1 1 R 1 0 R 0 1 R 1 1 R
1 0 R 1 1 R 1 0 R 1 1 R 1 1 R 1 0 R 1 1 R 1 1 R 1 0 R 1 1 R 1 0 R 1 1 R
1 1 R 1 1 R 1 0 R 1 1 R 1 1 R 1 0 R 1 1 R 1 0 R 1 1 R 1 1 R 1 0 R 1 1 R
1 0 R 0 1 R 1 1 R 1 0 R 1 1 R 1 0 R 1 1 R 1 1 R 1 0 R 1 1 R 1 1 R 1 0 R
1 1 R 1 0 R 1 1 R 1 1 R 1 1 R 1 0 R 1 1 R 1 1 R 1 0 R 1 1 R 1 0 R 1 1 R
1 1 R 1 0 R 1 1 R 1 0 R 1 1 R 1 1 R 1 1 R 1 1 R 1 0 R 1 1 R 1 0 R 1 1 R
1 1 R 1 0 R 1 1 R 1 0 R 1 1 R 1 1 R 1 0 R 0 1 R 1 0 R 1 1 R 1 1 R 1 0 R
1 1 R D 14605 1960 M 1 0 R 1 1 R 1 1 R 1 0 R 1 1 R 1 0 R 1 1 R 1 1 R 1 0 R
0 1 R 1 0 R 1 1 R 1 1 R 1 0 R 1 1 R 1 0 R 1 1 R 1 1 R 1 0 R 1 1 R 1 0 R
1 1 R 1 1 R 1 1 R 1 0 R 1 1 R 1 1 R 1 0 R 1 1 R 1 0 R 1 1 R 1 1 R 1 0 R
1 1 R 1 0 R 1 1 R 0 1 R 1 0 R 1 1 R 1 0 R 1 1 R 1 1 R 1 0 R 1 1 R 1 0 R
1 1 R 1 1 R 1 0 R 1 1 R 1 0 R 1 1 R 0 1 R 1 3 R 1 4 R 1 4 R 1 4 R 1 4 R
1 4 R 1 3 R 1 4 R 1 4 R 1 4 R 1 4 R 1 3 R 1 4 R 1 4 R 0 4 R 1 4 R 1 4 R
1 3 R 1 4 R 1 4 R 1 4 R 1 4 R 1 3 R 1 5 R 1 3 R 1 4 R 1 4 R 0 3 R 2 5 R
0 3 R 1 4 R 1 4 R 1 3 R 1 5 R 1 3 R 1 4 R 1 4 R 1 4 R 1 3 R 1 4 R 1 4 R
1 4 R 0 4 R 1 3 R 1 4 R 1 4 R 1 4 R 1 4 R 1 3 R 1 4 R 1 4 R 1 4 R 1 4 R
1 3 R 1 4 R 1 4 R 1 4 R 0 4 R 1 3 R 1 4 R 1 4 R 1 4 R 1 4 R 1 3 R 1 4 R
1 4 R 1 4 R 1 4 R 1 3 R 1 4 R 1 4 R 1 4 R 0 3 R 1 4 R 1 4 R 1 4 R 1 4 R
1 3 R 1 4 R 1 4 R 1 4 R 1 4 R 1 3 R 1 3 R 1 3 R 1 2 R 0 3 R 1 2 R 1 3 R
1 2 R 1 2 R 1 3 R 1 2 R 1 3 R 1 2 R 1 3 R 1 2 R 1 3 R 1 2 R 1 2 R 0 3 R
1 2 R 1 3 R 1 2 R 1 2 R 1 3 R 1 2 R 1 2 R 1 3 R 1 2 R 1 2 R 1 3 R 1 2 R
1 3 R 1 2 R 0 2 R 1 2 R 1 3 R 1 2 R 1 3 R 1 2 R 1 2 R 1 3 R 1 2 R 1 2 R
1 2 R 1 3 R 1 2 R 1 2 R 0 3 R 1 2 R 1 2 R 1 3 R 1 2 R 1 2 R 1 2 R 1 2 R
1 3 R 1 2 R 1 2 R 1 2 R 1 3 R 1 2 R 1 2 R 0 2 R 1 3 R 1 2 R 1 2 R 1 2 R
1 3 R 1 2 R 1 2 R 1 2 R 1 2 R 1 3 R 1 2 R 1 2 R 1 2 R 1 2 R 0 2 R 1 3 R
1 2 R 1 2 R 1 2 R 1 2 R 1 2 R 1 2 R 1 3 R 1 2 R 1 2 R 1 2 R 1 2 R 0 2 R
1 2 R 1 3 R 1 2 R 1 2 R 1 2 R 1 2 R 1 2 R 1 2 R 1 2 R 1 2 R 1 2 R 1 3 R
1 2 R 1 2 R 0 2 R 1 2 R 1 2 R 1 2 R 1 2 R 1 2 R 1 2 R 1 2 R 1 2 R 1 2 R
1 2 R 1 2 R 1 2 R 1 3 R 1 2 R 0 2 R 1 1 R 1 2 R 1 3 R 1 2 R 1 2 R 1 2 R
1 2 R 1 2 R 1 2 R 1 2 R 1 2 R 1 1 R 0 2 R 2 3 R 0 2 R 1 1 R 1 2 R 1 2 R
1 2 R 1 2 R 1 2 R 1 2 R 1 2 R 1 2 R 1 2 R 1 2 R 1 2 R 0 2 R 1 2 R 1 2 R
1 2 R 1 2 R 1 1 R 1 3 R 1 1 R 1 2 R 1 2 R 1 2 R 1 2 R 1 2 R 1 2 R 1 2 R
0 2 R 1 1 R 1 2 R 1 2 R 1 2 R 1 2 R 1 2 R 1 2 R 1 2 R 1 1 R 1 2 R 1 2 R
1 2 R 1 2 R 1 2 R 0 2 R 1 1 R 1 2 R 1 2 R 1 2 R 1 2 R 1 2 R 1 1 R 1 2 R
1 2 R 1 2 R 1 2 R 1 1 R 1 2 R 0 2 R 1 2 R 1 2 R 1 1 R 1 2 R 1 2 R 1 2 R
1 2 R 1 1 R 1 2 R 1 2 R 1 2 R 1 2 R 1 1 R 0 2 R 1 2 R 1 2 R 1 1 R 1 2 R
1 2 R 1 2 R 1 2 R 1 1 R 1 2 R 1 2 R 1 2 R 1 1 R 1 2 R 0 2 R 1 1 R 1 2 R
1 2 R 1 2 R 1 1 R 1 2 R 1 2 R 1 2 R 1 1 R 1 2 R 1 2 R 1 1 R 1 2 R 1 2 R
0 1 R 1 2 R 1 2 R 1 2 R 1 1 R 1 2 R 1 1 R 1 2 R 1 2 R 1 2 R 1 1 R 1 2 R
1 1 R 1 2 R 1 2 R 0 2 R 1 1 R 1 2 R 1 2 R 1 1 R 1 2 R 1 1 R 1 2 R 1 2 R
1 1 R 1 2 R 1 2 R 1 1 R 0 2 R 2 2 R 0 1 R 1 2 R 1 1 R 1 2 R 1 2 R 1 1 R
1 2 R 1 1 R 1 2 R 1 2 R 1 1 R 1 2 R 1 1 R 0 2 R 1 2 R 1 1 R 1 2 R 1 1 R
1 2 R 1 1 R 1 2 R 1 2 R 1 1 R 1 2 R 1 1 R 1 2 R 1 2 R 1 1 R 0 2 R 1 1 R
1 2 R 1 1 R 1 2 R 1 1 R 1 2 R 1 2 R 1 1 R 1 2 R 1 1 R 1 2 R 1 1 R 1 2 R
1 1 R 0 2 R 1 1 R 1 2 R 1 1 R 1 2 R 1 1 R 1 2 R 1 1 R 1 2 R 1 1 R 1 2 R
1 1 R 1 2 R 1 1 R 0 2 R 1 1 R 1 2 R 1 1 R 1 2 R 1 1 R 1 2 R 1 1 R 1 2 R
1 1 R 1 2 R 1 1 R 1 2 R 1 1 R 0 2 R 1 1 R 1 2 R 1 1 R 1 1 R 1 2 R 1 1 R
1 2 R 1 1 R 1 2 R 1 1 R 1 2 R 1 1 R 1 2 R 1 1 R 0 1 R 1 2 R 1 1 R 1 2 R
1 1 R 1 2 R 1 1 R 1 1 R 1 2 R 1 1 R 1 2 R 1 1 R 1 2 R 1 1 R 0 1 R 1 2 R
1 1 R 1 2 R 1 1 R 1 1 R 1 2 R 1 1 R 1 2 R 1 1 R 1 1 R 1 2 R 1 1 R 1 2 R
1 1 R 0 1 R 1 2 R 1 1 R 1 1 R 1 2 R 1 1 R 1 2 R 1 1 R 1 1 R 1 2 R 1 1 R
1 1 R 1 2 R 1 1 R 1 2 R 0 1 R 1 1 R 1 1 R 1 2 R 1 1 R 1 2 R 1 1 R 1 1 R
1 2 R 1 1 R 1 1 R 1 2 R 1 1 R 0 1 R 1 2 R 1 1 R 1 1 R 1 2 R 1 1 R 1 1 R
1 2 R 1 1 R 1 1 R 1 1 R 1 2 R 1 1 R 1 1 R 1 2 R 0 1 R 1 1 R 1 2 R 1 1 R
1 1 R 1 2 R 1 1 R 1 1 R 1 2 R 1 1 R 1 1 R 1 1 R 1 2 R 1 1 R 1 1 R 0 1 R
1 2 R 1 1 R 1 1 R 1 2 R 1 1 R 1 1 R 1 1 R 1 2 R 1 1 R 1 1 R 1 1 R 1 2 R
1 1 R 1 1 R 0 2 R 1 1 R 1 1 R 1 1 R 1 2 R 1 1 R 1 1 R 1 1 R 1 1 R 1 2 R
1 1 R 1 1 R 1 1 R 0 2 R 1 1 R 1 1 R 1 1 R 1 2 R 1 1 R 1 1 R 1 1 R 1 2 R
1 1 R 1 1 R 1 1 R 1 1 R 1 2 R 1 1 R 0 1 R 1 1 R 1 2 R 1 1 R 1 1 R 1 1 R
1 1 R 1 2 R 1 1 R 1 1 R 1 1 R 1 1 R 1 2 R 1 1 R 1 1 R 0 1 R 1 1 R 1 2 R
1 1 R 1 1 R 1 -1 R 1 -2 R 1 -1 R 1 -2 R 1 -2 R 1 -2 R 1 -1 R 1 -2 R 1 -2 R
0 -2 R 1 -1 R 1 -2 R 1 -2 R 1 -2 R 1 -1 R 1 -2 R 1 -2 R 1 -1 R 1 -2 R 1 -2 R
1 -1 R 1 -2 R 1 -2 R 1 -2 R 0 -1 R 1 -2 R 1 -1 R 1 -2 R 1 -2 R 1 -1 R 1 -2 R
1 -1 R 1 -2 R 1 -2 R 1 -1 R 1 -2 R 1 -1 R 1 -2 R 0 -2 R 1 -1 R 1 -2 R 1 -1 R
1 -2 R 1 -1 R 1 -2 R 1 -2 R 1 -1 R 1 -2 R 1 -1 R 1 -2 R 1 -1 R 1 -2 R 0 -1 R
1 -2 R 1 -1 R 1 -2 R 1 -1 R 1 -2 R 1 -1 R 1 -1 R 1 -2 R 1 -1 R 1 -2 R 1 -1 R
1 -2 R 1 -1 R 1 -2 R 0 -1 R 1 -1 R 1 -2 R 1 -1 R 1 -2 R 1 -1 R 1 -1 R 1 -2 R
1 -1 R 1 -2 R 1 -1 R 1 -1 R 1 -2 R 1 -1 R 1 -2 R 0 -1 R 1 -1 R 1 -2 R 1 -1 R
1 -1 R 1 -2 R 1 -1 R 1 -1 R 1 -2 R 1 -1 R 1 -1 R 1 -2 R 1 -1 R 0 -1 R 2 -2 R
0 -1 R 1 -1 R 1 -1 R 1 -2 R 1 -1 R 1 -1 R 1 -2 R 1 -1 R 1 -1 R 1 -1 R 1 -2 R
1 -1 R 1 -1 R 0 -1 R 1 -1 R 1 -2 R 1 -1 R 1 -1 R D 15304 2995 M 1 -1 R
1 -2 R 1 -1 R 1 -1 R 1 -1 R 1 -2 R 1 -1 R 1 -1 R 1 -1 R 1 -1 R 0 -2 R 1 -1 R
1 -1 R 1 -1 R 1 -1 R 1 -1 R 1 -2 R 1 -1 R 1 -1 R 1 -1 R 1 -1 R 1 -1 R 1 -2 R
1 -1 R 1 -1 R 0 -1 R 1 -1 R 1 -1 R 1 -1 R 1 -2 R 1 -1 R 1 -1 R 1 -1 R 1 -1 R
1 -1 R 1 -1 R 1 -1 R 1 -1 R 1 -2 R 0 -1 R 1 -1 R 1 -1 R 1 -1 R 1 -1 R 1 -1 R
1 -1 R 1 -1 R 1 -1 R 1 -1 R 1 -1 R 1 -2 R 1 -1 R 1 -1 R 0 -1 R 1 -1 R 1 -1 R
1 -1 R 1 -1 R 1 -1 R 1 -1 R 1 -1 R 1 -1 R 1 -1 R 1 -1 R 1 -1 R 1 -1 R 1 -1 R
1 -1 R 0 -1 R 1 -1 R 1 -1 R 1 -1 R 1 -1 R 1 -1 R 1 -1 R 1 -1 R 1 -1 R 1 -1 R
1 -1 R 1 -1 R 1 -1 R 1 -1 R 0 -1 R 1 -1 R 1 -1 R 1 -1 R 1 -1 R 1 -1 R 1 -1 R
1 -1 R 1 -1 R 1 -1 R 1 -1 R 1 0 R 1 -1 R 1 -1 R 1 -1 R 0 -1 R 1 -1 R 1 -1 R
1 -1 R 1 -1 R 1 -1 R 1 -1 R 1 -1 R 1 -1 R 1 -1 R 1 0 R 1 -1 R 1 -1 R 1 -1 R
1 -1 R 0 -1 R 1 -1 R 1 -1 R 1 -1 R 1 0 R 1 -1 R 1 -1 R 1 -1 R 1 -1 R 1 -1 R
1 -1 R 1 -1 R 1 -1 R 1 -1 R 1 -1 R 1 -1 R 1 -1 R 1 -1 R 1 -1 R 1 -1 R 1 0 R
1 -1 R 1 -3 R 1 -5 R 1 -5 R 1 -5 R 1 -4 R 0 -5 R 1 -4 R 1 -5 R 1 -5 R 1 -4 R
1 -4 R 1 -5 R 1 -4 R 1 -5 R 1 -4 R 1 -4 R 1 -4 R 1 -5 R 1 -4 R 1 -4 R 0 -5 R
1 -4 R 1 -4 R 1 -4 R 1 -4 R 1 -4 R 1 -4 R 1 -4 R 1 -5 R 1 -3 R 1 -4 R 1 -4 R
1 -4 R 0 -4 R 2 -4 R 0 -4 R 1 -4 R 1 -3 R 1 -4 R 1 -4 R 1 -4 R 1 -4 R 1 -3 R
1 -4 R 1 -4 R 1 -3 R 1 -4 R 1 -4 R 0 -3 R 1 -4 R 1 -4 R 1 -3 R 1 -3 R 1 -4 R
1 -3 R 1 -4 R 1 -3 R 1 -4 R 1 -3 R 1 -3 R 1 -4 R 1 -3 R 1 -4 R 0 -3 R 1 -3 R
1 -4 R 1 -3 R 1 -3 R 1 -3 R 1 -4 R 1 -3 R 1 -3 R 1 -3 R 1 -3 R 1 -3 R 1 -4 R
1 -3 R 1 -3 R 0 -3 R 1 -3 R 1 -3 R 1 -3 R 1 -3 R 1 -3 R 1 -3 R 1 -3 R 1 -3 R
1 -3 R 1 -3 R 1 -3 R 1 -3 R 1 -3 R 0 -3 R 1 -3 R 1 -2 R 1 -3 R 1 -3 R 1 -3 R
1 -3 R 1 -2 R 1 -3 R 1 -3 R 1 -3 R 1 -3 R 1 -2 R 1 -3 R 0 -3 R 1 -2 R 1 -3 R
1 -3 R 1 -2 R 1 -3 R 1 -3 R 1 -2 R 1 -3 R 1 -2 R 1 -3 R 1 -3 R 1 -2 R 1 -3 R
0 -2 R 1 -3 R 1 -2 R 1 -3 R 1 -2 R 1 -3 R 1 -2 R 1 -3 R 1 -2 R 1 -3 R 1 -2 R
1 -2 R 1 -3 R 1 -2 R 1 -3 R 0 -2 R 1 -2 R 1 -3 R 1 -2 R 1 -2 R 1 -3 R 1 -2 R
1 -2 R 1 -3 R 1 -2 R 1 -2 R 1 -2 R 1 -3 R 1 -2 R 1 -2 R 0 -2 R 1 -2 R 1 -3 R
1 -2 R 1 -2 R 1 -2 R 1 -2 R 1 -3 R 1 -2 R 1 -2 R 1 -2 R 1 -2 R 1 -2 R 0 -2 R
2 -3 R 0 -2 R 1 -2 R 1 -1 R 1 -2 R 1 -2 R 1 -1 R 1 -2 R 1 -2 R 1 -1 R 1 -2 R
1 -2 R 1 -1 R 1 -2 R 0 -1 R 1 -2 R 1 -2 R 1 -1 R 1 -2 R 1 -1 R 1 -2 R 1 -2 R
1 -1 R 1 -2 R 1 -1 R 1 -2 R 1 -2 R 1 -1 R 1 -2 R 0 -1 R 1 -2 R 1 -1 R 1 -2 R
1 -1 R 1 -2 R 1 -1 R 1 -2 R 1 -1 R 1 -2 R 1 -1 R 1 -1 R 1 -2 R 1 -1 R 1 -2 R
0 -1 R 1 -2 R 1 -1 R 1 -2 R 1 -1 R 1 -1 R 1 -2 R 1 -1 R 1 -2 R 1 -1 R 1 -1 R
1 -2 R 1 -1 R 1 -2 R 0 -1 R 1 -1 R 1 -2 R 1 -1 R 1 -1 R 1 -2 R 1 -1 R 1 -1 R
1 -2 R 1 -1 R 1 -1 R 1 -2 R 1 -1 R 1 -1 R 0 -1 R 1 -2 R 1 -1 R 1 -1 R 1 -2 R
1 -1 R 1 -1 R 1 -2 R 1 -1 R 1 -1 R 1 -1 R 1 -2 R 1 -1 R 1 -1 R 1 0 R 1 0 R
1 1 R 1 0 R 1 0 R 1 1 R 1 0 R 1 0 R 1 0 R 1 1 R 1 0 R 1 0 R 1 1 R 1 0 R
1 1 R 1 0 R 1 0 R 1 1 R 1 0 R 1 0 R 1 0 R 1 1 R 1 0 R 1 0 R 1 1 R 1 0 R
1 0 R 1 1 R 1 0 R 1 1 R 1 0 R 1 0 R 1 0 R 1 1 R 1 0 R 1 0 R 1 1 R 1 0 R
1 0 R 1 1 R 1 0 R 1 0 R 1 1 R 1 0 R 1 0 R 1 1 R 1 0 R 1 0 R 1 1 R 1 0 R
1 0 R 1 0 R 1 1 R 1 0 R 1 1 R 1 0 R 1 0 R 1 0 R 1 1 R 1 0 R 1 0 R 1 1 R
1 0 R 1 0 R 1 0 R 1 1 R 1 0 R 1 0 R 0 1 R 1 0 R 1 0 R 1 0 R 1 1 R 1 0 R
1 0 R 1 1 R 1 0 R 1 0 R 1 0 R 1 1 R 1 0 R 1 0 R 1 1 R 1 0 R 1 0 R 1 1 R
1 0 R 1 0 R 1 1 R 1 0 R 1 0 R 1 0 R 1 1 R 1 0 R 1 0 R 1 0 R 1 1 R 1 0 R
1 1 R 1 0 R 1 0 R 1 0 R 1 1 R 1 0 R 1 0 R 1 0 R 1 1 R 1 0 R 1 0 R 0 1 R
1 0 R 1 0 R 1 0 R 1 1 R 1 0 R 1 0 R 1 0 R 1 1 R 1 0 R 1 0 R 1 1 R 1 0 R
1 0 R 1 0 R 0 1 R 1 0 R 1 0 R 1 0 R 1 1 R 1 0 R 1 0 R 1 0 R 1 1 R 1 0 R
1 0 R 1 0 R 1 1 R 1 0 R 1 0 R 1 1 R 1 0 R 1 0 R 1 1 R 1 0 R 1 0 R 1 0 R
1 1 R 1 0 R 1 0 R 1 0 R 1 1 R 1 0 R 1 0 R 1 1 R 1 0 R 1 0 R 1 0 R 1 1 R
1 0 R 1 0 R 1 0 R 1 1 R 1 0 R 1 0 R 1 0 R 1 1 R 1 0 R 1 0 R 1 1 R 1 0 R
1 0 R 1 0 R 1 1 R 1 0 R 1 0 R 1 0 R 1 1 R 1 0 R 1 0 R 1 1 R 1 0 R 1 0 R
1 0 R 1 1 R 1 0 R 1 0 R 1 0 R 1 1 R 1 0 R 1 0 R 1 0 R 1 1 R 1 0 R 1 0 R
1 0 R 1 1 R 1 0 R 1 0 R 1 0 R 1 1 R 1 0 R 1 0 R 1 0 R 1 1 R 1 0 R 1 0 R
1 1 R 1 0 R 1 0 R 1 0 R 1 1 R 1 0 R 1 0 R 1 0 R 1 0 R 1 1 R 1 0 R 1 0 R
1 0 R 1 1 R 1 0 R 1 0 R 1 1 R 1 0 R 1 0 R 1 0 R 1 1 R 1 0 R 1 0 R 1 0 R
1 0 R 1 1 R 2 0 R 1 1 R 1 0 R 1 0 R 1 0 R 1 0 R 1 1 R 1 0 R 1 0 R 1 0 R
1 1 R 1 0 R 1 0 R 1 1 R 1 0 R 1 0 R 1 0 R 1 0 R 1 1 R 1 0 R 1 0 R 1 0 R
1 1 R 1 0 R 1 0 R 1 0 R 1 0 R 0 1 R 1 0 R 1 0 R 1 0 R 1 1 R 1 0 R 1 0 R
1 0 R 1 0 R 1 1 R 1 0 R 1 0 R 1 0 R 1 1 R 1 0 R 1 0 R 1 0 R 1 1 R 1 0 R
1 0 R 1 0 R 1 0 R 1 1 R 1 0 R 1 0 R 1 0 R 1 1 R 1 0 R 1 0 R 1 0 R 1 1 R
1 0 R 1 0 R 1 0 R 1 0 R 1 1 R 1 0 R 1 0 R 1 0 R 1 1 R 1 0 R 1 0 R 1 0 R
1 1 R 1 0 R 1 0 R 1 0 R 1 0 R 1 1 R 1 0 R 1 0 R 1 0 R 1 0 R 1 1 R 1 0 R
1 0 R 1 0 R 1 1 R 1 0 R 1 0 R 1 0 R 1 1 R 1 0 R 1 0 R 1 0 R 1 0 R 1 1 R
1 0 R 1 0 R 1 0 R 1 1 R 1 0 R 1 0 R 1 0 R 1 0 R 1 1 R 1 0 R 1 0 R 1 0 R
1 0 R 1 1 R 1 0 R 1 0 R 1 0 R 1 1 R 1 0 R 1 0 R 1 0 R 1 0 R 1 1 R 1 0 R
1 0 R 1 0 R 1 0 R 1 1 R 1 0 R 1 0 R 1 0 R 1 1 R 1 0 R 1 0 R 1 0 R 1 0 R
1 1 R 1 0 R 1 0 R 1 0 R D 16026 2309 M 1 0 R 1 1 R 1 0 R 1 0 R 1 0 R 1 0 R
1 1 R 1 0 R 1 0 R 1 0 R 1 0 R 1 1 R 1 0 R 1 0 R 1 0 R 1 1 R 1 0 R 1 0 R
1 0 R 1 0 R 1 1 R 1 0 R 1 0 R 1 0 R 1 0 R 1 0 R 1 1 R 1 0 R 1 0 R 1 0 R
1 1 R 1 0 R 1 0 R 1 0 R 1 0 R 1 1 R 1 0 R 1 0 R 1 0 R 1 0 R 1 0 R 0 1 R
2 0 R 1 0 R 1 0 R 1 1 R 1 0 R 1 0 R 1 0 R 1 0 R 1 0 R 1 1 R 1 0 R 1 0 R
1 0 R 1 1 R 1 0 R 1 0 R 1 0 R 1 0 R 1 0 R 1 1 R 1 0 R 1 0 R 1 0 R 1 0 R
1 1 R 1 0 R 1 0 R 1 0 R 1 0 R 1 1 R 1 0 R 1 0 R 1 0 R 1 0 R 1 1 R 1 0 R
1 0 R 1 0 R 1 0 R 1 0 R 1 1 R 1 0 R 1 0 R 1 0 R 1 1 R 1 0 R 1 0 R 1 0 R
1 0 R 1 0 R 1 1 R 1 0 R 1 0 R 1 0 R 1 0 R 1 1 R 1 0 R 1 0 R 1 0 R 1 0 R
1 0 R 1 1 R 1 0 R 1 0 R 1 0 R 1 0 R 1 0 R 0 1 R 1 0 R 1 0 R 1 0 R 1 0 R
1 1 R 1 0 R 1 0 R 1 0 R 1 0 R 1 0 R 1 1 R 1 0 R 1 0 R 1 0 R 1 0 R 1 1 R
1 0 R 1 0 R 1 0 R 1 0 R 1 0 R 1 1 R 1 0 R 1 0 R 1 0 R 1 0 R 1 0 R 0 1 R
1 0 R 1 0 R 1 0 R 1 0 R 1 0 R 1 1 R 1 0 R 1 0 R 1 0 R 1 0 R 1 0 R 1 1 R
1 0 R 1 0 R 1 0 R 1 0 R 1 1 R 1 0 R 1 0 R 1 0 R 1 0 R 1 0 R 1 1 R 1 0 R
1 0 R 1 0 R 2 0 R 1 1 R 1 0 R 1 0 R 1 0 R 1 0 R 1 0 R 1 1 R 1 0 R 1 0 R
1 0 R 1 0 R 1 0 R 0 1 R 1 0 R 1 0 R 1 0 R 1 0 R 1 0 R 1 1 R 1 0 R 1 0 R
1 0 R 1 0 R 1 0 R 1 0 R 1 1 R 1 0 R 1 0 R 1 0 R 1 0 R 1 1 R 1 0 R 1 0 R
1 0 R 1 0 R 1 0 R 1 1 R 1 0 R 1 0 R 1 0 R 1 0 R 1 0 R 1 1 R 1 0 R 1 0 R
1 0 R 1 0 R 1 0 R 1 1 R 1 0 R 1 0 R 1 0 R 1 0 R 1 0 R 1 1 R 1 0 R 1 0 R
1 0 R 1 0 R 1 0 R 1 1 R 1 0 R 1 0 R 1 0 R 1 0 R 1 0 R 1 0 R 0 1 R 1 0 R
1 0 R 1 0 R 1 0 R 1 0 R 1 0 R 1 1 R 1 0 R 1 0 R 1 0 R 1 0 R 1 0 R 1 1 R
1 0 R 1 0 R 1 0 R 1 0 R 1 0 R 1 1 R 1 0 R 1 0 R 1 0 R 1 0 R 1 0 R 1 0 R
1 1 R 1 0 R 1 0 R 1 0 R 1 0 R 1 0 R 1 1 R 1 0 R 1 0 R 1 0 R 1 0 R 1 0 R
1 0 R 1 1 R 1 0 R 1 0 R 1 0 R 1 0 R 1 0 R 1 1 R 1 0 R 1 0 R 1 0 R 1 0 R
1 0 R 1 0 R 1 1 R 1 0 R 1 0 R 1 0 R 1 0 R 1 0 R 1 1 R 1 0 R 1 0 R 1 0 R
1 0 R 1 0 R 1 0 R 1 1 R 1 0 R 1 0 R 1 0 R 1 0 R 1 0 R 1 1 R 1 0 R 1 0 R
1 0 R 1 0 R 1 0 R 1 0 R 1 1 R 1 0 R 1 0 R 1 0 R 1 0 R 1 0 R 1 1 R 1 0 R
1 0 R 1 0 R 1 0 R 1 0 R 1 0 R 1 1 R 1 0 R 1 0 R 1 0 R 1 0 R 1 0 R 1 0 R
1 1 R 1 0 R 1 0 R 1 0 R 1 0 R 1 0 R 1 0 R 1 1 R 1 0 R 1 0 R 1 0 R 1 0 R
1 0 R 1 0 R 1 1 R 1 0 R 1 0 R 1 0 R 1 0 R 1 0 R 1 0 R 1 1 R 1 0 R 1 0 R
1 0 R 1 0 R 1 0 R 1 0 R 1 1 R 1 0 R 1 0 R 1 0 R 1 0 R 1 0 R 1 0 R 1 1 R
1 0 R 1 0 R 1 0 R 1 0 R 1 0 R 1 0 R 1 1 R 1 0 R 1 0 R 1 0 R 1 0 R 1 0 R
1 0 R 1 1 R 1 0 R 1 0 R 1 0 R 1 0 R 1 0 R 1 0 R 1 1 R 1 0 R 1 0 R 1 0 R
1 0 R 1 0 R 1 0 R 1 0 R 1 1 R 1 0 R 1 0 R 1 0 R 1 0 R 1 0 R 1 0 R 1 1 R
1 0 R 1 0 R 1 0 R 1 0 R 1 0 R 1 0 R 1 1 R 1 0 R 1 0 R 1 0 R 1 0 R 1 0 R
1 0 R 1 0 R 1 1 R 1 0 R 1 0 R 1 0 R 1 0 R 1 0 R 1 1 R 1 0 R 1 0 R 1 0 R
1 0 R 1 0 R 1 0 R 1 0 R 1 0 R 1 1 R 1 0 R 1 0 R 1 0 R 1 0 R 1 0 R 1 0 R
1 1 R 1 0 R 1 0 R 1 0 R 1 0 R 1 0 R 1 0 R 1 0 R 1 1 R 1 0 R 1 0 R 1 0 R
1 0 R 1 0 R 1 0 R 1 1 R 1 0 R 1 0 R 1 0 R 1 0 R 1 0 R 1 0 R 1 0 R 1 1 R
1 0 R 1 0 R 1 0 R 1 0 R 1 0 R 1 0 R 1 0 R 1 1 R 1 0 R 1 0 R 1 0 R 1 0 R
1 0 R 2 0 R 0 1 R 1 0 R 1 0 R 1 0 R 1 0 R 1 0 R 1 0 R 1 0 R 1 0 R 1 1 R
1 0 R 1 0 R 1 0 R 1 0 R 1 0 R 1 0 R 1 1 R 1 0 R 1 0 R 1 0 R 1 0 R 1 0 R
1 0 R 1 1 R 1 0 R 1 0 R 1 0 R 1 0 R 1 0 R 1 1 R 1 0 R 1 0 R 1 0 R 1 0 R
1 0 R 1 0 R 1 0 R 1 1 R 1 0 R 1 0 R 1 0 R 1 0 R 1 0 R 1 1 R 1 0 R 1 0 R
1 0 R 1 0 R 1 0 R 1 0 R 1 1 R 1 0 R 1 0 R 1 0 R 1 0 R 1 0 R 1 0 R 1 1 R
1 0 R 1 0 R 1 0 R 1 0 R 1 0 R 1 0 R 1 1 R 1 0 R 1 0 R 1 0 R 1 0 R 1 0 R
1 1 R 1 0 R 1 0 R 1 0 R 1 0 R 1 0 R 1 0 R 1 0 R 1 1 R 1 0 R 1 0 R 1 0 R
1 0 R 1 0 R 1 1 R 1 0 R 1 0 R 1 0 R 1 0 R 1 0 R 1 0 R 1 0 R 1 1 R 1 0 R
1 0 R 1 0 R 1 0 R 1 0 R 1 0 R 1 1 R 1 0 R 1 0 R 1 0 R 1 0 R 1 0 R 1 0 R
1 1 R 1 0 R 1 0 R 1 0 R 1 0 R 1 0 R 1 0 R 1 1 R 1 0 R 1 0 R 1 0 R 1 0 R
1 0 R 1 0 R 1 0 R 1 1 R 1 0 R 1 0 R 1 0 R 1 0 R 1 0 R 1 0 R 1 1 R 1 0 R
1 0 R 1 0 R 1 0 R 1 0 R 1 0 R 1 1 R 1 0 R 1 0 R 1 0 R 1 0 R 1 0 R 1 0 R
1 1 R 1 0 R 1 0 R 1 0 R 1 0 R 1 0 R 1 0 R 1 0 R 1 1 R 1 0 R 1 0 R 1 0 R
1 0 R 1 0 R 1 0 R 1 0 R 1 1 R 1 0 R 1 0 R 1 0 R 1 0 R 1 0 R 1 0 R 1 1 R
1 0 R 1 0 R 1 0 R 1 0 R 1 0 R 1 0 R 1 0 R 1 1 R 2 0 R 1 0 R 1 0 R 1 0 R
1 0 R 1 1 R 1 0 R 1 0 R 1 0 R 1 0 R 1 0 R 1 0 R 1 0 R 0 1 R 1 0 R 1 0 R
1 0 R 1 0 R 1 0 R 1 0 R 1 0 R 1 1 R 1 0 R 1 0 R 1 0 R 1 0 R 1 0 R 1 0 R
1 0 R 1 1 R 1 0 R 1 0 R 1 0 R 1 0 R 1 0 R 1 0 R 1 0 R 1 1 R 1 0 R 1 0 R
1 0 R 1 0 R 1 0 R 1 0 R 1 0 R 1 1 R 1 0 R 1 0 R 1 0 R 1 0 R 1 0 R 1 0 R
1 0 R 1 1 R 1 0 R 1 0 R 1 0 R 1 0 R 1 0 R 1 0 R 1 0 R 1 1 R 1 0 R 1 0 R
1 0 R 1 0 R 1 0 R 1 0 R 1 1 R 1 0 R 1 0 R 1 0 R 1 0 R 1 0 R 1 0 R 1 0 R
1 0 R 1 1 R 1 0 R 1 0 R 1 0 R 1 0 R 1 0 R 1 0 R 1 0 R 1 1 R 1 0 R 1 0 R
1 0 R 1 0 R 1 0 R 1 0 R 1 0 R 1 0 R 1 1 R 1 0 R 1 0 R 1 0 R 1 0 R 1 0 R D
16773 2423 M 1 0 R 1 0 R 1 1 R 1 0 R 1 0 R 1 0 R 1 0 R 1 0 R 1 0 R 1 1 R
1 0 R 1 0 R 1 0 R 1 0 R 1 0 R 1 0 R 1 0 R 1 0 R 1 1 R 1 0 R 1 0 R 2 0 R
1 0 R 1 0 R 1 0 R 1 1 R 1 0 R 1 0 R 1 0 R 1 0 R 1 0 R 1 0 R 1 0 R 1 0 R
1 1 R 1 0 R 1 0 R 1 0 R 1 0 R 1 0 R 1 0 R 1 0 R 1 0 R 1 1 R 1 0 R 1 0 R
1 0 R 1 0 R 1 0 R 1 0 R 1 0 R 1 1 R 1 0 R 1 0 R 1 0 R 1 0 R 1 0 R 1 0 R
1 0 R 1 0 R 1 1 R 1 0 R 1 0 R 1 0 R 1 0 R 1 0 R 1 0 R 1 0 R 1 0 R 1 1 R
1 0 R 1 0 R 1 0 R 1 0 R 1 0 R 1 0 R 1 0 R 1 1 R 1 0 R 1 0 R 1 0 R 1 0 R
1 0 R 1 0 R 1 0 R 1 0 R 1 0 R 1 1 R 1 0 R 1 0 R 1 0 R 1 0 R 1 0 R 1 0 R
1 0 R 1 1 R 1 0 R 1 0 R 1 0 R 1 0 R 1 0 R 1 0 R 1 0 R 1 0 R 1 1 R 1 0 R
1 0 R 1 0 R 1 0 R 1 0 R 1 0 R 1 0 R 1 0 R 1 0 R 1 1 R 1 0 R 1 0 R 1 0 R
1 0 R 1 0 R 1 0 R 1 0 R 1 1 R 1 0 R 1 0 R 1 0 R 1 0 R 1 0 R 1 0 R 1 0 R
1 0 R 1 1 R 1 0 R 1 0 R 1 0 R 1 0 R 1 0 R 1 0 R 1 0 R 1 0 R 1 0 R 1 1 R
1 0 R 1 0 R 1 0 R 1 0 R 1 0 R 1 0 R 1 0 R 1 0 R 1 1 R 1 0 R 1 0 R 1 0 R
1 0 R 1 0 R 1 0 R 1 0 R 1 0 R 1 1 R 1 0 R 1 0 R 1 0 R 1 0 R 1 0 R 1 0 R
1 0 R 1 0 R 1 0 R 0 1 R 1 0 R 1 0 R 1 0 R 1 0 R 1 0 R 1 0 R 1 0 R 1 0 R
1 0 R 1 0 R 1 1 R 1 0 R 1 0 R 1 0 R 1 0 R 1 0 R 1 0 R 1 0 R 1 0 R 1 1 R
1 0 R 1 0 R 1 0 R 1 0 R 1 0 R 1 0 R 1 0 R 1 0 R 1 1 R 1 0 R 1 0 R 1 0 R
1 0 R 1 0 R 1 0 R 1 0 R 1 0 R 1 0 R 1 0 R 1 1 R 1 0 R 1 0 R 1 0 R 1 0 R
1 0 R 1 0 R 1 0 R 1 0 R 1 1 R 1 0 R 1 0 R 1 0 R 1 0 R 1 0 R 1 0 R 1 0 R
1 0 R 1 0 R 1 1 R 1 0 R 1 0 R 1 0 R 1 0 R 1 0 R 1 0 R 1 0 R 1 0 R 1 0 R
0 1 R 1 0 R 1 0 R 1 0 R 1 0 R 1 0 R 1 0 R 1 0 R 1 0 R 1 0 R 1 0 R 1 1 R
1 0 R 1 0 R 1 0 R 1 0 R 1 0 R 1 0 R 1 0 R 1 0 R 1 0 R 1 1 R 1 0 R 1 0 R
1 0 R 1 0 R 1 0 R 1 0 R 1 0 R 1 0 R 1 0 R 1 1 R 1 0 R 1 0 R 1 0 R 1 0 R
1 0 R 1 0 R 1 0 R 1 0 R 1 0 R 1 1 R 1 0 R 1 0 R 1 0 R 1 0 R 1 0 R 1 0 R
1 0 R 1 0 R 1 0 R 1 0 R 1 1 R 1 0 R 1 0 R 1 0 R 1 0 R 1 0 R 1 0 R 1 0 R
1 0 R 1 0 R 1 1 R 1 0 R 1 0 R 1 0 R 1 0 R 1 0 R 1 0 R 1 0 R 1 0 R 1 0 R
1 1 R 1 0 R 1 0 R 1 0 R 1 0 R 1 0 R 1 0 R 1 0 R 1 0 R 1 0 R 1 0 R 1 1 R
1 0 R 1 0 R 1 0 R 1 0 R 1 0 R 1 0 R 1 0 R 1 0 R 1 0 R 1 0 R 0 1 R 2 0 R
1 0 R 1 0 R 1 0 R 1 0 R 1 0 R 1 0 R 1 0 R 1 0 R 1 0 R 1 1 R 1 0 R 1 0 R
1 0 R 1 0 R 1 0 R 1 0 R 1 0 R 1 0 R 1 0 R 1 1 R 1 0 R 1 0 R 1 0 R 1 0 R
1 0 R 1 0 R 1 0 R 1 0 R 1 0 R 1 0 R 1 1 R 1 0 R 1 0 R 1 0 R 1 0 R 1 0 R
1 0 R 1 0 R 1 0 R 1 0 R 1 0 R 1 1 R 1 0 R 1 0 R 1 0 R 1 0 R 1 0 R 1 0 R
1 0 R 1 0 R 1 0 R 1 0 R 1 1 R 1 0 R 1 0 R 1 0 R 1 0 R 1 0 R 1 0 R 1 0 R
1 0 R 1 0 R 1 0 R 1 0 R 1 1 R 1 0 R 1 0 R 1 0 R 1 0 R 1 0 R 1 0 R 1 0 R
1 0 R 1 0 R 1 0 R 1 1 R 1 0 R 1 0 R 1 0 R 1 0 R 1 0 R 1 0 R 1 0 R 1 0 R
1 0 R 1 0 R 1 1 R 1 0 R 1 0 R 1 0 R 1 0 R 1 0 R 1 0 R 1 0 R 1 0 R 1 0 R
1 0 R 1 1 R 1 0 R 1 0 R 1 0 R 1 0 R 1 0 R 1 0 R 1 0 R 1 0 R 1 0 R 1 0 R
1 0 R 1 1 R 1 0 R 1 0 R 1 0 R 1 0 R 1 0 R 1 0 R 1 0 R 1 0 R 1 0 R 1 0 R
1 1 R 1 0 R 1 0 R 1 0 R 1 0 R 1 0 R 1 0 R 1 0 R 1 0 R 1 0 R 1 0 R 1 0 R
1 0 R 0 1 R 1 0 R 1 0 R 1 0 R 1 0 R 1 0 R 1 0 R 1 0 R 1 0 R 1 0 R 1 0 R
1 0 R 1 1 R 1 0 R 1 0 R 1 0 R 1 0 R 1 0 R 1 0 R 1 0 R 1 0 R 1 0 R 1 0 R
1 0 R 1 1 R 1 0 R 1 0 R 1 0 R 1 0 R 1 0 R 1 0 R 1 0 R 1 0 R 1 0 R 1 0 R
1 0 R 1 1 R 1 0 R 1 0 R 1 0 R 1 0 R 2 0 R 1 0 R 1 0 R 1 0 R 1 0 R 1 0 R
1 1 R 1 0 R 1 0 R 1 0 R 1 0 R 1 0 R 1 0 R 1 0 R 1 0 R 1 0 R 1 0 R 1 0 R
1 1 R 1 0 R 1 0 R 1 0 R 1 0 R 1 0 R 1 0 R 1 0 R 1 0 R 1 0 R 1 0 R 1 0 R
1 1 R 1 0 R 1 0 R 1 0 R 1 0 R 1 0 R 1 0 R 1 0 R 1 0 R 1 0 R 1 0 R 1 0 R
1 1 R 1 0 R 1 0 R 1 0 R 1 0 R 1 0 R 1 0 R 1 0 R 1 0 R 1 0 R 1 0 R 1 0 R
1 0 R 1 1 R 1 0 R 1 0 R 1 0 R 1 0 R 1 0 R 1 0 R 1 0 R 1 0 R 1 0 R 1 0 R
1 0 R 1 1 R 1 0 R 1 0 R 1 0 R 1 0 R 1 0 R 1 0 R 1 0 R 1 0 R 1 0 R 1 0 R
1 0 R 1 0 R 1 0 R 0 1 R 1 0 R 1 0 R 1 0 R 1 0 R 1 0 R 1 0 R 1 0 R 1 0 R
1 0 R 1 0 R 1 0 R 1 0 R 1 0 R 0 1 R 1 0 R 1 0 R 1 0 R 1 0 R 1 0 R 1 0 R
1 0 R 1 0 R 1 0 R 1 0 R 1 0 R 1 0 R 1 0 R 1 1 R 1 0 R 1 0 R 1 0 R 1 0 R
1 0 R 1 0 R 1 0 R 1 0 R 1 0 R 1 0 R 1 0 R 1 0 R 0 1 R 2 0 R 1 0 R 1 0 R
1 0 R 1 0 R 1 0 R 1 0 R 1 0 R 1 0 R 1 0 R 1 0 R 1 0 R 1 1 R 1 0 R 1 0 R
1 0 R 1 0 R 1 0 R 1 0 R 1 0 R 1 0 R 1 0 R 1 0 R 1 0 R 1 0 R 1 1 R 1 0 R
1 0 R 1 0 R 1 0 R 1 0 R 1 0 R 1 0 R 1 0 R 1 0 R 1 0 R 1 0 R 1 0 R 1 1 R
1 0 R 1 0 R 1 0 R 1 0 R 1 0 R 1 0 R 1 0 R D
%%PageTrailer
end
restore
showpage
%%PageResources: font Helvetica
%%Trailer
restore
%%Pages: 1
%%DocumentNeededResources: font Helvetica
%%EOF
