%!PS-Adobe-3.0
%%BoundingBox: 0 0 720 504
%%Title: Graphics produced by IDL
%%For: peters11@basov.physics.purdue.edu, 
%%      /Users/peters11/imsims/trunk/validation
%%Creator: IDL Version 6.3, Mac OS X (darwin i386 m32)
%%CreationDate: Thu Oct 20 10:42:26 2011
%%DocumentData: Clean7bit
%%Requirements: color
%%LanguageLevel: 1
%%PageOrder: Ascend
%%Pages: (atend)
%%DocumentNeededResources: (atend)
%%EndComments
%%BeginProlog
save
%+ prolog.ps -- Prolog for IDL generated PostScript files
%+ Copyright (c) 1988-2006 Research Systems, Inc. All Rights Reserved.
%v 5
/$IDL_DICT 40 dict def $IDL_DICT begin /bdef { bind def } bind def /C
{currentpoint newpath moveto} bdef /CP {currentpoint} bdef /D {currentpoint
stroke moveto} bdef /F {closepath fill} bdef /K { setgray } bdef /M {moveto}
bdef /N {rmoveto} bdef /P {lineto} bdef /R {rlineto} bdef /S {gsave show
grestore} bdef /X {currentpoint pop} bdef /Z {gsave currentpoint lineto 20
setlinewidth 1 setlinecap stroke grestore} bdef /L0 {[] 0 setdash} bdef /L1
{[40 100] 0 setdash} bdef /L2 {[200 200] 0 setdash} bdef /L3 {[200 100 50
100] 0 setdash} bdef /L4 {[300 100 50 100 50 100 50 100] 0 setdash} bdef /L5
{[400 200] 0 setdash} bdef /STDFONT { findfont exch scalefont setfont } bdef
/ISOFONT { findfont dup length dict begin { 1 index /FID ne {def} {pop pop}
ifelse } forall /Encoding ISOLatin1Encoding def currentdict end /idltmpfont
exch definefont exch scalefont setfont } bdef /ISOBULLET { gsave /Helvetica
findfont exch scalefont setfont (\267) show currentpoint grestore moveto}
bdef /MITERLIMIT { 2.5 setmiterlimit } bdef end
%%EndProlog
%%Page: 0 1
%%PageRequirements: color
%%PageResources: (atend)
%%PageOrientation: Portrait
%%PageBoundingBox: 0 0 720 504
%%BeginPageSetup
save
$IDL_DICT begin 0 0 translate 0.0283465 dup scale MITERLIMIT
%%IncludeResource: font Helvetica
423.333 /Helvetica STDFONT
%%EndPageSetup
20 setlinewidth L0 0.000 0.000 0.000 setrgbcolor 2220 1408 M 22514 0 R D
2769 1408 M 0 313 R D 2746 1125 M -35 -11 R -24 -35 R -11 -59 R 0 -35 R
11 -58 R 24 -35 R 35 -12 R 23 0 R 35 12 R 24 35 R 11 58 R 0 35 R -11 59 R
-24 35 R -35 11 R -23 0 R D 8260 1408 M 0 313 R D 8085 1079 M 24 11 R
35 35 R 0 -245 R D 8354 1125 M -35 -11 R -23 -35 R -12 -59 R 0 -35 R
12 -58 R 23 -35 R 35 -12 R 23 0 R 35 12 R 24 35 R 11 58 R 0 35 R -11 59 R
-24 35 R -35 11 R -23 0 R D 13752 1408 M 0 313 R D 13553 1067 M 0 12 R
12 23 R 11 12 R 24 11 R 47 0 R 23 -11 R 12 -12 R 11 -23 R 0 -24 R -11 -23 R
-24 -35 R -117 -117 R 164 0 R D 13845 1125 M -35 -11 R -23 -35 R -12 -59 R
0 -35 R 12 -58 R 23 -35 R 35 -12 R 24 0 R 35 12 R 23 35 R 12 58 R 0 35 R
-12 59 R -23 35 R -35 11 R -24 0 R D 19243 1408 M 0 313 R D 19056 1125 M
128 0 R -70 -93 R 35 0 R 24 -12 R 11 -11 R 12 -35 R 0 -24 R -12 -35 R
-23 -23 R -35 -12 R -35 0 R -35 12 R -12 11 R -11 24 R D 19336 1125 M
-35 -11 R -23 -35 R -12 -59 R 0 -35 R 12 -58 R 23 -35 R 35 -12 R 24 0 R
35 12 R 23 35 R 12 58 R 0 35 R -12 59 R -23 35 R -35 11 R -24 0 R D
24734 1408 M 0 313 R D 24641 1125 M -117 -163 R 175 0 R D 24641 1125 M
0 -245 R D 24828 1125 M -35 -11 R -24 -35 R -12 -59 R 0 -35 R 12 -58 R
24 -35 R 35 -12 R 23 0 R 35 12 R 23 35 R 12 58 R 0 35 R -12 59 R -23 35 R
-35 11 R -23 0 R D 2220 1408 M 0 157 R D 3318 1408 M 0 157 R D 3867 1408 M
0 157 R D 4417 1408 M 0 157 R D 4966 1408 M 0 157 R D 5515 1408 M 0 157 R D
6064 1408 M 0 157 R D 6613 1408 M 0 157 R D 7162 1408 M 0 157 R D
7711 1408 M 0 157 R D 8810 1408 M 0 157 R D 9359 1408 M 0 157 R D
9908 1408 M 0 157 R D 10457 1408 M 0 157 R D 11006 1408 M 0 157 R D
11555 1408 M 0 157 R D 12104 1408 M 0 157 R D 12653 1408 M 0 157 R D
13203 1408 M 0 157 R D 14301 1408 M 0 157 R D 14850 1408 M 0 157 R D
15399 1408 M 0 157 R D 15948 1408 M 0 157 R D 16497 1408 M 0 157 R D
17046 1408 M 0 157 R D 17596 1408 M 0 157 R D 18145 1408 M 0 157 R D
18694 1408 M 0 157 R D 19792 1408 M 0 157 R D 20341 1408 M 0 157 R D
20890 1408 M 0 157 R D 21439 1408 M 0 157 R D 21989 1408 M 0 157 R D
22538 1408 M 0 157 R D 23087 1408 M 0 157 R D 23636 1408 M 0 157 R D
24185 1408 M 0 157 R D 12595 668 M 0 -246 R D 12595 668 M 93 -246 R 94 246 R
0 -246 R D 13004 586 M 0 -164 R D 13004 551 M -23 23 R -24 12 R -35 0 R
-23 -12 R -24 -23 R -11 -35 R 0 -23 R 11 -35 R 24 -24 R 23 -12 R 35 0 R
24 12 R 23 24 R D 13226 586 M 0 -199 R -12 -35 R -11 -11 R -24 -12 R -35 0 R
-23 12 R D 13226 551 M -23 23 R -24 12 R -35 0 R -23 -12 R -24 -23 R
-11 -35 R 0 -23 R 11 -35 R 24 -24 R 23 -12 R 35 0 R 24 12 R 23 24 R D
13319 586 M 0 -164 R D 13319 539 M 35 35 R 24 12 R 35 0 R 23 -12 R 12 -35 R
0 -117 R D 13530 668 M 11 -12 R 12 12 R -12 12 R -11 -12 R D 13541 586 M
0 -164 R D 13647 668 M 0 -199 R 11 -35 R 24 -12 R 23 0 R D 13611 586 M
82 0 R D 13775 586 M 0 -117 R 12 -35 R 23 -12 R 35 0 R 24 12 R 35 35 R D
13904 586 M 0 -164 R D 14126 668 M 0 -246 R D 14126 551 M -24 23 R -23 12 R
-35 0 R -24 -12 R -23 -23 R -12 -35 R 0 -23 R 12 -35 R 23 -24 R 24 -12 R
35 0 R 23 12 R 24 24 R D 14207 516 M 141 0 R 0 23 R -12 24 R -12 11 R
-23 12 R -35 0 R -24 -12 R -23 -23 R -12 -35 R 0 -23 R 12 -35 R 23 -24 R
24 -12 R 35 0 R 23 12 R 24 24 R D 2220 17076 M 22514 0 R D 2769 17076 M
0 -313 R D 8260 17076 M 0 -313 R D 13752 17076 M 0 -313 R D 19243 17076 M
0 -313 R D 24734 17076 M 0 -313 R D 2220 17076 M 0 -157 R D 3318 17076 M
0 -157 R D 3867 17076 M 0 -157 R D 4417 17076 M 0 -157 R D 4966 17076 M
0 -157 R D 5515 17076 M 0 -157 R D 6064 17076 M 0 -157 R D 6613 17076 M
0 -157 R D 7162 17076 M 0 -157 R D 7711 17076 M 0 -157 R D 8810 17076 M
0 -157 R D 9359 17076 M 0 -157 R D 9908 17076 M 0 -157 R D 10457 17076 M
0 -157 R D 11006 17076 M 0 -157 R D 11555 17076 M 0 -157 R D 12104 17076 M
0 -157 R D 12653 17076 M 0 -157 R D 13203 17076 M 0 -157 R D 14301 17076 M
0 -157 R D 14850 17076 M 0 -157 R D 15399 17076 M 0 -157 R D 15948 17076 M
0 -157 R D 16497 17076 M 0 -157 R D 17046 17076 M 0 -157 R D 17596 17076 M
0 -157 R D 18145 17076 M 0 -157 R D 18694 17076 M 0 -157 R D 19792 17076 M
0 -157 R D 20341 17076 M 0 -157 R D 20890 17076 M 0 -157 R D 21439 17076 M
0 -157 R D 21989 17076 M 0 -157 R D 22538 17076 M 0 -157 R D 23087 17076 M
0 -157 R D 23636 17076 M 0 -157 R D 24185 17076 M 0 -157 R D 2220 1408 M
0 15668 R D 2220 1408 M 450 0 R D 1367 1607 M 24 11 R 35 35 R 0 -245 R D
1636 1653 M -35 -11 R -23 -35 R -12 -59 R 0 -35 R 12 -58 R 23 -35 R 35 -12 R
24 0 R 35 12 R 23 35 R 12 58 R 0 35 R -12 59 R -23 35 R -35 11 R -24 0 R D
1798 1651 M 130 0 R D 1986 1701 M 0 8 R 7 14 R 8 7 R 14 8 R 29 0 R 14 -8 R
8 -7 R 7 -14 R 0 -15 R -7 -14 R -15 -22 R -72 -72 R 101 0 R D 2220 4257 M
450 0 R D 1556 4315 M 23 11 R 35 35 R 0 -245 R D 1824 4361 M -35 -11 R
-23 -35 R -12 -59 R 0 -35 R 12 -58 R 23 -35 R 35 -12 R 24 0 R 35 12 R
23 35 R 12 58 R 0 35 R -12 59 R -23 35 R -35 11 R -24 0 R D 2022 4445 M
-21 -7 R -15 -21 R -7 -37 R 0 -21 R 7 -36 R 15 -22 R 21 -7 R 15 0 R 21 7 R
15 22 R 7 36 R 0 21 R -7 37 R -15 21 R -21 7 R -15 0 R D 2220 7106 M 450 0 R
D 1556 7163 M 23 12 R 35 35 R 0 -245 R D 1824 7210 M -35 -12 R -23 -35 R
-12 -58 R 0 -35 R 12 -59 R 23 -35 R 35 -11 R 24 0 R 35 11 R 23 35 R 12 59 R
0 35 R -12 58 R -23 35 R -35 12 R -24 0 R D 1986 7258 M 0 7 R 7 15 R 8 7 R
14 7 R 29 0 R 14 -7 R 8 -7 R 7 -15 R 0 -14 R -7 -15 R -15 -21 R -72 -73 R
101 0 R D 2220 9954 M 450 0 R D 1556 10012 M 23 12 R 35 35 R 0 -246 R D
1824 10059 M -35 -12 R -23 -35 R -12 -58 R 0 -35 R 12 -59 R 23 -35 R
35 -12 R 24 0 R 35 12 R 23 35 R 12 59 R 0 35 R -12 58 R -23 35 R -35 12 R
-24 0 R D 2051 10143 M -72 -101 R 108 0 R D 2051 10143 M 0 -152 R D
2220 12803 M 450 0 R D 1556 12861 M 23 12 R 35 35 R 0 -246 R D 1824 12908 M
-35 -12 R -23 -35 R -12 -59 R 0 -35 R 12 -58 R 23 -35 R 35 -12 R 24 0 R
35 12 R 23 35 R 12 58 R 0 35 R -12 59 R -23 35 R -35 12 R -24 0 R D
2073 12970 M -7 14 R -22 8 R -14 0 R -22 -8 R -15 -21 R -7 -36 R 0 -37 R
7 -29 R 15 -14 R 22 -7 R 7 0 R 21 7 R 15 14 R 7 22 R 0 7 R -7 22 R -15 15 R
-21 7 R -7 0 R -22 -7 R -15 -15 R -7 -22 R D 2220 15652 M 450 0 R D
1556 15710 M 23 11 R 35 35 R 0 -245 R D 1824 15756 M -35 -11 R -23 -35 R
-12 -59 R 0 -35 R 12 -58 R 23 -35 R 35 -12 R 24 0 R 35 12 R 23 35 R 12 58 R
0 35 R -12 59 R -23 35 R -35 11 R -24 0 R D 2015 15840 M -22 -7 R -7 -14 R
0 -15 R 7 -14 R 15 -7 R 29 -8 R 21 -7 R 15 -14 R 7 -15 R 0 -22 R -7 -14 R
-7 -7 R -22 -7 R -29 0 R -22 7 R -7 7 R -7 14 R 0 22 R 7 15 R 15 14 R 21 7 R
29 8 R 15 7 R 7 14 R 0 15 R -7 14 R -22 7 R -29 0 R D 2220 2832 M 225 0 R D
2220 5681 M 225 0 R D 2220 8530 M 225 0 R D 2220 11379 M 225 0 R D
2220 14227 M 225 0 R D 2220 17076 M 225 0 R D 731 8570 M 245 0 R D
731 8570 M 245 164 R -245 0 R D 812 8827 M 117 0 R 35 12 R 12 23 R 0 35 R
-12 24 R -35 35 R D 812 8956 M 164 0 R D 812 9049 M 164 0 R D 859 9049 M
-35 35 R -12 24 R 0 35 R 12 23 R 35 12 R 117 0 R D 859 9178 M -35 35 R
-12 23 R 0 35 R 12 24 R 35 11 R 117 0 R D 731 9400 M 245 0 R D 848 9400 M
-24 23 R -12 24 R 0 35 R 12 23 R 24 23 R 35 12 R 23 0 R 35 -12 R 23 -23 R
12 -23 R 0 -35 R -12 -24 R -23 -23 R D 883 9610 M 0 140 R -24 0 R -23 -11 R
-12 -12 R -12 -23 R 0 -35 R 12 -24 R 24 -23 R 35 -12 R 23 0 R 35 12 R
23 23 R 12 24 R 0 35 R -12 23 R -23 23 R D 812 9832 M 164 0 R D 883 9832 M
-35 12 R -24 23 R -12 24 R 0 35 R D 24734 1408 M 0 15668 R D 24734 1408 M
-450 0 R D 24734 4257 M -450 0 R D 24734 7106 M -450 0 R D 24734 9954 M
-450 0 R D 24734 12803 M -450 0 R D 24734 15652 M -450 0 R D 24734 2832 M
-225 0 R D 24734 5681 M -225 0 R D 24734 8530 M -225 0 R D 24734 11379 M
-225 0 R D 24734 14227 M -225 0 R D 24734 17076 M -225 0 R D 10 setlinewidth
1.000 0.000 0.000 setrgbcolor 6613 3310 M 549 996 R 549 607 R 549 413 R
550 591 R 549 329 R 549 359 R 549 292 R 549 293 R 549 208 R 549 247 R
549 220 R 550 216 R 549 227 R 549 194 R 549 113 R 549 107 R 549 117 R
549 120 R 549 113 R 550 105 R 549 54 R 549 -354 R 549 -255 R 549 -239 R
549 -379 R 549 -544 R 549 -704 R 550 -783 R 549 -886 R 549 -973 R D
0.141 0.000 0.961 setrgbcolor 9359 2631 M 549 1537 R 549 284 R 549 1195 R
549 783 R 549 801 R 549 768 R 550 704 R 549 685 R 549 645 R 549 579 R
549 491 R 549 394 R 549 320 R 549 189 R 550 -124 R 549 -588 R 549 -375 R
549 -276 R 549 -706 R 549 -973 R 549 -758 R 549 -560 R 550 -530 R 549 -619 R
549 -277 R 549 -564 R 549 -670 R D L1 1.000 0.000 0.000 setrgbcolor
6613 14973 M 549 426 R 549 37 R 549 -156 R 550 21 R 549 -241 R 549 -210 R
549 -278 R 549 -277 R 549 -361 R 549 -324 R 549 -349 R 550 -354 R 549 -343 R
549 -376 R 549 -456 R 549 -463 R 549 -453 R 549 -450 R 549 -456 R 550 -465 R
549 -515 R 549 -924 R 549 -825 R 549 -808 R 549 -950 R 549 -1113 R
549 -1274 R 550 -1353 R 103 -275 R D 0.141 0.000 0.961 setrgbcolor
9359 11445 M 549 967 R 549 -285 R 549 625 R 549 213 R 549 232 R 549 197 R
550 135 R 549 115 R 549 75 R 549 10 R 549 -79 R 549 -176 R 549 -250 R
549 -381 R 550 -693 R 549 -1158 R 549 -944 R 549 -846 R 549 -1276 R
549 -1542 R 549 -1328 R 549 -1130 R 550 -1100 R 549 -1189 R 148 -229 R D L2
0.000 0.000 0.000 setrgbcolor 6613 15920 M 549 -570 R 549 -570 R 549 -569 R
550 -570 R 549 -570 R 549 -570 R 549 -569 R 549 -570 R 549 -570 R 549 -570 R
549 -569 R 550 -570 R 549 -570 R 549 -570 R 549 -569 R 549 -570 R 549 -570 R
549 -570 R 549 -569 R 550 -570 R 549 -570 R 549 -570 R 549 -569 R 549 -570 R
549 -570 R 258 -268 R D L0 1.000 0.000 0.000 setrgbcolor 22470 16337 M
1598 0 R D 20 setlinewidth 0.000 0.000 0.000 setrgbcolor 18956 16442 M
-24 23 R -35 12 R -46 0 R -35 -12 R -24 -23 R 0 -24 R 12 -23 R 12 -12 R
23 -12 R 70 -23 R 23 -12 R 12 -11 R 12 -24 R 0 -35 R -24 -23 R -35 -12 R
-46 0 R -35 12 R -24 23 R D 19049 16477 M 0 -199 R 12 -35 R 23 -12 R 24 0 R
D 19014 16395 M 82 0 R D 19306 16395 M 0 -164 R D 19306 16360 M -23 23 R
-23 12 R -36 0 R -23 -12 R -23 -23 R -12 -35 R 0 -24 R 12 -35 R 23 -23 R
23 -12 R 36 0 R 23 12 R 23 23 R D 19400 16395 M 0 -164 R D 19400 16325 M
11 35 R 24 23 R 23 12 R 35 0 R D 19668 16360 M -11 23 R -35 12 R -35 0 R
-35 -12 R -12 -23 R 12 -24 R 23 -11 R 58 -12 R 24 -12 R 11 -23 R 0 -12 R
-11 -23 R -35 -12 R -35 0 R -35 12 R -12 23 R D 19937 16395 M 0 -164 R D
19937 16348 M 35 35 R 24 12 R 35 0 R 23 -12 R 12 -35 R 0 -117 R D
20066 16348 M 35 35 R 23 12 R 35 0 R 24 -12 R 11 -35 R 0 -117 R D
20416 16395 M 0 -164 R D 20416 16360 M -23 23 R -23 12 R -36 0 R -23 -12 R
-23 -23 R -12 -35 R 0 -24 R 12 -35 R 23 -23 R 23 -12 R 36 0 R 23 12 R
23 23 R D 20638 16395 M 0 -199 R -11 -35 R -12 -12 R -23 -11 R -36 0 R
-23 11 R D 20638 16360 M -23 23 R -23 12 R -36 0 R -23 -12 R -23 -23 R
-12 -35 R 0 -24 R 12 -35 R 23 -23 R 23 -12 R 36 0 R 23 12 R 23 23 R D
20718 16474 M 131 0 R D 20921 16532 M 14 7 R 22 22 R 0 -152 R D
21380 16477 M 0 -246 R D 21380 16360 M -23 23 R -24 12 R -35 0 R -23 -12 R
-24 -23 R -11 -35 R 0 -24 R 11 -35 R 24 -23 R 23 -12 R 35 0 R 24 12 R
23 23 R D 21462 16325 M 140 0 R 0 23 R -12 23 R -11 12 R -24 12 R -35 0 R
-23 -12 R -24 -23 R -11 -35 R 0 -24 R 11 -35 R 24 -23 R 23 -12 R 35 0 R
24 12 R 23 23 R D 21812 16395 M 0 -199 R -11 -35 R -12 -12 R -24 -11 R
-35 0 R -23 11 R D 21812 16360 M -23 23 R -24 12 R -35 0 R -23 -12 R
-23 -23 R -12 -35 R 0 -24 R 12 -35 R 23 -23 R 23 -12 R 35 0 R 24 12 R
23 23 R D 21892 16474 M 131 0 R D 22080 16525 M 0 7 R 8 14 R 7 8 R 14 7 R
29 0 R 15 -7 R 7 -8 R 7 -14 R 0 -15 R -7 -14 R -15 -22 R -72 -72 R 101 0 R D
10 setlinewidth 0.141 0.000 0.961 setrgbcolor 22470 15914 M 1598 0 R D
20 setlinewidth 0.000 0.000 0.000 setrgbcolor 18430 15996 M -12 23 R
-23 24 R -23 11 R -47 0 R -24 -11 R -23 -24 R -12 -23 R -11 -35 R 0 -59 R
11 -35 R 12 -23 R 23 -23 R 24 -12 R 47 0 R 23 12 R 23 23 R 12 23 R 0 35 R
-58 0 R D 18640 15972 M 0 -163 R D 18640 15937 M -23 24 R -23 11 R -36 0 R
-23 -11 R -23 -24 R -12 -35 R 0 -23 R 12 -35 R 23 -23 R 23 -12 R 36 0 R
23 12 R 23 23 R D 18734 16054 M 0 -245 R D 18956 15972 M 0 -163 R D
18956 15937 M -24 24 R -23 11 R -35 0 R -23 -11 R -24 -24 R -11 -35 R
0 -23 R 11 -35 R 24 -23 R 23 -12 R 35 0 R 23 12 R 24 23 R D 19038 15972 M
128 -163 R D 19166 15972 M -128 -163 R D 19236 16054 M 12 -11 R 12 11 R
-12 12 R -12 -12 R D 19248 15972 M 0 -163 R D 19330 15902 M 140 0 R 0 24 R
-12 23 R -12 12 R -23 11 R -35 0 R -23 -11 R -24 -24 R -11 -35 R 0 -23 R
11 -35 R 24 -23 R 23 -12 R 35 0 R 23 12 R 24 23 R D 19668 15937 M -11 24 R
-35 11 R -35 0 R -35 -11 R -12 -24 R 12 -23 R 23 -12 R 58 -11 R 24 -12 R
11 -23 R 0 -12 R -11 -23 R -35 -12 R -35 0 R -35 12 R -12 23 R D
19937 15972 M 0 -163 R D 19937 15926 M 35 35 R 24 11 R 35 0 R 23 -11 R
12 -35 R 0 -117 R D 20066 15926 M 35 35 R 23 11 R 35 0 R 24 -11 R 11 -35 R
0 -117 R D 20416 15972 M 0 -163 R D 20416 15937 M -23 24 R -23 11 R -36 0 R
-23 -11 R -23 -24 R -12 -35 R 0 -23 R 12 -35 R 23 -23 R 23 -12 R 36 0 R
23 12 R 23 23 R D 20638 15972 M 0 -198 R -11 -35 R -12 -12 R -23 -12 R
-36 0 R -23 12 R D 20638 15937 M -23 24 R -23 11 R -36 0 R -23 -11 R
-23 -24 R -12 -35 R 0 -23 R 12 -35 R 23 -23 R 23 -12 R 36 0 R 23 12 R
23 23 R D 20718 16052 M 131 0 R D 20921 16109 M 14 8 R 22 21 R 0 -152 R D
21380 16054 M 0 -245 R D 21380 15937 M -23 24 R -24 11 R -35 0 R -23 -11 R
-24 -24 R -11 -35 R 0 -23 R 11 -35 R 24 -23 R 23 -12 R 35 0 R 24 12 R
23 23 R D 21462 15902 M 140 0 R 0 24 R -12 23 R -11 12 R -24 11 R -35 0 R
-23 -11 R -24 -24 R -11 -35 R 0 -23 R 11 -35 R 24 -23 R 23 -12 R 35 0 R
24 12 R 23 23 R D 21812 15972 M 0 -198 R -11 -35 R -12 -12 R -24 -12 R
-35 0 R -23 12 R D 21812 15937 M -23 24 R -24 11 R -35 0 R -23 -11 R
-23 -24 R -12 -35 R 0 -23 R 12 -35 R 23 -23 R 23 -12 R 35 0 R 24 12 R
23 23 R D 21892 16052 M 131 0 R D 22080 16102 M 0 7 R 8 15 R 7 7 R 14 7 R
29 0 R 15 -7 R 7 -7 R 7 -15 R 0 -14 R -7 -14 R -15 -22 R -72 -73 R 101 0 R D
10 setlinewidth L1 1.000 0.000 0.000 setrgbcolor 22470 15492 M 1598 0 R D
20 setlinewidth L0 0.000 0.000 0.000 setrgbcolor 15509 15597 M -23 23 R
-35 12 R -47 0 R -35 -12 R -23 -23 R 0 -24 R 12 -23 R 11 -12 R 24 -11 R
70 -24 R 23 -11 R 12 -12 R 11 -23 R 0 -35 R -23 -24 R -35 -12 R -47 0 R
-35 12 R -23 24 R D 15603 15632 M 0 -199 R 12 -35 R 23 -12 R 23 0 R D
15568 15550 M 82 0 R D 15720 15480 M 140 0 R 0 23 R -12 24 R -11 11 R
-24 12 R -35 0 R -23 -12 R -24 -23 R -11 -35 R 0 -23 R 11 -35 R 24 -24 R
23 -12 R 35 0 R 24 12 R 23 24 R D 15942 15632 M 0 -246 R D 16035 15632 M
0 -246 R D 16257 15550 M 0 -164 R D 16257 15515 M -23 23 R -23 12 R -36 0 R
-23 -12 R -23 -23 R -12 -35 R 0 -23 R 12 -35 R 23 -24 R 23 -12 R 36 0 R
23 12 R 23 24 R D 16351 15550 M 0 -164 R D 16351 15480 M 11 35 R 24 23 R
23 12 R 35 0 R D 16690 15632 M 0 -246 R D 16690 15632 M 105 0 R 35 -12 R
11 -12 R 12 -23 R 0 -35 R -12 -23 R -11 -12 R -35 -12 R -105 0 R D
16935 15632 M 0 -246 R D 16935 15503 M 35 35 R 23 12 R 35 0 R 24 -12 R
11 -35 R 0 -117 R D 17204 15550 M -24 -12 R -23 -23 R -12 -35 R 0 -23 R
12 -35 R 23 -24 R 24 -12 R 35 0 R 23 12 R 23 24 R 12 35 R 0 23 R -12 35 R
-23 23 R -23 12 R -35 0 R D 17391 15632 M 0 -199 R 11 -35 R 24 -12 R 23 0 R
D 17356 15550 M 81 0 R D 17566 15550 M -23 -12 R -24 -23 R -12 -35 R 0 -23 R
12 -35 R 24 -24 R 23 -12 R 35 0 R 23 12 R 24 24 R 11 35 R 0 23 R -11 35 R
-24 23 R -23 12 R -35 0 R D 17741 15550 M 0 -164 R D 17741 15503 M 35 35 R
24 12 R 35 0 R 23 -12 R 12 -35 R 0 -117 R D 18080 15515 M -12 23 R -35 12 R
-35 0 R -35 -12 R -12 -23 R 12 -23 R 24 -12 R 58 -12 R 23 -11 R 12 -24 R
0 -11 R -12 -24 R -35 -12 R -35 0 R -35 12 R -12 24 R D 18349 15550 M
0 -164 R D 18349 15503 M 35 35 R 23 12 R 35 0 R 24 -12 R 11 -35 R 0 -117 R D
18477 15503 M 35 35 R 24 12 R 35 0 R 23 -12 R 12 -35 R 0 -117 R D
18828 15550 M 0 -164 R D 18828 15515 M -24 23 R -23 12 R -35 0 R -23 -12 R
-24 -23 R -11 -35 R 0 -23 R 11 -35 R 24 -24 R 23 -12 R 35 0 R 23 12 R
24 24 R D 19050 15550 M 0 -199 R -12 -35 R -12 -11 R -23 -12 R -35 0 R
-23 12 R D 19050 15515 M -24 23 R -23 12 R -35 0 R -23 -12 R -24 -23 R
-11 -35 R 0 -23 R 11 -35 R 24 -24 R 23 -12 R 35 0 R 23 12 R 24 24 R D
19130 15629 M 130 0 R D 19332 15687 M 15 7 R 22 22 R 0 -152 R D
19791 15632 M 0 -246 R D 19791 15515 M -23 23 R -23 12 R -35 0 R -24 -12 R
-23 -23 R -12 -35 R 0 -23 R 12 -35 R 23 -24 R 24 -12 R 35 0 R 23 12 R
23 24 R D 19873 15480 M 140 0 R 0 23 R -11 24 R -12 11 R -23 12 R -35 0 R
-24 -12 R -23 -23 R -12 -35 R 0 -23 R 12 -35 R 23 -24 R 24 -12 R 35 0 R
23 12 R 23 24 R D 20224 15550 M 0 -199 R -12 -35 R -12 -11 R -23 -12 R
-35 0 R -23 12 R D 20224 15515 M -24 23 R -23 12 R -35 0 R -23 -12 R
-24 -23 R -11 -35 R 0 -23 R 11 -35 R 24 -24 R 23 -12 R 35 0 R 23 12 R
24 24 R D 20304 15629 M 130 0 R D 20492 15680 M 0 7 R 7 15 R 7 7 R 15 7 R
29 0 R 14 -7 R 7 -7 R 8 -15 R 0 -14 R -8 -15 R -14 -22 R -72 -72 R 101 0 R D
20954 15515 M -12 23 R -35 12 R -35 0 R -35 -12 R -12 -23 R 12 -23 R
23 -12 R 59 -12 R 23 -11 R 12 -24 R 0 -11 R -12 -24 R -35 -12 R -35 0 R
-35 12 R -12 24 R D 21022 15629 M 130 0 R D 21225 15687 M 14 7 R 22 22 R
0 -152 R D 21555 15550 M 0 -164 R D 21555 15503 M 35 35 R 24 12 R 35 0 R
23 -12 R 12 -35 R 0 -117 R D 21684 15503 M 35 35 R 23 12 R 35 0 R 24 -12 R
11 -35 R 0 -117 R D 21892 15629 M 131 0 R D 22080 15680 M 0 7 R 8 15 R 7 7 R
14 7 R 29 0 R 15 -7 R 7 -7 R 7 -15 R 0 -14 R -7 -15 R -15 -22 R -72 -72 R
101 0 R D 10 setlinewidth L1 0.141 0.000 0.961 setrgbcolor 22470 15070 M
1598 0 R D 20 setlinewidth L0 0.000 0.000 0.000 setrgbcolor 15498 15151 M
-12 23 R -23 24 R -24 11 R -46 0 R -24 -11 R -23 -24 R -12 -23 R -11 -35 R
0 -58 R 11 -35 R 12 -24 R 23 -23 R 24 -12 R 46 0 R 24 12 R 23 23 R 12 24 R
0 35 R -59 0 R D 15708 15128 M 0 -164 R D 15708 15093 M -23 23 R -24 12 R
-35 0 R -23 -12 R -23 -23 R -12 -35 R 0 -24 R 12 -35 R 23 -23 R 23 -12 R
35 0 R 24 12 R 23 23 R D 15802 15209 M 0 -245 R D 16024 15128 M 0 -164 R D
16024 15093 M -24 23 R -23 12 R -35 0 R -24 -12 R -23 -23 R -12 -35 R
0 -24 R 12 -35 R 23 -23 R 24 -12 R 35 0 R 23 12 R 24 23 R D 16105 15128 M
129 -164 R D 16234 15128 M -129 -164 R D 16292 15128 M 70 -164 R 71 164 R D
16362 14964 M -23 -58 R -23 -24 R -24 -11 R -11 0 R D 16690 15209 M 0 -245 R
D 16690 15209 M 105 0 R 35 -11 R 11 -12 R 12 -23 R 0 -35 R -12 -24 R
-11 -11 R -35 -12 R -105 0 R D 16935 15209 M 0 -245 R D 16935 15081 M
35 35 R 23 12 R 35 0 R 24 -12 R 11 -35 R 0 -117 R D 17204 15128 M -24 -12 R
-23 -23 R -12 -35 R 0 -24 R 12 -35 R 23 -23 R 24 -12 R 35 0 R 23 12 R
23 23 R 12 35 R 0 24 R -12 35 R -23 23 R -23 12 R -35 0 R D 17391 15209 M
0 -198 R 11 -35 R 24 -12 R 23 0 R D 17356 15128 M 81 0 R D 17566 15128 M
-23 -12 R -24 -23 R -12 -35 R 0 -24 R 12 -35 R 24 -23 R 23 -12 R 35 0 R
23 12 R 24 23 R 11 35 R 0 24 R -11 35 R -24 23 R -23 12 R -35 0 R D
17741 15128 M 0 -164 R D 17741 15081 M 35 35 R 24 12 R 35 0 R 23 -12 R
12 -35 R 0 -117 R D 18080 15093 M -12 23 R -35 12 R -35 0 R -35 -12 R
-12 -23 R 12 -24 R 24 -11 R 58 -12 R 23 -12 R 12 -23 R 0 -12 R -12 -23 R
-35 -12 R -35 0 R -35 12 R -12 23 R D 18349 15128 M 0 -164 R D 18349 15081 M
35 35 R 23 12 R 35 0 R 24 -12 R 11 -35 R 0 -117 R D 18477 15081 M 35 35 R
24 12 R 35 0 R 23 -12 R 12 -35 R 0 -117 R D 18828 15128 M 0 -164 R D
18828 15093 M -24 23 R -23 12 R -35 0 R -23 -12 R -24 -23 R -11 -35 R
0 -24 R 11 -35 R 24 -23 R 23 -12 R 35 0 R 23 12 R 24 23 R D 19050 15128 M
0 -199 R -12 -35 R -12 -12 R -23 -11 R -35 0 R -23 11 R D 19050 15093 M
-24 23 R -23 12 R -35 0 R -23 -12 R -24 -23 R -11 -35 R 0 -24 R 11 -35 R
24 -23 R 23 -12 R 35 0 R 23 12 R 24 23 R D 19130 15207 M 130 0 R D
19332 15265 M 15 7 R 22 22 R 0 -152 R D 19791 15209 M 0 -245 R D
19791 15093 M -23 23 R -23 12 R -35 0 R -24 -12 R -23 -23 R -12 -35 R
0 -24 R 12 -35 R 23 -23 R 24 -12 R 35 0 R 23 12 R 23 23 R D 19873 15058 M
140 0 R 0 23 R -11 23 R -12 12 R -23 12 R -35 0 R -24 -12 R -23 -23 R
-12 -35 R 0 -24 R 12 -35 R 23 -23 R 24 -12 R 35 0 R 23 12 R 23 23 R D
20224 15128 M 0 -199 R -12 -35 R -12 -12 R -23 -11 R -35 0 R -23 11 R D
20224 15093 M -24 23 R -23 12 R -35 0 R -23 -12 R -24 -23 R -11 -35 R
0 -24 R 11 -35 R 24 -23 R 23 -12 R 35 0 R 23 12 R 24 23 R D 20304 15207 M
130 0 R D 20492 15257 M 0 8 R 7 14 R 7 7 R 15 8 R 29 0 R 14 -8 R 7 -7 R
8 -14 R 0 -15 R -8 -14 R -14 -22 R -72 -72 R 101 0 R D 20954 15093 M
-12 23 R -35 12 R -35 0 R -35 -12 R -12 -23 R 12 -24 R 23 -11 R 59 -12 R
23 -12 R 12 -23 R 0 -12 R -12 -23 R -35 -12 R -35 0 R -35 12 R -12 23 R D
21022 15207 M 130 0 R D 21225 15265 M 14 7 R 22 22 R 0 -152 R D
21555 15128 M 0 -164 R D 21555 15081 M 35 35 R 24 12 R 35 0 R 23 -12 R
12 -35 R 0 -117 R D 21684 15081 M 35 35 R 23 12 R 35 0 R 24 -12 R 11 -35 R
0 -117 R D 21892 15207 M 131 0 R D 22080 15257 M 0 8 R 8 14 R 7 7 R 14 8 R
29 0 R 15 -8 R 7 -7 R 7 -14 R 0 -15 R -7 -14 R -15 -22 R -72 -72 R 101 0 R D
10 setlinewidth L2 22470 14647 M 1598 0 R D 20 setlinewidth L0 17098 14787 M
0 -245 R D 17098 14787 M 105 0 R 35 -12 R 12 -11 R 12 -24 R 0 -35 R
-12 -23 R -12 -12 R -35 -11 R -105 0 R D 17343 14787 M 0 -245 R D
17343 14659 M 35 35 R 24 11 R 35 0 R 23 -11 R 12 -35 R 0 -117 R D
17612 14705 M -23 -11 R -24 -24 R -11 -35 R 0 -23 R 11 -35 R 24 -24 R
23 -11 R 35 0 R 23 11 R 24 24 R 12 35 R 0 23 R -12 35 R -24 24 R -23 11 R
-35 0 R D 17799 14787 M 0 -199 R 12 -35 R 23 -11 R 23 0 R D 17764 14705 M
82 0 R D 17974 14705 M -23 -11 R -23 -24 R -12 -35 R 0 -23 R 12 -35 R
23 -24 R 23 -11 R 35 0 R 24 11 R 23 24 R 12 35 R 0 23 R -12 35 R -23 24 R
-24 11 R -35 0 R D 18150 14705 M 0 -163 R D 18150 14659 M 35 35 R 23 11 R
35 0 R 23 -11 R 12 -35 R 0 -117 R D 18488 14670 M -11 24 R -35 11 R -35 0 R
-35 -11 R -12 -24 R 12 -23 R 23 -12 R 58 -12 R 24 -11 R 11 -24 R 0 -11 R
-11 -24 R -35 -11 R -35 0 R -35 11 R -12 24 R D 18757 14705 M 0 -257 R D
18757 14670 M 23 24 R 24 11 R 35 0 R 23 -11 R 24 -24 R 11 -35 R 0 -23 R
-11 -35 R -24 -24 R -23 -11 R -35 0 R -24 11 R -23 24 R D 18967 14635 M
141 0 R 0 24 R -12 23 R -12 12 R -23 11 R -35 0 R -24 -11 R -23 -24 R
-12 -35 R 0 -23 R 12 -35 R 23 -24 R 24 -11 R 35 0 R 23 11 R 24 24 R D
19189 14705 M 0 -163 R D 19189 14635 M 12 35 R 23 24 R 24 11 R 35 0 R D
19575 14705 M -23 -11 R -24 -24 R -11 -35 R 0 -23 R 11 -35 R 24 -24 R
23 -11 R 35 0 R 23 11 R 24 24 R 11 35 R 0 23 R -11 35 R -24 24 R -23 11 R
-35 0 R D 19750 14787 M 0 -245 R D 19750 14670 M 24 24 R 23 11 R 35 0 R
23 -11 R 24 -24 R 11 -35 R 0 -23 R -11 -35 R -24 -24 R -23 -11 R -35 0 R
-23 11 R -24 24 R D 19984 14787 M 12 -12 R 11 12 R -11 12 R -12 -12 R D
19996 14705 M 0 -210 R -12 -35 R -23 -12 R -24 0 R D 20077 14635 M 141 0 R
0 24 R -12 23 R -12 12 R -23 11 R -35 0 R -24 -11 R -23 -24 R -12 -35 R
0 -23 R 12 -35 R 23 -24 R 24 -11 R 35 0 R 23 11 R 24 24 R D 20428 14670 M
-23 24 R -24 11 R -35 0 R -23 -11 R -24 -24 R -11 -35 R 0 -23 R 11 -35 R
24 -24 R 23 -11 R 35 0 R 24 11 R 23 24 R D 20521 14787 M 0 -199 R 12 -35 R
23 -11 R 24 0 R D 20486 14705 M 82 0 R D 20954 14670 M -12 24 R -35 11 R
-35 0 R -35 -11 R -12 -24 R 12 -23 R 23 -12 R 59 -12 R 23 -11 R 12 -24 R
0 -11 R -12 -24 R -35 -11 R -35 0 R -35 11 R -12 24 R D 21022 14784 M
130 0 R D 21225 14842 M 14 7 R 22 22 R 0 -152 R D 21555 14705 M 0 -163 R D
21555 14659 M 35 35 R 24 11 R 35 0 R 23 -11 R 12 -35 R 0 -117 R D
21684 14659 M 35 35 R 23 11 R 35 0 R 24 -11 R 11 -35 R 0 -117 R D
21892 14784 M 131 0 R D 22080 14835 M 0 7 R 8 15 R 7 7 R 14 7 R 29 0 R
15 -7 R 7 -7 R 7 -15 R 0 -14 R -7 -15 R -15 -21 R -72 -73 R 101 0 R D
10 setlinewidth 24468 16654 M -9302 0 R 0 -2324 R 9302 0 R 0 2324 R D
%%PageTrailer
end
restore
showpage
%%PageResources: font Helvetica
%%Trailer
restore
%%Pages: 1
%%DocumentNeededResources: font Helvetica
%%EOF
