%!PS-Adobe-3.0
%%BoundingBox: 0 0 720 504
%%Title: Graphics produced by IDL
%%For: peters11@basov.physics.purdue.edu, 
%%      /Users/peters11/imsims/trunk/validation
%%Creator: IDL Version 6.3, Mac OS X (darwin i386 m32)
%%CreationDate: Thu Oct 20 10:42:26 2011
%%DocumentData: Clean7bit
%%Requirements: color
%%LanguageLevel: 1
%%PageOrder: Ascend
%%Pages: (atend)
%%DocumentNeededResources: (atend)
%%EndComments
%%BeginProlog
save
%+ prolog.ps -- Prolog for IDL generated PostScript files
%+ Copyright (c) 1988-2006 Research Systems, Inc. All Rights Reserved.
%v 5
/$IDL_DICT 40 dict def $IDL_DICT begin /bdef { bind def } bind def /C
{currentpoint newpath moveto} bdef /CP {currentpoint} bdef /D {currentpoint
stroke moveto} bdef /F {closepath fill} bdef /K { setgray } bdef /M {moveto}
bdef /N {rmoveto} bdef /P {lineto} bdef /R {rlineto} bdef /S {gsave show
grestore} bdef /X {currentpoint pop} bdef /Z {gsave currentpoint lineto 20
setlinewidth 1 setlinecap stroke grestore} bdef /L0 {[] 0 setdash} bdef /L1
{[40 100] 0 setdash} bdef /L2 {[200 200] 0 setdash} bdef /L3 {[200 100 50
100] 0 setdash} bdef /L4 {[300 100 50 100 50 100 50 100] 0 setdash} bdef /L5
{[400 200] 0 setdash} bdef /STDFONT { findfont exch scalefont setfont } bdef
/ISOFONT { findfont dup length dict begin { 1 index /FID ne {def} {pop pop}
ifelse } forall /Encoding ISOLatin1Encoding def currentdict end /idltmpfont
exch definefont exch scalefont setfont } bdef /ISOBULLET { gsave /Helvetica
findfont exch scalefont setfont (\267) show currentpoint grestore moveto}
bdef /MITERLIMIT { 2.5 setmiterlimit } bdef end
%%EndProlog
%%Page: 1 1
%%PageRequirements: color
%%PageResources: (atend)
%%PageOrientation: Portrait
%%PageBoundingBox: 0 0 720 504
%%BeginPageSetup
save
$IDL_DICT begin 0 0 translate 0.0283465 dup scale MITERLIMIT
%%IncludeResource: font Helvetica
423.333 /Helvetica STDFONT
%%EndPageSetup
20 setlinewidth L0 0.000 0.000 0.000 setrgbcolor 2220 1408 M 22514 0 R D
2769 1408 M 0 313 R D 2746 1125 M -35 -11 R -24 -35 R -11 -59 R 0 -35 R
11 -58 R 24 -35 R 35 -12 R 23 0 R 35 12 R 24 35 R 11 58 R 0 35 R -11 59 R
-24 35 R -35 11 R -23 0 R D 8260 1408 M 0 313 R D 8085 1079 M 24 11 R
35 35 R 0 -245 R D 8354 1125 M -35 -11 R -23 -35 R -12 -59 R 0 -35 R
12 -58 R 23 -35 R 35 -12 R 23 0 R 35 12 R 24 35 R 11 58 R 0 35 R -11 59 R
-24 35 R -35 11 R -23 0 R D 13752 1408 M 0 313 R D 13553 1067 M 0 12 R
12 23 R 11 12 R 24 11 R 47 0 R 23 -11 R 12 -12 R 11 -23 R 0 -24 R -11 -23 R
-24 -35 R -117 -117 R 164 0 R D 13845 1125 M -35 -11 R -23 -35 R -12 -59 R
0 -35 R 12 -58 R 23 -35 R 35 -12 R 24 0 R 35 12 R 23 35 R 12 58 R 0 35 R
-12 59 R -23 35 R -35 11 R -24 0 R D 19243 1408 M 0 313 R D 19056 1125 M
128 0 R -70 -93 R 35 0 R 24 -12 R 11 -11 R 12 -35 R 0 -24 R -12 -35 R
-23 -23 R -35 -12 R -35 0 R -35 12 R -12 11 R -11 24 R D 19336 1125 M
-35 -11 R -23 -35 R -12 -59 R 0 -35 R 12 -58 R 23 -35 R 35 -12 R 24 0 R
35 12 R 23 35 R 12 58 R 0 35 R -12 59 R -23 35 R -35 11 R -24 0 R D
24734 1408 M 0 313 R D 24641 1125 M -117 -163 R 175 0 R D 24641 1125 M
0 -245 R D 24828 1125 M -35 -11 R -24 -35 R -12 -59 R 0 -35 R 12 -58 R
24 -35 R 35 -12 R 23 0 R 35 12 R 23 35 R 12 58 R 0 35 R -12 59 R -23 35 R
-35 11 R -23 0 R D 2220 1408 M 0 157 R D 3318 1408 M 0 157 R D 3867 1408 M
0 157 R D 4417 1408 M 0 157 R D 4966 1408 M 0 157 R D 5515 1408 M 0 157 R D
6064 1408 M 0 157 R D 6613 1408 M 0 157 R D 7162 1408 M 0 157 R D
7711 1408 M 0 157 R D 8810 1408 M 0 157 R D 9359 1408 M 0 157 R D
9908 1408 M 0 157 R D 10457 1408 M 0 157 R D 11006 1408 M 0 157 R D
11555 1408 M 0 157 R D 12104 1408 M 0 157 R D 12653 1408 M 0 157 R D
13203 1408 M 0 157 R D 14301 1408 M 0 157 R D 14850 1408 M 0 157 R D
15399 1408 M 0 157 R D 15948 1408 M 0 157 R D 16497 1408 M 0 157 R D
17046 1408 M 0 157 R D 17596 1408 M 0 157 R D 18145 1408 M 0 157 R D
18694 1408 M 0 157 R D 19792 1408 M 0 157 R D 20341 1408 M 0 157 R D
20890 1408 M 0 157 R D 21439 1408 M 0 157 R D 21989 1408 M 0 157 R D
22538 1408 M 0 157 R D 23087 1408 M 0 157 R D 23636 1408 M 0 157 R D
24185 1408 M 0 157 R D 12595 668 M 0 -246 R D 12595 668 M 93 -246 R 94 246 R
0 -246 R D 13004 586 M 0 -164 R D 13004 551 M -23 23 R -24 12 R -35 0 R
-23 -12 R -24 -23 R -11 -35 R 0 -23 R 11 -35 R 24 -24 R 23 -12 R 35 0 R
24 12 R 23 24 R D 13226 586 M 0 -199 R -12 -35 R -11 -11 R -24 -12 R -35 0 R
-23 12 R D 13226 551 M -23 23 R -24 12 R -35 0 R -23 -12 R -24 -23 R
-11 -35 R 0 -23 R 11 -35 R 24 -24 R 23 -12 R 35 0 R 24 12 R 23 24 R D
13319 586 M 0 -164 R D 13319 539 M 35 35 R 24 12 R 35 0 R 23 -12 R 12 -35 R
0 -117 R D 13530 668 M 11 -12 R 12 12 R -12 12 R -11 -12 R D 13541 586 M
0 -164 R D 13647 668 M 0 -199 R 11 -35 R 24 -12 R 23 0 R D 13611 586 M
82 0 R D 13775 586 M 0 -117 R 12 -35 R 23 -12 R 35 0 R 24 12 R 35 35 R D
13904 586 M 0 -164 R D 14126 668 M 0 -246 R D 14126 551 M -24 23 R -23 12 R
-35 0 R -24 -12 R -23 -23 R -12 -35 R 0 -23 R 12 -35 R 23 -24 R 24 -12 R
35 0 R 23 12 R 24 24 R D 14207 516 M 141 0 R 0 23 R -12 24 R -12 11 R
-23 12 R -35 0 R -24 -12 R -23 -23 R -12 -35 R 0 -23 R 12 -35 R 23 -24 R
24 -12 R 35 0 R 23 12 R 24 24 R D 2220 17076 M 22514 0 R D 2769 17076 M
0 -313 R D 8260 17076 M 0 -313 R D 13752 17076 M 0 -313 R D 19243 17076 M
0 -313 R D 24734 17076 M 0 -313 R D 2220 17076 M 0 -157 R D 3318 17076 M
0 -157 R D 3867 17076 M 0 -157 R D 4417 17076 M 0 -157 R D 4966 17076 M
0 -157 R D 5515 17076 M 0 -157 R D 6064 17076 M 0 -157 R D 6613 17076 M
0 -157 R D 7162 17076 M 0 -157 R D 7711 17076 M 0 -157 R D 8810 17076 M
0 -157 R D 9359 17076 M 0 -157 R D 9908 17076 M 0 -157 R D 10457 17076 M
0 -157 R D 11006 17076 M 0 -157 R D 11555 17076 M 0 -157 R D 12104 17076 M
0 -157 R D 12653 17076 M 0 -157 R D 13203 17076 M 0 -157 R D 14301 17076 M
0 -157 R D 14850 17076 M 0 -157 R D 15399 17076 M 0 -157 R D 15948 17076 M
0 -157 R D 16497 17076 M 0 -157 R D 17046 17076 M 0 -157 R D 17596 17076 M
0 -157 R D 18145 17076 M 0 -157 R D 18694 17076 M 0 -157 R D 19792 17076 M
0 -157 R D 20341 17076 M 0 -157 R D 20890 17076 M 0 -157 R D 21439 17076 M
0 -157 R D 21989 17076 M 0 -157 R D 22538 17076 M 0 -157 R D 23087 17076 M
0 -157 R D 23636 17076 M 0 -157 R D 24185 17076 M 0 -157 R D 2220 1408 M
0 15668 R D 2220 1408 M 450 0 R D 1367 1607 M 24 11 R 35 35 R 0 -245 R D
1636 1653 M -35 -11 R -23 -35 R -12 -59 R 0 -35 R 12 -58 R 23 -35 R 35 -12 R
24 0 R 35 12 R 23 35 R 12 58 R 0 35 R -12 59 R -23 35 R -35 11 R -24 0 R D
1798 1651 M 130 0 R D 2073 1716 M -7 14 R -22 8 R -14 0 R -22 -8 R -15 -21 R
-7 -37 R 0 -36 R 7 -29 R 15 -14 R 22 -7 R 7 0 R 21 7 R 15 14 R 7 22 R 0 7 R
-7 22 R -15 14 R -21 8 R -7 0 R -22 -8 R -15 -14 R -7 -22 R D 2220 3819 M
450 0 R D 1367 3876 M 24 12 R 35 35 R 0 -245 R D 1636 3923 M -35 -12 R
-23 -35 R -12 -58 R 0 -35 R 12 -59 R 23 -35 R 35 -11 R 24 0 R 35 11 R
23 35 R 12 59 R 0 35 R -12 58 R -23 35 R -35 12 R -24 0 R D 1798 3920 M
130 0 R D 2051 4007 M -72 -101 R 108 0 R D 2051 4007 M 0 -152 R D
2220 6229 M 450 0 R D 1367 6287 M 24 12 R 35 35 R 0 -246 R D 1636 6334 M
-35 -12 R -23 -35 R -12 -59 R 0 -35 R 12 -58 R 23 -35 R 35 -12 R 24 0 R
35 12 R 23 35 R 12 58 R 0 35 R -12 59 R -23 35 R -35 12 R -24 0 R D
1798 6331 M 130 0 R D 1986 6382 M 0 7 R 7 14 R 8 7 R 14 8 R 29 0 R 14 -8 R
8 -7 R 7 -14 R 0 -15 R -7 -14 R -15 -22 R -72 -72 R 101 0 R D 2220 8639 M
450 0 R D 1556 8697 M 23 12 R 35 35 R 0 -245 R D 1824 8744 M -35 -12 R
-23 -35 R -12 -58 R 0 -35 R 12 -59 R 23 -35 R 35 -11 R 24 0 R 35 11 R
23 35 R 12 59 R 0 35 R -12 58 R -23 35 R -35 12 R -24 0 R D 2022 8828 M
-21 -7 R -15 -22 R -7 -36 R 0 -22 R 7 -36 R 15 -21 R 21 -8 R 15 0 R 21 8 R
15 21 R 7 36 R 0 22 R -7 36 R -15 22 R -21 7 R -15 0 R D 2220 11050 M
450 0 R D 1556 11108 M 23 11 R 35 36 R 0 -246 R D 1824 11155 M -35 -12 R
-23 -35 R -12 -59 R 0 -35 R 12 -58 R 23 -35 R 35 -12 R 24 0 R 35 12 R
23 35 R 12 58 R 0 35 R -12 59 R -23 35 R -35 12 R -24 0 R D 1986 11202 M
0 8 R 7 14 R 8 7 R 14 8 R 29 0 R 14 -8 R 8 -7 R 7 -14 R 0 -15 R -7 -14 R
-15 -22 R -72 -72 R 101 0 R D 2220 13460 M 450 0 R D 1556 13518 M 23 12 R
35 35 R 0 -245 R D 1824 13565 M -35 -12 R -23 -35 R -12 -58 R 0 -35 R
12 -59 R 23 -35 R 35 -11 R 24 0 R 35 11 R 23 35 R 12 59 R 0 35 R -12 58 R
-23 35 R -35 12 R -24 0 R D 2051 13649 M -72 -101 R 108 0 R D 2051 13649 M
0 -152 R D 2220 15871 M 450 0 R D 1556 15929 M 23 11 R 35 35 R 0 -245 R D
1824 15975 M -35 -11 R -23 -35 R -12 -59 R 0 -35 R 12 -58 R 23 -35 R
35 -12 R 24 0 R 35 12 R 23 35 R 12 58 R 0 35 R -12 59 R -23 35 R -35 11 R
-24 0 R D 2073 16038 M -7 14 R -22 8 R -14 0 R -22 -8 R -15 -21 R -7 -37 R
0 -36 R 7 -29 R 15 -14 R 22 -7 R 7 0 R 21 7 R 15 14 R 7 22 R 0 7 R -7 22 R
-15 14 R -21 8 R -7 0 R -22 -8 R -15 -14 R -7 -22 R D 2220 2613 M 225 0 R D
2220 5024 M 225 0 R D 2220 7434 M 225 0 R D 2220 9845 M 225 0 R D
2220 12255 M 225 0 R D 2220 14666 M 225 0 R D 2220 17076 M 225 0 R D
731 7904 M 245 0 R D 731 7822 M 0 164 R D 731 8033 M 11 11 R -11 12 R
-12 -12 R 12 -11 R D 812 8044 M 164 0 R D 812 8138 M 164 0 R D 859 8138 M
-35 35 R -12 23 R 0 35 R 12 24 R 35 11 R 117 0 R D 859 8266 M -35 36 R
-12 23 R 0 35 R 12 23 R 35 12 R 117 0 R D 883 8477 M 0 140 R -24 0 R
-23 -12 R -12 -11 R -12 -24 R 0 -35 R 12 -23 R 24 -24 R 35 -11 R 23 0 R
35 11 R 23 24 R 12 23 R 0 35 R -12 24 R -23 23 R D 684 8968 M 23 -24 R
35 -23 R 47 -24 R 59 -11 R 46 0 R 59 11 R 58 24 R 35 23 R 24 24 R D
848 9166 M -24 -12 R -12 -35 R 0 -35 R 12 -35 R 24 -11 R 23 11 R 12 24 R
11 58 R 12 23 R 23 12 R 12 0 R 23 -12 R 12 -35 R 0 -35 R -12 -35 R -23 -11 R
D 883 9236 M 0 140 R -24 0 R -23 -11 R -12 -12 R -12 -23 R 0 -35 R 12 -24 R
24 -23 R 35 -12 R 23 0 R 35 12 R 23 23 R 12 24 R 0 35 R -12 23 R -23 23 R D
848 9587 M -24 -24 R -12 -23 R 0 -35 R 12 -23 R 24 -24 R 35 -11 R 23 0 R
35 11 R 23 24 R 12 23 R 0 35 R -12 23 R -23 24 R D 812 9715 M 12 -23 R
24 -23 R 35 -12 R 23 0 R 35 12 R 23 23 R 12 23 R 0 35 R -12 24 R -23 23 R
-35 12 R -23 0 R -35 -12 R -24 -23 R -12 -24 R 0 -35 R D 812 9891 M 164 0 R
D 859 9891 M -35 35 R -12 23 R 0 35 R 12 23 R 35 12 R 117 0 R D 731 10241 M
245 0 R D 848 10241 M -24 -23 R -12 -24 R 0 -35 R 12 -23 R 24 -23 R 35 -12 R
23 0 R 35 12 R 23 23 R 12 23 R 0 35 R -12 24 R -23 23 R D 848 10451 M
-24 -11 R -12 -35 R 0 -35 R 12 -35 R 24 -12 R 23 12 R 12 23 R 11 58 R
12 24 R 23 11 R 12 0 R 23 -11 R 12 -35 R 0 -35 R -12 -35 R -23 -12 R D
684 10522 M 23 23 R 35 23 R 47 24 R 59 11 R 46 0 R 59 -11 R 58 -24 R
35 -23 R 24 -23 R D 24734 1408 M 0 15668 R D 24734 1408 M -450 0 R D
24734 3819 M -450 0 R D 24734 6229 M -450 0 R D 24734 8639 M -450 0 R D
24734 11050 M -450 0 R D 24734 13460 M -450 0 R D 24734 15871 M -450 0 R D
24734 2613 M -225 0 R D 24734 5024 M -225 0 R D 24734 7434 M -225 0 R D
24734 9845 M -225 0 R D 24734 12255 M -225 0 R D 24734 14666 M -225 0 R D
24734 17076 M -225 0 R D 10 setlinewidth 2769 15089 M 111 -111 R -111 -111 R
-111 111 R 111 111 R D 4142 14302 M 111 -111 R -111 -111 R -111 111 R
111 111 R D 5515 13546 M 111 -111 R -111 -111 R -111 111 R 111 111 R D
6888 12867 M 111 -111 R -111 -111 R -111 111 R 111 111 R D 8260 12355 M
111 -111 R -111 -111 R -111 111 R 111 111 R D 9633 12074 M 111 -111 R
-111 -111 R -111 111 R 111 111 R D 11006 11651 M 111 -111 R -111 -111 R
-111 111 R 111 111 R D 12379 10266 M 111 -111 R -111 -111 R -111 111 R
111 111 R D 13752 8957 M 111 -111 R -111 -111 R -111 111 R 111 111 R D
15124 7908 M 111 -111 R -111 -111 R -111 111 R 111 111 R D 16497 6581 M
111 -111 R -111 -111 R -111 111 R 111 111 R D 17870 5535 M 111 -111 R
-111 -111 R -111 111 R 111 111 R D 19243 4087 M 111 -111 R -111 -111 R
-111 111 R 111 111 R D 2769 14860 M 0 215 R D 4142 14074 M 0 212 R D
5515 13319 M 0 212 R D 6888 12639 M 0 213 R D 8260 12127 M 0 212 R D
9633 11845 M 0 214 R D 11006 11416 M 0 225 R D 12379 9282 M 0 1184 R D
13752 1408 M 0 7880 R D 15124 7071 M 0 1019 R D 16497 1408 M 0 5447 R D
17870 4767 M 0 940 R D 19243 1408 M 0 3057 R D 20616 1408 M 0 1755 R D
20 setlinewidth 12758 16201 M 24 11 R 35 35 R 0 -245 R D 13156 16166 M
0 -164 R D 13156 16119 M 35 35 R 23 12 R 35 0 R 24 -12 R 11 -35 R 0 -117 R D
13284 16119 M 35 35 R 24 12 R 35 0 R 23 -12 R 12 -35 R 0 -117 R D
13495 16247 M 11 -11 R 12 11 R -12 12 R -11 -12 R D 13506 16166 M 0 -164 R D
13600 16166 M 0 -164 R D 13600 16119 M 35 35 R 23 12 R 35 0 R 24 -12 R
11 -35 R 0 -117 R D 13822 16166 M 0 -117 R 11 -35 R 24 -12 R 35 0 R 23 12 R
35 35 R D 13950 16166 M 0 -164 R D 14055 16247 M 0 -198 R 12 -35 R 23 -12 R
24 0 R D 14020 16166 M 82 0 R D 14172 16095 M 140 0 R 0 24 R -11 23 R
-12 12 R -23 12 R -35 0 R -24 -12 R -23 -23 R -12 -36 R 0 -23 R 12 -35 R
23 -23 R 24 -12 R 35 0 R 23 12 R 23 23 R D 14581 16166 M 0 -164 R D
14581 16119 M 35 35 R 24 12 R 35 0 R 23 -12 R 12 -35 R 0 -117 R D
14710 16119 M 35 35 R 23 12 R 35 0 R 24 -12 R 11 -35 R 0 -117 R D
15060 16166 M 0 -164 R D 15060 16131 M -23 23 R -24 12 R -35 0 R -23 -12 R
-23 -23 R -12 -36 R 0 -23 R 12 -35 R 23 -23 R 23 -12 R 35 0 R 24 12 R
23 23 R D 15282 16166 M 0 -199 R -11 -35 R -12 -12 R -24 -11 R -35 0 R
-23 11 R D 15282 16131 M -23 23 R -24 12 R -35 0 R -23 -12 R -23 -23 R
-12 -36 R 0 -23 R 12 -35 R 23 -23 R 23 -12 R 35 0 R 24 12 R 23 23 R D
15376 16166 M 0 -164 R D 15376 16119 M 35 35 R 23 12 R 35 0 R 24 -12 R
11 -35 R 0 -117 R D 15586 16247 M 12 -11 R 11 11 R -11 12 R -12 -12 R D
15598 16166 M 0 -164 R D 15703 16247 M 0 -198 R 12 -35 R 23 -12 R 23 0 R D
15668 16166 M 82 0 R D 15831 16166 M 0 -117 R 12 -35 R 23 -12 R 35 0 R
24 12 R 35 35 R D 15960 16166 M 0 -164 R D 16182 16247 M 0 -245 R D
16182 16131 M -23 23 R -24 12 R -35 0 R -23 -12 R -24 -23 R -11 -36 R
0 -23 R 11 -35 R 24 -23 R 23 -12 R 35 0 R 24 12 R 23 23 R D 16264 16095 M
140 0 R 0 24 R -12 23 R -11 12 R -24 12 R -35 0 R -23 -12 R -24 -23 R
-11 -36 R 0 -23 R 11 -35 R 24 -23 R 23 -12 R 35 0 R 24 12 R 23 23 R D
16497 16166 M -11 -12 R 11 -12 R 12 12 R -12 12 R D 16497 16025 M -11 -11 R
11 -12 R 12 12 R -12 11 R D 20378 16201 M 24 11 R 35 35 R 0 -245 R D
20729 16212 M -12 24 R -35 11 R -23 0 R -35 -11 R -24 -35 R -11 -59 R
0 -58 R 11 -47 R 24 -23 R 35 -12 R 12 0 R 35 12 R 23 23 R 12 35 R 0 12 R
-12 35 R -23 23 R -35 12 R -12 0 R -35 -12 R -24 -23 R -11 -35 R D
20834 16025 M -12 -11 R 12 -12 R 12 12 R -12 11 R D 20951 16247 M 128 0 R
-70 -93 R 35 0 R 24 -12 R 11 -11 R 12 -36 R 0 -23 R -12 -35 R -23 -23 R
-35 -12 R -35 0 R -35 12 R -12 11 R -11 24 R D 21301 16247 M -116 0 R
-12 -105 R 12 12 R 35 12 R 35 0 R 35 -12 R 23 -23 R 12 -36 R 0 -23 R
-12 -35 R -23 -23 R -35 -12 R -35 0 R -35 12 R -12 11 R -12 24 R D
12852 15597 M -12 23 R -35 12 R -35 0 R -35 -12 R -12 -23 R 12 -23 R
23 -12 R 59 -12 R 23 -11 R 12 -24 R 0 -11 R -12 -24 R -35 -11 R -35 0 R
-35 11 R -12 24 R D 13062 15632 M 0 -163 R D 13062 15597 M -23 23 R -24 12 R
-35 0 R -23 -12 R -23 -23 R -12 -35 R 0 -23 R 12 -35 R 23 -24 R 23 -11 R
35 0 R 24 11 R 23 24 R D 13167 15714 M 0 -199 R 12 -35 R 23 -11 R 24 0 R D
13132 15632 M 82 0 R D 13296 15632 M 0 -117 R 12 -35 R 23 -11 R 35 0 R
23 11 R 35 35 R D 13424 15632 M 0 -163 R D 13518 15632 M 0 -163 R D
13518 15562 M 12 35 R 23 23 R 23 12 R 35 0 R D 13798 15632 M 0 -163 R D
13798 15597 M -23 23 R -23 12 R -35 0 R -24 -12 R -23 -23 R -12 -35 R
0 -23 R 12 -35 R 23 -24 R 24 -11 R 35 0 R 23 11 R 23 24 R D 13903 15714 M
0 -199 R 12 -35 R 24 -11 R 23 0 R D 13868 15632 M 82 0 R D 14020 15714 M
12 -12 R 12 12 R -12 12 R -12 -12 R D 14032 15632 M 0 -163 R D 14172 15632 M
-23 -12 R -24 -23 R -11 -35 R 0 -23 R 11 -35 R 24 -24 R 23 -11 R 35 0 R
24 11 R 23 24 R 12 35 R 0 23 R -12 35 R -23 23 R -24 12 R -35 0 R D
14347 15632 M 0 -163 R D 14347 15585 M 36 35 R 23 12 R 35 0 R 23 -12 R
12 -35 R 0 -116 R D 14756 15632 M 0 -163 R D 14756 15585 M 35 35 R 24 12 R
35 0 R 23 -12 R 12 -35 R 0 -116 R D 14885 15585 M 35 35 R 23 12 R 35 0 R
24 -12 R 11 -35 R 0 -116 R D 15235 15632 M 0 -163 R D 15235 15597 M -23 23 R
-23 12 R -35 0 R -24 -12 R -23 -23 R -12 -35 R 0 -23 R 12 -35 R 23 -24 R
24 -11 R 35 0 R 23 11 R 23 24 R D 15457 15632 M 0 -198 R -11 -36 R -12 -11 R
-23 -12 R -35 0 R -24 12 R D 15457 15597 M -23 23 R -23 12 R -35 0 R
-24 -12 R -23 -23 R -12 -35 R 0 -23 R 12 -35 R 23 -24 R 24 -11 R 35 0 R
23 11 R 23 24 R D 15551 15632 M 0 -163 R D 15551 15585 M 35 35 R 23 12 R
35 0 R 24 -12 R 11 -35 R 0 -116 R D 15761 15714 M 12 -12 R 12 12 R -12 12 R
-12 -12 R D 15773 15632 M 0 -163 R D 15878 15714 M 0 -199 R 12 -35 R
23 -11 R 24 0 R D 15843 15632 M 82 0 R D 16007 15632 M 0 -117 R 11 -35 R
24 -11 R 35 0 R 23 11 R 35 35 R D 16135 15632 M 0 -163 R D 16357 15714 M
0 -245 R D 16357 15597 M -23 23 R -24 12 R -35 0 R -23 -12 R -23 -23 R
-12 -35 R 0 -23 R 12 -35 R 23 -24 R 23 -11 R 35 0 R 24 11 R 23 24 R D
16439 15562 M 140 0 R 0 23 R -12 24 R -11 11 R -24 12 R -35 0 R -23 -12 R
-23 -23 R -12 -35 R 0 -23 R 12 -35 R 23 -24 R 23 -11 R 35 0 R 24 11 R
23 24 R D 16673 15632 M -12 -12 R 12 -11 R 11 11 R -11 12 R D 16673 15492 M
-12 -12 R 12 -11 R 11 11 R -11 12 R D 20378 15667 M 24 12 R 35 35 R 0 -245 R
D 20717 15714 M -117 0 R -11 -105 R 11 11 R 35 12 R 36 0 R 35 -12 R 23 -23 R
12 -35 R 0 -23 R -12 -35 R -23 -24 R -35 -11 R -36 0 R -35 11 R -11 12 R
-12 23 R D 20834 15492 M -12 -12 R 12 -11 R 12 11 R -12 12 R D 20998 15714 M
-35 -12 R -24 -35 R -11 -58 R 0 -35 R 11 -59 R 24 -35 R 35 -11 R 23 0 R
35 11 R 23 35 R 12 59 R 0 35 R -12 58 R -23 35 R -35 12 R -23 0 R D
21196 15667 M 24 12 R 35 35 R 0 -245 R D 12735 15181 M 0 -246 R D
12957 15099 M 0 -164 R D 12957 15064 M -23 23 R -24 12 R -35 0 R -23 -12 R
-23 -23 R -12 -35 R 0 -24 R 12 -35 R 23 -23 R 23 -12 R 35 0 R 24 12 R
23 23 R D 13051 15099 M 0 -164 R D 13051 15029 M 11 35 R 24 23 R 23 12 R
35 0 R D 13331 15099 M 0 -199 R -12 -35 R -11 -12 R -24 -11 R -35 0 R
-23 11 R D 13331 15064 M -23 23 R -24 12 R -35 0 R -23 -12 R -24 -23 R
-11 -35 R 0 -24 R 11 -35 R 24 -23 R 23 -12 R 35 0 R 24 12 R 23 23 R D
13413 15029 M 140 0 R 0 23 R -12 23 R -11 12 R -24 12 R -35 0 R -23 -12 R
-24 -23 R -11 -35 R 0 -24 R 11 -35 R 24 -23 R 23 -12 R 35 0 R 24 12 R
23 23 R D 13950 15099 M 0 -164 R D 13950 15064 M -23 23 R -24 12 R -35 0 R
-23 -12 R -23 -23 R -12 -35 R 0 -24 R 12 -35 R 23 -23 R 23 -12 R 35 0 R
24 12 R 23 23 R D 14044 15099 M 0 -164 R D 14044 15052 M 35 35 R 23 12 R
35 0 R 24 -12 R 11 -35 R 0 -117 R D 14394 15099 M 0 -199 R -11 -35 R
-12 -12 R -24 -11 R -35 0 R -23 11 R D 14394 15064 M -23 23 R -24 12 R
-35 0 R -23 -12 R -23 -23 R -12 -35 R 0 -24 R 12 -35 R 23 -23 R 23 -12 R
35 0 R 24 12 R 23 23 R D 14488 15181 M 0 -246 R D 14569 15029 M 141 0 R
0 23 R -12 23 R -12 12 R -23 12 R -35 0 R -23 -12 R -24 -23 R -12 -35 R
0 -24 R 12 -35 R 24 -23 R 23 -12 R 35 0 R 23 12 R 24 23 R D 15002 15134 M
23 12 R 35 35 R 0 -246 R D 15399 15099 M 0 -164 R D 15399 15052 M 35 35 R
23 12 R 36 0 R 23 -12 R 12 -35 R 0 -117 R D 15528 15052 M 35 35 R 23 12 R
35 0 R 23 -12 R 12 -35 R 0 -117 R D 15738 15181 M 12 -12 R 11 12 R -11 11 R
-12 -11 R D 15750 15099 M 0 -164 R D 15843 15099 M 0 -164 R D 15843 15052 M
35 35 R 23 12 R 36 0 R 23 -12 R 12 -35 R 0 -117 R D 16065 15099 M 0 -117 R
12 -35 R 23 -12 R 35 0 R 24 12 R 35 35 R D 16194 15099 M 0 -164 R D
16299 15181 M 0 -199 R 11 -35 R 24 -12 R 23 0 R D 16264 15099 M 81 0 R D
16416 15029 M 140 0 R 0 23 R -12 23 R -12 12 R -23 12 R -35 0 R -23 -12 R
-24 -23 R -11 -35 R 0 -24 R 11 -35 R 24 -23 R 23 -12 R 35 0 R 23 12 R
24 23 R D 16825 15099 M 0 -164 R D 16825 15052 M 35 35 R 23 12 R 35 0 R
23 -12 R 12 -35 R 0 -117 R D 16953 15052 M 35 35 R 23 12 R 36 0 R 23 -12 R
12 -35 R 0 -117 R D 17304 15099 M 0 -164 R D 17304 15064 M -24 23 R -23 12 R
-35 0 R -24 -12 R -23 -23 R -12 -35 R 0 -24 R 12 -35 R 23 -23 R 24 -12 R
35 0 R 23 12 R 24 23 R D 17526 15099 M 0 -199 R -12 -35 R -12 -12 R
-23 -11 R -35 0 R -24 11 R D 17526 15064 M -24 23 R -23 12 R -35 0 R
-24 -12 R -23 -23 R -12 -35 R 0 -24 R 12 -35 R 23 -23 R 24 -12 R 35 0 R
23 12 R 24 23 R D 17619 15099 M 0 -164 R D 17619 15052 M 35 35 R 23 12 R
36 0 R 23 -12 R 12 -35 R 0 -117 R D 17829 15181 M 12 -12 R 12 12 R -12 11 R
-12 -11 R D 17841 15099 M 0 -164 R D 17946 15181 M 0 -199 R 12 -35 R
23 -12 R 24 0 R D 17911 15099 M 82 0 R D 18075 15099 M 0 -117 R 11 -35 R
24 -12 R 35 0 R 23 12 R 35 35 R D 18203 15099 M 0 -164 R D 18425 15181 M
0 -246 R D 18425 15064 M -23 23 R -23 12 R -36 0 R -23 -12 R -23 -23 R
-12 -35 R 0 -24 R 12 -35 R 23 -23 R 23 -12 R 36 0 R 23 12 R 23 23 R D
18507 15029 M 140 0 R 0 23 R -11 23 R -12 12 R -23 12 R -36 0 R -23 -12 R
-23 -23 R -12 -35 R 0 -24 R 12 -35 R 23 -23 R 23 -12 R 36 0 R 23 12 R
23 23 R D 18741 15099 M -12 -12 R 12 -12 R 11 12 R -11 12 R D 18741 14959 M
-12 -12 R 12 -12 R 11 12 R -11 12 R D 20682 15099 M -11 -35 R -24 -24 R
-35 -11 R -12 0 R -35 11 R -23 24 R -12 35 R 0 11 R 12 36 R 23 23 R 35 12 R
12 0 R 35 -12 R 24 -23 R 11 -47 R 0 -59 R -11 -58 R -24 -35 R -35 -12 R
-23 0 R -35 12 R -12 23 R D 20787 14959 M -11 -12 R 11 -12 R 12 12 R
-12 12 R D 20939 15181 M -35 -12 R -11 -23 R 0 -24 R 11 -23 R 24 -12 R
46 -12 R 35 -11 R 24 -24 R 11 -23 R 0 -35 R -11 -23 R -12 -12 R -35 -12 R
-47 0 R -35 12 R -11 12 R -12 23 R 0 35 R 12 23 R 23 24 R 35 11 R 47 12 R
23 12 R 12 23 R 0 24 R -12 23 R -35 12 R -47 0 R D 21150 15134 M 23 12 R
35 35 R 0 -246 R D 12735 14647 M 0 -245 R D 12957 14565 M 0 -163 R D
12957 14530 M -23 24 R -24 11 R -35 0 R -23 -11 R -23 -24 R -12 -35 R
0 -23 R 12 -35 R 23 -24 R 23 -11 R 35 0 R 24 11 R 23 24 R D 13051 14565 M
0 -163 R D 13051 14495 M 11 35 R 24 24 R 23 11 R 35 0 R D 13331 14565 M
0 -198 R -12 -35 R -11 -12 R -24 -12 R -35 0 R -23 12 R D 13331 14530 M
-23 24 R -24 11 R -35 0 R -23 -11 R -24 -24 R -11 -35 R 0 -23 R 11 -35 R
24 -24 R 23 -11 R 35 0 R 24 11 R 23 24 R D 13413 14495 M 140 0 R 0 24 R
-12 23 R -11 12 R -24 11 R -35 0 R -23 -11 R -24 -24 R -11 -35 R 0 -23 R
11 -35 R 24 -24 R 23 -11 R 35 0 R 24 11 R 23 24 R D 13950 14565 M 0 -163 R D
13950 14530 M -23 24 R -24 11 R -35 0 R -23 -11 R -23 -24 R -12 -35 R
0 -23 R 12 -35 R 23 -24 R 23 -11 R 35 0 R 24 11 R 23 24 R D 14044 14565 M
0 -163 R D 14044 14519 M 35 35 R 23 11 R 35 0 R 24 -11 R 11 -35 R 0 -117 R D
14394 14565 M 0 -198 R -11 -35 R -12 -12 R -24 -12 R -35 0 R -23 12 R D
14394 14530 M -23 24 R -24 11 R -35 0 R -23 -11 R -23 -24 R -12 -35 R
0 -23 R 12 -35 R 23 -24 R 23 -11 R 35 0 R 24 11 R 23 24 R D 14488 14647 M
0 -245 R D 14569 14495 M 141 0 R 0 24 R -12 23 R -12 12 R -23 11 R -35 0 R
-23 -11 R -24 -24 R -12 -35 R 0 -23 R 12 -35 R 24 -24 R 23 -11 R 35 0 R
23 11 R 24 24 R D 15095 14530 M -11 24 R -35 11 R -36 0 R -35 -11 R
-11 -24 R 11 -23 R 24 -12 R 58 -11 R 24 -12 R 11 -23 R 0 -12 R -11 -24 R
-35 -11 R -36 0 R -35 11 R -11 24 R D 15306 14565 M 0 -163 R D 15306 14530 M
-24 24 R -23 11 R -35 0 R -24 -11 R -23 -24 R -12 -35 R 0 -23 R 12 -35 R
23 -24 R 24 -11 R 35 0 R 23 11 R 24 24 R D 15411 14647 M 0 -198 R 11 -36 R
24 -11 R 23 0 R D 15376 14565 M 81 0 R D 15539 14565 M 0 -116 R 12 -36 R
23 -11 R 35 0 R 24 11 R 35 36 R D 15668 14565 M 0 -163 R D 15761 14565 M
0 -163 R D 15761 14495 M 12 35 R 23 24 R 24 11 R 35 0 R D 16042 14565 M
0 -163 R D 16042 14530 M -24 24 R -23 11 R -35 0 R -23 -11 R -24 -24 R
-12 -35 R 0 -23 R 12 -35 R 24 -24 R 23 -11 R 35 0 R 23 11 R 24 24 R D
16147 14647 M 0 -198 R 12 -36 R 23 -11 R 23 0 R D 16112 14565 M 82 0 R D
16264 14647 M 11 -12 R 12 12 R -12 12 R -11 -12 R D 16275 14565 M 0 -163 R D
16416 14565 M -24 -11 R -23 -24 R -12 -35 R 0 -23 R 12 -35 R 23 -24 R
24 -11 R 35 0 R 23 11 R 23 24 R 12 35 R 0 23 R -12 35 R -23 24 R -23 11 R
-35 0 R D 16591 14565 M 0 -163 R D 16591 14519 M 35 35 R 23 11 R 35 0 R
24 -11 R 11 -35 R 0 -117 R D 17000 14565 M 0 -163 R D 17000 14519 M 35 35 R
23 11 R 35 0 R 24 -11 R 11 -35 R 0 -117 R D 17128 14519 M 35 35 R 24 11 R
35 0 R 23 -11 R 12 -35 R 0 -117 R D 17479 14565 M 0 -163 R D 17479 14530 M
-24 24 R -23 11 R -35 0 R -23 -11 R -24 -24 R -11 -35 R 0 -23 R 11 -35 R
24 -24 R 23 -11 R 35 0 R 23 11 R 24 24 R D 17701 14565 M 0 -198 R -12 -35 R
-12 -12 R -23 -12 R -35 0 R -23 12 R D 17701 14530 M -24 24 R -23 11 R
-35 0 R -23 -11 R -24 -24 R -11 -35 R 0 -23 R 11 -35 R 24 -24 R 23 -11 R
35 0 R 23 11 R 24 24 R D 17794 14565 M 0 -163 R D 17794 14519 M 35 35 R
24 11 R 35 0 R 23 -11 R 12 -35 R 0 -117 R D 18005 14647 M 11 -12 R 12 12 R
-12 12 R -11 -12 R D 18016 14565 M 0 -163 R D 18121 14647 M 0 -198 R
12 -36 R 24 -11 R 23 0 R D 18086 14565 M 82 0 R D 18250 14565 M 0 -116 R
12 -36 R 23 -11 R 35 0 R 23 11 R 36 36 R D 18379 14565 M 0 -163 R D
18601 14647 M 0 -245 R D 18601 14530 M -24 24 R -23 11 R -35 0 R -24 -11 R
-23 -24 R -12 -35 R 0 -23 R 12 -35 R 23 -24 R 24 -11 R 35 0 R 23 11 R
24 24 R D 18682 14495 M 141 0 R 0 24 R -12 23 R -12 12 R -23 11 R -35 0 R
-24 -11 R -23 -24 R -12 -35 R 0 -23 R 12 -35 R 23 -24 R 24 -11 R 35 0 R
23 11 R 24 24 R D 18916 14565 M -12 -11 R 12 -12 R 12 12 R -12 11 R D
18916 14425 M -12 -12 R 12 -11 R 12 11 R -12 12 R D 20542 14589 M 0 11 R
12 24 R 11 11 R 24 12 R 46 0 R 24 -12 R 12 -11 R 11 -24 R 0 -23 R -11 -23 R
-24 -35 R -117 -117 R 164 0 R D 20787 14425 M -11 -12 R 11 -11 R 12 11 R
-12 12 R D 20904 14647 M 129 0 R -70 -93 R 35 0 R 23 -12 R 12 -12 R 11 -35 R
0 -23 R -11 -35 R -24 -24 R -35 -11 R -35 0 R -35 11 R -11 12 R -12 24 R D
21138 14647 M 128 0 R -70 -93 R 35 0 R 24 -12 R 11 -12 R 12 -35 R 0 -23 R
-12 -35 R -23 -24 R -35 -11 R -35 0 R -35 11 R -12 12 R -11 24 R D
10 setlinewidth 2220 15089 M 55 -12 R 55 -13 R 55 -14 R 55 -14 R 55 -14 R
55 -15 R 55 -15 R 54 -15 R 55 -16 R 55 -16 R 55 -17 R 55 -18 R 55 -17 R
55 -19 R 55 -19 R 55 -20 R 55 -21 R 55 -21 R 54 -22 R 55 -23 R 55 -24 R
55 -25 R 55 -25 R 55 -27 R 55 -28 R 55 -28 R 55 -30 R 55 -31 R 55 -32 R
54 -33 R 55 -35 R 55 -35 R 55 -36 R 55 -37 R 55 -39 R 55 -38 R 55 -40 R
55 -40 R 55 -41 R 55 -41 R 55 -42 R 54 -42 R 55 -41 R 55 -43 R 55 -42 R
55 -42 R 55 -41 R 55 -42 R 55 -42 R 55 -41 R 55 -41 R 55 -40 R 54 -40 R
55 -39 R 55 -40 R 55 -38 R 55 -38 R 55 -37 R 55 -37 R 55 -36 R 55 -35 R
55 -35 R 55 -33 R 55 -33 R 54 -32 R 55 -32 R 55 -30 R 55 -30 R 55 -29 R
55 -28 R 55 -27 R 55 -27 R 55 -25 R 55 -25 R 55 -24 R 54 -23 R 55 -22 R
55 -21 R 55 -21 R 55 -20 R 55 -20 R 55 -18 R 55 -18 R 55 -18 R 55 -16 R
55 -17 R 54 -15 R 55 -16 R 55 -14 R 55 -15 R 55 -13 R 55 -14 R 55 -13 R
55 -13 R 55 -13 R 55 -12 R 55 -12 R 55 -12 R 54 -11 R 55 -12 R 55 -11 R
55 -11 R 55 -11 R 55 -11 R 55 -11 R 55 -11 R 55 -11 R 55 -11 R 55 -10 R
54 -11 R 55 -11 R 55 -11 R 55 -11 R 55 -11 R 55 -11 R 55 -11 R 55 -11 R
55 -12 R 55 -11 R 55 -12 R 55 -12 R 54 -12 R 55 -12 R 55 -13 R 55 -12 R
55 -13 R 55 -14 R 55 -13 R 55 -14 R 55 -14 R 55 -14 R 55 -15 R 54 -15 R
55 -16 R 55 -16 R 55 -16 R 55 -17 R 55 -18 R 55 -18 R 55 -18 R 55 -19 R
55 -20 R 55 -21 R 54 -21 R 55 -22 R 55 -23 R 55 -23 R 55 -25 R 55 -26 R
55 -26 R 55 -28 R 55 -28 R 55 -30 R 55 -31 R 55 -32 R 54 -34 R 55 -34 R
55 -36 R 55 -37 R 55 -38 R 55 -39 R 55 -40 R 55 -41 R 55 -42 R 55 -43 R
55 -44 R 54 -44 R 55 -45 R 55 -45 R 55 -46 R 55 -46 R 55 -46 R 55 -47 R
55 -47 R 55 -47 R 55 -47 R 55 -48 R 54 -47 R 55 -48 R 55 -48 R 55 -47 R
55 -48 R 55 -48 R 55 -48 R 55 -48 R 55 -48 R 55 -48 R 55 -49 R 55 -48 R
54 -48 R 55 -48 R 55 -48 R 55 -48 R 55 -49 R 55 -48 R 55 -48 R 55 -48 R
55 -48 R 55 -48 R 55 -49 R 54 -48 R 55 -48 R 55 -48 R 55 -48 R 55 -49 R
55 -48 R 55 -48 R 55 -48 R 55 -48 R 55 -49 R 55 -48 R 55 -48 R 54 -48 R
55 -49 R 55 -48 R 55 -48 R 55 -48 R 55 -48 R 55 -49 R 55 -48 R 55 -48 R
55 -48 R 55 -48 R 54 -49 R 55 -48 R 55 -48 R 55 -48 R 55 -48 R 55 -49 R
55 -48 R 55 -48 R 55 -48 R 55 -48 R 55 -49 R 54 -48 R 55 -48 R 55 -48 R
55 -49 R 55 -48 R 55 -48 R 55 -48 R 55 -48 R 55 -49 R 55 -48 R 55 -48 R
55 -48 R 54 -48 R 55 -49 R 55 -48 R 55 -48 R 55 -48 R 55 -48 R 55 -49 R
55 -48 R 55 -48 R 55 -48 R 55 -49 R 54 -48 R 55 -48 R 55 -48 R 55 -48 R
55 -49 R 55 -48 R 55 -48 R 55 -48 R 55 -48 R 55 -49 R 55 -48 R 55 -48 R
54 -48 R 55 -48 R 55 -49 R 55 -48 R 55 -48 R 55 -48 R 55 -48 R 55 -49 R
55 -48 R 55 -48 R 55 -48 R 54 -49 R 55 -48 R 55 -48 R 55 -48 R 55 -48 R
55 -49 R 55 -48 R 55 -48 R 55 -48 R 55 -48 R 55 -49 R 54 -48 R 55 -48 R
55 -48 R 55 -48 R 55 -49 R 55 -48 R 55 -48 R 55 -48 R 55 -49 R 55 -48 R
55 -48 R 55 -48 R 54 -48 R 55 -49 R 55 -48 R 55 -48 R 55 -48 R 55 -48 R
55 -49 R 55 -48 R 55 -48 R 55 -48 R 55 -48 R 54 -49 R 55 -48 R 55 -48 R
55 -48 R 55 -48 R 55 -49 R 55 -48 R 55 -48 R 55 -48 R 55 -49 R 55 -48 R
55 -48 R 54 -48 R 55 -48 R 55 -49 R 55 -48 R 55 -48 R 55 -48 R 55 -48 R
55 -49 R 55 -48 R 55 -48 R 55 -48 R 54 -48 R 55 -49 R 55 -48 R 55 -48 R
55 -48 R 55 -49 R 55 -48 R 55 -48 R 55 -48 R 55 -48 R 55 -49 R 54 -48 R
55 -48 R 55 -48 R 55 -48 R 55 -49 R 55 -48 R 55 -48 R 55 -48 R 55 -48 R
55 -49 R 55 -48 R 55 -48 R 54 -48 R 55 -48 R 55 -49 R 55 -48 R 55 -48 R
55 -48 R 55 -49 R 53 -47 R D L1 4578 17076 M 3 -2 R 55 -48 R 55 -48 R
55 -49 R 55 -48 R 55 -48 R 55 -48 R 55 -48 R 55 -49 R 55 -48 R 54 -48 R
55 -48 R 55 -49 R 55 -48 R 55 -48 R 55 -48 R 55 -48 R 55 -49 R 55 -48 R
55 -48 R 55 -48 R 55 -48 R 54 -49 R 55 -48 R 55 -48 R 55 -48 R 55 -48 R
55 -49 R 55 -48 R 55 -48 R 55 -48 R 55 -48 R 55 -49 R 54 -48 R 55 -48 R
55 -48 R 55 -49 R 55 -48 R 55 -48 R 55 -48 R 55 -48 R 55 -49 R 55 -48 R
55 -48 R 54 -48 R 55 -48 R 55 -49 R 55 -48 R 55 -48 R 55 -48 R 55 -48 R
55 -49 R 55 -48 R 55 -48 R 55 -48 R 55 -49 R 54 -48 R 55 -48 R 55 -48 R
55 -48 R 55 -49 R 55 -48 R 55 -48 R 55 -48 R 55 -48 R 55 -49 R 55 -48 R
54 -48 R 55 -48 R 55 -48 R 55 -49 R 55 -48 R 55 -48 R 55 -48 R 55 -48 R
55 -49 R 55 -48 R 55 -48 R 55 -48 R 54 -49 R 55 -48 R 55 -48 R 55 -48 R
55 -48 R 55 -49 R 55 -48 R 55 -48 R 55 -48 R 55 -48 R 55 -49 R 54 -48 R
55 -48 R 55 -48 R 55 -48 R 55 -49 R 55 -48 R 55 -48 R 55 -48 R 55 -49 R
55 -48 R 55 -48 R 54 -48 R 55 -48 R 55 -49 R 55 -48 R 55 -48 R 55 -48 R
55 -48 R 55 -49 R 55 -48 R 55 -48 R 55 -48 R 55 -48 R 54 -49 R 55 -48 R
55 -48 R 55 -48 R 55 -48 R 55 -49 R 55 -48 R 55 -48 R 55 -48 R 55 -49 R
55 -48 R 54 -48 R 55 -48 R 55 -48 R 55 -49 R 55 -48 R 55 -48 R 55 -48 R
55 -48 R 55 -49 R 55 -48 R 55 -48 R 54 -48 R 55 -48 R 55 -49 R 55 -48 R
55 -48 R 55 -48 R 55 -49 R 55 -48 R 55 -48 R 55 -48 R 55 -48 R 55 -49 R
54 -48 R 55 -48 R 55 -48 R 55 -48 R 55 -49 R 55 -48 R 55 -48 R 55 -48 R
55 -48 R 55 -49 R 55 -48 R 54 -48 R 55 -48 R 55 -48 R 55 -49 R 55 -48 R
55 -48 R 55 -48 R 55 -49 R 55 -48 R 55 -48 R 55 -48 R 55 -48 R 54 -49 R
55 -48 R 55 -48 R 55 -48 R 55 -48 R 55 -49 R 55 -48 R 55 -48 R 55 -48 R
55 -48 R 55 -49 R 54 -48 R 55 -48 R 55 -48 R 55 -49 R 55 -48 R 55 -48 R
55 -48 R 55 -48 R 55 -49 R 55 -48 R 55 -48 R 54 -48 R 55 -48 R 55 -49 R
55 -48 R 55 -48 R 55 -48 R 55 -48 R 55 -49 R 55 -48 R 55 -48 R 55 -48 R
55 -48 R 54 -49 R 55 -48 R 55 -48 R 55 -48 R 55 -49 R 55 -48 R 55 -48 R
55 -48 R 55 -48 R 55 -49 R 55 -48 R 54 -48 R 55 -48 R 55 -48 R 55 -49 R
55 -48 R 55 -48 R 55 -48 R 55 -48 R 55 -49 R 55 -48 R 55 -48 R 55 -48 R
54 -49 R 55 -48 R 55 -48 R 55 -48 R 55 -48 R 55 -49 R 55 -48 R 55 -48 R
55 -48 R 55 -48 R 55 -49 R 54 -48 R 55 -48 R 55 -48 R 55 -48 R 55 -49 R
55 -48 R 55 -48 R 55 -48 R 55 -48 R 55 -49 R 55 -48 R 54 -48 R 55 -48 R
55 -49 R 55 -48 R 55 -48 R 55 -48 R 55 -48 R 55 -49 R 55 -48 R 55 -48 R
55 -48 R 55 -48 R 54 -49 R 55 -48 R 55 -48 R 55 -48 R 55 -48 R 55 -49 R
55 -48 R 55 -48 R 55 -48 R 55 -48 R 55 -49 R 54 -48 R 55 -48 R 55 -48 R
55 -49 R 55 -48 R 55 -48 R 55 -48 R 55 -48 R 55 -49 R 55 -48 R 55 -48 R
55 -48 R 54 -48 R 55 -49 R 55 -48 R 55 -48 R 55 -48 R 55 -48 R 55 -49 R
55 -48 R 55 -48 R 55 -48 R 55 -49 R 54 -48 R 55 -48 R 55 -48 R 55 -48 R
55 -49 R 55 -48 R 55 -48 R 55 -48 R 55 -48 R 55 -49 R 55 -48 R 54 -48 R
55 -48 R 55 -48 R 55 -49 R 55 -48 R 55 -48 R 55 -48 R 55 -48 R 55 -49 R
55 -48 R 55 -48 R 55 -48 R 54 -49 R 55 -48 R 55 -48 R 55 -48 R 55 -48 R
55 -49 R 55 -48 R 52 -46 R D 20 setlinewidth L0 10347 1988 M -23 24 R
-35 11 R -47 0 R -35 -11 R -24 -24 R 0 -23 R 12 -23 R 12 -12 R 23 -12 R
70 -23 R 24 -12 R 11 -12 R 12 -23 R 0 -35 R -23 -23 R -35 -12 R -47 0 R
-35 12 R -24 23 R D 10417 2023 M 12 -11 R 11 11 R -11 12 R -12 -12 R D
10429 1942 M 0 -164 R D 10522 1942 M 0 -164 R D 10522 1895 M 35 35 R 24 12 R
35 0 R 23 -12 R 12 -35 R 0 -117 R D 10873 1942 M 0 -199 R -12 -35 R
-12 -12 R -23 -11 R -35 0 R -23 11 R D 10873 1907 M -24 23 R -23 12 R
-35 0 R -23 -12 R -24 -23 R -11 -36 R 0 -23 R 11 -35 R 24 -23 R 23 -12 R
35 0 R 23 12 R 24 23 R D 10966 2023 M 0 -245 R D 11048 1871 M 140 0 R 0 24 R
-11 23 R -12 12 R -24 12 R -35 0 R -23 -12 R -23 -23 R -12 -36 R 0 -23 R
12 -35 R 23 -23 R 23 -12 R 35 0 R 24 12 R 23 23 R D 11457 2023 M 0 -245 R D
11457 2023 M 105 0 R 35 -11 R 12 -12 R 12 -23 R 0 -35 R -12 -24 R -12 -11 R
-35 -12 R -105 0 R D 11702 2023 M 0 -245 R D 11702 1895 M 35 35 R 24 12 R
35 0 R 23 -12 R 12 -35 R 0 -117 R D 11971 1942 M -23 -12 R -24 -23 R
-11 -36 R 0 -23 R 11 -35 R 24 -23 R 23 -12 R 35 0 R 23 12 R 24 23 R 12 35 R
0 23 R -12 36 R -24 23 R -23 12 R -35 0 R D 12158 2023 M 0 -198 R 12 -35 R
23 -12 R 23 0 R D 12123 1942 M 82 0 R D 12333 1942 M -23 -12 R -23 -23 R
-12 -36 R 0 -23 R 12 -35 R 23 -23 R 23 -12 R 35 0 R 24 12 R 23 23 R 12 35 R
0 23 R -12 36 R -23 23 R -24 12 R -35 0 R D 12509 1942 M 0 -164 R D
12509 1895 M 35 35 R 23 12 R 35 0 R 23 -12 R 12 -35 R 0 -117 R D
12917 2023 M 0 -245 R D 12917 2023 M 106 0 R 35 -11 R 11 -12 R 12 -23 R
0 -24 R -12 -23 R -11 -12 R -35 -11 R -106 0 R D 12999 1907 M 82 -129 R D
13291 1942 M 0 -164 R D 13291 1907 M -23 23 R -23 12 R -35 0 R -24 -12 R
-23 -23 R -12 -36 R 0 -23 R 12 -35 R 23 -23 R 24 -12 R 35 0 R 23 12 R
23 23 R D 13397 2023 M 0 -198 R 11 -35 R 24 -12 R 23 0 R D 13361 1942 M
82 0 R D 13513 1871 M 141 0 R 0 24 R -12 23 R -12 12 R -23 12 R -35 0 R
-24 -12 R -23 -23 R -12 -36 R 0 -23 R 12 -35 R 23 -23 R 24 -12 R 35 0 R
23 12 R 24 23 R D 14004 2070 M -23 -23 R -24 -35 R -23 -47 R -12 -58 R
0 -47 R 12 -59 R 23 -58 R 24 -35 R 23 -23 R D 14214 1942 M 0 -164 R D
14214 1907 M -23 23 R -23 12 R -35 0 R -24 -12 R -23 -23 R -12 -36 R 0 -23 R
12 -35 R 23 -23 R 24 -12 R 35 0 R 23 12 R 23 23 R D 14320 2023 M 0 -198 R
11 -35 R 24 -12 R 23 0 R D 14285 1942 M 81 0 R D 14647 2023 M 128 0 R
-70 -93 R 35 0 R 24 -12 R 11 -11 R 12 -36 R 0 -23 R -12 -35 R -23 -23 R
-35 -12 R -35 0 R -35 12 R -12 11 R -12 24 R D 14974 2023 M -117 -163 R
175 0 R D 14974 2023 M 0 -245 R D 15114 1801 M -12 -11 R 12 -12 R 12 12 R
-12 11 R D 15219 1965 M 0 12 R 12 23 R 12 12 R 23 11 R 47 0 R 23 -11 R
12 -12 R 11 -23 R 0 -24 R -11 -23 R -24 -35 R -116 -117 R 163 0 R D
15581 2023 M -116 0 R -12 -105 R 12 12 R 35 12 R 35 0 R 35 -12 R 23 -23 R
12 -36 R 0 -23 R -12 -35 R -23 -23 R -35 -12 R -35 0 R -35 12 R -12 11 R
-12 24 R D 15874 1942 M 0 -164 R D 15874 1895 M 35 35 R 23 12 R 35 0 R
23 -12 R 12 -35 R 0 -117 R D 16002 1895 M 35 35 R 24 12 R 35 0 R 23 -12 R
12 -35 R 0 -117 R D 16353 1942 M 0 -164 R D 16353 1907 M -24 23 R -23 12 R
-35 0 R -24 -12 R -23 -23 R -12 -36 R 0 -23 R 12 -35 R 23 -23 R 24 -12 R
35 0 R 23 12 R 24 23 R D 16575 1942 M 0 -199 R -12 -35 R -12 -12 R -23 -11 R
-35 0 R -24 11 R D 16575 1907 M -24 23 R -23 12 R -35 0 R -24 -12 R
-23 -23 R -12 -36 R 0 -23 R 12 -35 R 23 -23 R 24 -12 R 35 0 R 23 12 R
24 23 R D 16656 2070 M 24 -23 R 23 -35 R 24 -47 R 11 -58 R 0 -47 R -11 -59 R
-24 -58 R -23 -35 R -24 -23 R D 16843 1942 M -11 -12 R 11 -12 R 12 12 R
-12 12 R D 16843 1801 M -11 -11 R 11 -12 R 12 12 R -12 11 R D 17509 1965 M
0 12 R 12 23 R 12 12 R 23 11 R 47 0 R 23 -11 R 12 -12 R 12 -23 R 0 -24 R
-12 -23 R -23 -35 R -117 -117 R 163 0 R D 17755 2023 M 128 0 R -70 -93 R
35 0 R 24 -12 R 11 -11 R 12 -36 R 0 -23 R -12 -35 R -23 -23 R -35 -12 R
-35 0 R -35 12 R -12 11 R -12 24 R D 18035 2023 M -35 -11 R -23 -35 R
-12 -59 R 0 -35 R 12 -58 R 23 -35 R 35 -12 R 24 0 R 35 12 R 23 35 R 12 58 R
0 35 R -12 59 R -23 35 R -35 11 R -24 0 R D 18397 2023 M 0 -245 R D
18514 1942 M -117 -117 R D 18444 1871 M 82 -93 R D 18584 2023 M 12 -11 R
12 11 R -12 12 R -12 -12 R D 18596 1942 M 0 -164 R D 18689 2023 M 0 -245 R D
18830 1942 M -24 -12 R -23 -23 R -12 -36 R 0 -23 R 12 -35 R 23 -23 R
24 -12 R 35 0 R 23 12 R 23 23 R 12 35 R 0 23 R -12 36 R -23 23 R -23 12 R
-35 0 R D 19005 1942 M 0 -257 R D 19005 1907 M 23 23 R 24 12 R 35 0 R
23 -12 R 23 -23 R 12 -36 R 0 -23 R -12 -35 R -23 -23 R -23 -12 R -35 0 R
-24 12 R -23 23 R D 19227 2023 M 0 -245 R D 19227 1895 M 35 35 R 23 12 R
35 0 R 24 -12 R 11 -35 R 0 -117 R D 19496 1942 M -24 -12 R -23 -23 R
-12 -36 R 0 -23 R 12 -35 R 23 -23 R 24 -12 R 35 0 R 23 12 R 23 23 R 12 35 R
0 23 R -12 36 R -23 23 R -23 12 R -35 0 R D 19683 2023 M 0 -198 R 11 -35 R
24 -12 R 23 0 R D 19648 1942 M 81 0 R D 19858 1942 M -23 -12 R -24 -23 R
-12 -36 R 0 -23 R 12 -35 R 24 -23 R 23 -12 R 35 0 R 23 12 R 24 23 R 11 35 R
0 23 R -11 36 R -24 23 R -23 12 R -35 0 R D 20033 1942 M 0 -164 R D
20033 1895 M 35 35 R 24 12 R 35 0 R 23 -12 R 12 -35 R 0 -117 R D
20372 1907 M -12 23 R -35 12 R -35 0 R -35 -12 R -12 -23 R 12 -24 R 24 -12 R
58 -11 R 23 -12 R 12 -23 R 0 -12 R -12 -23 R -35 -12 R -35 0 R -35 12 R
-12 23 R D 20641 2070 M -211 -385 R D 20828 1907 M -12 23 R -35 12 R -35 0 R
-35 -12 R -12 -23 R 12 -24 R 23 -12 R 59 -11 R 23 -12 R 12 -23 R 0 -12 R
-12 -23 R -35 -12 R -35 0 R -35 12 R -12 23 R D 10 setlinewidth
1.000 0.000 0.000 setrgbcolor 6613 10349 M 549 676 R 549 388 R 549 240 R
550 389 R 549 149 R 549 141 R 549 21 R 549 -80 R 549 -253 R 549 -262 R
549 -294 R 550 -299 R 549 -290 R 549 -318 R 549 -386 R 549 -392 R 549 -383 R
549 -381 R 549 -386 R 550 -394 R 549 -435 R 549 -782 R 549 -698 R 549 -684 R
549 -803 R 549 -943 R 549 -1077 R 550 -1145 R 115 -260 R D
0.141 0.000 0.961 setrgbcolor 9359 9928 M 549 819 R 549 -242 R 549 529 R
549 181 R 549 195 R 549 168 R 550 113 R 549 98 R 549 63 R 549 8 R 549 -66 R
549 -149 R 549 -211 R 549 -323 R 550 -586 R 549 -980 R 549 -799 R 549 -716 R
549 -1079 R 549 -1306 R 549 -1123 R 549 -957 R 550 -930 R 549 -1007 R
168 -220 R D 20 setlinewidth 0.000 0.000 0.000 setrgbcolor 12782 13758 M
0 -245 R D 12700 13758 M 164 0 R D 12969 13676 M -24 -11 R -23 -24 R
-12 -35 R 0 -23 R 12 -35 R 23 -24 R 24 -11 R 35 0 R 23 11 R 24 24 R 11 35 R
0 23 R -11 35 R -24 24 R -23 11 R -35 0 R D 13156 13758 M 0 -198 R 11 -36 R
24 -11 R 23 0 R D 13121 13676 M 81 0 R D 13413 13676 M 0 -163 R D
13413 13641 M -24 24 R -23 11 R -35 0 R -23 -11 R -24 -24 R -11 -35 R
0 -23 R 11 -35 R 24 -24 R 23 -11 R 35 0 R 23 11 R 24 24 R D 13506 13758 M
0 -245 R D 13798 13758 M 0 -198 R 12 -36 R 23 -11 R 24 0 R D 13763 13676 M
82 0 R D 13915 13758 M 12 -12 R 12 12 R -12 12 R -12 -12 R D 13927 13676 M
0 -163 R D 14020 13676 M 0 -163 R D 14020 13630 M 35 35 R 24 11 R 35 0 R
23 -11 R 12 -35 R 0 -117 R D 14149 13630 M 35 35 R 23 11 R 35 0 R 24 -11 R
11 -35 R 0 -117 R D 14359 13606 M 140 0 R 0 24 R -11 23 R -12 12 R -23 11 R
-35 0 R -24 -11 R -23 -24 R -12 -35 R 0 -23 R 12 -35 R 23 -24 R 24 -11 R
35 0 R 23 11 R 23 24 R D 14593 13676 M -12 -11 R 12 -12 R 12 12 R -12 11 R D
14593 13536 M -12 -12 R 12 -11 R 12 11 R -12 12 R D 20378 13711 M 24 12 R
35 35 R 0 -245 R D 20741 13758 M -117 -245 R D 20577 13758 M 164 0 R D
20869 13758 M -35 -12 R -12 -23 R 0 -23 R 12 -24 R 23 -11 R 47 -12 R
35 -12 R 24 -23 R 11 -23 R 0 -35 R -11 -24 R -12 -12 R -35 -11 R -47 0 R
-35 11 R -12 12 R -11 24 R 0 35 R 11 23 R 24 23 R 35 12 R 47 12 R 23 11 R
12 24 R 0 23 R -12 23 R -35 12 R -47 0 R D 21068 13536 M -12 -12 R 12 -11 R
11 11 R -11 12 R D 21196 13711 M 24 12 R 35 35 R 0 -245 R D 21594 13676 M
0 -163 R D 21594 13630 M 35 35 R 23 11 R 35 0 R 23 -11 R 12 -35 R 0 -117 R D
21722 13630 M 35 35 R 24 11 R 35 0 R 23 -11 R 12 -35 R 0 -117 R D
21932 13758 M 12 -12 R 12 12 R -12 12 R -12 -12 R D 21944 13676 M 0 -163 R D
22038 13676 M 0 -163 R D 22038 13630 M 35 35 R 23 11 R 35 0 R 23 -11 R
12 -35 R 0 -117 R D 22260 13676 M 0 -116 R 11 -36 R 24 -11 R 35 0 R 23 11 R
35 36 R D 22388 13676 M 0 -163 R D 22493 13758 M 0 -198 R 12 -36 R 23 -11 R
24 0 R D 22458 13676 M 82 0 R D 22610 13606 M 140 0 R 0 24 R -11 23 R
-12 12 R -23 11 R -35 0 R -24 -11 R -23 -24 R -12 -35 R 0 -23 R 12 -35 R
23 -24 R 24 -11 R 35 0 R 23 11 R 23 24 R D 22949 13641 M -12 24 R -35 11 R
-35 0 R -35 -11 R -12 -24 R 12 -23 R 23 -12 R 59 -11 R 23 -12 R 12 -23 R
0 -12 R -12 -24 R -35 -11 R -35 0 R -35 11 R -12 24 R D 2727 6078 M -23 23 R
-35 12 R -47 0 R -35 -12 R -24 -23 R 0 -24 R 12 -23 R 12 -12 R 23 -11 R
70 -24 R 24 -11 R 11 -12 R 12 -23 R 0 -36 R -23 -23 R -35 -12 R -47 0 R
-35 12 R -24 23 R D 2937 5996 M -23 23 R -23 12 R -36 0 R -23 -12 R
-23 -23 R -12 -35 R 0 -23 R 12 -36 R 23 -23 R 23 -12 R 36 0 R 23 12 R
23 23 R D 3019 6031 M 0 -164 R D 3019 5961 M 12 35 R 23 23 R 23 12 R 36 0 R
D 3580 6008 M 0 11 R -12 12 R -11 0 R -12 -12 R -12 -23 R -23 -58 R
-24 -36 R -23 -23 R -23 -12 R -47 0 R -23 12 R -12 12 R -12 23 R 0 24 R
12 23 R 12 12 R 81 46 R 12 12 R 12 23 R 0 24 R -12 23 R -23 12 R -24 -12 R
-11 -23 R 0 -24 R 11 -35 R 24 -35 R 58 -82 R 23 -23 R 24 -12 R 23 0 R
12 12 R 0 12 R D 3849 6113 M 0 -246 R D 3849 6113 M 105 0 R 35 -12 R
12 -12 R 11 -23 R 0 -35 R -11 -23 R -12 -12 R -35 -12 R -105 0 R D
4223 6031 M 0 -164 R D 4223 5996 M -24 23 R -23 12 R -35 0 R -24 -12 R
-23 -23 R -12 -35 R 0 -23 R 12 -36 R 23 -23 R 24 -12 R 35 0 R 23 12 R
24 23 R D 4316 6031 M 0 -164 R D 4316 5961 M 12 35 R 23 23 R 23 12 R 35 0 R
D 4818 6054 M -11 24 R -24 23 R -23 12 R -47 0 R -23 -12 R -23 -23 R
-12 -24 R -12 -35 R 0 -58 R 12 -35 R 12 -24 R 23 -23 R 23 -12 R 47 0 R
23 12 R 24 23 R 11 24 R 0 35 R -58 0 R D 4889 5961 M 140 0 R 0 23 R -12 24 R
-12 11 R -23 12 R -35 0 R -23 -12 R -24 -23 R -11 -35 R 0 -23 R 11 -36 R
24 -23 R 23 -12 R 35 0 R 23 12 R 24 23 R D 5111 6031 M 0 -164 R D
5111 5984 M 35 35 R 23 12 R 35 0 R 23 -12 R 12 -35 R 0 -117 R D 5344 6031 M
-11 -12 R 11 -11 R 12 11 R -12 12 R D 5344 5891 M -11 -12 R 11 -12 R 12 12 R
-12 12 R D 8627 6066 M 24 12 R 35 35 R 0 -246 R D 8896 6113 M -35 -12 R
-23 -35 R -12 -58 R 0 -35 R 12 -59 R 23 -35 R 35 -12 R 23 0 R 36 12 R
23 35 R 12 59 R 0 35 R -12 58 R -23 35 R -36 12 R -23 0 R D 9212 6031 M
-12 -35 R -23 -23 R -36 -12 R -11 0 R -35 12 R -24 23 R -11 35 R 0 12 R
11 35 R 24 23 R 35 12 R 11 0 R 36 -12 R 23 -23 R 12 -47 R 0 -58 R -12 -59 R
-23 -35 R -36 -12 R -23 0 R -35 12 R -12 23 R D 9597 6078 M 0 -211 R D
9492 5973 M 210 0 R D 9983 6160 M -211 -386 R D 10053 5973 M 210 0 R D
10567 6066 M 23 12 R 35 35 R 0 -246 R D 10801 6066 M 23 12 R 35 35 R
0 -246 R D 11315 5996 M -12 23 R -35 12 R -35 0 R -35 -12 R -12 -23 R
12 -23 R 23 -12 R 59 -12 R 23 -11 R 12 -24 R 0 -12 R -12 -23 R -35 -12 R
-35 0 R -35 12 R -12 23 R D 11385 5961 M 140 0 R 0 23 R -12 24 R -11 11 R
-24 12 R -35 0 R -23 -12 R -23 -23 R -12 -35 R 0 -23 R 12 -36 R 23 -23 R
23 -12 R 35 0 R 24 12 R 23 23 R D 11735 5996 M -23 23 R -23 12 R -35 0 R
-24 -12 R -23 -23 R -12 -35 R 0 -23 R 12 -36 R 23 -23 R 24 -12 R 35 0 R
23 12 R 23 23 R D 11864 6031 M -23 -12 R -24 -23 R -12 -35 R 0 -23 R
12 -36 R 24 -23 R 23 -12 R 35 0 R 23 12 R 24 23 R 11 36 R 0 23 R -11 35 R
-24 23 R -23 12 R -35 0 R D 12039 6031 M 0 -164 R D 12039 5984 M 35 35 R
24 12 R 35 0 R 23 -12 R 12 -35 R 0 -117 R D 12390 6113 M 0 -246 R D
12390 5996 M -24 23 R -23 12 R -35 0 R -23 -12 R -24 -23 R -12 -35 R 0 -23 R
12 -36 R 24 -23 R 23 -12 R 35 0 R 23 12 R 24 23 R D 12600 5996 M -12 23 R
-35 12 R -35 0 R -35 -12 R -12 -23 R 12 -23 R 24 -12 R 58 -12 R 23 -11 R
12 -24 R 0 -12 R -12 -23 R -35 -12 R -35 0 R -35 12 R -12 23 R D 2575 5579 M
0 -245 R D 2575 5579 M 105 0 R 35 -11 R 12 -12 R 12 -23 R 0 -24 R -12 -23 R
-12 -12 R -35 -11 R -105 0 R D 2657 5463 M 82 -129 R D 2949 5498 M 0 -164 R
D 2949 5463 M -23 23 R -24 12 R -35 0 R -23 -12 R -24 -23 R -11 -36 R
0 -23 R 11 -35 R 24 -23 R 23 -12 R 35 0 R 24 12 R 23 23 R D 3019 5498 M
70 -164 R 70 164 R D 3089 5334 M -23 -58 R -24 -24 R -23 -11 R -12 0 R D
3568 5544 M -23 24 R -35 11 R -47 0 R -35 -11 R -23 -24 R 0 -23 R 11 -23 R
12 -12 R 23 -12 R 70 -23 R 24 -12 R 12 -12 R 11 -23 R 0 -35 R -23 -23 R
-35 -12 R -47 0 R -35 12 R -23 23 R D 3638 5427 M 141 0 R 0 24 R -12 23 R
-12 12 R -23 12 R -35 0 R -24 -12 R -23 -23 R -12 -36 R 0 -23 R 12 -35 R
23 -23 R 24 -12 R 35 0 R 23 12 R 24 23 R D 3872 5579 M 0 -198 R 12 -35 R
23 -12 R 23 0 R D 3837 5498 M 82 0 R D 4001 5498 M 0 -117 R 11 -35 R
24 -12 R 35 0 R 23 12 R 35 35 R D 4129 5498 M 0 -164 R D 4223 5498 M
0 -257 R D 4223 5463 M 23 23 R 23 12 R 35 0 R 24 -12 R 23 -23 R 12 -36 R
0 -23 R -12 -35 R -23 -23 R -24 -12 R -35 0 R -23 12 R -23 23 R D
4456 5498 M -11 -12 R 11 -12 R 12 12 R -12 12 R D 4456 5357 M -11 -11 R
11 -12 R 12 12 R -12 11 R D 8931 5544 M -12 24 R -35 11 R -23 0 R -35 -11 R
-23 -35 R -12 -59 R 0 -58 R 12 -47 R 23 -23 R 35 -12 R 12 0 R 35 12 R
23 23 R 12 35 R 0 12 R -12 35 R -23 23 R -35 12 R -12 0 R -35 -12 R
-23 -23 R -12 -35 R D 9130 5579 M -117 -163 R 175 0 R D 9130 5579 M 0 -245 R
D 9550 5544 M 0 -210 R D 9445 5439 M 211 0 R D 9936 5626 M -210 -385 R D
10006 5439 M 210 0 R D 10789 5579 M -117 -163 R 175 0 R D 10789 5579 M
0 -245 R D 11221 5463 M -11 23 R -35 12 R -36 0 R -35 -12 R -11 -23 R
11 -24 R 24 -12 R 58 -11 R 24 -12 R 11 -23 R 0 -12 R -11 -23 R -35 -12 R
-36 0 R -35 12 R -11 23 R D 11291 5427 M 141 0 R 0 24 R -12 23 R -12 12 R
-23 12 R -35 0 R -24 -12 R -23 -23 R -12 -36 R 0 -23 R 12 -35 R 23 -23 R
24 -12 R 35 0 R 23 12 R 24 23 R D 11642 5463 M -23 23 R -24 12 R -35 0 R
-23 -12 R -24 -23 R -11 -36 R 0 -23 R 11 -35 R 24 -23 R 23 -12 R 35 0 R
24 12 R 23 23 R D 11770 5498 M -23 -12 R -23 -23 R -12 -36 R 0 -23 R
12 -35 R 23 -23 R 23 -12 R 35 0 R 24 12 R 23 23 R 12 35 R 0 23 R -12 36 R
-23 23 R -24 12 R -35 0 R D 11946 5498 M 0 -164 R D 11946 5451 M 35 35 R
23 12 R 35 0 R 24 -12 R 11 -35 R 0 -117 R D 12296 5579 M 0 -245 R D
12296 5463 M -23 23 R -24 12 R -35 0 R -23 -12 R -23 -23 R -12 -36 R 0 -23 R
12 -35 R 23 -23 R 23 -12 R 35 0 R 24 12 R 23 23 R D 12507 5463 M -12 23 R
-35 12 R -35 0 R -35 -12 R -12 -23 R 12 -24 R 23 -12 R 58 -11 R 24 -12 R
12 -23 R 0 -12 R -12 -23 R -35 -12 R -35 0 R -35 12 R -12 23 R D 2622 5046 M
0 -245 R D 2540 5046 M 164 0 R D 2762 4964 M 0 -163 R D 2762 4894 M 12 35 R
23 23 R 23 12 R 35 0 R D 2902 5046 M 12 -12 R 12 12 R -12 12 R -12 -12 R D
2914 4964 M 0 -163 R D 3007 4964 M 0 -163 R D 3007 4917 M 35 35 R 24 12 R
35 0 R 23 -12 R 12 -35 R 0 -116 R D 3136 4917 M 35 35 R 23 12 R 35 0 R
24 -12 R 11 -35 R 0 -116 R D 3370 4964 M -12 -12 R 12 -11 R 11 11 R -11 12 R
D 3370 4824 M -12 -12 R 12 -11 R 11 11 R -11 12 R D 8791 4988 M 0 11 R
12 24 R 11 11 R 24 12 R 46 0 R 24 -12 R 11 -11 R 12 -24 R 0 -23 R -12 -24 R
-23 -35 R -117 -116 R 164 0 R D 9048 4999 M 23 12 R 35 35 R 0 -245 R D
9550 5011 M 0 -210 R D 9445 4906 M 211 0 R D 9936 5093 M -210 -386 R D
10006 4906 M 210 0 R D 10520 4999 M 24 12 R 35 35 R 0 -245 R D 10836 5046 M
-117 -164 R 175 0 R D 10836 5046 M 0 -245 R D 11268 4929 M -12 23 R -35 12 R
-35 0 R -35 -12 R -12 -23 R 12 -23 R 24 -12 R 58 -12 R 23 -11 R 12 -24 R
0 -11 R -12 -24 R -35 -11 R -35 0 R -35 11 R -12 24 R D 11338 4894 M 140 0 R
0 23 R -11 24 R -12 11 R -23 12 R -35 0 R -24 -12 R -23 -23 R -12 -35 R
0 -23 R 12 -35 R 23 -24 R 24 -11 R 35 0 R 23 11 R 23 24 R D 11689 4929 M
-24 23 R -23 12 R -35 0 R -24 -12 R -23 -23 R -12 -35 R 0 -23 R 12 -35 R
23 -24 R 24 -11 R 35 0 R 23 11 R 24 24 R D 11817 4964 M -23 -12 R -24 -23 R
-11 -35 R 0 -23 R 11 -35 R 24 -24 R 23 -11 R 35 0 R 24 11 R 23 24 R 12 35 R
0 23 R -12 35 R -23 23 R -24 12 R -35 0 R D 11992 4964 M 0 -163 R D
11992 4917 M 35 35 R 24 12 R 35 0 R 23 -12 R 12 -35 R 0 -116 R D
12343 5046 M 0 -245 R D 12343 4929 M -23 23 R -24 12 R -35 0 R -23 -12 R
-24 -23 R -11 -35 R 0 -23 R 11 -35 R 24 -24 R 23 -11 R 35 0 R 24 11 R
23 24 R D 12553 4929 M -11 23 R -35 12 R -36 0 R -35 -12 R -11 -23 R
11 -23 R 24 -12 R 58 -12 R 24 -11 R 11 -24 R 0 -11 R -11 -24 R -35 -11 R
-36 0 R -35 11 R -11 24 R D 2739 4454 M -12 24 R -23 23 R -24 12 R -47 0 R
-23 -12 R -23 -23 R -12 -24 R -12 -35 R 0 -58 R 12 -35 R 12 -24 R 23 -23 R
23 -12 R 47 0 R 24 12 R 23 23 R 12 24 R D 2867 4431 M -23 -12 R -24 -23 R
-11 -35 R 0 -24 R 11 -35 R 24 -23 R 23 -12 R 35 0 R 24 12 R 23 23 R 12 35 R
0 24 R -12 35 R -23 23 R -24 12 R -35 0 R D 3159 4396 M -11 23 R -35 12 R
-36 0 R -35 -12 R -11 -23 R 11 -24 R 24 -11 R 58 -12 R 24 -12 R 11 -23 R
0 -12 R -11 -23 R -35 -12 R -36 0 R -35 12 R -11 23 R D 3241 4431 M 0 -164 R
D 3241 4384 M 35 35 R 23 12 R 36 0 R 23 -12 R 12 -35 R 0 -117 R D
3370 4384 M 35 35 R 23 12 R 35 0 R 23 -12 R 12 -35 R 0 -117 R D 3580 4513 M
12 -12 R 11 12 R -11 11 R -12 -11 R D 3592 4431 M 0 -164 R D 3814 4396 M
-24 23 R -23 12 R -35 0 R -24 -12 R -23 -23 R -12 -35 R 0 -24 R 12 -35 R
23 -23 R 24 -12 R 35 0 R 23 12 R 24 23 R D 4001 4478 M 0 -211 R D
3895 4372 M 211 0 R D 4199 4513 M 0 -246 R D 4199 4513 M 105 0 R 35 -12 R
12 -12 R 12 -23 R 0 -24 R -12 -23 R -12 -12 R -35 -11 R -105 0 R D
4304 4396 M 35 -12 R 12 -12 R 12 -23 R 0 -35 R -12 -23 R -12 -12 R -35 -12 R
-105 0 R D 4573 4431 M 0 -164 R D 4573 4396 M -23 23 R -24 12 R -35 0 R
-23 -12 R -23 -23 R -12 -35 R 0 -24 R 12 -35 R 23 -23 R 23 -12 R 35 0 R
24 12 R 23 23 R D 4795 4396 M -23 23 R -24 12 R -35 0 R -23 -12 R -23 -23 R
-12 -35 R 0 -24 R 12 -35 R 23 -23 R 23 -12 R 35 0 R 24 12 R 23 23 R D
4877 4513 M 0 -246 R D 4994 4431 M -117 -117 R D 4924 4361 M 81 -94 R D
5204 4431 M 0 -199 R -12 -35 R -11 -12 R -24 -11 R -35 0 R -23 11 R D
5204 4396 M -23 23 R -24 12 R -35 0 R -23 -12 R -24 -23 R -11 -35 R 0 -24 R
11 -35 R 24 -23 R 23 -12 R 35 0 R 24 12 R 23 23 R D 5297 4431 M 0 -164 R D
5297 4361 M 12 35 R 24 23 R 23 12 R 35 0 R D 5496 4431 M -23 -12 R -24 -23 R
-11 -35 R 0 -24 R 11 -35 R 24 -23 R 23 -12 R 35 0 R 24 12 R 23 23 R 12 35 R
0 24 R -12 35 R -23 23 R -24 12 R -35 0 R D 5671 4431 M 0 -117 R 12 -35 R
23 -12 R 35 0 R 24 12 R 35 35 R D 5800 4431 M 0 -164 R D 5893 4431 M
0 -164 R D 5893 4384 M 35 35 R 24 12 R 35 0 R 23 -12 R 12 -35 R 0 -117 R D
6244 4513 M 0 -246 R D 6244 4396 M -23 23 R -24 12 R -35 0 R -23 -12 R
-24 -23 R -11 -35 R 0 -24 R 11 -35 R 24 -23 R 23 -12 R 35 0 R 24 12 R
23 23 R D 6349 4431 M -12 -12 R 12 -12 R 12 12 R -12 12 R D 6349 4291 M
-12 -12 R 12 -12 R 12 12 R -12 12 R D 8919 4513 M -116 0 R -12 -106 R
12 12 R 35 12 R 35 0 R 35 -12 R 23 -23 R 12 -35 R 0 -24 R -12 -35 R
-23 -23 R -35 -12 R -35 0 R -35 12 R -12 12 R -12 23 R D 9130 4513 M
-117 -164 R 175 0 R D 9130 4513 M 0 -246 R D 9550 4478 M 0 -211 R D
9445 4372 M 211 0 R D 9936 4559 M -210 -385 R D 10006 4372 M 210 0 R D
10789 4513 M -117 -164 R 175 0 R D 10789 4513 M 0 -246 R D 11221 4396 M
-11 23 R -35 12 R -36 0 R -35 -12 R -11 -23 R 11 -24 R 24 -11 R 58 -12 R
24 -12 R 11 -23 R 0 -12 R -11 -23 R -35 -12 R -36 0 R -35 12 R -11 23 R D
11291 4361 M 141 0 R 0 23 R -12 23 R -12 12 R -23 12 R -35 0 R -24 -12 R
-23 -23 R -12 -35 R 0 -24 R 12 -35 R 23 -23 R 24 -12 R 35 0 R 23 12 R
24 23 R D 11642 4396 M -23 23 R -24 12 R -35 0 R -23 -12 R -24 -23 R
-11 -35 R 0 -24 R 11 -35 R 24 -23 R 23 -12 R 35 0 R 24 12 R 23 23 R D
11770 4431 M -23 -12 R -23 -23 R -12 -35 R 0 -24 R 12 -35 R 23 -23 R
23 -12 R 35 0 R 24 12 R 23 23 R 12 35 R 0 24 R -12 35 R -23 23 R -24 12 R
-35 0 R D 11946 4431 M 0 -164 R D 11946 4384 M 35 35 R 23 12 R 35 0 R
24 -12 R 11 -35 R 0 -117 R D 12296 4513 M 0 -246 R D 12296 4396 M -23 23 R
-24 12 R -35 0 R -23 -12 R -23 -23 R -12 -35 R 0 -24 R 12 -35 R 23 -23 R
23 -12 R 35 0 R 24 12 R 23 23 R D 12507 4396 M -12 23 R -35 12 R -35 0 R
-35 -12 R -12 -23 R 12 -24 R 23 -11 R 58 -12 R 24 -12 R 12 -23 R 0 -12 R
-12 -23 R -35 -12 R -35 0 R -35 12 R -12 23 R D 2563 3827 M 141 0 R 0 24 R
-12 23 R -12 12 R -23 11 R -35 0 R -24 -11 R -23 -24 R -12 -35 R 0 -23 R
12 -35 R 23 -24 R 24 -11 R 35 0 R 23 11 R 24 24 R D 2785 3921 M 0 11 R
12 24 R 12 11 R 23 12 R 47 0 R 23 -12 R 12 -11 R 12 -24 R 0 -23 R -12 -23 R
-23 -35 R -117 -117 R 163 0 R D 3148 3897 M 0 -163 R D 3148 3862 M -24 24 R
-23 11 R -35 0 R -24 -11 R -23 -24 R -12 -35 R 0 -23 R 12 -35 R 23 -24 R
24 -11 R 35 0 R 23 11 R 24 24 R D 3370 3979 M 0 -245 R D 3370 3862 M
-24 24 R -23 11 R -35 0 R -24 -11 R -23 -24 R -12 -35 R 0 -23 R 12 -35 R
23 -24 R 24 -11 R 35 0 R 23 11 R 24 24 R D 3592 3862 M -24 24 R -23 11 R
-35 0 R -24 -11 R -23 -24 R -12 -35 R 0 -23 R 12 -35 R 23 -24 R 24 -11 R
35 0 R 23 11 R 24 24 R D 3685 3897 M -12 -11 R 12 -12 R 12 12 R -12 11 R D
3685 3757 M -12 -12 R 12 -11 R 12 11 R -12 12 R D 8931 3897 M -12 -35 R
-23 -23 R -35 -12 R -12 0 R -35 12 R -23 23 R -12 35 R 0 12 R 12 35 R
23 23 R 35 12 R 12 0 R 35 -12 R 23 -23 R 12 -47 R 0 -58 R -12 -58 R
-23 -36 R -35 -11 R -23 0 R -35 11 R -12 24 R D 9130 3979 M -117 -163 R
175 0 R D 9130 3979 M 0 -245 R D 9550 3944 M 0 -210 R D 9445 3839 M 211 0 R
D 9936 4026 M -210 -386 R D 10006 3839 M 210 0 R D 10707 3932 M 24 12 R
35 35 R 0 -245 R D 11221 3862 M -11 24 R -35 11 R -36 0 R -35 -11 R
-11 -24 R 11 -23 R 24 -12 R 58 -11 R 24 -12 R 11 -23 R 0 -12 R -11 -24 R
-35 -11 R -36 0 R -35 11 R -11 24 R D 11291 3827 M 141 0 R 0 24 R -12 23 R
-12 12 R -23 11 R -35 0 R -24 -11 R -23 -24 R -12 -35 R 0 -23 R 12 -35 R
23 -24 R 24 -11 R 35 0 R 23 11 R 24 24 R D 11642 3862 M -23 24 R -24 11 R
-35 0 R -23 -11 R -24 -24 R -11 -35 R 0 -23 R 11 -35 R 24 -24 R 23 -11 R
35 0 R 24 11 R 23 24 R D 11770 3897 M -23 -11 R -23 -24 R -12 -35 R 0 -23 R
12 -35 R 23 -24 R 23 -11 R 35 0 R 24 11 R 23 24 R 12 35 R 0 23 R -12 35 R
-23 24 R -24 11 R -35 0 R D 11946 3897 M 0 -163 R D 11946 3851 M 35 35 R
23 11 R 35 0 R 24 -11 R 11 -35 R 0 -117 R D 12296 3979 M 0 -245 R D
12296 3862 M -23 24 R -24 11 R -35 0 R -23 -11 R -23 -24 R -12 -35 R 0 -23 R
12 -35 R 23 -24 R 23 -11 R 35 0 R 24 11 R 23 24 R D 12507 3862 M -12 24 R
-35 11 R -35 0 R -35 -11 R -12 -24 R 12 -23 R 23 -12 R 58 -11 R 24 -12 R
12 -23 R 0 -12 R -12 -24 R -35 -11 R -35 0 R -35 11 R -12 24 R D 2622 3268 M
0 -245 R D 2540 3268 M 164 0 R D 2809 3186 M -24 -12 R -23 -23 R -12 -35 R
0 -23 R 12 -35 R 23 -24 R 24 -11 R 35 0 R 23 11 R 24 24 R 11 35 R 0 23 R
-11 35 R -24 23 R -23 12 R -35 0 R D 2996 3268 M 0 -199 R 11 -35 R 24 -11 R
23 0 R D 2961 3186 M 81 0 R D 3253 3186 M 0 -163 R D 3253 3151 M -24 23 R
-23 12 R -35 0 R -23 -12 R -24 -23 R -11 -35 R 0 -23 R 11 -35 R 24 -24 R
23 -11 R 35 0 R 23 11 R 24 24 R D 3346 3268 M 0 -245 R D 3673 3186 M
-23 -12 R -23 -23 R -12 -35 R 0 -23 R 12 -35 R 23 -24 R 23 -11 R 35 0 R
24 11 R 23 24 R 12 35 R 0 23 R -12 35 R -23 23 R -24 12 R -35 0 R D
3825 3186 M 70 -163 R 70 163 R D 4024 3116 M 140 0 R 0 23 R -12 24 R
-11 11 R -24 12 R -35 0 R -23 -12 R -23 -23 R -12 -35 R 0 -23 R 12 -35 R
23 -24 R 23 -11 R 35 0 R 24 11 R 23 24 R D 4246 3186 M 0 -163 R D
4246 3116 M 12 35 R 23 23 R 23 12 R 35 0 R D 4398 3268 M 0 -245 R D
4398 3139 M 35 35 R 23 12 R 35 0 R 24 -12 R 11 -35 R 0 -116 R D 4608 3116 M
140 0 R 0 23 R -11 24 R -12 11 R -23 12 R -35 0 R -24 -12 R -23 -23 R
-12 -35 R 0 -23 R 12 -35 R 23 -24 R 24 -11 R 35 0 R 23 11 R 23 24 R D
4959 3186 M 0 -163 R D 4959 3151 M -24 23 R -23 12 R -35 0 R -24 -12 R
-23 -23 R -12 -35 R 0 -23 R 12 -35 R 23 -24 R 24 -11 R 35 0 R 23 11 R
24 24 R D 5181 3268 M 0 -245 R D 5181 3151 M -24 23 R -23 12 R -35 0 R
-24 -12 R -23 -23 R -12 -35 R 0 -23 R 12 -35 R 23 -24 R 24 -11 R 35 0 R
23 11 R 24 24 R D 5286 3186 M -12 -12 R 12 -11 R 11 11 R -11 12 R D
5286 3046 M -12 -12 R 12 -11 R 11 11 R -11 12 R D 8616 3268 M 128 0 R
-70 -94 R 35 0 R 24 -11 R 11 -12 R 12 -35 R 0 -23 R -12 -35 R -23 -24 R
-35 -11 R -35 0 R -35 11 R -12 12 R -12 23 R D 8849 3046 M -11 -12 R
11 -11 R 12 11 R -12 12 R D 9095 3186 M -12 -35 R -23 -23 R -35 -12 R
-12 0 R -35 12 R -23 23 R -12 35 R 0 12 R 12 35 R 23 23 R 35 12 R 12 0 R
35 -12 R 23 -23 R 12 -47 R 0 -58 R -12 -59 R -23 -35 R -35 -11 R -24 0 R
-35 11 R -11 24 R D 9480 3233 M 0 -210 R D 9375 3128 M 210 0 R D 9866 3315 M
-210 -386 R D 9936 3128 M 210 0 R D 10672 3268 M -35 -12 R -23 -35 R
-12 -58 R 0 -35 R 12 -59 R 23 -35 R 35 -11 R 23 0 R 36 11 R 23 35 R 12 59 R
0 35 R -12 58 R -23 35 R -36 12 R -23 0 R D 10859 3046 M -12 -12 R 12 -11 R
12 11 R -12 12 R D 10976 3268 M 128 0 R -70 -94 R 35 0 R 24 -11 R 11 -12 R
12 -35 R 0 -23 R -12 -35 R -23 -24 R -35 -11 R -35 0 R -35 11 R -12 12 R
-11 23 R D 11385 3186 M 0 -163 R D 11385 3139 M 35 35 R 23 12 R 35 0 R
24 -12 R 11 -35 R 0 -116 R D 11513 3139 M 35 35 R 24 12 R 35 0 R 23 -12 R
12 -35 R 0 -116 R D 11724 3268 M 11 -12 R 12 12 R -12 12 R -11 -12 R D
11735 3186 M 0 -163 R D 11829 3186 M 0 -163 R D 11829 3139 M 35 35 R 23 12 R
35 0 R 24 -12 R 11 -35 R 0 -116 R D 12051 3186 M 0 -117 R 12 -35 R 23 -11 R
35 0 R 23 11 R 35 35 R D 12179 3186 M 0 -163 R D 12285 3268 M 0 -199 R
11 -35 R 24 -11 R 23 0 R D 12249 3186 M 82 0 R D 12401 3116 M 141 0 R 0 23 R
-12 24 R -12 11 R -23 12 R -35 0 R -24 -12 R -23 -23 R -12 -35 R 0 -23 R
12 -35 R 23 -24 R 24 -11 R 35 0 R 23 11 R 24 24 R D 12740 3151 M -11 23 R
-36 12 R -35 0 R -35 -12 R -11 -23 R 11 -23 R 24 -12 R 58 -12 R 24 -11 R
11 -24 R 0 -11 R -11 -24 R -36 -11 R -35 0 R -35 11 R -11 24 R D
17967 17635 M -23 23 R -35 12 R -47 0 R -35 -12 R -24 -23 R 0 -24 R 12 -23 R
12 -12 R 23 -11 R 70 -24 R 24 -11 R 11 -12 R 12 -23 R 0 -36 R -23 -23 R
-35 -12 R -47 0 R -35 12 R -24 23 R D 18049 17588 M 0 -257 R D 18049 17553 M
23 23 R 23 12 R 36 0 R 23 -12 R 23 -23 R 12 -35 R 0 -23 R -12 -36 R
-23 -23 R -23 -12 R -36 0 R -23 12 R -23 23 R D 18259 17518 M 140 0 R 0 23 R
-11 24 R -12 11 R -23 12 R -36 0 R -23 -12 R -23 -23 R -12 -35 R 0 -23 R
12 -36 R 23 -23 R 23 -12 R 36 0 R 23 12 R 23 23 R D 18469 17518 M 141 0 R
0 23 R -12 24 R -12 11 R -23 12 R -35 0 R -24 -12 R -23 -23 R -12 -35 R
0 -23 R 12 -36 R 23 -23 R 24 -12 R 35 0 R 23 12 R 24 23 R D 18820 17670 M
0 -246 R D 18820 17553 M -23 23 R -24 12 R -35 0 R -23 -12 R -24 -23 R
-11 -35 R 0 -23 R 11 -36 R 24 -23 R 23 -12 R 35 0 R 24 12 R 23 23 R D
19147 17670 M 0 -246 R D 19065 17670 M 164 0 R D 19276 17518 M 140 0 R
0 23 R -12 24 R -12 11 R -23 12 R -35 0 R -23 -12 R -24 -23 R -11 -35 R
0 -23 R 11 -36 R 24 -23 R 23 -12 R 35 0 R 23 12 R 24 23 R D 19614 17553 M
-11 23 R -35 12 R -35 0 R -35 -12 R -12 -23 R 12 -23 R 23 -12 R 58 -12 R
24 -11 R 11 -24 R 0 -12 R -11 -23 R -35 -12 R -35 0 R -35 12 R -12 23 R D
19708 17670 M 0 -199 R 12 -35 R 23 -12 R 23 0 R D 19673 17588 M 82 0 R D
19848 17588 M -12 -12 R 12 -11 R 12 11 R -12 12 R D 19860 17436 M -12 -12 R
-12 12 R 12 12 R 12 -12 R 0 -35 R -12 -23 R -12 -12 R D 20140 17670 M
0 -246 R D 20140 17670 M 105 0 R 35 -12 R 12 -12 R 12 -23 R 0 -23 R
-12 -24 R -12 -11 R -35 -12 R -105 0 R D 20222 17553 M 82 -129 R D
20374 17518 M 140 0 R 0 23 R -12 24 R -11 11 R -24 12 R -35 0 R -23 -12 R
-23 -23 R -12 -35 R 0 -23 R 12 -36 R 23 -23 R 23 -12 R 35 0 R 24 12 R
23 23 R D 20573 17588 M 70 -164 R 70 164 R D 20771 17670 M 12 -12 R 12 12 R
-12 11 R -12 -11 R D 20783 17588 M 0 -164 R D 20993 17553 M -12 23 R
-35 12 R -35 0 R -35 -12 R -11 -23 R 11 -23 R 24 -12 R 58 -12 R 23 -11 R
12 -24 R 0 -12 R -12 -23 R -35 -12 R -35 0 R -35 12 R -11 23 R D
21063 17670 M 12 -12 R 12 12 R -12 11 R -12 -11 R D 21075 17588 M 0 -164 R D
21215 17588 M -23 -12 R -24 -23 R -11 -35 R 0 -23 R 11 -36 R 24 -23 R
23 -12 R 35 0 R 24 12 R 23 23 R 12 36 R 0 23 R -12 35 R -23 23 R -24 12 R
-35 0 R D 21390 17588 M 0 -164 R D 21390 17541 M 35 35 R 24 12 R 35 0 R
23 -12 R 12 -35 R 0 -117 R D 21624 17588 M -12 -12 R 12 -11 R 12 11 R
-12 12 R D 21624 17448 M -12 -12 R 12 -12 R 12 12 R -12 12 R D 22103 17611 M
0 12 R 12 23 R 12 12 R 23 12 R 47 0 R 23 -12 R 12 -12 R 11 -23 R 0 -23 R
-11 -24 R -24 -35 R -117 -117 R 164 0 R D 22442 17670 M -117 -164 R 175 0 R
D 22442 17670 M 0 -246 R D 22699 17670 M -117 0 R -11 -105 R 11 11 R 35 12 R
35 0 R 35 -12 R 24 -23 R 11 -35 R 0 -23 R -11 -36 R -24 -23 R -35 -12 R
-35 0 R -35 12 R -11 12 R -12 23 R D 22804 17611 M 0 12 R 12 23 R 12 12 R
23 12 R 47 0 R 23 -12 R 12 -12 R 11 -23 R 0 -23 R -11 -24 R -24 -35 R
-116 -117 R 163 0 R D 23178 17588 M -12 -35 R -23 -23 R -35 -12 R -12 0 R
-35 12 R -23 23 R -12 35 R 0 12 R 12 35 R 23 23 R 35 12 R 12 0 R 35 -12 R
23 -23 R 12 -47 R 0 -58 R -12 -59 R -23 -35 R -35 -12 R -23 0 R -35 12 R
-12 23 R D 10 setlinewidth 1.000 0.000 0.000 setrgbcolor 2886 16337 M
1599 0 R D 20 setlinewidth 0.000 0.000 0.000 setrgbcolor 4938 16442 M
-23 23 R -36 12 R -46 0 R -35 -12 R -24 -23 R 0 -24 R 12 -23 R 12 -12 R
23 -12 R 70 -23 R 24 -12 R 11 -11 R 12 -24 R 0 -35 R -23 -23 R -36 -12 R
-46 0 R -35 12 R -24 23 R D 5031 16477 M 0 -199 R 12 -35 R 23 -12 R 24 0 R D
4996 16395 M 82 0 R D 5148 16325 M 140 0 R 0 23 R -11 23 R -12 12 R -23 12 R
-35 0 R -24 -12 R -23 -23 R -12 -35 R 0 -24 R 12 -35 R 23 -23 R 24 -12 R
35 0 R 23 12 R 23 23 R D 5370 16477 M 0 -246 R D 5464 16477 M 0 -246 R D
5686 16395 M 0 -164 R D 5686 16360 M -24 23 R -23 12 R -35 0 R -23 -12 R
-24 -23 R -12 -35 R 0 -24 R 12 -35 R 24 -23 R 23 -12 R 35 0 R 23 12 R
24 23 R D 5779 16395 M 0 -164 R D 5779 16325 M 12 35 R 23 23 R 24 12 R
35 0 R D 6270 16442 M -23 23 R -36 12 R -46 0 R -35 -12 R -24 -23 R 0 -24 R
12 -23 R 12 -12 R 23 -12 R 70 -23 R 24 -12 R 11 -11 R 12 -24 R 0 -35 R
-23 -23 R -36 -12 R -46 0 R -35 12 R -24 23 R D 6340 16477 M 12 -12 R
11 12 R -11 11 R -12 -11 R D 6352 16395 M 0 -164 R D 6445 16395 M 0 -164 R D
6445 16348 M 35 35 R 24 12 R 35 0 R 23 -12 R 12 -35 R 0 -117 R D
6574 16348 M 35 35 R 23 12 R 35 0 R 24 -12 R 11 -35 R 0 -117 R D
6796 16395 M 0 -117 R 11 -35 R 24 -12 R 35 0 R 23 12 R 35 35 R D
6924 16395 M 0 -164 R D 7018 16477 M 0 -246 R D 7240 16395 M 0 -164 R D
7240 16360 M -24 23 R -23 12 R -35 0 R -23 -12 R -24 -23 R -12 -35 R 0 -24 R
12 -35 R 24 -23 R 23 -12 R 35 0 R 23 12 R 24 23 R D 7345 16477 M 0 -199 R
12 -35 R 23 -12 R 23 0 R D 7310 16395 M 82 0 R D 7462 16477 M 11 -12 R
12 12 R -12 11 R -11 -11 R D 7473 16395 M 0 -164 R D 7614 16395 M -24 -12 R
-23 -23 R -12 -35 R 0 -24 R 12 -35 R 23 -23 R 24 -12 R 35 0 R 23 12 R
23 23 R 12 35 R 0 24 R -12 35 R -23 23 R -23 12 R -35 0 R D 7789 16395 M
0 -164 R D 7789 16348 M 35 35 R 23 12 R 35 0 R 24 -12 R 11 -35 R 0 -117 R D
8245 16477 M 0 -246 R D 8163 16477 M 163 0 R D 8373 16477 M 12 -12 R 11 12 R
-11 11 R -12 -11 R D 8385 16395 M 0 -164 R D 8478 16395 M 0 -164 R D
8478 16348 M 35 35 R 24 12 R 35 0 R 23 -12 R 12 -35 R 0 -117 R D
8607 16348 M 35 35 R 23 12 R 35 0 R 24 -12 R 11 -35 R 0 -117 R D
8817 16325 M 140 0 R 0 23 R -11 23 R -12 12 R -23 12 R -36 0 R -23 -12 R
-23 -23 R -12 -35 R 0 -24 R 12 -35 R 23 -23 R 23 -12 R 36 0 R 23 12 R
23 23 R D 10 setlinewidth 0.141 0.000 0.961 setrgbcolor 2886 15914 M
1599 0 R D 20 setlinewidth 0.000 0.000 0.000 setrgbcolor 4950 15996 M
-12 23 R -23 24 R -24 11 R -47 0 R -23 -11 R -23 -24 R -12 -23 R -12 -35 R
0 -59 R 12 -35 R 12 -23 R 23 -23 R 23 -12 R 47 0 R 24 12 R 23 23 R 12 23 R
0 35 R -59 0 R D 5160 15972 M 0 -163 R D 5160 15937 M -23 24 R -24 11 R
-35 0 R -23 -11 R -24 -24 R -11 -35 R 0 -23 R 11 -35 R 24 -23 R 23 -12 R
35 0 R 24 12 R 23 23 R D 5253 16054 M 0 -245 R D 5475 15972 M 0 -163 R D
5475 15937 M -23 24 R -23 11 R -35 0 R -24 -11 R -23 -24 R -12 -35 R 0 -23 R
12 -35 R 23 -23 R 24 -12 R 35 0 R 23 12 R 23 23 R D 5557 15972 M 129 -163 R
D 5686 15972 M -129 -163 R D 5744 15972 M 70 -163 R 70 163 R D 5814 15809 M
-23 -59 R -24 -23 R -23 -12 R -12 0 R D 6293 16019 M -23 24 R -35 11 R
-47 0 R -35 -11 R -23 -24 R 0 -23 R 11 -24 R 12 -11 R 23 -12 R 71 -23 R
23 -12 R 12 -12 R 11 -23 R 0 -35 R -23 -23 R -35 -12 R -47 0 R -35 12 R
-23 23 R D 6363 16054 M 12 -11 R 12 11 R -12 12 R -12 -12 R D 6375 15972 M
0 -163 R D 6469 15972 M 0 -163 R D 6469 15926 M 35 35 R 23 11 R 35 0 R
23 -11 R 12 -35 R 0 -117 R D 6597 15926 M 35 35 R 23 11 R 36 0 R 23 -11 R
12 -35 R 0 -117 R D 6819 15972 M 0 -116 R 12 -35 R 23 -12 R 35 0 R 24 12 R
35 35 R D 6948 15972 M 0 -163 R D 7041 16054 M 0 -245 R D 7263 15972 M
0 -163 R D 7263 15937 M -23 24 R -24 11 R -35 0 R -23 -11 R -23 -24 R
-12 -35 R 0 -23 R 12 -35 R 23 -23 R 23 -12 R 35 0 R 24 12 R 23 23 R D
7368 16054 M 0 -198 R 12 -35 R 23 -12 R 24 0 R D 7333 15972 M 82 0 R D
7485 16054 M 12 -11 R 11 11 R -11 12 R -12 -12 R D 7497 15972 M 0 -163 R D
7637 15972 M -23 -11 R -24 -24 R -11 -35 R 0 -23 R 11 -35 R 24 -23 R
23 -12 R 35 0 R 23 12 R 24 23 R 11 35 R 0 23 R -11 35 R -24 24 R -23 11 R
-35 0 R D 7812 15972 M 0 -163 R D 7812 15926 M 35 35 R 24 11 R 35 0 R
23 -11 R 12 -35 R 0 -117 R D 8268 16054 M 0 -245 R D 8186 16054 M 164 0 R D
8396 16054 M 12 -11 R 12 11 R -12 12 R -12 -12 R D 8408 15972 M 0 -163 R D
8502 15972 M 0 -163 R D 8502 15926 M 35 35 R 23 11 R 35 0 R 23 -11 R
12 -35 R 0 -117 R D 8630 15926 M 35 35 R 24 11 R 35 0 R 23 -11 R 12 -35 R
0 -117 R D 8840 15902 M 141 0 R 0 24 R -12 23 R -12 12 R -23 11 R -35 0 R
-24 -11 R -23 -24 R -12 -35 R 0 -23 R 12 -35 R 23 -23 R 24 -12 R 35 0 R
23 12 R 24 23 R D 10 setlinewidth 2487 16654 M 6674 0 R 0 -1056 R -6674 0 R
0 1056 R D
%%PageTrailer
end
restore
showpage
%%PageResources: font Helvetica
%%Trailer
restore
%%Pages: 1
%%DocumentNeededResources: font Helvetica
%%EOF
