%!PS-Adobe-3.0
%%BoundingBox: 54 360 558 720
%%Title: Graphics produced by IDL
%%For: peters11@pal-nat185-040-030.itap.purdue.edu, 
%%      /Users/peters11/imsims/trunk/ancillary/tracking
%%Creator: IDL Version 6.3, Mac OS X (darwin i386 m32)
%%CreationDate: Mon Sep 12 12:52:52 2011
%%DocumentData: Clean7bit
%%LanguageLevel: 1
%%PageOrder: Ascend
%%Pages: (atend)
%%DocumentNeededResources: (atend)
%%EndComments
%%BeginProlog
save
%+ prolog.ps -- Prolog for IDL generated PostScript files
%+ Copyright (c) 1988-2006 Research Systems, Inc. All Rights Reserved.
%v 5
/$IDL_DICT 40 dict def $IDL_DICT begin /bdef { bind def } bind def /C
{currentpoint newpath moveto} bdef /CP {currentpoint} bdef /D {currentpoint
stroke moveto} bdef /F {closepath fill} bdef /K { setgray } bdef /M {moveto}
bdef /N {rmoveto} bdef /P {lineto} bdef /R {rlineto} bdef /S {gsave show
grestore} bdef /X {currentpoint pop} bdef /Z {gsave currentpoint lineto 20
setlinewidth 1 setlinecap stroke grestore} bdef /L0 {[] 0 setdash} bdef /L1
{[40 100] 0 setdash} bdef /L2 {[200 200] 0 setdash} bdef /L3 {[200 100 50
100] 0 setdash} bdef /L4 {[300 100 50 100 50 100 50 100] 0 setdash} bdef /L5
{[400 200] 0 setdash} bdef /STDFONT { findfont exch scalefont setfont } bdef
/ISOFONT { findfont dup length dict begin { 1 index /FID ne {def} {pop pop}
ifelse } forall /Encoding ISOLatin1Encoding def currentdict end /idltmpfont
exch definefont exch scalefont setfont } bdef /ISOBULLET { gsave /Helvetica
findfont exch scalefont setfont (\267) show currentpoint grestore moveto}
bdef /MITERLIMIT { 2.5 setmiterlimit } bdef end
%%EndProlog
%%Page: 0 1
%%PageResources: (atend)
%%PageOrientation: Portrait
%%PageBoundingBox: 54 360 558 720
%%BeginPageSetup
save
$IDL_DICT begin 54 360 translate 0.0283465 dup scale MITERLIMIT
%%IncludeResource: font Helvetica
423.333 /Helvetica STDFONT
%%EndPageSetup
10 setlinewidth L0 0.000 K 2220 1408 M 14894 0 R D 2220 1408 M 0 212 R D
2197 1125 M -35 -11 R -24 -35 R -11 -59 R 0 -35 R 11 -58 R 24 -35 R 35 -12 R
23 0 R 35 12 R 24 35 R 11 58 R 0 35 R -11 59 R -24 35 R -35 11 R -23 0 R D
4477 1408 M 0 212 R D 4524 1125 M -117 0 R -12 -105 R 12 12 R 35 12 R 35 0 R
35 -12 R 23 -23 R 12 -35 R 0 -24 R -12 -35 R -23 -23 R -35 -12 R -35 0 R
-35 12 R -12 11 R -11 24 R D 6734 1408 M 0 212 R D 6559 1079 M 23 11 R
35 35 R 0 -245 R D 6827 1125 M -35 -11 R -23 -35 R -12 -59 R 0 -35 R
12 -58 R 23 -35 R 35 -12 R 24 0 R 35 12 R 23 35 R 12 58 R 0 35 R -12 59 R
-23 35 R -35 11 R -24 0 R D 8991 1408 M 0 212 R D 8816 1079 M 23 11 R
35 35 R 0 -245 R D 9154 1125 M -116 0 R -12 -105 R 12 12 R 35 12 R 35 0 R
35 -12 R 23 -23 R 12 -35 R 0 -24 R -12 -35 R -23 -23 R -35 -12 R -35 0 R
-35 12 R -12 11 R -12 24 R D 11248 1408 M 0 212 R D 11049 1067 M 0 12 R
12 23 R 11 12 R 24 11 R 47 0 R 23 -11 R 12 -12 R 11 -23 R 0 -24 R -11 -23 R
-24 -35 R -117 -117 R 164 0 R D 11341 1125 M -35 -11 R -23 -35 R -12 -59 R
0 -35 R 12 -58 R 23 -35 R 35 -12 R 24 0 R 35 12 R 23 35 R 12 58 R 0 35 R
-12 59 R -23 35 R -35 11 R -24 0 R D 13505 1408 M 0 212 R D 13306 1067 M
0 12 R 12 23 R 11 12 R 24 11 R 46 0 R 24 -11 R 11 -12 R 12 -23 R 0 -24 R
-12 -23 R -23 -35 R -117 -117 R 164 0 R D 13668 1125 M -117 0 R -11 -105 R
11 12 R 35 12 R 35 0 R 35 -12 R 24 -23 R 11 -35 R 0 -24 R -11 -35 R
-24 -23 R -35 -12 R -35 0 R -35 12 R -11 11 R -12 24 R D 15761 1408 M
0 212 R D 15574 1125 M 129 0 R -70 -93 R 35 0 R 23 -12 R 12 -11 R 12 -35 R
0 -24 R -12 -35 R -23 -23 R -35 -12 R -35 0 R -36 12 R -11 11 R -12 24 R D
15855 1125 M -35 -11 R -24 -35 R -11 -59 R 0 -35 R 11 -58 R 24 -35 R
35 -12 R 23 0 R 35 12 R 24 35 R 11 58 R 0 35 R -11 59 R -24 35 R -35 11 R
-23 0 R D 2671 1408 M 0 106 R D 3123 1408 M 0 106 R D 3574 1408 M 0 106 R D
4026 1408 M 0 106 R D 4928 1408 M 0 106 R D 5380 1408 M 0 106 R D
5831 1408 M 0 106 R D 6282 1408 M 0 106 R D 7185 1408 M 0 106 R D
7637 1408 M 0 106 R D 8088 1408 M 0 106 R D 8539 1408 M 0 106 R D
9442 1408 M 0 106 R D 9894 1408 M 0 106 R D 10345 1408 M 0 106 R D
10796 1408 M 0 106 R D 11699 1408 M 0 106 R D 12150 1408 M 0 106 R D
12602 1408 M 0 106 R D 13053 1408 M 0 106 R D 13956 1408 M 0 106 R D
14407 1408 M 0 106 R D 14859 1408 M 0 106 R D 15310 1408 M 0 106 R D
16213 1408 M 0 106 R D 16664 1408 M 0 106 R D 9328 668 M 0 -246 R D
9246 668 M 164 0 R D 9457 668 M 11 -12 R 12 12 R -12 12 R -11 -12 R D
9468 586 M 0 -164 R D 9562 586 M 0 -164 R D 9562 539 M 35 35 R 23 12 R
35 0 R 24 -12 R 11 -35 R 0 -117 R D 9690 539 M 36 35 R 23 12 R 35 0 R
23 -12 R 12 -35 R 0 -117 R D 9901 516 M 140 0 R 0 23 R -12 24 R -11 11 R
-24 12 R -35 0 R -23 -12 R -24 -23 R -11 -35 R 0 -23 R 11 -35 R 24 -24 R
23 -12 R 35 0 R 24 12 R 23 24 R D 2220 11996 M 14894 0 R D 2220 11996 M
0 -212 R D 4477 11996 M 0 -212 R D 6734 11996 M 0 -212 R D 8991 11996 M
0 -212 R D 11248 11996 M 0 -212 R D 13505 11996 M 0 -212 R D 15761 11996 M
0 -212 R D 2671 11996 M 0 -106 R D 3123 11996 M 0 -106 R D 3574 11996 M
0 -106 R D 4026 11996 M 0 -106 R D 4928 11996 M 0 -106 R D 5380 11996 M
0 -106 R D 5831 11996 M 0 -106 R D 6282 11996 M 0 -106 R D 7185 11996 M
0 -106 R D 7637 11996 M 0 -106 R D 8088 11996 M 0 -106 R D 8539 11996 M
0 -106 R D 9442 11996 M 0 -106 R D 9894 11996 M 0 -106 R D 10345 11996 M
0 -106 R D 10796 11996 M 0 -106 R D 11699 11996 M 0 -106 R D 12150 11996 M
0 -106 R D 12602 11996 M 0 -106 R D 13053 11996 M 0 -106 R D 13956 11996 M
0 -106 R D 14407 11996 M 0 -106 R D 14859 11996 M 0 -106 R D 15310 11996 M
0 -106 R D 16213 11996 M 0 -106 R D 16664 11996 M 0 -106 R D 2220 1408 M
0 10588 R D 2220 1408 M 298 0 R D 1256 1513 M 210 0 R D 1583 1607 M 24 11 R
35 35 R 0 -245 R D 1805 1431 M -11 -11 R 11 -12 R 12 12 R -12 11 R D
2039 1653 M -117 0 R -12 -105 R 12 12 R 35 12 R 35 0 R 35 -12 R 24 -23 R
11 -35 R 0 -24 R -11 -35 R -24 -23 R -35 -12 R -35 0 R -35 12 R -12 11 R
-11 24 R D 2220 4055 M 298 0 R D 1256 4019 M 210 0 R D 1583 4113 M 24 12 R
35 35 R 0 -246 R D 1805 3938 M -11 -12 R 11 -12 R 12 12 R -12 12 R D
1969 4160 M -35 -12 R -24 -35 R -11 -59 R 0 -35 R 11 -58 R 24 -35 R 35 -12 R
23 0 R 35 12 R 24 35 R 11 58 R 0 35 R -11 59 R -24 35 R -35 12 R -23 0 R D
2220 6702 M 298 0 R D 1256 6666 M 210 0 R D 1618 6807 M -35 -12 R -23 -35 R
-12 -59 R 0 -35 R 12 -58 R 23 -35 R 35 -12 R 24 0 R 35 12 R 23 35 R 12 58 R
0 35 R -12 59 R -23 35 R -35 12 R -24 0 R D 1805 6585 M -11 -12 R 11 -12 R
12 12 R -12 12 R D 2039 6807 M -117 0 R -12 -106 R 12 12 R 35 12 R 35 0 R
35 -12 R 24 -23 R 11 -35 R 0 -24 R -11 -35 R -24 -23 R -35 -12 R -35 0 R
-35 12 R -12 12 R -11 23 R D 2220 9349 M 298 0 R D 1618 9454 M -35 -12 R
-23 -35 R -12 -59 R 0 -35 R 12 -58 R 23 -35 R 35 -12 R 24 0 R 35 12 R
23 35 R 12 58 R 0 35 R -12 59 R -23 35 R -35 12 R -24 0 R D 1805 9232 M
-11 -12 R 11 -12 R 12 12 R -12 12 R D 1969 9454 M -35 -12 R -24 -35 R
-11 -59 R 0 -35 R 11 -58 R 24 -35 R 35 -12 R 23 0 R 35 12 R 24 35 R 11 58 R
0 35 R -11 59 R -24 35 R -35 12 R -23 0 R D 2220 11996 M 298 0 R D
1618 11995 M -35 -12 R -23 -35 R -12 -58 R 0 -35 R 12 -59 R 23 -35 R
35 -11 R 24 0 R 35 11 R 23 35 R 12 59 R 0 35 R -12 58 R -23 35 R -35 12 R
-24 0 R D 1805 11773 M -11 -12 R 11 -11 R 12 11 R -12 12 R D 2039 11995 M
-117 0 R -12 -105 R 12 12 R 35 11 R 35 0 R 35 -11 R 24 -24 R 11 -35 R
0 -23 R -11 -35 R -24 -24 R -35 -11 R -35 0 R -35 11 R -12 12 R -11 23 R D
2220 1937 M 149 0 R D 2220 2467 M 149 0 R D 2220 2996 M 149 0 R D
2220 3526 M 149 0 R D 2220 4584 M 149 0 R D 2220 5114 M 149 0 R D
2220 5643 M 149 0 R D 2220 6173 M 149 0 R D 2220 7231 M 149 0 R D
2220 7761 M 149 0 R D 2220 8290 M 149 0 R D 2220 8820 M 149 0 R D
2220 9878 M 149 0 R D 2220 10408 M 149 0 R D 2220 10937 M 149 0 R D
2220 11467 M 149 0 R D 643 3974 M 175 0 R 35 11 R 23 24 R 12 35 R 0 23 R
-12 35 R -23 24 R -35 11 R -175 0 R D 725 4231 M 163 0 R D 771 4231 M
-35 35 R -11 23 R 0 35 R 11 24 R 35 11 R 117 0 R D 725 4453 M 163 0 R D
771 4453 M -35 35 R -11 23 R 0 35 R 11 24 R 35 11 R 117 0 R D 725 4722 M
11 -24 R 24 -23 R 35 -12 R 23 0 R 35 12 R 23 23 R 12 24 R 0 35 R -12 23 R
-23 23 R -35 12 R -23 0 R -35 -12 R -24 -23 R -11 -23 R 0 -35 R D 725 4897 M
163 0 R D 795 4897 M -35 12 R -24 23 R -11 23 R 0 35 R D 725 5049 M 163 0 R
D 771 5049 M -35 35 R -11 23 R 0 35 R 11 24 R 35 11 R 117 0 R D 771 5177 M
-35 35 R -11 24 R 0 35 R 11 23 R 35 12 R 117 0 R D 725 5528 M 163 0 R D
760 5528 M -24 -24 R -11 -23 R 0 -35 R 11 -23 R 24 -24 R 35 -11 R 23 0 R
35 11 R 23 24 R 12 23 R 0 35 R -12 23 R -23 24 R D 643 5621 M 245 0 R D
643 5703 M 11 12 R -11 11 R -12 -11 R 12 -12 R D 725 5715 M 163 0 R D
725 5925 M 163 -128 R D 725 5797 M 0 128 R D 888 5797 M 0 128 R D 795 5995 M
0 140 R -24 0 R -23 -11 R -12 -12 R -11 -23 R 0 -35 R 11 -24 R 24 -23 R
35 -12 R 23 0 R 35 12 R 23 23 R 12 24 R 0 35 R -12 23 R -23 23 R D
643 6346 M 245 0 R D 760 6346 M -24 -24 R -11 -23 R 0 -35 R 11 -23 R
24 -24 R 35 -12 R 23 0 R 35 12 R 23 24 R 12 23 R 0 35 R -12 23 R -23 24 R D
643 6720 M 187 0 R 35 -12 R 11 -12 R 12 -23 R 0 -24 R -12 -23 R -11 -12 R
-35 -11 R -24 0 R D 643 6801 M 11 12 R -11 12 R -12 -12 R 12 -12 R D
725 6813 M 163 0 R D 643 6918 M 198 0 R 35 12 R 12 23 R 0 24 R D 725 6883 M
0 82 R D 643 7058 M 198 0 R 35 12 R 12 23 R 0 24 R D 725 7023 M 0 82 R D
795 7175 M 0 140 R -24 0 R -23 -11 R -12 -12 R -11 -23 R 0 -35 R 11 -24 R
24 -23 R 35 -12 R 23 0 R 35 12 R 23 23 R 12 24 R 0 35 R -12 23 R -23 23 R D
725 7397 M 163 0 R D 795 7397 M -35 12 R -24 23 R -11 24 R 0 35 R D
643 7795 M 245 -94 R D 643 7795 M 245 93 R D 806 7736 M 0 117 R D 725 7946 M
163 0 R D 771 7946 M -35 35 R -11 24 R 0 35 R 11 23 R 35 12 R 117 0 R D
771 8075 M -35 35 R -11 23 R 0 35 R 11 24 R 35 11 R 117 0 R D 725 8297 M
257 0 R D 760 8297 M -24 23 R -11 24 R 0 35 R 11 23 R 24 23 R 35 12 R 23 0 R
35 -12 R 23 -23 R 12 -23 R 0 -35 R -12 -24 R -23 -23 R D 643 8519 M 245 0 R
D 643 8601 M 11 11 R -11 12 R -12 -12 R 12 -11 R D 725 8612 M 163 0 R D
643 8718 M 198 0 R 35 11 R 12 24 R 0 23 R D 725 8683 M 0 81 R D 725 8846 M
116 0 R 35 12 R 12 23 R 0 35 R -12 24 R -35 35 R D 725 8975 M 163 0 R D
643 9197 M 245 0 R D 760 9197 M -24 -24 R -11 -23 R 0 -35 R 11 -24 R
24 -23 R 35 -12 R 23 0 R 35 12 R 23 23 R 12 24 R 0 35 R -12 23 R -23 24 R D
795 9278 M 0 141 R -24 0 R -23 -12 R -12 -12 R -11 -23 R 0 -35 R 11 -24 R
24 -23 R 35 -12 R 23 0 R 35 12 R 23 23 R 12 24 R 0 35 R -12 23 R -23 24 R D
17114 1408 M 0 10588 R D 17114 1408 M -298 0 R D 17114 4055 M -298 0 R D
17114 6702 M -298 0 R D 17114 9349 M -298 0 R D 17114 11996 M -298 0 R D
17114 1937 M -149 0 R D 17114 2467 M -149 0 R D 17114 2996 M -149 0 R D
17114 3526 M -149 0 R D 17114 4584 M -149 0 R D 17114 5114 M -149 0 R D
17114 5643 M -149 0 R D 17114 6173 M -149 0 R D 17114 7231 M -149 0 R D
17114 7761 M -149 0 R D 17114 8290 M -149 0 R D 17114 8820 M -149 0 R D
17114 9878 M -149 0 R D 17114 10408 M -149 0 R D 17114 10937 M -149 0 R D
17114 11467 M -149 0 R D 2220 9349 M 2 0 R 1 -21 R 2 -21 R 1 -21 R 2 -21 R
1 -21 R 2 -21 R 1 -21 R 1 -22 R 2 -21 R 1 -21 R 2 -21 R 1 -21 R 2 -21 R
1 -21 R 2 -21 R 1 -21 R 2 -21 R 1 -21 R 2 -21 R 1 -21 R 2 11 R 1 12 R 2 11 R
1 12 R 2 11 R 1 11 R 2 12 R 1 11 R 2 11 R 1 12 R 2 11 R 1 12 R 2 11 R 1 11 R
2 12 R 1 11 R 2 11 R 1 12 R 2 11 R 1 -32 R 2 -32 R 1 -32 R 2 -33 R 1 -32 R
2 -32 R 1 -32 R 2 -33 R 1 -32 R 2 -32 R 1 -32 R 2 -33 R 1 -32 R 2 37 R
1 37 R 2 38 R 1 37 R 1 37 R 2 37 R 1 37 R 2 37 R 1 37 R 2 38 R 1 37 R 2 37 R
1 37 R 2 37 R 1 37 R 2 2 R 1 2 R 2 3 R 1 2 R 2 2 R 1 2 R 2 2 R 1 2 R 2 2 R
1 2 R 2 2 R 1 2 R 2 2 R 1 2 R 2 2 R 1 2 R 2 2 R 1 3 R 2 2 R 1 2 R 2 2 R
1 2 R 2 14 R 1 15 R 2 15 R 1 14 R 2 15 R 1 15 R 2 14 R 1 15 R 2 15 R 1 14 R
2 15 R 1 15 R 2 3 R 1 3 R 1 4 R 2 3 R 1 4 R 2 3 R 1 3 R 2 4 R 1 3 R 2 3 R
1 4 R 2 3 R 1 4 R 2 3 R 1 3 R 2 12 R 1 12 R 2 11 R 1 12 R 2 12 R 1 11 R
2 12 R 1 12 R 2 11 R 1 12 R 2 12 R 1 11 R 2 12 R 1 12 R 2 11 R 1 12 R 2 12 R
1 11 R 2 12 R 1 12 R 2 12 R 1 11 R 2 -49 R 1 5 R 2 5 R 1 6 R 2 5 R 1 6 R
2 5 R 1 6 R 2 5 R 1 6 R 2 5 R 1 5 R 2 6 R 1 5 R 1 6 R 2 5 R 1 6 R 2 5 R
1 -24 R 2 -25 R 1 -24 R 2 -25 R 1 -24 R 2 -24 R 1 -25 R 2 -24 R 1 -25 R
2 -170 R 1 -171 R 2 -137 R 1 -14 R 2 -14 R 1 -14 R 2 -14 R 1 -14 R 2 -14 R
1 -14 R 2 -14 R 1 -14 R 2 -14 R 1 -14 R 2 -14 R 1 -14 R 2 -14 R 1 -14 R
2 -22 R 1 -21 R 2 -22 R 1 -21 R 2 -22 R 1 -21 R 2 -22 R 1 -21 R 2 -21 R
1 -22 R 2 -21 R 1 -4 R 2 -3 R 1 -4 R 2 -3 R 1 -4 R 1 -26 R 2 -27 R 1 -26 R
2 -26 R 1 7 R 2 8 R 1 7 R 2 8 R 1 8 R 2 7 R 1 8 R 2 7 R 1 8 R 2 8 R 1 7 R
2 8 R 1 7 R 2 8 R 1 8 R 2 7 R 1 -39 R 2 -40 R 1 -39 R 2 -40 R 1 -39 R
2 -40 R 1 -39 R 2 -40 R 1 50 R 2 50 R 1 9 R 2 9 R 1 9 R 2 9 R 1 10 R 2 9 R
1 9 R 2 9 R 1 9 R 2 9 R 1 10 R 2 9 R 1 9 R 2 9 R 1 9 R 2 10 R 1 9 R 1 9 R
2 9 R 1 9 R 2 9 R 1 10 R 2 9 R 1 9 R 2 6 R 1 6 R 2 6 R 1 7 R 2 6 R 1 6 R
2 6 R 1 6 R 2 6 R 1 6 R 2 7 R 1 6 R 2 6 R 1 6 R 2 6 R 1 6 R 2 6 R 1 7 R
2 6 R 1 6 R 2 6 R 1 6 R 2 6 R 1 6 R 2 7 R 1 6 R 2 6 R 1 6 R 2 6 R 1 6 R
2 5 R 1 5 R 2 6 R 1 5 R 2 5 R 1 5 R 2 5 R 1 5 R 2 5 R 1 5 R 2 5 R 1 5 R
1 5 R 2 5 R 1 5 R 2 5 R 1 5 R 2 5 R 1 5 R 2 5 R 1 5 R 2 172 R 1 4 R 2 5 R
1 5 R 2 4 R 1 5 R 2 5 R 1 4 R 2 5 R 1 5 R 2 4 R 1 5 R 2 5 R 1 4 R 2 5 R
1 5 R 2 4 R 1 5 R 2 5 R 1 4 R 2 5 R 1 5 R 2 4 R 1 5 R 2 5 R 1 4 R 2 29 R
1 29 R 2 28 R 1 29 R 2 29 R 1 28 R 2 29 R 1 29 R 2 28 R 1 29 R 2 29 R 1 28 R
1 29 R 2 29 R 1 28 R 2 -5 R 1 -6 R 2 -5 R 1 -5 R 2 -6 R 1 -5 R 2 -6 R 1 -5 R
2 -5 R 1 -6 R 2 -5 R 1 -6 R 2 -5 R 1 -6 R 2 -5 R 1 -5 R 2 -6 R 1 -5 R 2 -6 R
1 9 R 2 8 R 1 8 R 2 8 R 1 8 R 2 9 R 1 8 R 2 8 R 1 8 R 2 8 R 1 9 R 2 8 R
1 8 R 2 8 R 1 8 R 2 9 R 1 8 R 2 8 R 1 8 R 2 8 R 1 8 R 2 9 R 1 8 R 2 8 R
1 -269 R 2 9 R 1 9 R 1 9 R 2 9 R 1 9 R 2 9 R 1 9 R 2 9 R 1 9 R 2 10 R 1 9 R
2 9 R 1 9 R 2 9 R 1 9 R 2 9 R 1 9 R 2 9 R 1 9 R 2 9 R 1 9 R 2 9 R 1 -2 R
2 -3 R 1 -3 R 2 -2 R 1 -3 R 2 -2 R 1 -3 R 2 -3 R 1 -2 R 2 -3 R 1 -2 R 2 -3 R
1 -3 R 2 -2 R 1 -3 R 2 -2 R 1 -3 R 2 4 R 1 5 R 2 4 R 1 4 R 2 4 R 1 5 R 2 4 R
1 4 R 2 5 R 1 4 R 1 4 R 2 5 R 1 4 R 2 4 R 1 5 R 2 4 R 1 4 R 2 5 R 1 4 R
2 4 R 1 4 R 2 5 R 1 4 R 2 4 R 1 5 R 2 4 R 1 36 R 2 36 R 1 36 R 2 37 R 1 36 R
2 36 R 1 36 R 2 36 R 1 15 R 2 14 R 1 15 R 2 14 R 1 15 R 2 14 R 1 15 R 2 14 R
1 15 R 2 14 R 1 15 R 2 14 R 1 15 R 2 14 R 1 14 R 2 15 R 1 8 R 2 -21 R
1 -21 R 2 -20 R 1 -21 R 2 -21 R 1 -20 R 1 -21 R 2 -21 R 1 -20 R 2 -21 R
1 -21 R 2 -20 R 1 -21 R 2 -21 R 1 -20 R 2 312 R 1 25 R 2 24 R 1 25 R 2 24 R
1 25 R 2 24 R 1 25 R 2 6 R 1 7 R 2 7 R 1 6 R 2 7 R 1 6 R 2 7 R 1 7 R 2 1 R
1 2 R 2 2 R 1 2 R 2 1 R 1 2 R 2 2 R 1 2 R 2 1 R 1 2 R 2 2 R 1 2 R 2 2 R
1 1 R 2 2 R 1 2 R 2 2 R 1 1 R 2 2 R 1 2 R 2 2 R 1 1 R 2 2 R 1 2 R 1 2 R
2 1 R 1 2 R 2 2 R 1 1 R 2 1 R 1 1 R 2 1 R 1 1 R 2 1 R 1 1 R 2 1 R 1 1 R
2 1 R 1 1 R 2 1 R 1 1 R 2 1 R 1 1 R 2 1 R 1 1 R 2 1 R 1 1 R 2 1 R 1 1 R
2 1 R 1 1 R 2 1 R 1 1 R 2 1 R 1 1 R 2 1 R 1 1 R 2 23 R 1 23 R 2 23 R 1 23 R
2 23 R 1 23 R 2 23 R 1 23 R 2 23 R 1 24 R 2 23 R 1 23 R 2 23 R 1 23 R 1 23 R
2 23 R 1 23 R 2 23 R 1 23 R 2 23 R 1 -1 R 2 -1 R 1 -1 R 2 -2 R 1 -1 R 2 -1 R
1 -1 R 2 -1 R 1 -1 R 2 -1 R 1 -1 R 2 -2 R 1 -1 R 2 -1 R 1 -1 R 2 -1 R 1 -1 R
2 -1 R 1 -1 R 2 -1 R 1 -2 R 2 -1 R 1 -1 R 2 -1 R 1 -17 R 2 -18 R 1 -17 R
2 -17 R 1 -18 R 2 -17 R 1 -17 R 2 -17 R 1 -18 R 2 -17 R 1 -17 R 2 -18 R
1 -17 R 2 -17 R 1 -18 R 2 -17 R 1 -17 R 2 -18 R 1 -17 R 1 -17 R 2 -17 R
1 -18 R 2 -17 R 1 11 R 2 10 R 1 11 R 2 10 R 1 11 R 2 10 R 1 11 R 2 11 R
1 10 R 2 11 R 1 10 R 2 11 R 1 11 R 2 10 R 1 11 R 2 10 R 1 11 R 2 -1 R 1 0 R
2 -1 R 1 -1 R 2 0 R 1 -1 R 2 -1 R 1 0 R 2 -1 R 1 -1 R 2 0 R 1 -1 R 2 0 R
1 -1 R 2 -1 R 1 0 R 2 -1 R 1 -1 R 2 0 R 1 -1 R 2 -1 R 1 10 R 2 10 R 1 10 R
2 -20 R 1 -20 R 1 -21 R 2 -20 R 1 -20 R 2 -21 R 1 -20 R 2 -20 R 1 -21 R
2 -20 R 1 -20 R 2 -21 R 1 -20 R 2 -20 R 1 -20 R 2 -21 R 1 -20 R 2 -20 R
1 -21 R 2 -20 R 1 -77 R 2 -77 R 1 -77 R 2 -77 R 1 18 R 2 18 R 1 19 R 2 18 R
1 18 R 2 18 R 1 18 R 2 18 R 1 18 R 2 -21 R 1 -22 R 2 -22 R 1 -22 R 2 -22 R
1 -21 R 2 -22 R 1 -22 R 2 -22 R 1 -22 R 2 -21 R 1 -22 R 2 -22 R 1 -22 R
2 -22 R 1 15 R 2 15 R 1 14 R 1 15 R 2 15 R 1 15 R 2 14 R 1 15 R 2 15 R
1 14 R 2 15 R 1 15 R 2 14 R 1 15 R 2 15 R 1 15 R 2 14 R 1 15 R 2 15 R 1 2 R
2 2 R 1 2 R 2 2 R 1 2 R 2 2 R 1 2 R D 3337 10294 M 2 2 R 1 3 R 2 2 R 1 2 R
2 2 R 1 2 R 2 2 R 1 2 R 2 2 R 1 2 R 2 2 R 1 -2 R 2 -3 R 1 -3 R 2 -3 R 1 -3 R
2 -3 R 1 -2 R 2 -3 R 1 -3 R 2 -3 R 1 -3 R 2 -3 R 1 -2 R 1 -6 R 2 -5 R 1 -6 R
2 -6 R 1 -5 R 2 -6 R 1 -5 R 2 -6 R 1 -5 R 2 -6 R 1 -5 R 2 -6 R 1 -5 R 2 -6 R
1 -6 R 2 -5 R 1 -6 R 2 -5 R 1 -6 R 2 -5 R 1 -7 R 2 -6 R 1 -7 R 2 -6 R 1 -7 R
2 -6 R 1 -7 R 2 -6 R 1 -7 R 2 -6 R 1 -7 R 2 -6 R 1 -7 R 2 -6 R 1 -7 R 2 -6 R
1 -7 R 2 -6 R 1 -7 R 2 -6 R 1 -7 R 2 -7 R 1 -6 R 2 -7 R 1 -6 R 2 -7 R 1 -6 R
1 -7 R 2 -13 R 1 -13 R 2 -14 R 1 -13 R 2 -14 R 1 -13 R 2 -13 R 1 -14 R
2 -13 R 1 -14 R 2 -13 R 1 -13 R 2 -19 R 1 -19 R 2 -18 R 1 -16 R 2 -16 R
1 -15 R 2 -16 R 1 -16 R 2 -15 R 1 -16 R 2 -16 R 1 -16 R 2 -15 R 1 -16 R
2 -16 R 1 -15 R 2 -16 R 1 -16 R 2 -15 R 1 -16 R 2 -6 R 1 -5 R 2 -6 R 1 -5 R
2 -6 R 1 -5 R 2 -6 R 1 -5 R 2 -6 R 1 -5 R 2 -6 R 1 -5 R 2 -6 R 1 -5 R 2 -6 R
1 -5 R 1 -6 R 2 -5 R 1 -6 R 2 -5 R 1 -6 R 2 -5 R 1 -6 R 2 -5 R 1 -6 R 2 -5 R
1 -6 R 2 -5 R 1 -9 R 2 -8 R 1 -9 R 2 -8 R 1 -8 R 2 -9 R 1 -8 R 2 -9 R 1 -8 R
2 -9 R 1 -8 R 2 -9 R 1 -8 R 2 -8 R 1 -9 R 2 -8 R 1 -9 R 2 -8 R 1 -9 R 2 -8 R
1 -8 R 2 -9 R 1 -8 R 2 -9 R 1 -8 R 2 -9 R 1 -8 R 2 -9 R 1 -8 R 2 9 R 1 9 R
2 9 R 1 9 R 2 9 R 1 9 R 1 10 R 2 9 R 1 9 R 2 9 R 1 9 R 2 -30 R 1 -30 R
2 -30 R 1 -30 R 2 -30 R 1 -30 R 2 -30 R 1 -30 R 2 15 R 1 14 R 2 15 R 1 14 R
2 14 R 1 15 R 2 -36 R 1 -37 R 2 -36 R 1 -36 R 2 -36 R 1 -36 R 2 -37 R
1 -36 R 2 -36 R 1 -36 R 2 -36 R 1 -37 R 2 -36 R 1 -36 R 2 -36 R 1 -37 R
2 -2 R 1 -2 R 2 -2 R 1 -2 R 2 -2 R 1 -2 R 2 -2 R 1 -3 R 2 -2 R 1 -2 R 2 -2 R
1 -2 R 2 -2 R 1 -2 R 1 -2 R 2 -3 R 1 -2 R 2 -2 R 1 -2 R 2 -2 R 1 -2 R 2 -2 R
1 -2 R 2 -3 R 1 304 R 2 -17 R 1 -17 R 2 -17 R 1 -17 R 2 -17 R 1 -17 R
2 -18 R 1 -17 R 2 -17 R 1 -16 R 2 -16 R 1 -16 R 2 -15 R 1 -16 R 2 -16 R
1 -16 R 2 -16 R 1 -16 R 2 -16 R 1 -15 R 2 -16 R 1 -16 R 2 5 R 1 5 R 2 5 R
1 5 R 2 4 R 1 5 R 2 5 R 1 5 R 2 5 R 1 5 R 2 5 R 1 5 R 2 5 R 1 5 R 1 5 R
2 5 R 1 4 R 2 -7 R 1 -8 R 2 -8 R 1 -7 R 2 -8 R 1 -8 R 2 -7 R 1 -8 R 2 -8 R
1 -7 R 2 -8 R 1 -8 R 2 -8 R 1 -7 R 2 -8 R 1 -8 R 2 -7 R 1 -8 R 2 -8 R 1 -7 R
2 -8 R 1 -8 R 2 23 R 1 23 R 2 23 R 1 23 R 2 23 R 1 23 R 2 22 R 1 23 R 2 23 R
1 23 R 2 11 R 1 10 R 2 11 R 1 10 R 2 11 R 1 10 R 2 11 R 1 10 R 2 11 R 1 10 R
2 11 R 1 10 R 2 11 R 1 10 R 1 11 R 2 10 R 1 11 R 2 11 R 1 10 R 2 11 R 1 10 R
2 11 R 1 -9 R 2 -8 R 1 -8 R 2 -9 R 1 -8 R 2 -8 R 1 -8 R 2 -9 R 1 -8 R 2 7 R
1 6 R 2 7 R 1 7 R 2 6 R 1 7 R 2 7 R 1 6 R 2 7 R 1 7 R 2 6 R 1 7 R 2 7 R
1 11 R 2 11 R 1 12 R 2 11 R 1 12 R 2 11 R 1 11 R 2 12 R 1 11 R 2 12 R 1 11 R
2 11 R 1 12 R 2 -44 R 1 -8 R 2 -9 R 1 -9 R 1 -8 R 2 -9 R 1 -8 R 2 -9 R
1 -9 R 2 -12 R 1 -12 R 2 -12 R 1 -12 R 2 -12 R 1 -12 R 2 -12 R 1 -12 R
2 -12 R 1 -13 R 2 -12 R 1 -12 R 2 -12 R 1 -12 R 2 -12 R 1 35 R 2 34 R 1 35 R
2 34 R 1 35 R 2 34 R 1 35 R 2 35 R 1 34 R 2 35 R 1 34 R 2 35 R 1 34 R 2 35 R
1 -68 R 2 -68 R 1 -68 R 2 -8 R 1 -8 R 2 -8 R 1 -8 R 2 -7 R 1 -8 R 2 -8 R
1 -8 R 2 8 R 1 8 R 1 8 R 2 8 R 1 8 R 2 8 R 1 8 R 2 8 R 1 8 R 2 8 R 1 9 R
2 8 R 1 8 R 2 8 R 1 8 R 2 8 R 1 8 R 2 8 R 1 8 R 2 8 R 1 8 R 2 8 R 1 8 R
2 7 R 1 6 R 2 7 R 1 6 R 2 7 R 1 6 R 2 7 R 1 6 R 2 7 R 1 6 R 2 7 R 1 6 R
2 7 R 1 6 R 2 7 R 1 6 R 2 44 R 1 44 R 2 44 R 1 45 R 2 -52 R 1 -51 R 2 -51 R
1 -52 R 2 53 R 1 53 R 2 -38 R 1 -37 R 1 -38 R 2 -37 R 1 -38 R 2 1 R 1 1 R
2 2 R 1 1 R 2 1 R 1 1 R 2 1 R 1 1 R 2 1 R 1 1 R 2 1 R 1 1 R 2 1 R 1 1 R
2 1 R 1 1 R 2 1 R 1 1 R 2 2 R 1 1 R 2 1 R 1 2 R 2 2 R 1 2 R 2 1 R 1 2 R
2 2 R 1 2 R 2 2 R 1 2 R 2 2 R 1 2 R 2 2 R 1 2 R 2 2 R 1 2 R 2 2 R 1 2 R
2 -12 R 1 -12 R 2 -11 R 1 -12 R 2 -12 R 1 -11 R 1 -12 R 2 -12 R 1 -12 R
2 -11 R 1 -12 R 2 -12 R 1 -12 R 2 -11 R 1 -12 R 2 -12 R 1 -11 R 2 -12 R
1 -12 R 2 -12 R 1 -11 R 2 -12 R 1 -19 R 2 -20 R 1 -19 R 2 -20 R 1 -19 R
2 -19 R 1 -20 R 2 -19 R 1 -12 R 2 -11 R 1 -11 R 2 -11 R 1 -12 R 2 -11 R
1 -11 R 2 -11 R 1 -12 R 2 -11 R 1 -11 R 2 -11 R 1 -12 R 2 -11 R 1 -11 R
2 4 R 1 4 R 2 4 R 1 4 R 2 4 R 1 4 R 2 4 R 1 4 R 2 4 R 1 4 R 1 3 R 2 4 R
1 4 R 2 4 R 1 4 R 2 35 R 1 35 R 2 35 R 1 34 R 2 35 R 1 35 R 2 35 R 1 34 R
2 35 R 1 1 R 2 1 R 1 1 R 2 0 R 1 1 R 2 1 R 1 1 R 2 1 R 1 1 R 2 1 R 1 0 R
2 1 R 1 1 R 2 1 R 1 1 R 2 1 R 1 1 R 2 72 R 1 -9 R 2 -8 R 1 -9 R 2 -9 R
1 -9 R 2 -9 R 1 -9 R 2 -9 R 1 -9 R 2 -8 R 1 -9 R 2 -9 R 1 -9 R 2 -9 R 1 -9 R
1 -9 R 2 -9 R 1 -8 R 2 -9 R 1 -9 R 2 -9 R 1 -9 R 2 -9 R 1 -9 R 2 -9 R 1 -8 R
2 -9 R 1 -9 R 2 -9 R 1 -9 R 2 9 R 1 10 R 2 9 R 1 10 R 2 9 R 1 9 R 2 10 R
1 9 R 2 10 R 1 9 R 2 9 R 1 10 R 2 20 R 1 21 R 2 21 R 1 20 R 2 21 R 1 20 R
2 21 R 1 21 R 2 20 R 1 -5 R 2 -5 R 1 -6 R 2 -5 R 1 -5 R 2 -6 R 1 -5 R 2 -5 R
1 -6 R 2 -5 R 1 -5 R 1 -6 R 2 -5 R 1 -5 R 2 -5 R 1 -6 R 2 -5 R 1 -5 R 2 -6 R
1 -5 R 2 -5 R 1 -6 R 2 -5 R 1 -5 R 2 -4 R 1 -4 R 2 -3 R 1 -4 R 2 -4 R 1 -3 R
2 -4 R 1 -4 R 2 -3 R 1 -4 R 2 -3 R 1 -4 R 2 172 R 1 -6 R 2 -6 R 1 -6 R
2 -6 R 1 -6 R 2 -6 R 1 -6 R 2 -6 R 1 -7 R 2 -6 R 1 -6 R 2 -6 R 1 -12 R
2 -12 R 1 -12 R 2 -11 R 1 -12 R 2 -12 R 1 -12 R 2 -12 R 1 -12 R 2 -12 R
1 -12 R 1 -12 R 2 -12 R 1 -12 R 2 -11 R 1 -12 R 2 -12 R 1 -12 R 2 -12 R
1 40 R 2 40 R 1 40 R 2 40 R 1 40 R 2 40 R 1 40 R 2 40 R 1 40 R 2 40 R 1 -7 R
2 -7 R 1 -7 R 2 -7 R 1 -6 R 2 -7 R 1 -7 R 2 -7 R 1 -6 R 2 -7 R 1 -7 R 2 -7 R
1 -7 R 2 -6 R 1 -7 R 2 -7 R 1 -7 R 2 -7 R 1 42 R 2 42 R 1 41 R 2 42 R 1 42 R
2 41 R 1 42 R 2 42 R 1 41 R 2 42 R 1 42 R 1 -7 R 2 -7 R 1 -7 R 2 -7 R 1 -7 R
2 -6 R 1 -7 R 2 -7 R 1 -7 R D 4454 9342 M 2 -7 R 1 -7 R 2 -7 R 1 -6 R 2 -7 R
1 -7 R 2 -7 R 1 -7 R 2 86 R 1 87 R 2 86 R 1 -5 R 2 -5 R 1 -5 R 2 -5 R 1 -5 R
2 -4 R 1 -5 R 2 -5 R 1 -5 R 2 -5 R 1 -5 R 2 -5 R 1 -5 R 2 -5 R 1 -4 R 2 -5 R
1 -5 R 2 -5 R 1 -5 R 2 -5 R 1 -5 R 2 -5 R 1 -5 R 2 -4 R 1 -5 R 2 2 R 1 2 R
2 3 R 1 2 R 1 2 R 2 3 R 1 2 R 2 2 R 1 3 R 2 2 R 1 2 R 2 3 R 1 2 R 2 3 R
1 2 R 2 2 R 1 3 R 2 2 R 1 2 R 2 3 R 1 2 R 2 2 R 1 3 R 2 2 R 1 2 R 2 3 R
1 2 R 2 2 R 1 -56 R 2 -57 R 1 -57 R 2 -56 R 1 -57 R 2 -56 R 1 -57 R 2 -57 R
1 -56 R 2 -57 R 1 -56 R 2 -57 R 1 17 R 2 17 R 1 17 R 2 17 R 1 17 R 2 17 R
1 18 R 2 17 R 1 17 R 2 17 R 1 17 R 1 17 R 2 17 R 1 17 R 2 17 R 1 17 R 2 17 R
1 17 R 2 17 R 1 17 R 2 17 R 1 17 R 2 18 R 1 17 R 2 -52 R 1 -53 R 2 -52 R
1 -52 R 2 1 R 1 0 R 2 1 R 1 0 R 2 0 R 1 1 R 2 0 R 1 1 R 2 0 R 1 1 R 2 0 R
1 0 R 2 1 R 1 4 R 2 5 R 1 5 R 2 4 R 1 5 R 2 5 R 1 4 R 2 5 R 1 5 R 2 4 R
1 5 R 2 5 R 1 4 R 2 5 R 1 5 R 2 1 R 1 2 R 2 1 R 1 2 R 1 1 R 2 2 R 1 1 R
2 1 R 1 2 R 2 1 R 1 2 R 2 1 R 1 2 R 2 1 R 1 2 R 2 1 R 1 2 R 2 1 R 1 -122 R
2 -7 R 1 -8 R 2 -7 R 1 -7 R 2 -7 R 1 -7 R 2 -7 R 1 -7 R 2 -7 R 1 -8 R 2 -7 R
1 -7 R 2 -7 R 1 -7 R 2 -7 R 1 -7 R 2 -8 R 1 -7 R 2 -7 R 1 -7 R 2 -3 R 1 -2 R
2 -3 R 1 -3 R 2 -2 R 1 -3 R 2 -2 R 1 -3 R 2 -3 R 1 -2 R 2 -3 R 1 -3 R 1 -2 R
2 -3 R 1 -3 R 2 -2 R 1 -3 R 2 -3 R 1 -2 R 2 -3 R 1 -3 R 2 -2 R 1 -3 R 2 -3 R
1 -2 R 2 -3 R 1 -8 R 2 -8 R 1 -8 R 2 -8 R 1 -8 R 2 -8 R 1 -9 R 2 -8 R 1 -8 R
2 -8 R 1 -8 R 2 -8 R 1 -8 R 2 -8 R 1 -8 R 2 -9 R 1 -8 R 2 6 R 1 6 R 2 6 R
1 6 R 2 7 R 1 6 R 2 6 R 1 6 R 2 6 R 1 6 R 2 6 R 1 6 R 2 6 R 1 6 R 2 6 R
1 6 R 1 6 R 2 6 R 1 6 R 2 6 R 1 6 R 2 6 R 1 6 R 2 6 R 1 18 R 2 18 R 1 18 R
2 18 R 1 18 R 2 18 R 1 18 R 2 5 R 1 4 R 2 5 R 1 5 R 2 5 R 1 5 R 2 4 R 1 5 R
2 5 R 1 5 R 2 5 R 1 5 R 2 4 R 1 5 R 2 -3 R 1 -4 R 2 -3 R 1 -4 R 2 -4 R
1 -3 R 2 -4 R 1 -3 R 2 -4 R 1 -3 R 2 -4 R 1 -3 R 2 -4 R 1 -3 R 2 -4 R 1 -3 R
2 -4 R 1 -3 R 2 -4 R 1 -3 R 1 -4 R 2 -4 R 1 -3 R 2 -4 R 1 -35 R 2 -35 R
1 0 R 2 0 R 1 -1 R 2 0 R 1 0 R 2 0 R 1 -1 R 2 0 R 1 0 R 2 0 R 1 -1 R 2 0 R
1 0 R 2 0 R 1 0 R 2 -1 R 1 0 R 2 0 R 1 0 R 2 -1 R 1 0 R 2 0 R 1 0 R 2 -1 R
1 0 R 2 0 R 1 0 R 2 -1 R 1 0 R 2 -5 R 1 -6 R 2 -6 R 1 -5 R 2 -6 R 1 -5 R
2 -6 R 1 -6 R 2 -5 R 1 -6 R 2 -5 R 1 -6 R 1 -6 R 2 -5 R 1 -6 R 2 -5 R 1 -6 R
2 -6 R 1 -5 R 2 -6 R 1 -5 R 2 -6 R 1 -6 R 2 -5 R 1 -6 R 2 -6 R 1 -5 R 2 -6 R
1 9 R 2 10 R 1 9 R 2 9 R 1 9 R 2 9 R 1 10 R 2 9 R 1 9 R 2 9 R 1 9 R 2 10 R
1 9 R 2 9 R 1 9 R 2 9 R 1 10 R 2 9 R 1 9 R 2 9 R 1 9 R 2 9 R 1 10 R 2 9 R
1 9 R 2 9 R 1 9 R 2 10 R 1 9 R 2 4 R 1 3 R 2 4 R 1 4 R 1 3 R 2 4 R 1 4 R
2 3 R 1 4 R 2 4 R 1 3 R 2 4 R 1 4 R 2 3 R 1 4 R 2 4 R 1 4 R 2 3 R 1 4 R
2 4 R 1 3 R 2 4 R 1 4 R 2 3 R 1 4 R 2 4 R 1 -17 R 2 -16 R 1 -17 R 2 -16 R
1 -16 R 2 -17 R 1 -16 R 2 -17 R 1 -16 R 2 -4 R 1 -5 R 2 -4 R 1 -4 R 2 -5 R
1 -4 R 2 -5 R 1 -4 R 2 -4 R 1 -5 R 2 -4 R 1 -5 R 2 -4 R 1 -4 R 2 -5 R 1 -4 R
1 -5 R 2 -4 R 1 -4 R 2 -5 R 1 -4 R 2 -4 R 1 -5 R 2 -4 R 1 -5 R 2 -4 R 1 -4 R
2 -5 R 1 56 R 2 55 R 1 55 R 2 56 R 1 55 R 2 56 R 1 55 R 2 13 R 1 13 R 2 13 R
1 13 R 2 13 R 1 14 R 2 -14 R 1 -14 R 2 -14 R 1 -13 R 2 -14 R 1 -14 R 2 -13 R
1 -14 R 2 -14 R 1 -13 R 2 -14 R 1 -14 R 2 -17 R 1 -18 R 2 -17 R 1 -17 R
2 -18 R 1 -17 R 2 -17 R 1 -18 R 2 -17 R 1 -18 R 2 -17 R 1 -17 R 1 -18 R
2 -17 R 1 -17 R 2 -18 R 1 -17 R 2 -18 R 1 -8 R 2 -8 R 1 -8 R 2 -8 R 1 -8 R
2 -8 R 1 -8 R 2 -8 R 1 -8 R 2 -8 R 1 -8 R 2 -8 R 1 -8 R 2 -8 R 1 -8 R 2 -8 R
1 -8 R 2 -8 R 1 -8 R 2 -8 R 1 10 R 2 10 R 1 9 R 2 10 R 1 10 R 2 9 R 1 10 R
2 10 R 1 9 R 2 10 R 1 9 R 2 10 R 1 10 R 2 9 R 1 10 R 2 10 R 1 9 R 2 10 R
1 10 R 2 9 R 1 10 R 1 10 R 2 9 R 1 10 R 2 9 R 1 10 R 2 -15 R 1 -14 R 2 -15 R
1 -14 R 2 -15 R 1 -15 R 2 -14 R 1 -15 R 2 -14 R 1 -15 R 2 -15 R 1 -14 R
2 -15 R 1 -14 R 2 -15 R 1 -15 R 2 -14 R 1 -15 R 2 -11 R 1 -10 R 2 -11 R
1 -11 R 2 -10 R 1 -11 R 2 -11 R 1 -10 R 2 -11 R 1 -11 R 2 -10 R 1 -11 R
2 -11 R 1 -10 R 2 -11 R 1 -11 R 2 -11 R 1 -10 R 2 -11 R 1 -11 R 2 -10 R
1 -11 R 2 -11 R 1 -10 R 1 -11 R 2 -11 R 1 -10 R 2 11 R 1 11 R 2 11 R 1 11 R
2 11 R 1 11 R 2 11 R 1 11 R 2 11 R 1 11 R 2 11 R 1 11 R 2 11 R 1 11 R 2 11 R
1 11 R 2 11 R 1 11 R 2 12 R 1 11 R 2 11 R 1 11 R 2 2 R 1 2 R 2 2 R 1 2 R
2 2 R 1 2 R 2 2 R 1 2 R 2 2 R 1 2 R 2 3 R 1 2 R 2 2 R 1 2 R 2 2 R 1 2 R
2 2 R 1 2 R 2 2 R 1 2 R 2 2 R 1 2 R 2 14 R 1 14 R 1 14 R 2 15 R 1 14 R
2 14 R 1 14 R 2 14 R 1 14 R 2 14 R 1 14 R 2 -13 R 1 -13 R 2 -13 R 1 -13 R
2 -13 R 1 -13 R 2 -13 R 1 -13 R 2 -55 R 1 -55 R 2 -56 R 1 -55 R 2 -56 R
1 -55 R 2 -55 R 1 -56 R 2 -55 R 1 2 R 2 3 R 1 2 R 2 3 R 1 2 R 2 3 R 1 2 R
2 3 R 1 2 R 2 3 R 1 2 R 2 3 R 1 2 R 2 3 R 1 2 R 2 3 R 1 2 R 2 3 R 1 2 R
2 3 R 1 2 R 1 3 R 2 -19 R 1 -18 R 2 -18 R 1 -18 R 2 -18 R 1 -18 R 2 -18 R
1 -18 R 2 -18 R 1 -18 R 2 -18 R 1 -18 R 2 -18 R 1 -18 R 2 6 R 1 30 R 2 30 R
1 30 R 2 29 R 1 30 R 2 30 R 1 30 R 2 30 R 1 30 R 2 29 R 1 98 R 2 98 R 1 -8 R
2 -9 R 1 -9 R 2 -8 R 1 -9 R 2 -9 R 1 -8 R 2 -9 R 1 -9 R 2 -8 R 1 -9 R 2 -8 R
1 -9 R 2 -9 R 1 -8 R 2 -9 R 1 -9 R 2 -8 R 1 -9 R 2 -9 R 1 -8 R 1 -9 R 2 -9 R
1 -8 R 2 -9 R 1 -8 R 2 -9 R 1 -9 R 2 -8 R 1 -3 R 2 -2 R 1 -2 R 2 -2 R 1 -2 R
2 -2 R 1 -2 R 2 -2 R 1 -2 R 2 -2 R 1 -2 R 2 -2 R 1 -3 R 2 -2 R 1 -2 R 2 -2 R
1 54 R 2 10 R 1 10 R 2 9 R 1 10 R 2 9 R 1 10 R 2 10 R 1 9 R 2 10 R 1 10 R
2 9 R 1 10 R 2 10 R 1 9 R 2 -9 R D 5572 8320 M 1 -8 R 2 -9 R 1 -9 R 2 -9 R
1 -8 R 2 -9 R 1 -9 R 1 -9 R 2 -9 R 1 -8 R 2 -9 R 1 -9 R 2 -9 R 1 -8 R 2 -9 R
1 -9 R 2 -9 R 1 -9 R 2 -8 R 1 -9 R 2 -9 R 1 -9 R 2 -8 R 1 -146 R 2 -2 R
1 -2 R 2 -2 R 1 -2 R 2 -3 R 1 -2 R 2 -2 R 1 -2 R 2 -2 R 1 -2 R 2 -2 R 1 -2 R
2 -2 R 1 -2 R 2 -2 R 1 -2 R 2 -2 R 1 -2 R 2 -2 R 1 -3 R 2 -2 R 1 -2 R 2 -2 R
1 -2 R 2 -2 R 1 -2 R 2 -2 R 1 -2 R 2 2 R 1 1 R 1 2 R 2 1 R 1 2 R 2 1 R 1 2 R
2 1 R 1 2 R 2 1 R 1 2 R 2 1 R 1 2 R 2 1 R 1 2 R 2 1 R 1 2 R 2 1 R 1 2 R
2 1 R 1 2 R 2 20 R 1 19 R 2 20 R 1 20 R 2 20 R 1 20 R 2 20 R 1 20 R 2 20 R
1 20 R 2 20 R 1 20 R 2 20 R 1 20 R 2 20 R 1 20 R 2 19 R 1 20 R 2 20 R 1 20 R
2 20 R 1 -1 R 2 -2 R 1 -1 R 2 -2 R 1 -1 R 2 -2 R 1 -1 R 2 -2 R 1 -1 R 1 -2 R
2 -1 R 1 -2 R 2 -1 R 1 8 R 2 8 R 1 9 R 2 8 R 1 8 R 2 8 R 1 9 R 2 8 R 1 8 R
2 8 R 1 9 R 2 8 R 1 8 R 2 8 R 1 9 R 2 8 R 1 8 R 2 9 R 1 8 R 2 8 R 1 8 R
2 -240 R 1 -241 R 2 143 R 1 10 R 2 10 R 1 10 R 2 10 R 1 10 R 2 9 R 1 10 R
2 10 R 1 10 R 2 10 R 1 10 R 2 9 R 1 10 R 2 10 R 1 10 R 2 10 R 1 9 R 2 10 R
1 10 R 1 10 R 2 10 R 1 10 R 2 9 R 1 10 R 2 10 R 1 10 R 2 10 R 1 9 R 2 19 R
1 18 R 2 18 R 1 18 R 2 18 R 1 18 R 2 18 R 1 19 R 2 18 R 1 18 R 2 18 R 1 18 R
2 -8 R 1 -8 R 2 -8 R 1 -9 R 2 5 R 1 5 R 2 5 R 1 4 R 2 5 R 1 5 R 2 4 R 1 5 R
2 5 R 1 4 R 2 5 R 1 5 R 2 5 R 1 4 R 2 5 R 1 5 R 2 249 R 1 4 R 2 3 R 1 3 R
2 4 R 1 3 R 2 4 R 1 3 R 1 3 R 2 4 R 1 3 R 2 3 R 1 4 R 2 3 R 1 3 R 2 4 R
1 3 R 2 3 R 1 4 R 2 3 R 1 4 R 2 3 R 1 3 R 2 4 R 1 3 R 2 3 R 1 4 R 2 3 R
1 3 R 2 4 R 1 -22 R 2 -22 R 1 -22 R 2 -22 R 1 -22 R 2 -22 R 1 -22 R 2 -22 R
1 -22 R 2 17 R 1 16 R 2 16 R 1 17 R 2 16 R 1 16 R 2 16 R 1 17 R 2 16 R
1 16 R 2 16 R 1 17 R 2 16 R 1 16 R 2 -37 R 1 -37 R 1 -37 R 2 -37 R 1 -36 R
2 -37 R 1 -37 R 2 -37 R 1 -37 R 2 -37 R 1 -37 R 2 -37 R 1 -37 R 2 -37 R
1 -37 R 2 -37 R 1 -37 R 2 -37 R 1 -36 R 2 -37 R 1 -37 R 2 -37 R 1 -4 R
2 -3 R 1 -3 R 2 -3 R 1 -3 R 2 -4 R 1 -3 R 2 -3 R 1 -3 R 2 -3 R 1 -4 R 2 -3 R
1 -3 R 2 -3 R 1 -4 R 2 -3 R 1 -3 R 2 -3 R 1 -3 R 2 -4 R 1 -3 R 2 -3 R 1 -3 R
2 -4 R 1 -3 R 2 -3 R 1 -3 R 2 -3 R 1 -4 R 1 -3 R 2 6 R 1 5 R 2 5 R 1 6 R
2 5 R 1 6 R 2 5 R 1 6 R 2 5 R 1 6 R 2 5 R 1 6 R 2 5 R 1 6 R 2 -4 R 1 -3 R
2 -3 R 1 -4 R 2 -3 R 1 -3 R 2 -3 R 1 -4 R 2 -3 R 1 -3 R 2 -3 R 1 -4 R 2 -3 R
1 -3 R 2 -3 R 1 -4 R 2 -3 R 1 -3 R 2 -4 R 1 -3 R 2 -3 R 1 -3 R 2 -25 R
1 -25 R 2 -25 R 1 -24 R 2 -25 R 1 -25 R 2 -25 R 1 -24 R 2 -25 R 1 -25 R
1 -24 R 2 -25 R 1 -25 R 2 -25 R 1 -24 R 2 -25 R 1 -25 R 2 -25 R 1 -24 R
2 -25 R 1 -25 R 2 -25 R 1 -24 R 2 -25 R 1 -25 R 2 -25 R 1 -24 R 2 -25 R
1 -25 R 2 0 R 1 -1 R 2 0 R 1 0 R 2 -1 R 1 0 R 2 -1 R 1 0 R 2 -1 R 1 0 R
2 0 R 1 -1 R 2 0 R 1 -1 R 2 0 R 1 0 R 2 -1 R 1 0 R 2 -1 R 1 0 R 2 0 R 1 -1 R
2 0 R 1 -1 R 2 0 R 1 0 R 2 -1 R 1 0 R 1 0 R 2 0 R 1 0 R 2 0 R 1 0 R 2 0 R
1 0 R 2 0 R 1 0 R 2 0 R 1 0 R 2 0 R 1 0 R 2 -1 R 1 0 R 2 14 R 1 14 R 2 14 R
1 13 R 2 14 R 1 14 R 2 13 R 1 14 R 2 14 R 1 13 R 2 14 R 1 14 R 2 13 R 1 14 R
2 14 R 1 14 R 2 13 R 1 14 R 2 14 R 1 13 R 2 14 R 1 14 R 2 13 R 1 14 R
2 -15 R 1 -15 R 2 -16 R 1 -15 R 2 -15 R 1 13 R 2 14 R 1 13 R 2 14 R 1 13 R
1 14 R 2 13 R 1 14 R 2 13 R 1 14 R 2 13 R 1 14 R 2 13 R 1 14 R 2 13 R 1 14 R
2 13 R 1 14 R 2 14 R 1 13 R 2 -20 R 1 -20 R 2 -20 R 1 -4 R 2 -3 R 1 -4 R
2 -4 R 1 -3 R 2 -4 R 1 -4 R 2 -3 R 1 -4 R 2 -3 R 1 -4 R 2 -4 R 1 -3 R 2 -4 R
1 -4 R 2 -3 R 1 -4 R 2 -4 R 1 -3 R 2 -4 R 1 -4 R 2 -3 R 1 0 R 2 1 R 1 0 R
2 1 R 1 0 R 2 1 R 1 0 R 1 1 R 2 0 R 1 1 R 2 0 R 1 1 R 2 0 R 1 1 R 2 0 R
1 1 R 2 0 R 1 1 R 2 0 R 1 1 R 2 0 R 1 1 R 2 0 R 1 1 R 2 0 R 1 1 R 2 -163 R
1 98 R 2 98 R 1 98 R 2 98 R 1 -17 R 2 -17 R 1 -17 R 2 -17 R 1 -17 R 2 -17 R
1 -17 R 2 -18 R 1 -17 R 2 -17 R 1 -17 R 2 -17 R 1 -17 R 2 -5 R 1 -5 R 2 -6 R
1 -5 R 2 -6 R 1 -5 R 2 -6 R 1 -5 R 2 -6 R 1 -5 R 2 -6 R 1 -5 R 1 -5 R 2 -6 R
1 -5 R 2 -6 R 1 -5 R 2 -6 R 1 -5 R 2 -6 R 1 -5 R 2 -6 R 1 -5 R 2 -5 R 1 -6 R
2 -5 R 1 -6 R 2 -11 R 1 -12 R 2 -11 R 1 -12 R 2 -11 R 1 -12 R 2 -11 R
1 -12 R 2 -11 R 1 -12 R 2 -11 R 1 -12 R 2 -11 R 1 -12 R 2 -11 R 1 -12 R
2 -11 R 1 -12 R 2 -11 R 1 -12 R 2 -11 R 1 86 R 2 85 R 1 5 R 2 6 R 1 5 R
2 5 R 1 5 R 2 5 R 1 5 R 2 6 R 1 5 R 1 5 R 2 5 R 1 5 R 2 5 R 1 5 R 2 6 R
1 5 R 2 5 R 1 5 R 2 5 R 1 5 R 2 5 R 1 6 R 2 5 R 1 5 R 2 5 R 1 -28 R 2 -28 R
1 -28 R 2 -28 R 1 -28 R 2 -28 R 1 -28 R 2 -28 R 1 -28 R 2 14 R 1 14 R 2 14 R
1 14 R 2 13 R 1 14 R 2 14 R 1 14 R 2 13 R 1 14 R 2 14 R 1 14 R 2 14 R 1 13 R
2 14 R 1 14 R 2 14 R 1 13 R 2 -9 R 1 -10 R 2 -9 R 1 -10 R 2 -9 R 1 -10 R
1 -9 R 2 -10 R 1 -9 R 2 -10 R 1 -9 R 2 -2 R 1 -2 R 2 -1 R 1 -2 R 2 -2 R
1 -2 R 2 -1 R 1 -2 R 2 -2 R 1 -1 R 2 -2 R 1 -2 R 2 -1 R 1 -2 R 2 -2 R 1 -1 R
2 -2 R 1 -2 R 2 -2 R 1 -1 R 2 -2 R 1 -2 R 2 -1 R 1 -2 R 2 -2 R 1 -1 R 2 -2 R
1 -2 R 2 42 R 1 41 R 2 42 R 1 41 R 2 -12 R 1 -13 R 2 -12 R 1 -12 R 2 -13 R
1 -12 R 2 -12 R 1 -13 R 2 -12 R 1 -13 R 1 -12 R 2 -12 R 1 -12 R 2 -11 R
1 -11 R 2 -11 R 1 -11 R 2 -11 R 1 -11 R 2 -11 R 1 -11 R 2 -12 R 1 -11 R
2 -11 R 1 -11 R 2 -11 R 1 -11 R 2 -11 R 1 -11 R 2 -11 R 1 -12 R 2 4 R 1 3 R
2 4 R 1 3 R 2 4 R 1 3 R 2 4 R 1 3 R 2 4 R 1 3 R 2 4 R 1 4 R 2 3 R 1 4 R
2 3 R 1 4 R 2 3 R 1 4 R 2 3 R 1 4 R 2 3 R 1 4 R 2 3 R 1 4 R 2 3 R 1 4 R
1 3 R 2 4 R 1 3 R 2 2 R 1 2 R 2 2 R 1 2 R 2 2 R 1 2 R 2 1 R 1 2 R 2 2 R
1 2 R 2 2 R 1 2 R 2 2 R 1 2 R 2 2 R 1 2 R 2 1 R 1 2 R 2 2 R 1 2 R 2 2 R
1 2 R 2 2 R D 6689 7571 M 1 2 R 2 2 R 1 2 R 2 10 R 1 10 R 2 10 R 1 10 R
2 10 R 1 10 R 2 10 R 1 10 R 2 10 R 1 10 R 2 10 R 1 9 R 2 10 R 1 -114 R
2 -114 R 1 -114 R 2 -9 R 1 -9 R 2 -10 R 1 -9 R 1 -9 R 2 -9 R 1 -10 R 2 -9 R
1 -9 R 2 -10 R 1 -9 R 2 -9 R 1 -10 R 2 -9 R 1 -9 R 2 -9 R 1 -10 R 2 -9 R
1 -9 R 2 7 R 1 8 R 2 7 R 1 8 R 2 7 R 1 8 R 2 7 R 1 8 R 2 7 R 1 7 R 2 8 R
1 7 R 2 8 R 1 7 R 2 8 R 1 7 R 2 8 R 1 7 R 2 8 R 1 7 R 2 8 R 1 7 R 2 8 R
1 7 R 2 -10 R 1 -9 R 2 -10 R 1 -10 R 2 -9 R 1 -10 R 2 -10 R 1 -9 R 1 -10 R
2 -10 R 1 -10 R 2 -9 R 1 -10 R 2 -10 R 1 -9 R 2 -10 R 1 -10 R 2 -9 R 1 -10 R
2 -10 R 1 -10 R 2 -9 R 1 -10 R 2 -10 R 1 -9 R 2 -10 R 1 13 R 2 12 R 1 13 R
2 13 R 1 13 R 2 12 R 1 13 R 2 13 R 1 13 R 2 12 R 1 13 R 2 13 R 1 12 R 2 13 R
1 13 R 2 13 R 1 12 R 2 13 R 1 13 R 2 13 R 1 12 R 2 13 R 1 13 R 2 13 R 1 12 R
2 13 R 1 13 R 2 12 R 1 13 R 2 23 R 1 22 R 1 23 R 2 22 R 1 23 R 2 22 R 1 23 R
2 22 R 1 23 R 2 22 R 1 23 R 2 23 R 1 22 R 2 23 R 1 22 R 2 23 R 1 22 R 2 23 R
1 22 R 2 23 R 1 22 R 2 23 R 1 22 R 2 -32 R 1 -32 R 2 -33 R 1 -32 R 2 -32 R
1 -33 R 2 -32 R 1 62 R 2 -4 R 1 -4 R 2 -4 R 1 -4 R 2 -4 R 1 -5 R 2 -4 R
1 -4 R 2 -4 R 1 -4 R 2 -4 R 1 -4 R 2 -4 R 1 -5 R 2 -8 R 1 -8 R 2 -8 R 1 -9 R
1 -8 R 2 -8 R 1 -9 R 2 -8 R 1 -8 R 2 -9 R 1 -8 R 2 -8 R 1 -4 R 2 -3 R 1 -3 R
2 -4 R 1 -3 R 2 -3 R 1 -4 R 2 -3 R 1 -3 R 2 -4 R 1 -3 R 2 -4 R 1 -3 R 2 -3 R
1 -4 R 2 -3 R 1 -3 R 2 -19 R 1 -20 R 2 -19 R 1 -19 R 2 -19 R 1 -19 R 2 -19 R
1 -19 R 2 -19 R 1 17 R 2 18 R 1 17 R 2 18 R 1 17 R 2 18 R 1 31 R 2 32 R
1 31 R 2 32 R 1 31 R 2 32 R 1 31 R 1 32 R 2 31 R 1 32 R 2 31 R 1 -16 R
2 -15 R 1 -16 R 2 -16 R 1 -15 R 2 -16 R 1 -16 R 2 -15 R 1 -16 R 2 -16 R
1 -15 R 2 -16 R 1 -16 R 2 -15 R 1 -16 R 2 -16 R 1 -15 R 2 -16 R 1 -16 R
2 -17 R 1 -16 R 2 -17 R 1 -16 R 2 -16 R 1 -17 R 2 -16 R 1 -16 R 2 -17 R
1 -16 R 2 -16 R 1 -17 R 2 -16 R 1 -16 R 2 -17 R 1 -16 R 2 -17 R 1 -16 R
2 -16 R 1 -17 R 2 -16 R 1 -16 R 2 -17 R 1 -16 R 2 -16 R 1 -8 R 1 -7 R 2 -7 R
1 -7 R 2 -7 R 1 -7 R 2 -7 R 1 -7 R 2 -8 R 1 -7 R 2 -7 R 1 -7 R 2 -7 R 1 -7 R
2 -7 R 1 -7 R 2 -8 R 1 -7 R 2 -7 R 1 -7 R 2 -7 R 1 -7 R 2 -7 R 1 -7 R 2 6 R
1 6 R 2 7 R 1 6 R 2 6 R 1 7 R 2 6 R 1 6 R 2 7 R 1 6 R 2 6 R 1 6 R 2 7 R
1 6 R 2 6 R 1 7 R 2 6 R 1 6 R 2 7 R 1 6 R 2 6 R 1 7 R 2 15 R 1 16 R 1 15 R
2 16 R 1 16 R 2 15 R 1 16 R 2 15 R 1 16 R 2 15 R 1 16 R 2 15 R 1 16 R 2 16 R
1 15 R 2 16 R 1 15 R 2 16 R 1 15 R 2 16 R 1 6 R 2 7 R 1 6 R 2 7 R 1 6 R
2 7 R 1 6 R 2 7 R 1 6 R 2 7 R 1 6 R 2 7 R 1 6 R 2 7 R 1 6 R 2 7 R 1 6 R
2 7 R 1 6 R 2 7 R 1 6 R 2 7 R 1 6 R 2 7 R 1 6 R 2 7 R 1 6 R 2 -23 R 1 -23 R
2 -23 R 1 -22 R 1 -23 R 2 -23 R 1 -23 R 2 -23 R 1 -23 R 2 -23 R 1 -23 R
2 -23 R 1 -23 R 2 -22 R 1 -23 R 2 -23 R 1 -23 R 2 -3 R 1 -3 R 2 -4 R 1 -3 R
2 -3 R 1 -3 R 2 -3 R 1 -3 R 2 -4 R 1 -3 R 2 -3 R 1 -3 R 2 -3 R 1 -3 R 2 -4 R
1 -3 R 2 -3 R 1 -3 R 2 -3 R 1 -34 R 2 -33 R 1 -33 R 2 -34 R 1 -33 R 2 -34 R
1 -33 R 2 -34 R 1 -33 R 2 -33 R 1 -34 R 2 -179 R 1 12 R 2 12 R 1 24 R 1 23 R
2 24 R 1 23 R 2 24 R 1 -5 R 2 -4 R 1 -4 R 2 -5 R 1 -4 R 2 -5 R 1 -4 R 2 -4 R
1 -5 R 2 -4 R 1 -4 R 2 -5 R 1 -4 R 2 -4 R 1 -5 R 2 -1 R 1 -2 R 2 -1 R 1 -2 R
2 -2 R 1 -1 R 2 -2 R 1 -1 R 2 -2 R 1 -2 R 2 -1 R 1 -2 R 2 -1 R 1 -2 R 2 -1 R
1 -2 R 2 -2 R 1 -1 R 2 -2 R 1 -1 R 2 -2 R 1 -1 R 2 -2 R 1 -2 R 2 -1 R 1 -2 R
2 -1 R 1 -10 R 2 -10 R 1 -10 R 1 -9 R 2 -10 R 1 -10 R 2 -10 R 1 -9 R 2 -10 R
1 -10 R 2 -10 R 1 -9 R 2 -10 R 1 -10 R 2 -10 R 1 -9 R 2 -10 R 1 -6 R 2 -6 R
1 -6 R 2 -5 R 1 -6 R 2 -6 R 1 -6 R 2 -6 R 1 -6 R 2 -5 R 1 -6 R 2 -6 R 1 -6 R
2 -6 R 1 -6 R 2 -5 R 1 -6 R 2 -2 R 1 -2 R 2 -2 R 1 -2 R 2 -2 R 1 -2 R 2 -2 R
1 -2 R 2 -3 R 1 -2 R 2 -2 R 1 -2 R 2 -2 R 1 -2 R 2 -2 R 1 -2 R 1 -2 R 2 -2 R
1 -2 R 2 -2 R 1 -2 R 2 -2 R 1 -2 R 2 -2 R 1 -2 R 2 -2 R 1 -2 R 2 -2 R 1 -2 R
2 -9 R 1 -9 R 2 -9 R 1 -8 R 2 -9 R 1 -9 R 2 -9 R 1 -9 R 2 -8 R 1 -9 R 2 -9 R
1 -9 R 2 -9 R 1 0 R 2 0 R 1 0 R 2 0 R 1 0 R 2 0 R 1 0 R 2 0 R 1 0 R 2 0 R
1 0 R 2 0 R 1 0 R 2 0 R 1 0 R 2 0 R 1 0 R 2 0 R 1 0 R 2 0 R 1 0 R 1 0 R
2 0 R 1 0 R 2 0 R 1 0 R 2 0 R 1 -107 R 2 -107 R 1 15 R 2 14 R 1 14 R 2 14 R
1 15 R 2 14 R 1 14 R 2 14 R 1 15 R 2 14 R 1 14 R 2 14 R 1 -2 R 2 -2 R 1 -2 R
2 -2 R 1 -2 R 2 -2 R 1 -2 R 2 -2 R 1 -2 R 2 -2 R 1 -2 R 2 -2 R 1 -2 R 2 -2 R
1 -2 R 2 -2 R 1 -2 R 2 -2 R 1 -2 R 2 -2 R 1 -2 R 2 -2 R 1 -2 R 2 -2 R 1 -2 R
2 -2 R 1 -2 R 2 -2 R 1 -2 R 1 17 R 2 16 R 1 17 R 2 17 R 1 16 R 2 17 R 1 16 R
2 17 R 1 17 R 2 16 R 1 17 R 2 16 R 1 17 R 2 17 R 1 16 R 2 17 R 1 16 R 2 17 R
1 17 R 2 -11 R 1 -10 R 2 -11 R 1 -10 R 2 -11 R 1 -10 R 2 -11 R 1 -10 R
2 -11 R 1 -10 R 2 -10 R 1 -11 R 2 -10 R 1 -11 R 2 -10 R 1 -11 R 2 -10 R
1 -11 R 2 -10 R 1 -11 R 2 -10 R 1 -10 R 2 -109 R 1 15 R 2 5 R 1 4 R 2 5 R
1 5 R 1 5 R 2 4 R 1 5 R 2 5 R 1 5 R 2 4 R 1 5 R 2 5 R 1 5 R 2 4 R 1 5 R
2 5 R 1 5 R 2 5 R 1 20 R 2 21 R 1 21 R 2 21 R 1 22 R 2 23 R 1 23 R 2 22 R
1 23 R 2 23 R 1 23 R 2 22 R 1 23 R 2 23 R 1 22 R 2 23 R 1 23 R 2 -31 R
1 -30 R 2 -30 R 1 -31 R 2 -30 R 1 -31 R 2 -30 R 1 -31 R 2 -30 R 1 14 R
2 14 R 1 14 R 2 14 R 1 13 R 2 14 R 1 14 R 2 14 R 1 10 R 1 9 R 2 10 R 1 10 R
2 9 R 1 -2 R 2 -2 R 1 -3 R 2 -2 R 1 -2 R 2 -3 R 1 -2 R 2 -2 R 1 -3 R 2 -2 R
1 203 R 2 204 R 1 21 R 2 20 R 1 21 R 2 21 R 1 20 R 2 21 R 1 21 R 2 20 R
1 21 R 2 20 R 1 21 R 2 21 R 1 20 R 2 21 R 1 7 R 2 7 R 1 7 R 2 7 R 1 7 R
2 7 R 1 6 R 2 7 R 1 7 R 2 7 R 1 7 R 2 7 R 1 7 R 2 7 R 1 16 R 2 16 R 1 16 R
1 16 R 2 16 R 1 16 R 2 17 R 1 16 R 2 16 R 1 -10 R 2 -10 R 1 -10 R 2 -10 R D
7806 7364 M 1 264 R 2 -4 R 1 -4 R 2 -4 R 1 -4 R 2 -5 R 1 -4 R 2 -4 R 1 -4 R
2 -4 R 1 -4 R 2 -5 R 1 -4 R 2 -4 R 1 -4 R 2 -4 R 1 -4 R 2 -4 R 1 -5 R 2 -4 R
1 -4 R 2 -4 R 1 -4 R 2 -4 R 1 -4 R 2 -5 R 1 -4 R 2 -9 R 1 -10 R 2 -10 R
1 -9 R 2 -10 R 1 -10 R 2 -9 R 1 -10 R 2 -10 R 1 -9 R 2 -10 R 1 -10 R 1 -9 R
2 -10 R 1 -9 R 2 -10 R 1 -10 R 2 -9 R 1 -10 R 2 -10 R 1 -9 R 2 -10 R 1 -10 R
2 -9 R 1 -10 R 2 -9 R 1 -9 R 2 -10 R 1 -9 R 2 -9 R 1 -10 R 2 -9 R 1 -10 R
2 -9 R 1 -9 R 2 -10 R 1 -9 R 2 -9 R 1 -10 R 2 -9 R 1 -9 R 2 -10 R 1 -9 R
2 -10 R 1 -9 R 2 -9 R 1 -10 R 2 -9 R 1 1 R 2 2 R 1 1 R 2 2 R 1 1 R 2 2 R
1 1 R 2 2 R 1 2 R 2 1 R 1 2 R 1 1 R 2 2 R 1 1 R 2 2 R 1 1 R 2 2 R 1 1 R
2 2 R 1 1 R 2 2 R 1 1 R 2 2 R 1 1 R 2 2 R 1 1 R 2 2 R 1 1 R 2 4 R 1 4 R
2 5 R 1 4 R 2 4 R 1 4 R 2 4 R 1 4 R 2 4 R 1 5 R 2 4 R 1 4 R 2 4 R 1 13 R
2 13 R 1 13 R 2 13 R 1 14 R 2 13 R 1 4 R 2 4 R 1 4 R 2 4 R 1 5 R 2 4 R 1 4 R
2 4 R 1 4 R 2 5 R 1 4 R 1 4 R 2 4 R 1 4 R 2 5 R 1 4 R 2 4 R 1 4 R 2 4 R
1 20 R 2 19 R 1 20 R 2 19 R 1 20 R 2 19 R 1 20 R 2 15 R 1 15 R 2 16 R 1 15 R
2 15 R 1 16 R 2 15 R 1 15 R 2 15 R 1 16 R 2 15 R 1 15 R 2 16 R 1 15 R 2 15 R
1 -105 R 2 25 R 1 25 R 2 25 R 1 25 R 2 -20 R 1 -20 R 2 -20 R 1 -12 R 2 -12 R
1 -12 R 2 -12 R 1 -11 R 2 -12 R 1 -12 R 2 -12 R 1 -12 R 2 -12 R 1 -12 R
1 -11 R 2 -12 R 1 -12 R 2 -12 R 1 -12 R 2 -12 R 1 -12 R 2 -11 R 1 -12 R
2 -12 R 1 -12 R 2 -12 R 1 -12 R 2 -8 R 1 -8 R 2 -8 R 1 -8 R 2 -8 R 1 -8 R
2 -8 R 1 -9 R 2 -8 R 1 -8 R 2 -8 R 1 -8 R 2 -8 R 1 -8 R 2 -8 R 1 -8 R 2 -8 R
1 -9 R 2 -8 R 1 -8 R 2 -8 R 1 -8 R 2 -8 R 1 -8 R 2 -8 R 1 -8 R 2 -8 R 1 -9 R
2 14 R 1 14 R 2 14 R 1 14 R 2 14 R 1 14 R 1 14 R 2 14 R 1 13 R 2 14 R 1 14 R
2 14 R 1 14 R 2 14 R 1 14 R 2 14 R 1 14 R 2 13 R 1 14 R 2 14 R 1 14 R 2 14 R
1 -15 R 2 -15 R 1 -16 R 2 -15 R 1 -15 R 2 -15 R 1 -15 R 2 -16 R 1 -15 R
2 -15 R 1 -15 R 2 -15 R 1 -16 R 2 40 R 1 40 R 2 40 R 1 40 R 2 40 R 1 40 R
2 40 R 1 40 R 2 40 R 1 40 R 2 40 R 1 40 R 2 40 R 1 -1 R 2 -1 R 1 0 R 2 -1 R
1 0 R 2 -1 R 1 0 R 1 -1 R 2 -1 R 1 0 R 2 -1 R 1 0 R 2 -1 R 1 0 R 2 -1 R
1 -1 R 2 0 R 1 -1 R 2 0 R 1 -1 R 2 1 R 1 1 R 2 0 R 1 1 R 2 1 R 1 1 R 2 0 R
1 1 R 2 1 R 1 1 R 2 1 R 1 0 R 2 1 R 1 1 R 2 1 R 1 0 R 2 1 R 1 1 R 2 1 R
1 0 R 2 1 R 1 1 R 2 1 R 1 1 R 2 0 R 1 1 R 2 1 R 1 1 R 2 5 R 1 5 R 2 5 R
1 4 R 2 5 R 1 5 R 1 5 R 2 5 R 1 5 R 2 5 R 1 5 R 2 5 R 1 5 R 2 5 R 1 5 R
2 5 R 1 5 R 2 5 R 1 5 R 2 5 R 1 5 R 2 5 R 1 5 R 2 5 R 1 4 R 2 5 R 1 5 R
2 -7 R 1 -8 R 2 -7 R 1 -7 R 2 -8 R 1 -7 R 2 -8 R 1 -7 R 2 -8 R 1 -7 R 2 -8 R
1 -7 R 2 -8 R 1 -7 R 2 -7 R 1 -8 R 2 1 R 1 1 R 2 0 R 1 1 R 2 1 R 1 1 R 2 1 R
1 0 R 2 1 R 1 1 R 1 1 R 2 1 R 1 0 R 2 -29 R 1 -29 R 2 -21 R 1 -20 R 2 -21 R
1 -20 R 2 -21 R 1 -20 R 2 -21 R 1 -20 R 2 77 R 1 77 R 2 77 R 1 77 R 2 77 R
1 -1 R 2 0 R 1 -1 R 2 0 R 1 -1 R 2 0 R 1 -1 R 2 0 R 1 0 R 2 -1 R 1 0 R
2 -1 R 1 0 R 2 -1 R 1 0 R 2 -1 R 1 0 R 2 25 R 1 26 R 2 26 R 1 25 R 2 -7 R
1 -7 R 2 -8 R 1 -7 R 2 -8 R 1 -7 R 2 -7 R 1 -8 R 2 -7 R 1 -7 R 1 -8 R 2 -5 R
1 -4 R 2 -5 R 1 -5 R 2 -5 R 1 -5 R 2 -5 R 1 -4 R 2 -5 R 1 -5 R 2 -5 R 1 -5 R
2 -5 R 1 -4 R 2 -5 R 1 -5 R 2 -5 R 1 -5 R 2 -4 R 1 -5 R 2 -5 R 1 -5 R 2 -5 R
1 10 R 2 10 R 1 10 R 2 10 R 1 10 R 2 10 R 1 10 R 2 10 R 1 10 R 2 9 R 1 10 R
2 10 R 1 10 R 2 10 R 1 10 R 2 10 R 1 10 R 2 10 R 1 10 R 2 10 R 1 14 R 2 15 R
1 14 R 1 14 R 2 15 R 1 14 R 2 15 R 1 14 R 2 14 R 1 15 R 2 14 R 1 15 R 2 14 R
1 15 R 2 14 R 1 14 R 2 15 R 1 14 R 2 15 R 1 14 R 2 15 R 1 14 R 2 14 R 1 15 R
2 14 R 1 15 R 2 14 R 1 14 R 2 15 R 1 24 R 2 24 R 1 23 R 2 24 R 1 24 R 2 24 R
1 24 R 2 24 R 1 24 R 2 23 R 1 24 R 2 24 R 1 24 R 2 24 R 1 -35 R 2 -35 R
1 -35 R 2 -35 R 1 -35 R 2 -35 R 1 -35 R 2 -35 R 1 -35 R 1 -35 R 2 -1 R
1 -2 R 2 -1 R 1 -1 R 2 -2 R 1 -1 R 2 -1 R 1 -2 R 2 -1 R 1 -1 R 2 -2 R 1 -1 R
2 -1 R 1 -2 R 2 -1 R 1 -1 R 2 -2 R 1 -1 R 2 -1 R 1 -1 R 2 -2 R 1 -1 R 2 -1 R
1 -89 R 2 -89 R 1 -89 R 2 -89 R 1 7 R 2 8 R 1 7 R 2 7 R 1 7 R 2 7 R 1 7 R
2 7 R 1 7 R 2 7 R 1 7 R 2 7 R 1 7 R 2 7 R 1 8 R 2 7 R 1 7 R 2 7 R 1 -27 R
1 -26 R 2 -26 R 1 10 R 2 10 R 1 11 R 2 10 R 1 11 R 2 10 R 1 10 R 2 11 R
1 -336 R 2 3 R 1 3 R 2 3 R 1 3 R 2 3 R 1 4 R 2 3 R 1 3 R 2 3 R 1 3 R 2 3 R
1 3 R 2 3 R 1 3 R 2 3 R 1 3 R 2 3 R 1 3 R 2 3 R 1 -5 R 2 -5 R 1 -5 R 2 -4 R
1 -5 R 2 -5 R 1 -5 R 2 -5 R 1 -5 R 2 -4 R 1 -5 R 2 -5 R 1 -5 R 2 -5 R 1 -5 R
2 -4 R 1 -5 R 2 -5 R 1 -5 R 1 -1 R 2 0 R 1 -1 R 2 0 R 1 -1 R 2 -1 R 1 0 R
2 -1 R 1 -1 R 2 0 R 1 -1 R 2 -1 R 1 0 R 2 -1 R 1 0 R 2 -1 R 1 -1 R 2 0 R
1 -1 R 2 -1 R 1 0 R 2 -1 R 1 -1 R 2 0 R 1 -1 R 2 0 R 1 -1 R 2 -1 R 1 0 R
2 -15 R 1 -14 R 2 -14 R 1 -14 R 2 -15 R 1 15 R 2 15 R 1 15 R 2 15 R 1 14 R
2 15 R 1 15 R 2 15 R 1 15 R 2 14 R 1 15 R 2 15 R 1 15 R 1 15 R 2 14 R 1 11 R
2 11 R 1 11 R 2 11 R 1 11 R 2 11 R 1 11 R 2 11 R 1 11 R 2 11 R 1 11 R 2 -4 R
1 -5 R 2 -4 R 1 -4 R 2 -4 R 1 -5 R 2 -4 R 1 -4 R 2 -5 R 1 -4 R 2 -4 R 1 -5 R
2 -4 R 1 -4 R 2 -4 R 1 -5 R 2 -4 R 1 -4 R 2 -5 R 1 -4 R 2 -4 R 1 -5 R 2 -4 R
1 -4 R 2 -5 R 1 10 R 2 10 R 1 10 R 2 10 R 1 10 R 2 10 R 1 10 R 2 10 R 1 10 R
1 10 R 2 10 R 1 10 R 2 10 R 1 10 R 2 -2 R 1 -1 R 2 -2 R 1 -1 R 2 -1 R 1 -2 R
2 -1 R 1 -2 R 2 -1 R 1 -2 R 2 -1 R 1 -2 R 2 -1 R 1 -1 R 2 -2 R 1 -1 R 2 -2 R
1 -1 R 2 -2 R 1 -1 R 2 -2 R 1 -1 R 2 3 R 1 2 R 2 3 R 1 3 R 2 3 R 1 2 R 2 3 R
1 3 R 2 2 R 1 3 R 2 3 R 1 2 R 2 3 R 1 3 R 2 3 R 1 2 R D 8923 8107 M 2 3 R
1 3 R 2 2 R 1 3 R 2 3 R 1 9 R 1 9 R 2 10 R 1 9 R 2 9 R 1 9 R 2 9 R 1 10 R
2 9 R 1 9 R 2 9 R 1 10 R 2 9 R 1 9 R 2 9 R 1 10 R 2 9 R 1 9 R 2 9 R 1 9 R
2 10 R 1 9 R 2 9 R 1 -6 R 2 -6 R 1 -6 R 2 -7 R 1 -6 R 2 -6 R 1 -6 R 2 -6 R
1 -6 R 2 -7 R 1 -6 R 2 -6 R 1 -6 R 2 -6 R 1 -7 R 2 -6 R 1 -6 R 2 -6 R 1 -6 R
2 -6 R 1 -7 R 2 -6 R 1 -6 R 2 -6 R 1 -6 R 1 -6 R 2 -7 R 1 -4 R 2 -4 R 1 -4 R
2 -4 R 1 -5 R 2 -4 R 1 -4 R 2 -4 R 1 -4 R 2 -4 R 1 -5 R 2 -4 R 1 -4 R 2 -4 R
1 -4 R 2 -4 R 1 -5 R 2 -4 R 1 -4 R 2 -4 R 1 -4 R 2 -4 R 1 -5 R 2 -4 R 1 -4 R
2 -4 R 1 -4 R 2 -4 R 1 3 R 2 4 R 1 4 R 2 3 R 1 4 R 2 3 R 1 4 R 2 4 R 1 3 R
2 4 R 1 4 R 2 3 R 1 -16 R 2 -16 R 1 -16 R 2 -17 R 1 1 R 2 2 R 1 1 R 1 1 R
2 1 R 1 1 R 2 1 R 1 1 R 2 1 R 1 2 R 2 1 R 1 1 R 2 1 R 1 1 R 2 1 R 1 1 R
2 2 R 1 1 R 2 1 R 1 1 R 2 1 R 1 -7 R 2 -7 R 1 -7 R 2 -7 R 1 -7 R 2 -7 R
1 -7 R 2 -7 R 1 -7 R 2 -7 R 1 -7 R 2 -7 R 1 -7 R 2 -6 R 1 -7 R 2 -7 R 1 -7 R
2 -7 R 1 -7 R 2 27 R 1 27 R 2 27 R 1 27 R 2 28 R 1 27 R 2 27 R 1 -5 R 2 -5 R
1 -5 R 1 -5 R 2 -5 R 1 -4 R 2 -5 R 1 -5 R 2 -5 R 1 -5 R 2 -5 R 1 -5 R 2 -5 R
1 -5 R 2 -5 R 1 -5 R 2 -5 R 1 -5 R 2 -4 R 1 -5 R 2 -5 R 1 -5 R 2 -5 R
1 -10 R 2 -10 R 1 -11 R 2 -10 R 1 -10 R 2 -10 R 1 -10 R 2 -10 R 1 -11 R
2 -10 R 1 -10 R 2 -10 R 1 -10 R 2 -4 R 1 -3 R 2 -3 R 1 -4 R 2 -3 R 1 -3 R
2 -4 R 1 -3 R 2 -4 R 1 -3 R 2 -3 R 1 -4 R 2 -3 R 1 -3 R 2 -4 R 1 -3 R 1 -3 R
2 -4 R 1 -3 R 2 -3 R 1 -4 R 2 -3 R 1 -4 R 2 -3 R 1 -3 R 2 -4 R 1 -3 R 2 -3 R
1 -65 R 2 -64 R 1 -65 R 2 -64 R 1 -65 R 2 -8 R 1 -9 R 2 -8 R 1 -9 R 2 -8 R
1 -8 R 2 -9 R 1 -8 R 2 -9 R 1 -8 R 2 -9 R 1 -8 R 2 -8 R 1 -9 R 2 -8 R
1 129 R 2 -4 R 1 -5 R 2 -4 R 1 -5 R 2 -4 R 1 -5 R 2 -5 R 1 -4 R 2 6 R 1 6 R
2 7 R 1 6 R 2 6 R 1 7 R 1 6 R 2 6 R 1 6 R 2 7 R 1 6 R 2 6 R 1 6 R 2 7 R
1 6 R 2 6 R 1 7 R 2 6 R 1 6 R 2 6 R 1 -7 R 2 -7 R 1 -7 R 2 -7 R 1 -7 R
2 -8 R 1 -7 R 2 -7 R 1 -7 R 2 -7 R 1 -7 R 2 -8 R 1 -7 R 2 -7 R 1 -7 R 2 -7 R
1 -7 R 2 -8 R 1 0 R 2 0 R 1 -1 R 2 0 R 1 -1 R 2 0 R 1 0 R 2 -1 R 1 0 R
2 -1 R 1 0 R 2 0 R 1 -1 R 2 0 R 1 -1 R 1 0 R 2 0 R 1 -1 R 2 0 R 1 -1 R 2 0 R
1 0 R 2 -1 R 1 0 R 2 0 R 1 -1 R 2 0 R 1 41 R 2 42 R 1 42 R 2 41 R 1 1 R
2 2 R 1 1 R 2 1 R 1 1 R 2 1 R 1 1 R 2 2 R 1 1 R 2 1 R 1 1 R 2 1 R 1 2 R
2 1 R 1 -1 R 2 0 R 1 -1 R 2 0 R 1 -1 R 2 0 R 1 -1 R 2 0 R 1 -1 R 2 0 R
1 -1 R 2 0 R 1 -1 R 2 0 R 1 -1 R 2 0 R 1 -1 R 2 0 R 1 -1 R 1 0 R 2 -1 R
1 0 R 2 -1 R 1 0 R 2 -1 R 1 0 R 2 -1 R 1 0 R 2 -1 R 1 -16 R 2 -16 R 1 -16 R
2 -17 R 1 -16 R 2 -16 R 1 -16 R 2 -17 R 1 -16 R 2 -16 R 1 -16 R 2 -17 R
1 -6 R 2 -7 R 1 -6 R 2 -7 R 1 -7 R 2 -6 R 1 -7 R 2 -6 R 1 -7 R 2 -6 R 1 -7 R
2 -145 R 1 -7 R 2 -7 R 1 -6 R 2 -7 R 1 -6 R 2 -24 R 1 -23 R 2 -23 R 1 -23 R
2 -24 R 1 -23 R 2 -23 R 1 -23 R 1 -24 R 2 -3 R 1 -3 R 2 -4 R 1 -3 R 2 -4 R
1 -3 R 2 -3 R 1 -4 R 2 -3 R 1 -3 R 2 -4 R 1 -3 R 2 -4 R 1 -3 R 2 -3 R 1 -4 R
2 -3 R 1 -3 R 2 -4 R 1 -3 R 2 -4 R 1 -3 R 2 -3 R 1 -4 R 2 -3 R 1 -4 R 2 -3 R
1 -3 R 2 -4 R 1 9 R 2 8 R 1 9 R 2 8 R 1 8 R 2 9 R 1 8 R 2 9 R 1 8 R 2 9 R
1 8 R 2 8 R 1 14 R 2 14 R 1 14 R 2 14 R 1 14 R 2 13 R 1 14 R 1 14 R 2 14 R
1 14 R 2 14 R 1 13 R 2 14 R 1 14 R 2 14 R 1 14 R 2 14 R 1 14 R 2 13 R 1 14 R
2 14 R 1 14 R 2 14 R 1 14 R 2 13 R 1 14 R 2 14 R 1 14 R 2 14 R 1 24 R 2 25 R
1 24 R 2 24 R 1 25 R 2 24 R 1 25 R 2 24 R 1 24 R 2 25 R 1 24 R 2 24 R 1 25 R
2 24 R 1 25 R 2 24 R 1 -12 R 2 -11 R 1 -12 R 2 -12 R 1 -11 R 2 -12 R 1 -12 R
2 -11 R 1 -12 R 1 -12 R 2 -11 R 1 -12 R 2 -12 R 1 -11 R 2 -15 R 1 -15 R
2 -16 R 1 -15 R 2 -15 R 1 -15 R 2 -15 R 1 -15 R 2 -15 R 1 -15 R 2 -15 R
1 -3 R 2 -3 R 1 -3 R 2 -3 R 1 -3 R 2 -3 R 1 -2 R 2 -3 R 1 -3 R 2 -3 R 1 -3 R
2 -3 R 1 -3 R 2 -3 R 1 -3 R 2 -3 R 1 -2 R 2 -3 R 1 -3 R 2 -3 R 1 -3 R 2 -3 R
1 -57 R 2 -58 R 1 -1 R 2 0 R 1 -1 R 2 -1 R 1 -1 R 2 -1 R 1 0 R 1 -1 R 2 -1 R
1 -1 R 2 -1 R 1 0 R 2 -1 R 1 -1 R 2 -1 R 1 -1 R 2 0 R 1 -1 R 2 23 R 1 24 R
2 23 R 1 24 R 2 23 R 1 24 R 2 23 R 1 24 R 2 23 R 1 24 R 2 23 R 1 0 R 2 -1 R
1 -1 R 2 -1 R 1 -1 R 2 -1 R 1 -1 R 2 -1 R 1 0 R 2 -1 R 1 -1 R 2 -1 R 1 -1 R
2 -1 R 1 -1 R 2 0 R 1 -1 R 2 -1 R 1 -1 R 2 -1 R 1 -1 R 2 -1 R 1 -1 R 2 0 R
1 -1 R 2 -1 R 1 -7 R 1 -6 R 2 -6 R 1 -7 R 2 -6 R 1 -7 R 2 -6 R 1 -7 R 2 -6 R
1 -7 R 2 -6 R 1 -6 R 2 -7 R 1 -6 R 2 -6 R 1 -6 R 2 -5 R 1 -6 R 2 -6 R 1 -5 R
2 -6 R 1 -6 R 2 -6 R 1 -5 R 2 -6 R 1 -6 R 2 -5 R 1 -6 R 2 -6 R 1 -5 R 2 -6 R
1 -6 R 2 -6 R 1 -5 R 2 -6 R 1 -6 R 2 -45 R 1 -46 R 2 -45 R 1 -46 R 2 -46 R
1 -45 R 2 -46 R 1 -46 R 2 3 R 1 4 R 2 3 R 1 3 R 1 3 R 2 3 R 1 3 R 2 3 R
1 3 R 2 3 R 1 3 R 2 3 R 1 3 R 2 3 R 1 3 R 2 4 R 1 3 R 2 3 R 1 3 R 2 3 R
1 3 R 2 3 R 1 3 R 2 3 R 1 2 R 2 1 R 1 2 R 2 1 R 1 2 R 2 1 R 1 2 R 2 1 R
1 2 R 2 2 R 1 1 R 2 2 R 1 1 R 2 2 R 1 1 R 2 2 R 1 1 R 2 2 R 1 1 R 2 2 R
1 -10 R 2 -11 R 1 -10 R 2 -11 R 1 -10 R 2 -11 R 1 -10 R 2 -11 R 1 -10 R
1 -10 R 2 -11 R 1 -10 R 2 12 R 1 13 R 2 12 R 1 12 R 2 18 R 1 17 R 2 18 R
1 17 R 2 18 R 1 18 R 2 17 R 1 18 R 2 17 R 1 18 R 2 17 R 1 18 R 2 17 R 1 18 R
2 17 R 1 -9 R 2 -9 R 1 -9 R 2 -9 R 1 -9 R 2 -9 R 1 -9 R 2 -9 R 1 -10 R
2 -9 R 1 -9 R 2 -9 R 1 -9 R 2 -9 R 1 -9 R 2 -9 R 1 -9 R 2 -9 R 1 9 R 2 9 R
1 10 R 2 9 R 1 9 R 2 10 R 1 9 R 1 9 R 2 9 R 1 10 R 2 9 R 1 9 R 2 10 R 1 9 R
2 9 R 1 10 R 2 9 R 1 9 R 2 10 R 1 9 R 2 9 R 1 10 R 2 -4 R 1 -4 R 2 -4 R
1 -3 R 2 -4 R 1 -4 R 2 -3 R 1 -4 R 2 -4 R 1 -3 R 2 -4 R 1 -4 R D
10040 7131 M 2 -4 R 1 -3 R 2 -4 R 1 -4 R 2 -3 R 1 -4 R 2 -4 R 1 -3 R 2 -4 R
1 -4 R 2 -4 R 1 -3 R 2 -4 R 1 -4 R 2 -3 R 1 -4 R 2 -259 R 1 41 R 2 41 R
1 41 R 2 41 R 1 41 R 1 -6 R 2 -7 R 1 -6 R 2 -6 R 1 -7 R 2 -6 R 1 -7 R 2 -6 R
1 -7 R 2 -6 R 1 -6 R 2 -7 R 1 -6 R 2 -7 R 1 -6 R 2 -7 R 1 -6 R 2 -6 R 1 -7 R
2 -6 R 1 -7 R 2 -6 R 1 6 R 2 7 R 1 6 R 2 6 R 1 7 R 2 6 R 1 7 R 2 6 R 1 6 R
2 7 R 1 6 R 2 6 R 1 -21 R 2 22 R 1 23 R 2 22 R 1 22 R 2 23 R 1 22 R 2 23 R
1 22 R 2 22 R 1 71 R 2 70 R 1 71 R 1 70 R 2 71 R 1 70 R 2 71 R 1 27 R 2 28 R
1 28 R 2 27 R 1 28 R 2 27 R 1 28 R 2 27 R 1 28 R 2 27 R 1 6 R 2 5 R 1 6 R
2 5 R 1 5 R 2 6 R 1 5 R 2 5 R 1 6 R 2 5 R 1 5 R 2 6 R 1 5 R 2 6 R 1 5 R
2 5 R 1 6 R 2 5 R 1 -6 R 2 -5 R 1 -6 R 2 -5 R 1 -6 R 2 -6 R 1 -5 R 2 -6 R
1 -5 R 2 -6 R 1 -6 R 2 -5 R 1 -6 R 2 -5 R 1 -6 R 1 0 R 2 1 R 1 0 R 2 0 R
1 0 R 2 0 R 1 1 R 2 0 R 1 0 R 2 0 R 1 1 R 2 0 R 1 0 R 2 0 R 1 1 R 2 0 R
1 0 R 2 0 R 1 1 R 2 0 R 1 0 R 2 0 R 1 1 R 2 0 R 1 0 R 2 0 R 1 1 R 2 0 R
1 -58 R 2 -59 R 1 -58 R 2 -58 R 1 -58 R 2 126 R 1 125 R 2 126 R 1 -6 R
2 -6 R 1 -6 R 2 -7 R 1 -6 R 2 -6 R 1 -6 R 2 -7 R 1 -6 R 2 -6 R 1 -6 R 2 -7 R
1 -6 R 1 -6 R 2 -6 R 1 -7 R 2 -6 R 1 76 R 2 76 R 1 76 R 2 76 R 1 2 R 2 1 R
1 1 R 2 1 R 1 2 R 2 1 R 1 1 R 2 1 R 1 2 R 2 1 R 1 1 R 2 2 R 1 1 R 2 1 R
1 1 R 2 2 R 1 1 R 2 1 R 1 2 R 2 1 R 1 1 R 2 -92 R 1 -93 R 2 -5 R 1 -5 R
2 -5 R 1 -5 R 2 -5 R 1 -5 R 2 -5 R 1 -5 R 2 -5 R 1 -5 R 2 -15 R 1 -8 R
2 -8 R 1 -8 R 2 -8 R 1 -8 R 1 -9 R 2 -8 R 1 -8 R 2 -8 R 1 -8 R 2 -8 R 1 -8 R
2 -8 R 1 -8 R 2 -8 R 1 -9 R 2 -8 R 1 -8 R 2 -8 R 1 -8 R 2 -8 R 1 -8 R 2 -8 R
1 -7 R 2 -7 R 1 -8 R 2 -7 R 1 -7 R 2 -8 R 1 -7 R 2 -8 R 1 -7 R 2 -7 R 1 -8 R
2 -7 R 1 7 R 2 8 R 1 7 R 2 8 R 1 7 R 2 8 R 1 7 R 2 7 R 1 8 R 2 7 R 1 8 R
2 7 R 1 8 R 2 7 R 1 7 R 2 8 R 1 7 R 2 8 R 1 7 R 1 8 R 2 7 R 1 7 R 2 47 R
1 6 R 2 6 R 1 5 R 2 6 R 1 6 R 2 6 R 1 5 R 2 6 R 1 6 R 2 5 R 1 6 R 2 6 R
1 5 R 2 6 R 1 6 R 2 6 R 1 5 R 2 6 R 1 6 R 2 5 R 1 6 R 2 6 R 1 5 R 2 6 R
1 -1 R 2 -1 R 1 -1 R 2 -1 R 1 -1 R 2 -1 R 1 -1 R 2 -1 R 1 -1 R 2 -1 R 1 -1 R
2 -1 R 1 -1 R 2 -1 R 1 -1 R 2 -1 R 1 -1 R 2 -1 R 1 -1 R 1 30 R 2 29 R 1 29 R
2 30 R 1 29 R 2 29 R 1 30 R 2 29 R 1 29 R 2 30 R 1 29 R 2 29 R 1 30 R 2 29 R
1 29 R 2 30 R 1 29 R 2 24 R 1 24 R 2 24 R 1 24 R 2 24 R 1 24 R 2 24 R
1 -34 R 2 -34 R 1 -34 R 2 -34 R 1 -34 R 2 -34 R 1 -34 R 2 -34 R 1 41 R
2 41 R 1 41 R 2 3 R 1 2 R 2 3 R 1 2 R 2 2 R 1 3 R 2 2 R 1 2 R 2 3 R 1 2 R
2 3 R 1 2 R 2 2 R 1 3 R 1 20 R 2 21 R 1 21 R 2 21 R 1 20 R 2 21 R 1 21 R
2 21 R 1 20 R 2 21 R 1 32 R 2 32 R 1 32 R 2 32 R 1 32 R 2 32 R 1 32 R 2 32 R
1 1 R 2 2 R 1 2 R 2 2 R 1 2 R 2 2 R 1 -18 R 2 -18 R 1 -18 R 2 -18 R 1 -18 R
2 -18 R 1 -18 R 2 -18 R 1 -18 R 2 -17 R 1 -18 R 2 -18 R 1 -18 R 2 -18 R
1 34 R 2 34 R 1 33 R 2 34 R 1 34 R 2 34 R 1 33 R 2 -8 R 1 -9 R 1 -9 R 2 -8 R
1 -9 R 2 -9 R 1 -8 R 2 -9 R 1 -9 R 2 -8 R 1 -9 R 2 -9 R 1 -8 R 2 -9 R 1 -9 R
2 -8 R 1 -9 R 2 -9 R 1 -8 R 2 -2 R 1 -2 R 2 -1 R 1 -2 R 2 -1 R 1 -2 R 2 -2 R
1 -1 R 2 -2 R 1 -2 R 2 -1 R 1 -2 R 2 -1 R 1 -2 R 2 -2 R 1 -1 R 2 -2 R 1 -2 R
2 -1 R 1 -2 R 2 -1 R 1 -2 R 2 -2 R 1 5 R 2 4 R 1 4 R 2 4 R 1 4 R 2 4 R 1 4 R
1 5 R 2 4 R 1 4 R 2 4 R 1 4 R 2 4 R 1 4 R 2 5 R 1 4 R 2 4 R 1 4 R 2 4 R
1 4 R 2 4 R 1 5 R 2 4 R 1 4 R 2 4 R 1 4 R 2 0 R 1 0 R 2 0 R 1 1 R 2 0 R
1 0 R 2 0 R 1 0 R 2 0 R 1 0 R 2 0 R 1 1 R 2 0 R 1 0 R 2 0 R 1 0 R 2 0 R
1 0 R 2 0 R 1 0 R 2 1 R 1 0 R 2 0 R 1 0 R 2 0 R 1 0 R 2 0 R 1 0 R 2 -14 R
1 -15 R 1 -15 R 2 -15 R 1 -14 R 2 -15 R 1 -15 R 2 -15 R 1 -14 R 2 -15 R
1 -15 R 2 -15 R 1 -14 R 2 -15 R 1 -15 R 2 -15 R 1 -14 R 2 -15 R 1 -15 R
2 -15 R 1 -14 R 2 -15 R 1 -15 R 2 13 R 1 12 R 2 13 R 1 13 R 2 12 R 1 13 R
2 12 R 1 13 R 2 13 R 1 12 R 2 13 R 1 12 R 2 13 R 1 -2 R 2 -1 R 1 -2 R 2 -1 R
1 -2 R 2 -1 R 1 -2 R 2 -1 R 1 -2 R 2 -2 R 1 -1 R 2 -2 R 1 -1 R 1 -2 R 2 -1 R
1 -2 R 2 -2 R 1 -1 R 2 -2 R 1 -1 R 2 -15 R 1 -15 R 2 -15 R 1 -14 R 2 -15 R
1 -15 R 2 -15 R 1 4 R 2 3 R 1 3 R 2 4 R 1 3 R 2 4 R 1 3 R 2 4 R 1 3 R 2 4 R
1 3 R 2 4 R 1 3 R 2 4 R 1 3 R 2 3 R 1 4 R 2 3 R 1 4 R 2 3 R 1 4 R 2 3 R
1 4 R 2 -3 R 1 -2 R 2 -2 R 1 -3 R 2 -2 R 1 -2 R 2 -3 R 1 -2 R 2 -2 R 1 -3 R
2 -2 R 1 -2 R 1 -3 R 2 -2 R 1 -2 R 2 -3 R 1 -2 R 2 -2 R 1 -3 R 2 -2 R 1 -2 R
2 -3 R 1 -18 R 2 -19 R 1 -19 R 2 -19 R 1 -18 R 2 -19 R 1 -19 R 2 -11 R
1 -10 R 2 -11 R 1 -10 R 2 -11 R 1 -11 R 2 -10 R 1 -11 R 2 -10 R 1 -11 R
2 -11 R 1 -10 R 2 -11 R 1 -10 R 2 -11 R 1 -11 R 2 -10 R 1 -11 R 2 -11 R
1 -10 R 2 -11 R 1 -10 R 2 -11 R 1 -11 R 2 -1 R 1 -2 R 2 -2 R 1 -2 R 2 -2 R
1 -1 R 1 -2 R 2 -2 R 1 -2 R 2 -2 R 1 -1 R 2 -2 R 1 -2 R 2 -10 R 1 -10 R
2 -10 R 1 -11 R 2 -10 R 1 -10 R 2 -10 R 1 -10 R 2 -10 R 1 -10 R 2 -11 R
1 -10 R 2 -10 R 1 -10 R 2 -10 R 1 -10 R 2 -10 R 1 -11 R 2 -10 R 1 -10 R
2 -10 R 1 -10 R 2 -10 R 1 -11 R 2 -10 R 1 -10 R 2 -10 R 1 -10 R 2 -1 R
1 -1 R 2 -2 R 1 -1 R 2 -1 R 1 -1 R 2 -1 R 1 -1 R 2 -1 R 1 -2 R 2 -1 R 1 3 R
1 2 R 2 2 R 1 3 R 2 2 R 1 2 R 2 3 R 1 2 R 2 2 R 1 3 R 2 2 R 1 2 R 2 3 R
1 2 R 2 2 R 1 3 R 2 2 R 1 2 R 2 3 R 1 2 R 2 2 R 1 3 R 2 2 R 1 2 R 2 3 R
1 6 R 2 6 R 1 6 R 2 6 R 1 7 R 2 6 R 1 6 R 2 6 R 1 7 R 2 6 R 1 6 R 2 6 R
1 6 R 2 7 R 1 6 R 2 6 R 1 24 R 2 24 R 1 23 R 2 24 R 1 24 R 2 24 R 1 24 R
2 -146 R 1 201 R 1 -7 R 2 -6 R 1 -6 R 2 -6 R 1 -7 R 2 -6 R 1 -6 R 2 -7 R
1 -6 R 2 -6 R 1 -7 R D 11157 8279 M 2 -6 R 1 -6 R 2 -7 R 1 -6 R 2 -6 R
1 -7 R 2 -6 R 1 -6 R 2 -7 R 1 -6 R 2 -6 R 1 -7 R 2 23 R 1 22 R 2 23 R 1 22 R
2 22 R 1 23 R 2 22 R 1 23 R 2 22 R 1 64 R 2 63 R 1 -3 R 2 -4 R 1 -4 R 2 -4 R
1 -4 R 2 -4 R 1 -4 R 2 -4 R 1 -4 R 2 -4 R 1 -4 R 2 -4 R 1 -4 R 1 -4 R 2 -4 R
1 -4 R 2 -4 R 1 -4 R 2 -4 R 1 -4 R 2 -4 R 1 -4 R 2 -4 R 1 -4 R 2 -13 R
1 -14 R 2 -14 R 1 -14 R 2 -14 R 1 -14 R 2 -14 R 1 -14 R 2 -14 R 1 -14 R
2 -14 R 1 -13 R 2 -14 R 1 -14 R 2 -14 R 1 -14 R 2 -5 R 1 -4 R 2 -4 R 1 -5 R
2 -4 R 1 -5 R 2 -4 R 1 -5 R 2 -4 R 1 -4 R 2 -5 R 1 -4 R 2 -5 R 1 -4 R 2 -5 R
1 -4 R 2 -4 R 1 -5 R 2 -4 R 1 -5 R 2 -4 R 1 -4 R 1 -5 R 2 -4 R 1 -5 R 2 -4 R
1 -5 R 2 -3 R 1 -4 R 2 -4 R 1 -4 R 2 -4 R 1 -4 R 2 -4 R 1 -4 R 2 -3 R 1 -4 R
2 -4 R 1 -4 R 2 -4 R 1 -4 R 2 -4 R 1 -4 R 2 -3 R 1 -4 R 2 -4 R 1 -4 R 2 -4 R
1 -4 R 2 -4 R 1 -4 R 2 -3 R 1 -4 R 2 -4 R 1 -4 R 2 6 R 1 5 R 2 6 R 1 6 R
2 6 R 1 5 R 2 6 R 1 6 R 2 6 R 1 5 R 2 6 R 1 6 R 2 6 R 1 5 R 1 6 R 2 6 R
1 6 R 2 6 R 1 5 R 2 6 R 1 6 R 2 6 R 1 5 R 2 -148 R 1 9 R 2 9 R 1 9 R 2 10 R
1 9 R 2 9 R 1 10 R 2 9 R 1 9 R 2 10 R 1 9 R 2 9 R 1 10 R 2 9 R 1 9 R 2 10 R
1 9 R 2 9 R 1 10 R 2 9 R 1 24 R 2 24 R 1 24 R 2 24 R 1 25 R 2 24 R 1 24 R
2 24 R 1 24 R 2 24 R 1 24 R 2 24 R 1 24 R 2 25 R 1 24 R 2 24 R 1 14 R 2 14 R
1 15 R 1 14 R 2 14 R 1 14 R 2 15 R 1 14 R 2 14 R 1 53 R 2 54 R 1 53 R 2 53 R
1 53 R 2 54 R 1 53 R 2 -121 R 1 9 R 2 10 R 1 9 R 2 9 R 1 9 R 2 9 R 1 10 R
2 9 R 1 9 R 2 9 R 1 9 R 2 10 R 1 9 R 2 9 R 1 9 R 2 9 R 1 10 R 2 9 R 1 9 R
2 9 R 1 9 R 2 10 R 1 9 R 2 9 R 1 9 R 2 9 R 1 8 R 2 7 R 1 7 R 2 7 R 1 8 R
2 7 R 1 7 R 1 7 R 2 8 R 1 7 R 2 7 R 1 8 R 2 7 R 1 7 R 2 7 R 1 8 R 2 7 R
1 7 R 2 7 R 1 8 R 2 -369 R 1 -40 R 2 -40 R 1 -40 R 2 -40 R 1 -39 R 2 -40 R
1 -8 R 2 -8 R 1 -8 R 2 -9 R 1 -8 R 2 -8 R 1 -8 R 2 -8 R 1 -8 R 2 -8 R 1 -8 R
2 -8 R 1 -8 R 2 -8 R 1 27 R 2 27 R 1 28 R 2 27 R 1 27 R 2 3 R 1 3 R 2 3 R
1 2 R 2 3 R 1 3 R 2 3 R 1 3 R 1 3 R 2 2 R 1 3 R 2 3 R 1 3 R 2 3 R 1 3 R
2 7 R 1 7 R 2 7 R 1 7 R 2 7 R 1 7 R 2 7 R 1 7 R 2 7 R 1 7 R 2 7 R 1 7 R
2 7 R 1 7 R 2 7 R 1 7 R 2 7 R 1 7 R 2 7 R 1 7 R 2 7 R 1 7 R 2 7 R 1 7 R
2 7 R 1 7 R 2 8 R 1 -20 R 2 -19 R 1 -19 R 2 -20 R 1 -14 R 2 -14 R 1 -15 R
2 -14 R 1 -14 R 2 -15 R 1 -14 R 2 -14 R 1 -15 R 2 -14 R 1 -14 R 1 -15 R
2 -14 R 1 -14 R 2 -15 R 1 -5 R 2 -6 R 1 -5 R 2 -5 R 1 -6 R 2 -5 R 1 -6 R
2 -5 R 1 -5 R 2 -6 R 1 -5 R 2 -5 R 1 -6 R 2 -5 R 1 -6 R 2 -5 R 1 -5 R 2 -6 R
1 -5 R 2 -6 R 1 -5 R 2 -5 R 1 -15 R 2 -15 R 1 -15 R 2 -15 R 1 -14 R 2 -15 R
1 -15 R 2 -15 R 1 -12 R 2 -13 R 1 -12 R 2 -13 R 1 -12 R 2 -13 R 1 -13 R
2 -12 R 1 -13 R 2 -12 R 1 -13 R 2 -12 R 1 -13 R 1 -13 R 2 -12 R 1 -13 R
2 -12 R 1 -13 R 2 -12 R 1 -13 R 2 -19 R 1 -19 R 2 -19 R 1 -19 R 2 -18 R
1 6 R 2 7 R 1 6 R 2 7 R 1 6 R 2 6 R 1 7 R 2 6 R 1 7 R 2 6 R 1 7 R 2 6 R
1 7 R 2 6 R 1 7 R 2 6 R 1 7 R 2 6 R 1 7 R 2 6 R 1 7 R 2 6 R 1 7 R 2 6 R
1 7 R 2 6 R 1 7 R 2 -2 R 1 -2 R 2 -2 R 1 -2 R 2 -2 R 1 -2 R 2 -2 R 1 -2 R
2 -2 R 1 -2 R 1 -1 R 2 -2 R 1 -2 R 2 -2 R 1 -2 R 2 -2 R 1 -2 R 2 -2 R 1 -2 R
2 -2 R 1 -2 R 2 -2 R 1 -1 R 2 -7 R 1 -6 R 2 -6 R 1 -6 R 2 -6 R 1 -6 R 2 -7 R
1 -6 R 2 -6 R 1 -6 R 2 -6 R 1 -6 R 2 -7 R 1 -6 R 2 -6 R 1 -6 R 2 -6 R 1 -6 R
2 -7 R 1 -6 R 2 -6 R 1 -6 R 2 -6 R 1 -6 R 2 -7 R 1 -64 R 2 -65 R 1 -64 R
2 -64 R 1 -65 R 2 -64 R 1 -65 R 2 -64 R 1 -65 R 1 -12 R 2 -12 R 1 -13 R
2 23 R 1 22 R 2 22 R 1 23 R 2 22 R 1 22 R 2 23 R 1 22 R 2 22 R 1 22 R 2 23 R
1 22 R 2 22 R 1 23 R 2 22 R 1 22 R 2 23 R 1 22 R 2 22 R 1 23 R 2 22 R 1 22 R
2 23 R 1 22 R 2 22 R 1 23 R 2 22 R 1 22 R 2 23 R 1 -40 R 2 -39 R 1 -39 R
2 -40 R 1 -39 R 2 -39 R 1 -40 R 2 -53 R 1 -53 R 2 -53 R 1 -53 R 2 -9 R
1 -10 R 2 -9 R 1 -10 R 2 -9 R 1 -10 R 1 -10 R 2 -9 R 1 -10 R 2 -9 R 1 -10 R
2 -9 R 1 -10 R 2 -10 R 1 -9 R 2 -10 R 1 -9 R 2 -10 R 1 1 R 2 1 R 1 1 R 2 1 R
1 1 R 2 0 R 1 1 R 2 1 R 1 1 R 2 1 R 1 1 R 2 0 R 1 1 R 2 1 R 1 1 R 2 1 R
1 1 R 2 1 R 1 0 R 2 1 R 1 1 R 2 -30 R 1 -31 R 2 14 R 1 13 R 2 14 R 1 13 R
2 14 R 1 14 R 2 13 R 1 14 R 2 13 R 1 14 R 2 13 R 1 14 R 1 14 R 2 13 R 1 18 R
2 18 R 1 18 R 2 18 R 1 18 R 2 19 R 1 -12 R 2 -12 R 1 -12 R 2 -11 R 1 -12 R
2 -12 R 1 69 R 2 68 R 1 20 R 2 21 R 1 20 R 2 20 R 1 20 R 2 21 R 1 20 R
2 20 R 1 20 R 2 20 R 1 21 R 2 20 R 1 1 R 2 1 R 1 0 R 2 1 R 1 1 R 2 1 R 1 0 R
2 1 R 1 1 R 2 1 R 1 1 R 2 0 R 1 1 R 2 1 R 1 1 R 2 1 R 1 0 R 2 1 R 1 1 R
1 1 R 2 1 R 1 0 R 2 1 R 1 1 R 2 1 R 1 -3 R 2 -4 R 1 -3 R 2 -3 R 1 -3 R
2 -4 R 1 -3 R 2 -3 R 1 -3 R 2 -3 R 1 -4 R 2 -3 R 1 -3 R 2 -3 R 1 -3 R 2 -4 R
1 -3 R 2 -3 R 1 -3 R 2 -4 R 1 -3 R 2 -3 R 1 -12 R 2 -13 R 1 -12 R 2 -13 R
1 -12 R 2 -13 R 1 -12 R 2 -13 R 1 -12 R 2 -12 R 1 -13 R 2 -12 R 1 -13 R
2 -12 R 1 -13 R 2 -12 R 1 -12 R 2 -13 R 1 -12 R 2 -13 R 1 -12 R 1 102 R
2 102 R 1 -8 R 2 -8 R 1 -8 R 2 -8 R 1 -8 R 2 -8 R 1 -8 R 2 -8 R 1 -8 R
2 -8 R 1 -9 R 2 -8 R 1 -8 R 2 -8 R 1 -8 R 2 -8 R 1 -8 R 2 -7 R 1 -6 R 2 -7 R
1 -7 R 2 -6 R 1 -7 R 2 -7 R 1 -10 R 2 -10 R 1 -11 R 2 -10 R 1 -11 R 2 -10 R
1 -11 R 2 7 R 1 7 R 2 7 R 1 7 R 2 6 R 1 7 R 2 7 R 1 7 R 2 7 R 1 7 R 2 7 R
1 6 R 2 7 R 1 7 R 1 7 R 2 7 R 1 7 R 2 7 R 1 6 R 2 7 R 1 7 R 2 7 R 1 7 R
2 7 R 1 7 R 2 7 R 1 6 R 2 7 R 1 16 R 2 15 R 1 16 R 2 16 R 1 15 R 2 16 R
1 4 R 2 3 R 1 4 R 2 4 R 1 4 R 2 4 R 1 3 R 2 4 R 1 4 R 2 4 R 1 4 R 2 3 R
1 4 R 2 4 R 1 4 R 2 4 R 1 3 R 2 -10 R 1 -11 R 2 -11 R 1 -11 R 2 -11 R
1 -11 R 2 -11 R D 12275 7902 M 1 -11 R 2 -11 R 1 -11 R 2 -11 R 1 -11 R
1 -11 R 2 -11 R 1 -11 R 2 -11 R 1 -11 R 2 0 R 1 0 R 2 0 R 1 0 R 2 0 R 1 0 R
2 0 R 1 0 R 2 0 R 1 0 R 2 0 R 1 0 R 2 0 R 1 0 R 2 0 R 1 0 R 2 0 R 1 0 R
2 0 R 1 0 R 2 0 R 1 0 R 2 9 R 1 9 R 2 9 R 1 9 R 2 9 R 1 9 R 2 9 R 1 9 R
2 10 R 1 9 R 2 9 R 1 9 R 2 9 R 1 9 R 2 9 R 1 9 R 2 9 R 1 9 R 2 9 R 1 -1 R
1 -1 R 2 -2 R 1 -1 R 2 -1 R 1 -2 R 2 -1 R 1 -1 R 2 -1 R 1 -2 R 2 -1 R 1 -1 R
2 -2 R 1 -1 R 2 -1 R 1 -1 R 2 -2 R 1 -1 R 2 -1 R 1 -1 R 2 27 R 1 28 R 2 27 R
1 28 R 2 27 R 1 28 R 2 27 R 1 28 R 2 27 R 1 28 R 2 27 R 1 28 R 2 27 R 1 28 R
2 27 R 1 27 R 2 28 R 1 27 R 2 28 R 1 29 R 2 29 R 1 29 R 2 29 R 1 29 R 2 29 R
1 29 R 2 29 R 1 29 R 1 -19 R 2 -18 R 1 -19 R 2 -18 R 1 -19 R 2 -18 R 1 -19 R
2 -18 R 1 -19 R 2 -18 R 1 -19 R 2 -18 R 1 -19 R 2 -18 R 1 -19 R 2 -18 R
1 -2 R 2 -2 R 1 -2 R 2 -2 R 1 -1 R 2 -2 R 1 -2 R 2 -2 R 1 -1 R 2 -2 R 1 -2 R
2 -2 R 1 -1 R 2 -2 R 1 -2 R 2 -2 R 1 -2 R 2 -1 R 1 -2 R 2 -2 R 1 -2 R 2 -1 R
1 -2 R 2 -2 R 1 -2 R 2 -1 R 1 -2 R 2 -2 R 1 -12 R 2 -13 R 1 -12 R 2 -13 R
1 -12 R 1 -10 R 2 -9 R 1 -9 R 2 -9 R 1 -10 R 2 -9 R 1 -9 R 2 -9 R 1 -10 R
2 -9 R 1 -9 R 2 -10 R 1 -9 R 2 -9 R 1 -9 R 2 -10 R 1 -9 R 2 -9 R 1 -9 R
2 -10 R 1 -9 R 2 -9 R 1 -10 R 2 -9 R 1 -9 R 2 5 R 1 6 R 2 5 R 1 6 R 2 5 R
1 5 R 2 6 R 1 5 R 2 6 R 1 5 R 2 -15 R 1 -15 R 2 -16 R 1 -15 R 2 -15 R
1 -16 R 2 -15 R 1 -15 R 2 -15 R 1 -16 R 2 -15 R 1 -15 R 1 -16 R 2 -15 R
1 -15 R 2 -15 R 1 -16 R 2 -15 R 1 -15 R 2 -16 R 1 -15 R 2 -15 R 1 -15 R
2 -16 R 1 -15 R 2 -15 R 1 -22 R 2 -21 R 1 -21 R 2 -21 R 1 -21 R 2 -22 R
1 -21 R 2 -21 R 1 -21 R 2 -21 R 1 -22 R 2 -21 R 1 -21 R 2 -21 R 1 -21 R
2 7 R 1 7 R 2 8 R 1 7 R 2 7 R 1 8 R 2 7 R 1 8 R 2 7 R 1 7 R 2 8 R 1 7 R
2 8 R 1 -20 R 2 -19 R 1 -19 R 2 -20 R 1 -19 R 2 -19 R 1 -19 R 1 -20 R
2 -19 R 1 -15 R 2 -15 R 1 -15 R 2 -14 R 1 -15 R 2 -15 R 1 -15 R 2 -13 R
1 -13 R 2 -13 R 1 -13 R 2 -14 R 1 -13 R 2 -13 R 1 -13 R 2 -13 R 1 -13 R
2 -13 R 1 -13 R 2 -13 R 1 -13 R 2 -13 R 1 -13 R 2 -13 R 1 -14 R 2 -13 R
1 -13 R 2 29 R 1 29 R 2 28 R 1 29 R 2 28 R 1 29 R 2 29 R 1 28 R 2 29 R
1 29 R 2 28 R 1 29 R 2 28 R 1 29 R 2 -10 R 1 -10 R 2 -10 R 1 -9 R 1 89 R
2 -22 R 1 -23 R 2 -22 R 1 -22 R 2 -23 R 1 -22 R 2 -22 R 1 -22 R 2 -23 R
1 -22 R 2 -22 R 1 -22 R 2 -23 R 1 -4 R 2 -4 R 1 -5 R 2 -4 R 1 -4 R 2 -5 R
1 -4 R 2 -4 R 1 -5 R 2 -4 R 1 -4 R 2 -4 R 1 -5 R 2 -4 R 1 -4 R 2 -13 R
1 -14 R 2 -13 R 1 -13 R 2 -13 R 1 -13 R 2 -13 R 1 -13 R 2 -13 R 1 -13 R
2 -13 R 1 -13 R 2 -13 R 1 -13 R 2 -13 R 1 -13 R 2 -13 R 1 -14 R 2 -13 R
1 -13 R 1 -13 R 2 -13 R 1 -4 R 2 -5 R 1 -4 R 2 -5 R 1 -5 R 2 -4 R 1 -5 R
2 -4 R 1 -5 R 2 -4 R 1 -5 R 2 -4 R 1 -5 R 2 -4 R 1 23 R 2 24 R 1 24 R 2 24 R
1 23 R 2 24 R 1 24 R 2 24 R 1 23 R 2 24 R 1 24 R 2 23 R 1 24 R 2 0 R 1 0 R
2 0 R 1 -1 R 2 0 R 1 0 R 2 0 R 1 0 R 2 -1 R 1 0 R 2 0 R 1 0 R 2 -1 R 1 0 R
2 0 R 1 0 R 2 0 R 1 -1 R 1 0 R 2 0 R 1 -9 R 2 8 R 1 9 R 2 8 R 1 8 R 2 9 R
1 8 R 2 8 R 1 9 R 2 8 R 1 8 R 2 9 R 1 8 R 2 8 R 1 9 R 2 8 R 1 8 R 2 9 R
1 8 R 2 9 R 1 8 R 2 14 R 1 15 R 2 14 R 1 15 R 2 14 R 1 15 R 2 14 R 1 14 R
2 15 R 1 14 R 2 15 R 1 14 R 2 15 R 1 14 R 2 15 R 1 14 R 2 14 R 1 15 R 2 14 R
1 15 R 2 14 R 1 15 R 2 14 R 1 14 R 1 -10 R 2 -10 R 1 -10 R 2 -10 R 1 -10 R
2 -10 R 1 -10 R 2 -10 R 1 -16 R 2 -15 R 1 -15 R 2 -16 R 1 -15 R 2 -16 R
1 -15 R 2 -15 R 1 -16 R 2 -15 R 1 -16 R 2 -15 R 1 -15 R 2 -16 R 1 -15 R
2 2 R 1 1 R 2 2 R 1 2 R 2 2 R 1 1 R 2 2 R 1 2 R 2 2 R 1 2 R 2 1 R 1 2 R
2 2 R 1 2 R 2 1 R 1 2 R 2 2 R 1 2 R 2 2 R 1 1 R 2 2 R 1 2 R 2 2 R 1 1 R
2 2 R 1 2 R 1 2 R 2 2 R 1 1 R 2 2 R 1 -51 R 2 -51 R 1 -51 R 2 -51 R 1 -51 R
2 -51 R 1 -2 R 2 -2 R 1 -2 R 2 -2 R 1 -2 R 2 -2 R 1 -2 R 2 -2 R 1 -2 R
2 -2 R 1 -2 R 2 -3 R 1 -2 R 2 -2 R 1 -2 R 2 -2 R 1 -2 R 2 -2 R 1 -2 R 2 -2 R
1 -2 R 2 -2 R 1 -18 R 2 -18 R 1 -18 R 2 -18 R 1 -18 R 2 -18 R 1 -18 R
2 -17 R 1 -18 R 2 -18 R 1 -18 R 2 -18 R 1 -18 R 2 -18 R 1 -18 R 1 1 R 2 1 R
1 1 R 2 1 R 1 1 R 2 1 R 1 1 R 2 0 R 1 1 R 2 1 R 1 1 R 2 1 R 1 1 R 2 1 R
1 1 R 2 1 R 1 1 R 2 0 R 1 1 R 2 1 R 1 1 R 2 1 R 1 1 R 2 1 R 1 1 R 2 1 R
1 1 R 2 0 R 1 18 R 2 18 R 1 18 R 2 18 R 1 18 R 2 18 R 1 422 R 2 -5 R 1 -4 R
2 -4 R 1 -5 R 2 -4 R 1 -4 R 2 -5 R 1 -4 R 2 -4 R 1 -5 R 2 -4 R 1 -4 R 2 -4 R
1 -5 R 1 -4 R 2 -4 R 1 -5 R 2 -4 R 1 -4 R 2 -5 R 1 -4 R 2 -4 R 1 -5 R 2 -4 R
1 -4 R 2 -4 R 1 -5 R 2 -4 R 1 -3 R 2 -4 R 1 -3 R 2 -3 R 1 -3 R 2 -3 R 1 -4 R
2 -3 R 1 -3 R 2 -3 R 1 -4 R 2 -3 R 1 -3 R 2 -3 R 1 -4 R 2 -3 R 1 -3 R 2 -3 R
1 -3 R 2 -4 R 1 -3 R 2 -3 R 1 -3 R 2 -4 R 1 -3 R 2 -3 R 1 -3 R 2 -4 R
1 -34 R 2 -35 R 1 -35 R 2 22 R 1 22 R 1 22 R 2 22 R 1 22 R 2 23 R 1 22 R
2 22 R 1 22 R 2 22 R 1 22 R 2 22 R 1 22 R 2 22 R 1 23 R 2 22 R 1 22 R 2 22 R
1 22 R 2 22 R 1 22 R 2 22 R 1 15 R 2 15 R 1 15 R 2 15 R 1 15 R 2 14 R 1 15 R
2 15 R 1 15 R 2 15 R 1 15 R 2 15 R 1 14 R 2 15 R 1 15 R 2 15 R 1 10 R 2 10 R
1 11 R 2 10 R 1 10 R 2 11 R 1 10 R 2 10 R 1 10 R 2 11 R 1 10 R 2 10 R 1 10 R
1 11 R 2 10 R 1 15 R 2 16 R 1 15 R 2 15 R 1 16 R 2 15 R 1 15 R 2 16 R 1 15 R
2 16 R 1 15 R 2 15 R 1 16 R 2 15 R 1 15 R 2 16 R 1 15 R 2 -9 R 1 -9 R 2 -9 R
1 -9 R 2 -10 R 1 -9 R 2 -9 R 1 -9 R 2 -9 R 1 -9 R 2 -9 R 1 -10 R 2 -9 R
1 -9 R 2 18 R 1 18 R 2 18 R 1 19 R 2 18 R 1 18 R 2 18 R 1 18 R 2 18 R 1 18 R
2 18 R 1 18 R 2 18 R 1 -6 R 1 -5 R 2 -6 R 1 -6 R 2 -6 R 1 -6 R 2 -5 R 1 -6 R
2 -6 R 1 -6 R 2 -6 R 1 -5 R 2 -6 R 1 -6 R 2 -6 R 1 -6 R 2 -5 R 1 -6 R 2 -6 R
1 -6 R 2 -5 R 1 -6 R 2 -6 R 1 -30 R 2 -31 R 1 -30 R 2 -31 R 1 -30 R 2 -30 R
D 13392 7823 M 1 17 R 2 17 R 1 17 R 2 17 R 1 18 R 2 17 R 1 17 R 2 17 R
1 17 R 2 18 R 1 17 R 2 17 R 1 17 R 2 17 R 1 18 R 2 17 R 1 17 R 2 -7 R 1 -7 R
1 -7 R 2 -7 R 1 -6 R 2 -7 R 1 -7 R 2 -7 R 1 -7 R 2 -7 R 1 -7 R 2 -7 R 1 -7 R
2 -7 R 1 -6 R 2 -7 R 1 -7 R 2 -19 R 1 -18 R 2 -19 R 1 -18 R 2 -19 R 1 -18 R
2 -19 R 1 -18 R 2 -19 R 1 2 R 2 2 R 1 2 R 2 12 R 1 13 R 2 12 R 1 12 R 2 13 R
1 12 R 2 13 R 1 12 R 2 12 R 1 13 R 2 12 R 1 12 R 2 13 R 1 12 R 2 12 R 1 13 R
2 12 R 1 12 R 2 13 R 1 1 R 2 1 R 1 1 R 1 1 R 2 1 R 1 1 R 2 1 R 1 1 R 2 2 R
1 1 R 2 1 R 1 1 R 2 1 R 1 1 R 2 1 R 1 1 R 2 1 R 1 1 R 2 1 R 1 1 R 2 2 R
1 1 R 2 1 R 1 1 R 2 1 R 1 1 R 2 1 R 1 1 R 2 -3 R 1 -4 R 2 -3 R 1 -3 R 2 -4 R
1 -3 R 2 -3 R 1 -4 R 2 -3 R 1 -3 R 2 -4 R 1 -3 R 2 -3 R 1 -4 R 2 12 R 1 11 R
2 12 R 1 12 R 2 11 R 1 12 R 2 12 R 1 11 R 1 12 R 2 11 R 1 12 R 2 12 R 1 11 R
2 12 R 1 12 R 2 11 R 1 12 R 2 11 R 1 12 R 2 12 R 1 11 R 2 12 R 1 12 R 2 11 R
1 12 R 2 11 R 1 16 R 2 15 R 1 16 R 2 15 R 1 16 R 2 15 R 1 15 R 2 16 R 1 15 R
2 -17 R 1 -17 R 2 -17 R 1 -17 R 2 -17 R 1 -17 R 2 -17 R 1 -17 R 2 -17 R
1 -17 R 2 -2 R 1 -2 R 2 -2 R 1 -2 R 2 -2 R 1 -2 R 2 -2 R 1 -2 R 2 -2 R
1 -2 R 2 -2 R 1 -2 R 1 -2 R 2 -2 R 1 -2 R 2 -2 R 1 -2 R 2 -2 R 1 -2 R
2 398 R 1 -11 R 2 -11 R 1 -10 R 2 -11 R 1 -11 R 2 -11 R 1 -10 R 2 -11 R
1 -11 R 2 -11 R 1 -10 R 2 -11 R 1 -11 R 2 -11 R 1 -11 R 2 -10 R 1 -8 R
2 -8 R 1 -7 R 2 -8 R 1 -8 R 2 -8 R 1 -7 R 2 -8 R 1 -8 R 2 -8 R 1 -7 R 2 -8 R
1 -8 R 2 -7 R 1 -8 R 2 -8 R 1 -8 R 2 -7 R 1 -8 R 2 -8 R 1 -7 R 2 -8 R 1 -8 R
1 -8 R 2 -7 R 1 -8 R 2 1 R 1 1 R 2 1 R 1 1 R 2 0 R 1 1 R 2 1 R 1 1 R 2 1 R
1 1 R 2 1 R 1 1 R 2 1 R 1 0 R 2 1 R 1 1 R 2 1 R 1 1 R 2 1 R 1 1 R 2 1 R
1 -72 R 2 -71 R 1 -72 R 2 -71 R 1 -72 R 2 21 R 1 21 R 2 21 R 1 21 R 2 21 R
1 21 R 2 21 R 1 21 R 2 22 R 1 21 R 2 21 R 1 21 R 2 21 R 1 21 R 2 21 R 1 21 R
2 21 R 1 21 R 1 21 R 2 21 R 1 21 R 2 21 R 1 -4 R 2 -5 R 1 -4 R 2 -5 R 1 -5 R
2 -4 R 1 -5 R 2 -4 R 1 -5 R 2 -5 R 1 12 R 2 11 R 1 12 R 2 11 R 1 11 R 2 12 R
1 11 R 2 12 R 1 11 R 2 11 R 1 0 R 2 -1 R 1 -1 R 2 0 R 1 -1 R 2 -1 R 1 0 R
2 -1 R 1 -1 R 2 0 R 1 -1 R 2 -1 R 1 0 R 2 -1 R 1 -1 R 2 0 R 1 -1 R 2 -1 R
1 -1 R 2 0 R 1 -1 R 2 -1 R 1 0 R 2 7 R 1 6 R 1 7 R 2 7 R 1 7 R 2 6 R 1 7 R
2 7 R 1 7 R 2 6 R 1 7 R 2 7 R 1 7 R 2 6 R 1 7 R 2 7 R 1 7 R 2 6 R 1 7 R
2 7 R 1 7 R 2 6 R 1 7 R 2 7 R 1 7 R 2 -30 R 1 -30 R 2 -30 R 1 -30 R 2 -29 R
1 -30 R 2 -30 R 1 -30 R 2 -30 R 1 -30 R 2 -29 R 1 3 R 2 3 R 1 3 R 2 4 R
1 3 R 2 3 R 1 4 R 2 3 R 1 3 R 2 4 R 1 3 R 2 3 R 1 4 R 1 3 R 2 3 R 1 3 R
2 4 R 1 3 R 2 3 R 1 4 R 2 3 R 1 3 R 2 4 R 1 3 R 2 3 R 1 -98 R 2 -98 R
1 -98 R 2 -98 R 1 12 R 2 11 R 1 12 R 2 11 R 1 12 R 2 11 R 1 -171 R 2 -172 R
1 19 R 2 20 R 1 19 R 2 19 R 1 20 R 2 19 R 1 20 R 2 19 R 1 19 R 2 20 R 1 19 R
2 20 R 1 19 R 2 19 R 1 20 R 2 19 R 1 20 R 2 26 R 1 27 R 2 26 R 1 26 R 2 27 R
1 26 R 2 48 R 1 48 R 1 47 R 2 48 R 1 -39 R 2 -39 R 1 -39 R 2 -39 R 1 -38 R
2 -39 R 1 -39 R 2 -39 R 1 -39 R 2 -38 R 1 -39 R 2 -39 R 1 -39 R 2 3 R 1 2 R
2 2 R 1 3 R 2 2 R 1 3 R 2 2 R 1 2 R 2 3 R 1 2 R 2 3 R 1 2 R 2 2 R 1 3 R
2 2 R 1 3 R 2 2 R 1 2 R 2 3 R 1 5 R 2 6 R 1 5 R 2 6 R 1 5 R 2 6 R 1 6 R
2 5 R 1 6 R 2 5 R 1 6 R 2 5 R 1 6 R 1 5 R 2 6 R 1 5 R 2 6 R 1 5 R 2 6 R
1 6 R 2 5 R 1 6 R 2 5 R 1 6 R 2 5 R 1 6 R 2 5 R 1 6 R 2 -23 R 1 -23 R
2 -24 R 1 -23 R 2 -23 R 1 -23 R 2 -23 R 1 -23 R 2 -23 R 1 -20 R 2 -20 R
1 -20 R 2 -20 R 1 -19 R 2 -20 R 1 -20 R 2 -20 R 1 -19 R 2 -20 R 1 -20 R
2 -20 R 1 -20 R 2 -19 R 1 -20 R 2 -20 R 1 -20 R 2 -19 R 1 -102 R 2 3 R 1 2 R
2 2 R 1 3 R 2 2 R 1 3 R 1 2 R 2 2 R 1 3 R 2 2 R 1 3 R 2 2 R 1 2 R 2 3 R
1 2 R 2 2 R 1 3 R 2 2 R 1 3 R 2 2 R 1 2 R 2 3 R 1 2 R 2 3 R 1 2 R 2 2 R
1 2 R 2 2 R 1 2 R 2 2 R 1 2 R 2 2 R 1 1 R 2 2 R 1 2 R 2 2 R 1 2 R 2 2 R
1 1 R 2 2 R 1 2 R 2 2 R 1 2 R 2 2 R 1 -20 R 2 -20 R 1 -21 R 2 -20 R 1 -20 R
2 -20 R 1 -20 R 2 -20 R 1 -20 R 1 -21 R 2 -20 R 1 -20 R 2 -20 R 1 -20 R
2 -20 R 1 -20 R 2 -20 R 1 -21 R 2 -20 R 1 -20 R 2 -20 R 1 -20 R 2 -20 R
1 -7 R 2 -7 R 1 -8 R 2 -7 R 1 -7 R 2 -7 R 1 -7 R 2 -7 R 1 -7 R 2 -7 R 1 -7 R
2 -8 R 1 -7 R 2 -9 R 1 -9 R 2 -9 R 1 -9 R 2 -9 R 1 -9 R 2 -10 R 1 -9 R
2 -9 R 1 -9 R 2 -9 R 1 -9 R 2 -9 R 1 -9 R 2 -9 R 1 -10 R 2 -9 R 1 -2 R
2 -3 R 1 -2 R 1 -3 R 2 -2 R 1 -3 R 2 -3 R 1 -2 R 2 -3 R 1 -2 R 2 -3 R 1 -2 R
2 -3 R 1 -2 R 2 -3 R 1 -2 R 2 -7 R 1 -6 R 2 -7 R 1 -6 R 2 -7 R 1 -6 R 2 -7 R
1 -6 R 2 -7 R 1 -6 R 2 -7 R 1 -6 R 2 -7 R 1 -6 R 2 -6 R 1 15 R 2 16 R 1 15 R
2 16 R 1 15 R 2 2 R 1 3 R 2 2 R 1 2 R 2 2 R 1 2 R 2 2 R 1 2 R 2 2 R 1 2 R
2 3 R 1 2 R 2 2 R 1 2 R 2 2 R 1 2 R 1 2 R 2 2 R 1 3 R 2 27 R 1 28 R 2 28 R
1 28 R 2 28 R 1 28 R 2 27 R 1 28 R 2 28 R 1 28 R 2 28 R 1 28 R 2 28 R 1 27 R
2 28 R 1 28 R 2 28 R 1 28 R 2 -4 R 1 -3 R 2 -4 R 1 -3 R 2 -4 R 1 -3 R 2 -4 R
1 -3 R 2 -4 R 1 -3 R 2 -4 R 1 -3 R 2 -4 R 1 -3 R 2 -1 R 1 -1 R 2 0 R 1 -1 R
2 -1 R 1 0 R 2 -1 R 1 0 R 2 -1 R 1 -1 R 2 0 R 1 -1 R 1 -1 R 2 0 R 1 -1 R
2 -1 R 1 0 R 2 -1 R 1 -1 R 2 0 R 1 2 R 2 2 R 1 2 R 2 2 R 1 2 R 2 2 R 1 2 R
2 3 R 1 2 R 2 2 R 1 2 R 2 2 R 1 2 R 2 2 R 1 2 R 2 2 R 1 -24 R 2 -24 R
1 -25 R 2 -24 R 1 -24 R 2 -25 R 1 -24 R 2 -24 R 1 -24 R 2 -25 R 1 -24 R
2 -24 R 1 -25 R 2 -24 R 1 -24 R 2 -25 R 1 -24 R 2 -24 R 1 10 R 2 11 R 1 10 R
2 11 R 1 10 R 2 11 R 1 10 R 1 11 R 2 10 R 1 11 R 2 10 R 1 11 R 2 10 R 1 11 R
2 10 R 1 11 R 2 10 R 1 -6 R 2 -6 R D 14509 7023 M 1 -7 R 2 -6 R 1 -6 R
2 -6 R 1 -7 R 2 -6 R 1 -6 R 2 -7 R 1 -6 R 2 -6 R 1 -6 R 2 -7 R 1 -6 R 2 -6 R
1 -7 R 2 -6 R 1 -6 R 2 -6 R 1 -7 R 2 -6 R 1 61 R 2 61 R 1 6 R 2 5 R 1 6 R
2 6 R 1 5 R 2 6 R 1 6 R 2 5 R 1 6 R 2 6 R 1 5 R 2 6 R 1 6 R 1 -4 R 2 -5 R
1 -4 R 2 -4 R 1 -5 R 2 -4 R 1 -4 R 2 24 R 1 24 R 2 24 R 1 24 R 2 25 R 1 24 R
2 24 R 1 24 R 2 24 R 1 25 R 2 24 R 1 24 R 2 24 R 1 24 R 2 25 R 1 -111 R
2 -111 R 1 -110 R 2 -17 R 1 -17 R 2 -17 R 1 -18 R 2 -17 R 1 -17 R 2 -17 R
1 -17 R 2 -17 R 1 -17 R 2 -18 R 1 -17 R 2 -17 R 1 -17 R 2 -17 R 1 -17 R
2 -17 R 1 -18 R 2 -17 R 1 -17 R 2 47 R 1 48 R 1 47 R 2 -88 R 1 -88 R 2 -88 R
1 -88 R 2 -88 R 1 -88 R 2 10 R 1 10 R 2 10 R 1 11 R 2 10 R 1 10 R 2 10 R
1 11 R 2 10 R 1 10 R 2 10 R 1 11 R 2 10 R 1 10 R 2 11 R 1 10 R 2 10 R 1 10 R
2 11 R 1 10 R 2 10 R 1 10 R 2 11 R 1 10 R 2 10 R 1 10 R 2 -6 R 1 -6 R 2 -6 R
1 -7 R 2 -6 R 1 -6 R 2 -6 R 1 -7 R 2 -6 R 1 -6 R 2 -7 R 1 -6 R 2 -6 R 1 -6 R
2 -7 R 1 -6 R 1 -6 R 2 -6 R 1 -481 R 2 -15 R 1 -14 R 2 -15 R 1 -15 R 2 -15 R
1 -14 R 2 -15 R 1 -15 R 2 -14 R 1 -15 R 2 -15 R 1 -15 R 2 -14 R 1 -15 R
2 -15 R 1 -15 R 2 -14 R 1 -15 R 2 -15 R 1 -14 R 2 -15 R 1 -15 R 2 -8 R
1 -8 R 2 -8 R 1 -8 R 2 -7 R 1 -8 R 2 -8 R 1 -8 R 2 -8 R 1 -8 R 2 -8 R 1 -8 R
2 -8 R 1 -8 R 2 -8 R 1 -7 R 2 -8 R 1 -8 R 2 -8 R 1 -8 R 2 -8 R 1 5 R 1 6 R
2 5 R 1 6 R 2 5 R 1 6 R 2 5 R 1 6 R 2 5 R 1 6 R 2 5 R 1 6 R 2 5 R 1 6 R
2 5 R 1 6 R 2 5 R 1 6 R 2 5 R 1 6 R 2 -7 R 1 -6 R 2 -7 R 1 -6 R 2 -7 R
1 -6 R 2 -7 R 1 -6 R 2 -7 R 1 -6 R 2 -6 R 1 -7 R 2 -6 R 1 -7 R 2 -6 R 1 -7 R
2 -6 R 1 -7 R 2 -6 R 1 -7 R 2 -6 R 1 -7 R 2 -6 R 1 -7 R 2 -6 R 1 -7 R 2 -6 R
1 5 R 2 4 R 1 5 R 1 5 R 2 4 R 1 5 R 2 5 R 1 5 R 2 4 R 1 5 R 2 5 R 1 4 R
2 5 R 1 5 R 2 4 R 1 -21 R 2 -22 R 1 6 R 2 7 R 1 6 R 2 7 R 1 6 R 2 7 R 1 6 R
2 6 R 1 7 R 2 6 R 1 7 R 2 6 R 1 7 R 2 6 R 1 12 R 2 11 R 1 12 R 2 12 R 1 11 R
2 12 R 1 11 R 2 12 R 1 12 R 2 11 R 1 12 R 2 11 R 1 12 R 2 12 R 1 11 R 2 9 R
1 9 R 2 9 R 1 9 R 1 9 R 2 9 R 1 9 R 2 9 R 1 9 R 2 -20 R 1 -20 R 2 -20 R
1 -20 R 2 -20 R 1 -20 R 2 -20 R 1 -20 R 2 10 R 1 9 R 2 10 R 1 10 R 2 9 R
1 10 R 2 10 R 1 9 R 2 10 R 1 10 R 2 10 R 1 9 R 2 10 R 1 -19 R 2 -19 R
1 -19 R 2 -19 R 1 -19 R 2 -20 R 1 -19 R 2 -19 R 1 -19 R 2 -19 R 1 -19 R
2 -19 R 1 -19 R 2 -19 R 1 -19 R 2 -19 R 1 -19 R 2 -26 R 1 -25 R 2 -26 R
1 -25 R 2 -26 R 1 -25 R 1 -26 R 2 -25 R 1 -2 R 2 -2 R 1 -1 R 2 -2 R 1 -1 R
2 -2 R 1 -2 R 2 -1 R 1 -2 R 2 -2 R 1 -1 R 2 -2 R 1 -1 R 2 -2 R 1 -2 R 2 -1 R
1 -2 R 2 -1 R 1 -2 R 2 -2 R 1 -1 R 2 -2 R 1 -2 R 2 -1 R 1 -2 R 2 -1 R 1 -2 R
2 2 R 1 2 R 2 2 R 1 3 R 2 2 R 1 2 R 2 2 R 1 2 R 2 2 R 1 2 R 2 3 R 1 2 R
2 2 R 1 2 R 2 2 R 1 2 R 2 2 R 1 2 R 1 3 R 2 2 R 1 2 R 2 2 R 1 2 R 2 18 R
1 18 R 2 18 R 1 18 R 2 18 R 1 18 R 2 18 R 1 18 R 2 18 R 1 17 R 2 18 R 1 18 R
2 18 R 1 -7 R 2 -7 R 1 -7 R 2 -7 R 1 -7 R 2 -7 R 1 -7 R 2 -7 R 1 -7 R 2 -7 R
1 -7 R 2 -7 R 1 -7 R 2 -8 R 1 -7 R 2 -7 R 1 -7 R 2 -7 R 1 -7 R 2 -7 R 1 -7 R
2 -7 R 1 -7 R 2 -7 R 1 -7 R 2 -7 R 1 -7 R 2 -7 R 1 -7 R 1 -7 R 2 -19 R
1 -19 R 2 -19 R 1 -19 R 2 -18 R 1 -19 R 2 -19 R 1 -19 R 2 -18 R 1 -19 R
2 -19 R 1 -19 R 2 -18 R 1 -19 R 2 -56 R 1 -55 R 2 -55 R 1 -55 R 2 -56 R
1 -55 R 2 -14 R 1 -13 R 2 -14 R 1 -13 R 2 -14 R 1 -13 R 2 -14 R 1 22 R
2 22 R 1 22 R 2 -1 R 1 0 R 2 0 R 1 -1 R 2 0 R 1 0 R 2 -1 R 1 0 R 2 0 R
1 -1 R 2 0 R 1 -1 R 2 0 R 1 0 R 2 -1 R 1 0 R 2 0 R 1 -1 R 1 0 R 2 0 R 1 -1 R
2 0 R 1 0 R 2 -1 R 1 -82 R 2 -82 R 1 -82 R 2 5 R 1 5 R 2 5 R 1 5 R 2 5 R
1 5 R 2 5 R 1 5 R 2 5 R 1 5 R 2 5 R 1 5 R 2 5 R 1 5 R 2 5 R 1 5 R 2 5 R
1 9 R 2 9 R 1 10 R 2 9 R 1 10 R 2 9 R 1 9 R 2 10 R 1 9 R 2 10 R 1 9 R 2 9 R
1 10 R 2 9 R 1 10 R 2 9 R 1 9 R 2 10 R 1 9 R 2 10 R 1 9 R 1 9 R 2 10 R 1 9 R
2 9 R 1 10 R 2 9 R 1 14 R 2 13 R 1 14 R 2 13 R 1 13 R 2 14 R 1 13 R 2 14 R
1 13 R 2 14 R 1 13 R 2 13 R 1 14 R 2 13 R 1 14 R 2 13 R 1 14 R 2 13 R 1 13 R
2 14 R 1 21 R 2 21 R 1 21 R 2 22 R 1 21 R 2 21 R 1 21 R 2 21 R 1 22 R 2 21 R
1 21 R 2 21 R 1 21 R 2 21 R 1 22 R 2 21 R 1 21 R 2 21 R 1 21 R 2 -32 R
1 -33 R 2 -32 R 1 -33 R 1 -32 R 2 -33 R 1 -32 R 2 -33 R 1 -32 R 2 -33 R
1 -33 R 2 -32 R 1 -33 R 2 -32 R 1 -33 R 2 -32 R 1 -33 R 2 -32 R 1 -33 R
2 -5 R 1 -6 R 2 -5 R 1 -6 R 2 -5 R 1 -5 R 2 -6 R 1 -5 R 2 -6 R 1 -5 R 2 -6 R
1 -5 R 2 -6 R 1 -5 R 2 -6 R 1 34 R 2 34 R 1 33 R 2 34 R 1 34 R 2 -16 R
1 -16 R 2 -16 R 1 -15 R 2 -16 R 1 -16 R 2 -16 R 1 -15 R 2 -16 R 1 -16 R
2 -16 R 1 -15 R 1 -16 R 2 -16 R 1 -16 R 2 -15 R 1 -16 R 2 -16 R 1 -16 R
2 -15 R 1 -16 R 2 -7 R 1 -7 R 2 -7 R 1 -7 R 2 -7 R 1 -8 R 2 -7 R 1 -7 R
2 -7 R 1 -7 R 2 -7 R 1 -7 R 2 -7 R 1 -7 R 2 -7 R 1 -7 R 2 -7 R 1 -8 R 2 -7 R
1 -7 R 2 -12 R 1 -12 R 2 -12 R 1 -12 R 2 -12 R 1 -12 R 2 -12 R 1 -12 R
2 -12 R 1 -13 R 2 -12 R 1 -12 R 2 -12 R 1 -12 R 2 -12 R 1 -12 R 2 26 R
1 26 R 2 26 R 1 25 R 1 26 R 2 26 R 1 26 R 2 26 R 1 26 R 2 -18 R 1 -19 R
2 -18 R 1 -18 R 2 -19 R 1 -18 R 2 -18 R 1 -19 R 2 -18 R 1 -18 R 2 -19 R
1 -18 R 2 -18 R 1 -19 R 2 -18 R 1 -18 R 2 3 R 1 2 R 2 3 R 1 3 R 2 3 R 1 3 R
2 2 R 1 3 R 2 3 R 1 3 R 2 3 R 1 2 R 2 3 R 1 2 R 2 2 R 1 3 R 2 2 R 1 3 R
2 2 R 1 2 R 2 3 R 1 2 R 2 3 R 1 2 R 2 3 R 1 2 R 1 2 R 2 3 R 1 2 R 2 3 R
1 2 R 2 3 R 1 2 R 2 2 R 1 3 R 2 2 R 1 3 R 2 2 R 1 3 R 2 2 R 1 12 R 2 12 R
1 13 R 2 12 R 1 12 R 2 12 R 1 12 R 2 12 R 1 13 R 2 12 R 1 12 R 2 12 R 1 12 R
2 13 R 1 12 R 2 12 R 1 12 R 2 12 R 1 12 R 2 13 R 1 12 R 2 12 R 1 12 R
2 -83 R 1 -83 R 2 -82 R 1 10 R 2 9 R 1 10 R 2 10 R 1 10 R D 15626 4375 M
2 10 R 1 10 R 1 10 R 2 10 R 1 10 R 2 10 R 1 10 R 2 10 R 1 10 R 2 10 R 1 10 R
2 -23 R 1 -23 R 2 -23 R 1 -23 R 2 -23 R 1 -23 R 2 -23 R 1 -23 R 2 -23 R
1 -24 R 2 -23 R 1 -23 R 2 -23 R 1 -115 R 2 -116 R 1 -115 R 2 -116 R 1 -18 R
2 -18 R 1 -18 R 2 -18 R 1 -18 R 2 -18 R 1 -18 R 2 -18 R 1 -19 R 2 -18 R
1 -18 R 2 -18 R 1 -18 R 2 -18 R 1 -18 R 2 -18 R 1 -8 R 2 -8 R 1 -7 R 2 -8 R
1 -8 R 2 -7 R 1 -8 R 1 -8 R 2 -8 R 1 -7 R 2 -8 R 1 -9 R 2 -8 R 1 -8 R 2 -8 R
1 -8 R 2 -9 R 1 -8 R 2 -8 R 1 -8 R 2 -8 R 1 -8 R 2 -9 R 1 -8 R 2 -8 R 1 -8 R
2 -8 R 1 -9 R 2 -8 R 1 -8 R 2 -8 R 1 -8 R 2 -9 R 1 243 R 2 201 R 1 4 R 2 4 R
1 4 R 2 3 R 1 4 R 2 4 R 1 4 R 2 3 R 1 4 R 2 4 R 1 4 R 2 3 R 1 4 R 2 4 R
1 4 R 2 3 R 1 1 R 2 0 R 1 0 R 1 1 R 2 0 R 1 1 R 2 0 R 1 0 R 2 1 R 1 0 R
2 0 R 1 1 R 2 0 R 1 0 R 2 1 R 1 0 R 2 0 R 1 1 R 2 0 R 1 1 R 2 0 R 1 0 R
2 -21 R 1 -21 R 2 -21 R 1 -21 R 2 -21 R 1 -21 R 2 -21 R 1 -21 R 2 -21 R
1 -21 R 2 -21 R 1 -21 R 2 -21 R 1 -21 R 2 -21 R 1 -21 R 2 45 R 1 45 R 2 45 R
1 45 R 2 45 R 1 45 R 2 45 R 1 44 R 2 45 R 1 45 R 2 45 R 1 45 R 2 45 R 1 45 R
1 12 R 2 12 R 1 12 R 2 12 R 1 12 R 2 11 R 1 12 R 2 12 R 1 12 R 2 12 R 1 11 R
2 12 R 1 12 R 2 12 R 1 12 R 2 12 R 1 14 R 2 14 R 1 15 R 2 14 R 1 15 R 2 14 R
1 14 R 2 15 R 1 14 R 2 15 R 1 14 R 2 15 R 1 14 R 2 14 R 1 15 R 2 14 R 1 9 R
2 9 R 1 9 R 2 8 R 1 9 R 2 9 R 1 9 R 2 9 R 1 8 R 2 9 R 1 9 R 2 9 R 1 9 R
2 8 R 1 9 R 1 9 R 2 9 R 1 9 R 2 8 R 1 -4 R 2 -4 R 1 -4 R 2 -4 R 1 -4 R
2 -4 R 1 -5 R 2 -4 R 1 -4 R 2 -4 R 1 -4 R 2 -4 R 1 -4 R 2 -4 R 1 -5 R 2 -4 R
1 -4 R 2 -4 R 1 -4 R 2 -4 R 1 -4 R 2 -4 R 1 -5 R 2 -4 R 1 -4 R 2 4 R 1 4 R
2 4 R 1 4 R 2 5 R 1 4 R 2 4 R 1 4 R 2 4 R 1 4 R 2 4 R 1 4 R 2 4 R 1 4 R
2 4 R 1 4 R 2 5 R 1 4 R 2 4 R 1 4 R 1 4 R 2 4 R 1 4 R 2 4 R 1 4 R 2 4 R
1 4 R 2 1 R 1 0 R 2 0 R 1 1 R 2 0 R 1 0 R 2 0 R 1 1 R 2 0 R 1 0 R 2 1 R
1 0 R 2 0 R 1 21 R 2 21 R 1 20 R 2 21 R 1 -8 R 2 -8 R 1 -7 R 2 -8 R 1 -8 R
2 -8 R 1 -8 R 2 -8 R 1 -8 R 2 -7 R 1 -8 R 2 -8 R 1 -8 R 2 -45 R 1 -44 R
2 -45 R 1 -44 R 2 -45 R 1 -436 R 2 -3 R 1 -4 R 2 -4 R 1 -3 R 1 -4 R 2 -4 R
1 -3 R 2 -4 R 1 -3 R 2 -4 R 1 -3 R 2 -4 R 1 -3 R 2 -4 R 1 -3 R 2 -4 R 1 -4 R
2 -3 R 1 -4 R 2 -3 R 1 -4 R 2 -3 R 1 -4 R 2 -3 R 1 -4 R 2 -3 R 1 -4 R 2 -3 R
1 -4 R 2 -3 R 1 -4 R 2 -3 R 1 -4 R 2 -3 R 1 -4 R 2 -8 R 1 -8 R 2 -8 R 1 -8 R
2 -8 R 1 -8 R 2 -8 R 1 -8 R 2 16 R 1 16 R 2 16 R 1 16 R 2 16 R 1 17 R 2 16 R
1 16 R 1 16 R 2 16 R 1 16 R 2 16 R 1 16 R 2 16 R 1 16 R 2 10 R 1 10 R 2 10 R
1 10 R 2 10 R 1 10 R 2 10 R 1 10 R 2 10 R 1 10 R 2 12 R 1 94 R 2 95 R 1 -2 R
2 -1 R 1 -2 R 2 -1 R 1 -1 R 2 -2 R 1 -1 R 2 -2 R 1 -1 R 2 -1 R 1 -2 R 2 -1 R
1 -2 R 2 -1 R 1 -1 R 2 -2 R 1 -1 R 2 -2 R 1 -1 R 2 -1 R 1 -2 R 2 -1 R 1 -2 R
2 -1 R 1 -1 R 2 -2 R 1 -1 R 2 -2 R 1 -1 R 1 -11 R 2 -12 R 1 -11 R 2 -12 R
1 -11 R 2 -12 R 1 -11 R 2 -12 R 1 -11 R 2 -12 R 1 -11 R 2 -12 R 1 -11 R
2 -12 R 1 -11 R 2 -12 R 1 -11 R 2 -12 R 1 -11 R 2 -11 R 1 -12 R 2 -11 R
1 -12 R 2 -11 R 1 -12 R 2 -11 R 1 -12 R 2 -4 R 1 -5 R 2 -5 R 1 -4 R 2 -5 R
1 -5 R 2 -4 R 1 -5 R 2 -4 R 1 -5 R 2 -5 R 1 -4 R 2 -5 R 1 -5 R 2 -4 R 1 -5 R
2 -4 R 1 -5 R 2 -5 R 1 -4 R 1 -5 R 2 -5 R 1 -4 R 2 -5 R 1 -4 R 2 -5 R
1 -17 R 2 -17 R 1 -17 R 2 -16 R 1 -17 R 2 -17 R 1 -17 R 2 -17 R 1 -17 R
2 -17 R 1 -17 R 2 -16 R 1 -17 R 2 10 R 1 10 R 2 10 R 1 10 R 2 11 R 1 10 R
2 10 R 1 10 R 2 10 R 1 10 R 2 11 R 1 10 R 2 10 R 1 10 R 2 10 R 1 10 R 2 11 R
1 10 R 2 10 R 1 10 R 2 -1 R 1 0 R 2 -1 R 1 -1 R 2 -1 R 1 0 R 2 -1 R 1 -1 R
2 -1 R 1 0 R 1 -1 R 2 -1 R 1 -1 R 2 0 R 1 -1 R 2 -1 R 1 -1 R 2 -507 R 1 5 R
2 4 R 1 5 R 2 5 R 1 5 R 2 5 R 1 5 R 2 5 R 1 5 R 2 5 R 1 4 R 2 5 R 1 5 R
2 5 R 1 5 R 2 5 R 1 5 R 2 5 R 1 5 R 2 130 R 1 262 R 2 -3 R 1 -3 R 2 -3 R
1 -3 R 2 -3 R 1 -3 R 2 -4 R 1 -3 R 2 -3 R 1 -3 R 2 -3 R 1 -3 R 2 -3 R 1 -3 R
2 -3 R 1 -3 R 2 -3 R 1 -4 R 1 -3 R 2 -3 R 1 -3 R 2 -3 R 1 -3 R 2 -3 R 1 -3 R
2 -3 R 1 -3 R 2 -3 R 1 -27 R 2 -28 R 1 -27 R 2 -27 R 1 -27 R 2 -27 R 1 -27 R
2 -27 R 1 -27 R 2 -27 R 1 -27 R 2 -27 R 1 216 R 2 12 R 1 13 R 2 12 R 1 13 R
2 12 R 1 13 R 2 13 R 1 12 R 2 13 R 1 12 R 2 13 R 1 13 R 2 12 R 1 13 R 2 12 R
1 13 R 2 13 R 1 12 R 2 13 R 1 -12 R 2 -11 R 1 -11 R 2 -11 R 1 -11 R 1 -12 R
2 -11 R 1 -11 R 2 -11 R 1 -11 R 2 -12 R 1 -11 R 2 -11 R 1 -11 R 2 -11 R
1 -12 R 2 -11 R 1 -11 R 2 -11 R 1 -11 R 2 -12 R 1 -11 R 2 -11 R 1 -11 R
2 -11 R 1 -12 R 2 12 R 1 12 R 2 12 R 1 12 R 2 12 R 1 12 R 2 12 R 1 12 R
2 12 R 1 12 R 2 12 R 1 12 R 2 12 R 1 12 R 2 12 R 1 12 R 2 11 R 1 12 R 2 9 R
1 8 R 2 9 R 1 9 R 2 8 R 1 9 R 2 8 R 1 9 R 2 8 R 1 9 R 1 8 R 2 9 R 1 8 R
2 9 R 1 108 R 2 109 R 1 109 R 2 108 R 1 3 R 2 3 R 1 3 R 2 2 R 1 3 R 2 3 R
1 3 R 2 3 R 1 3 R 2 2 R 1 3 R 2 3 R 1 3 R 2 3 R 1 3 R 2 2 R 1 3 R 2 3 R
1 3 R 2 3 R 1 25 R 2 24 R 1 25 R 2 25 R 1 25 R 2 25 R 1 25 R 2 25 R 1 25 R
2 25 R 1 24 R 2 25 R 1 25 R 2 25 R 1 25 R 2 25 R 1 25 R 2 -49 R 1 -50 R
1 36 R 2 36 R 1 36 R 2 36 R 1 35 R 2 3 R 1 2 R 2 2 R 1 2 R 2 3 R 1 2 R 2 2 R
1 2 R 2 3 R 1 2 R 2 2 R 1 2 R 2 3 R 1 2 R 2 2 R 1 2 R 2 3 R 1 2 R 2 2 R
1 2 R 2 3 R 1 2 R 2 2 R 1 2 R 2 3 R 1 2 R 2 2 R 1 34 R 2 33 R 1 34 R 2 33 R
1 34 R 2 33 R 1 -3 R 2 -3 R 1 -2 R 2 -3 R 1 -3 R 2 -3 R 1 -3 R 2 -3 R 1 -3 R
2 -3 R 1 -2 R 1 -3 R 2 -3 R 1 -3 R 2 -3 R 1 -3 R 2 -3 R 1 -3 R 2 -4 R 1 -5 R
2 -5 R 1 -5 R 2 -4 R 1 -5 R 2 -5 R 1 -4 R 2 -5 R 1 -5 R 2 -5 R 1 -4 R 2 -5 R
1 -5 R 2 -5 R 1 -4 R 2 -5 R 1 -5 R 2 -5 R 1 -4 R 2 -5 R 1 -5 R D
16743 4912 M 2 -5 R 1 -4 R 2 -5 R 1 -5 R 2 -4 R 1 8 R 2 8 R 1 8 R 2 8 R
1 8 R 2 9 R 1 8 R 2 8 R 1 8 R 2 8 R 1 -26 R 2 -27 R 1 -27 R 1 -27 R 2 -26 R
1 -27 R 2 0 R 1 0 R 2 1 R 1 0 R 2 0 R 1 1 R 2 0 R 1 0 R 2 1 R 1 0 R 2 1 R
1 0 R 2 0 R 1 3 R 2 3 R 1 3 R 2 3 R 1 3 R 2 3 R 1 3 R 2 3 R 1 3 R 2 3 R
1 3 R 2 3 R 1 3 R 2 3 R 1 3 R 2 3 R 1 3 R 2 3 R 1 3 R 2 3 R 1 3 R 2 3 R
1 3 R 2 3 R 1 3 R 2 2 R 1 3 R 2 3 R 1 3 R 2 3 R 1 3 R 2 3 R 1 3 R 1 3 R
2 3 R 1 3 R 2 3 R 1 3 R 2 3 R 1 3 R 2 3 R 1 2 R 2 3 R 1 3 R 2 3 R 1 3 R
2 1 R 1 0 R 2 1 R 1 1 R 2 0 R 1 1 R 2 0 R 1 1 R 2 0 R 1 1 R 2 1 R 1 0 R
2 1 R 1 0 R 2 1 R 1 1 R 2 0 R 1 1 R 2 0 R 1 1 R 2 0 R 1 148 R 2 148 R
1 148 R 2 -2 R 1 -3 R 2 -3 R 1 -2 R 2 -3 R 1 -2 R 2 -3 R 1 -3 R 2 -2 R
1 -3 R 1 -3 R 2 -2 R 1 -3 R 2 -2 R 1 -3 R 2 -3 R 1 -2 R 2 -3 R 1 -3 R 2 -2 R
1 -3 R 2 -3 R 1 -2 R 2 -3 R 1 -2 R 2 -3 R 1 244 R 2 -12 R 1 -11 R 2 -11 R
1 -12 R 2 -11 R 1 -12 R 2 -11 R 1 -12 R 2 -11 R 1 -12 R 2 -11 R 1 -11 R
2 -12 R 1 -11 R 2 -12 R 1 -11 R 2 -12 R 1 -11 R 2 -11 R 1 -12 R 2 -11 R
1 -12 R 2 32 R 1 32 R 2 32 R 1 32 R 2 32 R 1 31 R 2 32 R 1 32 R 1 32 R
2 32 R 1 32 R 2 32 R 1 32 R 2 -12 R 1 -12 R 2 -12 R 1 -12 R 2 -12 R 1 -12 R
2 -12 R 1 -12 R 2 -12 R 1 -12 R 2 -12 R 1 -12 R 2 -12 R 1 -12 R 2 -12 R
1 -12 R 2 -12 R 1 -12 R 2 -12 R 1 -12 R 2 -12 R 1 -20 R 2 -19 R 1 -20 R
2 -20 R 1 -19 R 2 -20 R 1 -20 R 2 -19 R 1 -20 R 2 -2 R 1 -3 R 2 -2 R 1 -2 R
2 -2 R 1 -3 R 2 -2 R 1 -2 R 2 -2 R 1 -3 R 2 -2 R 1 -2 R 2 -3 R 1 -2 R 1 -2 R
2 -2 R 1 -3 R 2 -6 R 1 -6 R 2 -6 R 1 -6 R 2 -7 R 1 -6 R 2 -6 R 1 -6 R 2 -6 R
1 -6 R 2 -7 R 1 -6 R 2 -6 R 1 -6 R 2 -6 R 1 -6 R 2 -7 R 1 -6 R 2 -6 R 1 -6 R
2 -6 R 1 1 R 2 2 R 1 1 R 2 2 R 1 1 R 2 2 R 1 1 R 2 1 R 1 2 R 2 1 R 1 2 R
2 1 R 1 2 R 2 1 R 1 2 R D
%%PageTrailer
end
restore
showpage
%%PageResources: font Helvetica
%%Trailer
restore
%%Pages: 1
%%DocumentNeededResources: font Helvetica
%%EOF
