%!PS-Adobe-3.0
%%BoundingBox: 54 360 558 720
%%Title: Graphics produced by IDL
%%For: peters11@pal-nat185-041-180.itap.purdue.edu, 
%%      /Users/peters11/imsims/trunk/ancillary/atmosphere_parameters
%%Creator: IDL Version 6.3, Mac OS X (darwin i386 m32)
%%CreationDate: Fri Nov 11 15:30:04 2011
%%DocumentData: Clean7bit
%%LanguageLevel: 1
%%PageOrder: Ascend
%%Pages: (atend)
%%DocumentNeededResources: (atend)
%%EndComments
%%BeginProlog
save
%+ prolog.ps -- Prolog for IDL generated PostScript files
%+ Copyright (c) 1988-2006 Research Systems, Inc. All Rights Reserved.
%v 5
/$IDL_DICT 40 dict def $IDL_DICT begin /bdef { bind def } bind def /C
{currentpoint newpath moveto} bdef /CP {currentpoint} bdef /D {currentpoint
stroke moveto} bdef /F {closepath fill} bdef /K { setgray } bdef /M {moveto}
bdef /N {rmoveto} bdef /P {lineto} bdef /R {rlineto} bdef /S {gsave show
grestore} bdef /X {currentpoint pop} bdef /Z {gsave currentpoint lineto 20
setlinewidth 1 setlinecap stroke grestore} bdef /L0 {[] 0 setdash} bdef /L1
{[40 100] 0 setdash} bdef /L2 {[200 200] 0 setdash} bdef /L3 {[200 100 50
100] 0 setdash} bdef /L4 {[300 100 50 100 50 100 50 100] 0 setdash} bdef /L5
{[400 200] 0 setdash} bdef /STDFONT { findfont exch scalefont setfont } bdef
/ISOFONT { findfont dup length dict begin { 1 index /FID ne {def} {pop pop}
ifelse } forall /Encoding ISOLatin1Encoding def currentdict end /idltmpfont
exch definefont exch scalefont setfont } bdef /ISOBULLET { gsave /Helvetica
findfont exch scalefont setfont (\267) show currentpoint grestore moveto}
bdef /MITERLIMIT { 2.5 setmiterlimit } bdef end
%%EndProlog
%%Page: 0 1
%%PageResources: (atend)
%%PageOrientation: Portrait
%%PageBoundingBox: 54 360 558 720
%%BeginPageSetup
save
$IDL_DICT begin 54 360 translate 0.0283465 dup scale MITERLIMIT
%%IncludeResource: font Helvetica
423.333 /Helvetica STDFONT
%%EndPageSetup
10 setlinewidth L0 0.000 K 2220 1408 M 14894 0 R D 2220 1408 M 0 212 R D
1806 1079 M 24 11 R 35 35 R 0 -245 R D 2075 1125 M -35 -11 R -24 -35 R
-11 -59 R 0 -35 R 11 -58 R 24 -35 R 35 -12 R 23 0 R 35 12 R 24 35 R 11 58 R
0 35 R -11 59 R -24 35 R -35 11 R -23 0 R D 2237 1123 M 130 0 R D
2439 1181 M 15 7 R 21 22 R 0 -152 R D 2598 1210 M -21 -8 R -8 -14 R 0 -15 R
8 -14 R 14 -7 R 29 -8 R 22 -7 R 14 -14 R 8 -15 R 0 -21 R -8 -15 R -7 -7 R
-22 -7 R -29 0 R -21 7 R -8 7 R -7 15 R 0 21 R 7 15 R 15 14 R 22 7 R 29 8 R
14 7 R 7 14 R 0 15 R -7 14 R -22 8 R -29 0 R D 7185 1408 M 0 212 R D
6771 1079 M 23 11 R 35 35 R 0 -245 R D 7040 1125 M -35 -11 R -24 -35 R
-12 -59 R 0 -35 R 12 -58 R 24 -35 R 35 -12 R 23 0 R 35 12 R 23 35 R 12 58 R
0 35 R -12 59 R -23 35 R -35 11 R -23 0 R D 7201 1123 M 131 0 R D
7404 1181 M 14 7 R 22 22 R 0 -152 R D 7628 1210 M -72 -152 R D 7527 1210 M
101 0 R D 12149 1408 M 0 212 R D 11735 1079 M 24 11 R 35 35 R 0 -245 R D
12004 1125 M -35 -11 R -23 -35 R -12 -59 R 0 -35 R 12 -58 R 23 -35 R
35 -12 R 24 0 R 35 12 R 23 35 R 12 58 R 0 35 R -12 59 R -23 35 R -35 11 R
-24 0 R D 12166 1123 M 130 0 R D 12369 1181 M 14 7 R 22 22 R 0 -152 R D
12586 1188 M -8 14 R -21 8 R -15 0 R -21 -8 R -15 -21 R -7 -37 R 0 -36 R
7 -29 R 15 -14 R 21 -7 R 7 0 R 22 7 R 15 14 R 7 22 R 0 7 R -7 22 R -15 14 R
-22 8 R -7 0 R -21 -8 R -15 -14 R -7 -22 R D 17114 1408 M 0 212 R D
16700 1079 M 24 11 R 35 35 R 0 -245 R D 16969 1125 M -35 -11 R -24 -35 R
-11 -59 R 0 -35 R 11 -58 R 24 -35 R 35 -12 R 23 0 R 35 12 R 24 35 R 11 58 R
0 35 R -11 59 R -24 35 R -35 11 R -23 0 R D 17131 1123 M 130 0 R D
17333 1181 M 15 7 R 21 22 R 0 -152 R D 17543 1210 M -72 0 R -8 -66 R 8 8 R
21 7 R 22 0 R 22 -7 R 14 -15 R 8 -21 R 0 -15 R -8 -22 R -14 -14 R -22 -7 R
-22 0 R -21 7 R -8 7 R -7 15 R D 3715 1408 M 0 106 R D 4589 1408 M 0 106 R D
5209 1408 M 0 106 R D 5690 1408 M 0 106 R D 6083 1408 M 0 106 R D
6416 1408 M 0 106 R D 6704 1408 M 0 106 R D 6958 1408 M 0 106 R D
8679 1408 M 0 106 R D 9554 1408 M 0 106 R D 10174 1408 M 0 106 R D
10655 1408 M 0 106 R D 11048 1408 M 0 106 R D 11380 1408 M 0 106 R D
11668 1408 M 0 106 R D 11922 1408 M 0 106 R D 13644 1408 M 0 106 R D
14518 1408 M 0 106 R D 15138 1408 M 0 106 R D 15620 1408 M 0 106 R D
16013 1408 M 0 106 R D 16345 1408 M 0 106 R D 16633 1408 M 0 106 R D
16887 1408 M 0 106 R D 7926 668 M 0 -246 R D 7844 668 M 164 0 R D 8066 586 M
0 -117 R 12 -35 R 23 -12 R 35 0 R 24 12 R 35 35 R D 8195 586 M 0 -164 R D
8288 586 M 0 -164 R D 8288 516 M 12 35 R 23 23 R 24 12 R 35 0 R D 8440 668 M
0 -246 R D 8440 551 M 24 23 R 23 12 R 35 0 R 23 -12 R 24 -23 R 11 -35 R
0 -23 R -11 -35 R -24 -24 R -23 -12 R -35 0 R -23 12 R -24 24 R D 8662 586 M
0 -117 R 12 -35 R 23 -12 R 35 0 R 24 12 R 35 35 R D 8791 586 M 0 -164 R D
8884 668 M 0 -246 R D 8966 516 M 140 0 R 0 23 R -11 24 R -12 11 R -23 12 R
-36 0 R -23 -12 R -23 -23 R -12 -35 R 0 -23 R 12 -35 R 23 -24 R 23 -12 R
36 0 R 23 12 R 23 24 R D 9188 586 M 0 -164 R D 9188 539 M 35 35 R 23 12 R
36 0 R 23 -12 R 12 -35 R 0 -117 R D 9539 551 M -24 23 R -23 12 R -35 0 R
-24 -12 R -23 -23 R -12 -35 R 0 -23 R 12 -35 R 23 -24 R 24 -12 R 35 0 R
23 12 R 24 24 R D 9609 516 M 140 0 R 0 23 R -12 24 R -11 11 R -24 12 R
-35 0 R -23 -12 R -24 -23 R -11 -35 R 0 -23 R 11 -35 R 24 -24 R 23 -12 R
35 0 R 24 12 R 23 24 R D 10018 668 M 0 -246 R D 10111 586 M 0 -164 R D
10111 539 M 35 35 R 24 12 R 35 0 R 23 -12 R 12 -35 R 0 -117 R D 10345 668 M
0 -199 R 11 -35 R 24 -12 R 23 0 R D 10310 586 M 82 0 R D 10462 516 M 140 0 R
0 23 R -12 24 R -12 11 R -23 12 R -35 0 R -23 -12 R -24 -23 R -11 -35 R
0 -23 R 11 -35 R 24 -24 R 23 -12 R 35 0 R 23 12 R 24 24 R D 10684 586 M
0 -164 R D 10684 539 M 35 35 R 23 12 R 35 0 R 23 -12 R 12 -35 R 0 -117 R D
11022 551 M -11 23 R -35 12 R -35 0 R -35 -12 R -12 -23 R 12 -23 R 23 -12 R
58 -12 R 24 -11 R 11 -24 R 0 -11 R -11 -24 R -35 -12 R -35 0 R -35 12 R
-12 24 R D 11093 668 M 11 -12 R 12 12 R -12 12 R -11 -12 R D 11104 586 M
0 -164 R D 11209 668 M 0 -199 R 12 -35 R 23 -12 R 24 0 R D 11174 586 M
82 0 R D 11315 586 M 70 -164 R 70 164 R D 11385 422 M -24 -58 R -23 -23 R
-23 -12 R -12 0 R D 2220 11996 M 14894 0 R D 2220 11996 M 0 -212 R D
7185 11996 M 0 -212 R D 12149 11996 M 0 -212 R D 17114 11996 M 0 -212 R D
3715 11996 M 0 -106 R D 4589 11996 M 0 -106 R D 5209 11996 M 0 -106 R D
5690 11996 M 0 -106 R D 6083 11996 M 0 -106 R D 6416 11996 M 0 -106 R D
6704 11996 M 0 -106 R D 6958 11996 M 0 -106 R D 8679 11996 M 0 -106 R D
9554 11996 M 0 -106 R D 10174 11996 M 0 -106 R D 10655 11996 M 0 -106 R D
11048 11996 M 0 -106 R D 11380 11996 M 0 -106 R D 11668 11996 M 0 -106 R D
11922 11996 M 0 -106 R D 13644 11996 M 0 -106 R D 14518 11996 M 0 -106 R D
15138 11996 M 0 -106 R D 15620 11996 M 0 -106 R D 16013 11996 M 0 -106 R D
16345 11996 M 0 -106 R D 16633 11996 M 0 -106 R D 16887 11996 M 0 -106 R D
2220 1408 M 0 10588 R D 2220 1408 M 298 0 R D 1969 1653 M -35 -11 R
-24 -35 R -11 -59 R 0 -35 R 11 -58 R 24 -35 R 35 -12 R 23 0 R 35 12 R
24 35 R 11 58 R 0 35 R -11 59 R -24 35 R -35 11 R -23 0 R D 2220 3526 M
298 0 R D 2039 3630 M -117 0 R -12 -105 R 12 12 R 35 11 R 35 0 R 35 -11 R
24 -24 R 11 -35 R 0 -23 R -11 -35 R -24 -23 R -35 -12 R -35 0 R -35 12 R
-12 11 R -11 24 R D 2220 5643 M 298 0 R D 1700 5701 M 24 12 R 35 35 R
0 -246 R D 1969 5748 M -35 -12 R -24 -35 R -11 -58 R 0 -35 R 11 -59 R
24 -35 R 35 -12 R 23 0 R 35 12 R 24 35 R 11 59 R 0 35 R -11 58 R -24 35 R
-35 12 R -23 0 R D 2220 7761 M 298 0 R D 1700 7819 M 24 11 R 35 35 R
0 -245 R D 2039 7865 M -117 0 R -12 -105 R 12 12 R 35 12 R 35 0 R 35 -12 R
24 -23 R 11 -35 R 0 -24 R -11 -35 R -24 -23 R -35 -12 R -35 0 R -35 12 R
-12 11 R -11 24 R D 2220 9878 M 298 0 R D 1677 9925 M 0 11 R 11 24 R 12 11 R
24 12 R 46 0 R 24 -12 R 11 -11 R 12 -24 R 0 -23 R -12 -23 R -23 -35 R
-117 -117 R 164 0 R D 1969 9983 M -35 -12 R -24 -35 R -11 -58 R 0 -35 R
11 -59 R 24 -35 R 35 -11 R 23 0 R 35 11 R 24 35 R 11 59 R 0 35 R -11 58 R
-24 35 R -35 12 R -23 0 R D 2220 11996 M 298 0 R D 1677 11937 M 0 11 R
11 24 R 12 11 R 24 12 R 46 0 R 24 -12 R 11 -11 R 12 -24 R 0 -23 R -12 -23 R
-23 -35 R -117 -117 R 164 0 R D 2039 11995 M -117 0 R -12 -105 R 12 12 R
35 11 R 35 0 R 35 -11 R 24 -24 R 11 -35 R 0 -23 R -11 -35 R -24 -24 R
-35 -11 R -35 0 R -35 11 R -12 12 R -11 23 R D 2220 1832 M 149 0 R D
2220 2255 M 149 0 R D 2220 2679 M 149 0 R D 2220 3102 M 149 0 R D
2220 3949 M 149 0 R D 2220 4373 M 149 0 R D 2220 4796 M 149 0 R D
2220 5220 M 149 0 R D 2220 6067 M 149 0 R D 2220 6490 M 149 0 R D
2220 6914 M 149 0 R D 2220 7337 M 149 0 R D 2220 8184 M 149 0 R D
2220 8608 M 149 0 R D 2220 9031 M 149 0 R D 2220 9455 M 149 0 R D
2220 10302 M 149 0 R D 2220 10726 M 149 0 R D 2220 11149 M 149 0 R D
2220 11573 M 149 0 R D 1063 5633 M 246 0 R D 1063 5797 M 246 0 R D
1180 5633 M 0 164 R D 1215 5878 M 0 141 R -23 0 R -23 -12 R -12 -12 R
-12 -23 R 0 -35 R 12 -24 R 23 -23 R 35 -12 R 24 0 R 35 12 R 23 23 R 12 24 R
0 35 R -12 23 R -23 24 R D 1063 6089 M 12 11 R -12 12 R -11 -12 R 11 -11 R D
1145 6100 M 164 0 R D 1145 6322 M 199 0 R 35 -11 R 12 -12 R 11 -23 R 0 -35 R
-11 -24 R D 1180 6322 M -23 -23 R -12 -23 R 0 -35 R 12 -24 R 23 -23 R
35 -12 R 24 0 R 35 12 R 23 23 R 12 24 R 0 35 R -12 23 R -23 23 R D
1063 6416 M 246 0 R D 1192 6416 M -35 35 R -12 23 R 0 35 R 12 24 R 35 11 R
117 0 R D 1063 6649 M 199 0 R 35 12 R 12 24 R 0 23 R D 1145 6614 M 0 82 R D
1017 7047 M 23 -24 R 35 -23 R 47 -23 R 58 -12 R 47 0 R 58 12 R 59 23 R
35 23 R 23 24 R D 1063 7129 M 246 0 R D 1145 7245 M 117 -116 R D 1215 7175 M
94 82 R D 1145 7327 M 164 0 R D 1192 7327 M -35 35 R -12 24 R 0 35 R 12 23 R
35 12 R 117 0 R D 1192 7456 M -35 35 R -12 23 R 0 35 R 12 24 R 35 11 R
117 0 R D 1017 7666 M 23 23 R 35 24 R 47 23 R 58 12 R 47 0 R 58 -12 R
59 -23 R 35 -24 R 23 -23 R D 17114 1408 M 0 10588 R D 17114 1408 M -298 0 R
D 17114 3526 M -298 0 R D 17114 5643 M -298 0 R D 17114 7761 M -298 0 R D
17114 9878 M -298 0 R D 17114 11996 M -298 0 R D 17114 1832 M -149 0 R D
17114 2255 M -149 0 R D 17114 2679 M -149 0 R D 17114 3102 M -149 0 R D
17114 3949 M -149 0 R D 17114 4373 M -149 0 R D 17114 4796 M -149 0 R D
17114 5220 M -149 0 R D 17114 6067 M -149 0 R D 17114 6490 M -149 0 R D
17114 6914 M -149 0 R D 17114 7337 M -149 0 R D 17114 8184 M -149 0 R D
17114 8608 M -149 0 R D 17114 9031 M -149 0 R D 17114 9455 M -149 0 R D
17114 10302 M -149 0 R D 17114 10726 M -149 0 R D 17114 11149 M -149 0 R D
17114 11573 M -149 0 R D 3094 10413 M 111 -111 R -111 -111 R -111 111 R
111 111 R D 6083 9989 M 111 -111 R -111 -111 R -111 111 R 111 111 R D
6958 9566 M 111 -111 R -111 -111 R -111 111 R 111 111 R D 6704 9142 M
111 -111 R -111 -111 R -111 111 R 111 111 R D 5690 8719 M 111 -111 R
-111 -111 R -111 111 R 111 111 R D 4589 8295 M 111 -111 R -111 -111 R
-111 111 R 111 111 R D 4589 7872 M 111 -111 R -111 -111 R -111 111 R
111 111 R D 4589 7448 M 111 -111 R -111 -111 R -111 111 R 111 111 R D
3920 7025 M 111 -111 R -111 -111 R -111 111 R 111 111 R D 3487 6601 M
111 -111 R -111 -111 R -111 111 R 111 111 R D 5262 6178 M 111 -111 R
-111 -111 R -111 111 R 111 111 R D 5209 5754 M 111 -111 R -111 -111 R
-111 111 R 111 111 R D 6256 5331 M 111 -111 R -111 -111 R -111 111 R
111 111 R D 6958 4907 M 111 -111 R -111 -111 R -111 111 R 111 111 R D
9693 4484 M 111 -111 R -111 -111 R -111 111 R 111 111 R D 10174 4060 M
111 -111 R -111 -111 R -111 111 R 111 111 R D 9326 3637 M 111 -111 R
-111 -111 R -111 111 R 111 111 R D 10860 3213 M 111 -111 R -111 -111 R
-111 111 R 111 111 R D 11922 2790 M 111 -111 R -111 -111 R -111 111 R
111 111 R D 12543 2366 M 111 -111 R -111 -111 R -111 111 R 111 111 R D
2426 10413 M 111 -111 R -111 -111 R -111 111 R 111 111 R D 3920 9989 M
111 -111 R -111 -111 R -111 111 R 111 111 R D 5209 9566 M 111 -111 R
-111 -111 R -111 111 R 111 111 R D 6083 9142 M 111 -111 R -111 -111 R
-111 111 R 111 111 R D 4859 8719 M 111 -111 R -111 -111 R -111 111 R
111 111 R D 5099 8295 M 111 -111 R -111 -111 R -111 111 R 111 111 R D
5690 7872 M 111 -111 R -111 -111 R -111 111 R 111 111 R D 5690 7448 M
111 -111 R -111 -111 R -111 111 R 111 111 R D 6083 7025 M 111 -111 R
-111 -111 R -111 111 R 111 111 R D 5856 6601 M 111 -111 R -111 -111 R
-111 111 R 111 111 R D 7074 6178 M 111 -111 R -111 -111 R -111 111 R
111 111 R D 6704 5754 M 111 -111 R -111 -111 R -111 111 R 111 111 R D
8059 5331 M 111 -111 R -111 -111 R -111 111 R 111 111 R D 7390 4907 M
111 -111 R -111 -111 R -111 111 R 111 111 R D 7185 4484 M 111 -111 R
-111 -111 R -111 111 R 111 111 R D 8329 4060 M 111 -111 R -111 -111 R
-111 111 R 111 111 R D 8679 3637 M 111 -111 R -111 -111 R -111 111 R
111 111 R D 10428 3213 M 111 -111 R -111 -111 R -111 111 R 111 111 R D
13533 2790 M 111 -111 R -111 -111 R -111 111 R 111 111 R D 11668 2366 M
111 -111 R -111 -111 R -111 111 R 111 111 R D 2613 9989 M 111 -111 R
-111 -111 R -111 111 R 111 111 R D 4589 9566 M 111 -111 R -111 -111 R
-111 111 R 111 111 R D 10655 9142 M 111 -111 R -111 -111 R -111 111 R
111 111 R D 8059 8719 M 111 -111 R -111 -111 R -111 111 R 111 111 R D
8679 8295 M 111 -111 R -111 -111 R -111 111 R 111 111 R D 8329 7872 M
111 -111 R -111 -111 R -111 111 R 111 111 R D 6704 7448 M 111 -111 R
-111 -111 R -111 111 R 111 111 R D 6083 7025 M 111 -111 R -111 -111 R
-111 111 R 111 111 R D 5262 6601 M 111 -111 R -111 -111 R -111 111 R
111 111 R D 6083 6178 M 111 -111 R -111 -111 R -111 111 R 111 111 R D
6446 5754 M 111 -111 R -111 -111 R -111 111 R 111 111 R D 7750 5331 M
111 -111 R -111 -111 R -111 111 R 111 111 R D 7750 4907 M 111 -111 R
-111 -111 R -111 111 R 111 111 R D 8452 4484 M 111 -111 R -111 -111 R
-111 111 R 111 111 R D 10063 4060 M 111 -111 R -111 -111 R -111 111 R
111 111 R D 13849 3637 M 111 -111 R -111 -111 R -111 111 R 111 111 R D
13417 3213 M 111 -111 R -111 -111 R -111 111 R 111 111 R D 13417 2790 M
111 -111 R -111 -111 R -111 111 R 111 111 R D 13749 2366 M 111 -111 R
-111 -111 R -111 111 R 111 111 R D 2426 10413 M 111 -111 R -111 -111 R
-111 111 R 111 111 R D 3715 9989 M 111 -111 R -111 -111 R -111 111 R
111 111 R D 4516 9566 M 111 -111 R -111 -111 R -111 111 R 111 111 R D
4921 9142 M 111 -111 R -111 -111 R -111 111 R 111 111 R D 5690 8719 M
111 -111 R -111 -111 R -111 111 R 111 111 R D 5896 8295 M 111 -111 R
-111 -111 R -111 111 R 111 111 R D 5690 7872 M 111 -111 R -111 -111 R
-111 111 R 111 111 R D 4589 7448 M 111 -111 R -111 -111 R -111 111 R
111 111 R D 3920 7025 M 111 -111 R -111 -111 R -111 111 R 111 111 R D
4589 6601 M 111 -111 R -111 -111 R -111 111 R 111 111 R D 5690 6178 M
111 -111 R -111 -111 R -111 111 R 111 111 R D 6783 5754 M 111 -111 R
-111 -111 R -111 111 R 111 111 R D 6083 5331 M 111 -111 R -111 -111 R
-111 111 R 111 111 R D 6119 4907 M 111 -111 R -111 -111 R -111 111 R
111 111 R D 7390 4484 M 111 -111 R -111 -111 R -111 111 R 111 111 R D
9245 4060 M 111 -111 R -111 -111 R -111 111 R 111 111 R D 9823 3637 M
111 -111 R -111 -111 R -111 111 R 111 111 R D 11529 3213 M 111 -111 R
-111 -111 R -111 111 R 111 111 R D 11380 2790 M 111 -111 R -111 -111 R
-111 111 R 111 111 R D 12875 2366 M 111 -111 R -111 -111 R -111 111 R
111 111 R D
%%PageTrailer
end
restore
showpage
%%PageResources: font Helvetica
%%Trailer
restore
%%Pages: 1
%%DocumentNeededResources: font Helvetica
%%EOF
