%!PS-Adobe-3.0
%%BoundingBox: 54 360 558 720
%%Title: Graphics produced by IDL
%%For: peters11@pal-nat185-041-180.itap.purdue.edu, 
%%      /Users/peters11/imsims/trunk/ancillary/atmosphere_parameters
%%Creator: IDL Version 6.3, Mac OS X (darwin i386 m32)
%%CreationDate: Fri Nov 11 15:30:04 2011
%%DocumentData: Clean7bit
%%LanguageLevel: 1
%%PageOrder: Ascend
%%Pages: (atend)
%%DocumentNeededResources: (atend)
%%EndComments
%%BeginProlog
save
%+ prolog.ps -- Prolog for IDL generated PostScript files
%+ Copyright (c) 1988-2006 Research Systems, Inc. All Rights Reserved.
%v 5
/$IDL_DICT 40 dict def $IDL_DICT begin /bdef { bind def } bind def /C
{currentpoint newpath moveto} bdef /CP {currentpoint} bdef /D {currentpoint
stroke moveto} bdef /F {closepath fill} bdef /K { setgray } bdef /M {moveto}
bdef /N {rmoveto} bdef /P {lineto} bdef /R {rlineto} bdef /S {gsave show
grestore} bdef /X {currentpoint pop} bdef /Z {gsave currentpoint lineto 20
setlinewidth 1 setlinecap stroke grestore} bdef /L0 {[] 0 setdash} bdef /L1
{[40 100] 0 setdash} bdef /L2 {[200 200] 0 setdash} bdef /L3 {[200 100 50
100] 0 setdash} bdef /L4 {[300 100 50 100 50 100 50 100] 0 setdash} bdef /L5
{[400 200] 0 setdash} bdef /STDFONT { findfont exch scalefont setfont } bdef
/ISOFONT { findfont dup length dict begin { 1 index /FID ne {def} {pop pop}
ifelse } forall /Encoding ISOLatin1Encoding def currentdict end /idltmpfont
exch definefont exch scalefont setfont } bdef /ISOBULLET { gsave /Helvetica
findfont exch scalefont setfont (\267) show currentpoint grestore moveto}
bdef /MITERLIMIT { 2.5 setmiterlimit } bdef end
%%EndProlog
%%Page: 0 1
%%PageResources: (atend)
%%PageOrientation: Portrait
%%PageBoundingBox: 54 360 558 720
%%BeginPageSetup
save
$IDL_DICT begin 54 360 translate 0.0283465 dup scale MITERLIMIT
%%IncludeResource: font Helvetica
423.333 /Helvetica STDFONT
%%EndPageSetup
10 setlinewidth L0 0.000 K 2220 1408 M 14894 0 R D 2220 1408 M 0 212 R D
2197 1125 M -35 -11 R -24 -35 R -11 -59 R 0 -35 R 11 -58 R 24 -35 R 35 -12 R
23 0 R 35 12 R 24 35 R 11 58 R 0 35 R -11 59 R -24 35 R -35 11 R -23 0 R D
5944 1408 M 0 212 R D 5990 1125 M -117 0 R -11 -105 R 11 12 R 36 12 R 35 0 R
35 -12 R 23 -23 R 12 -35 R 0 -24 R -12 -35 R -23 -23 R -35 -12 R -35 0 R
-36 12 R -11 11 R -12 24 R D 9667 1408 M 0 212 R D 9492 1079 M 23 11 R
35 35 R 0 -245 R D 9761 1125 M -35 -11 R -24 -35 R -12 -59 R 0 -35 R
12 -58 R 24 -35 R 35 -12 R 23 0 R 35 12 R 23 35 R 12 58 R 0 35 R -12 59 R
-23 35 R -35 11 R -23 0 R D 13391 1408 M 0 212 R D 13215 1079 M 24 11 R
35 35 R 0 -245 R D 13554 1125 M -117 0 R -11 -105 R 11 12 R 35 12 R 35 0 R
35 -12 R 24 -23 R 12 -35 R 0 -24 R -12 -35 R -24 -23 R -35 -12 R -35 0 R
-35 12 R -11 11 R -12 24 R D 17114 1408 M 0 212 R D 16915 1067 M 0 12 R
12 23 R 12 12 R 23 11 R 47 0 R 23 -11 R 12 -12 R 12 -23 R 0 -24 R -12 -23 R
-23 -35 R -117 -117 R 163 0 R D 17208 1125 M -35 -11 R -24 -35 R -12 -59 R
0 -35 R 12 -58 R 24 -35 R 35 -12 R 23 0 R 35 12 R 23 35 R 12 58 R 0 35 R
-12 59 R -23 35 R -35 11 R -23 0 R D 2965 1408 M 0 106 R D 3709 1408 M
0 106 R D 4454 1408 M 0 106 R D 5199 1408 M 0 106 R D 6688 1408 M 0 106 R D
7433 1408 M 0 106 R D 8178 1408 M 0 106 R D 8922 1408 M 0 106 R D
10412 1408 M 0 106 R D 11156 1408 M 0 106 R D 11901 1408 M 0 106 R D
12646 1408 M 0 106 R D 14135 1408 M 0 106 R D 14880 1408 M 0 106 R D
15625 1408 M 0 106 R D 16369 1408 M 0 106 R D 7967 668 M 58 -246 R 59 246 R
58 -246 R 59 246 R D 8259 668 M 12 -12 R 12 12 R -12 12 R -12 -12 R D
8271 586 M 0 -164 R D 8364 586 M 0 -164 R D 8364 539 M 35 35 R 24 12 R
35 0 R 23 -12 R 12 -35 R 0 -117 R D 8715 668 M 0 -246 R D 8715 551 M
-24 23 R -23 12 R -35 0 R -23 -12 R -24 -23 R -11 -35 R 0 -23 R 11 -35 R
24 -24 R 23 -12 R 35 0 R 23 12 R 24 24 R D 9147 633 M -23 23 R -35 12 R
-47 0 R -35 -12 R -23 -23 R 0 -24 R 11 -23 R 12 -12 R 23 -11 R 70 -24 R
24 -11 R 11 -12 R 12 -23 R 0 -35 R -23 -24 R -35 -12 R -47 0 R -35 12 R
-23 24 R D 9229 586 M 0 -257 R D 9229 551 M 23 23 R 24 12 R 35 0 R 23 -12 R
23 -23 R 12 -35 R 0 -23 R -12 -35 R -23 -24 R -23 -12 R -35 0 R -24 12 R
-23 24 R D 9439 516 M 140 0 R 0 23 R -11 24 R -12 11 R -23 12 R -35 0 R
-24 -12 R -23 -23 R -12 -35 R 0 -23 R 12 -35 R 23 -24 R 24 -12 R 35 0 R
23 12 R 23 24 R D 9650 516 M 140 0 R 0 23 R -12 24 R -12 11 R -23 12 R
-35 0 R -23 -12 R -24 -23 R -11 -35 R 0 -23 R 11 -35 R 24 -24 R 23 -12 R
35 0 R 23 12 R 24 24 R D 10000 668 M 0 -246 R D 10000 551 M -23 23 R
-24 12 R -35 0 R -23 -12 R -23 -23 R -12 -35 R 0 -23 R 12 -35 R 23 -24 R
23 -12 R 35 0 R 24 12 R 23 24 R D 10362 715 M -23 -24 R -23 -35 R -24 -47 R
-11 -58 R 0 -47 R 11 -58 R 24 -59 R 23 -35 R 23 -23 R D 10444 586 M 0 -164 R
D 10444 539 M 35 35 R 24 12 R 35 0 R 23 -12 R 12 -35 R 0 -117 R D
10573 539 M 35 35 R 23 12 R 35 0 R 23 -12 R 12 -35 R 0 -117 R D 10982 715 M
-211 -386 R D 11169 551 M -12 23 R -35 12 R -35 0 R -35 -12 R -12 -23 R
12 -23 R 23 -12 R 58 -12 R 24 -11 R 12 -24 R 0 -11 R -12 -24 R -35 -12 R
-35 0 R -35 12 R -12 24 R D 11239 715 M 23 -24 R 23 -35 R 24 -47 R 11 -58 R
0 -47 R -11 -58 R -24 -59 R -23 -35 R -23 -23 R D 2220 11996 M 14894 0 R D
2220 11996 M 0 -212 R D 5944 11996 M 0 -212 R D 9667 11996 M 0 -212 R D
13391 11996 M 0 -212 R D 17114 11996 M 0 -212 R D 2965 11996 M 0 -106 R D
3709 11996 M 0 -106 R D 4454 11996 M 0 -106 R D 5199 11996 M 0 -106 R D
6688 11996 M 0 -106 R D 7433 11996 M 0 -106 R D 8178 11996 M 0 -106 R D
8922 11996 M 0 -106 R D 10412 11996 M 0 -106 R D 11156 11996 M 0 -106 R D
11901 11996 M 0 -106 R D 12646 11996 M 0 -106 R D 14135 11996 M 0 -106 R D
14880 11996 M 0 -106 R D 15625 11996 M 0 -106 R D 16369 11996 M 0 -106 R D
2220 1408 M 0 10588 R D 2220 1408 M 298 0 R D 1969 1653 M -35 -11 R
-24 -35 R -11 -59 R 0 -35 R 11 -58 R 24 -35 R 35 -12 R 23 0 R 35 12 R
24 35 R 11 58 R 0 35 R -11 59 R -24 35 R -35 11 R -23 0 R D 2220 3173 M
298 0 R D 2039 3277 M -117 0 R -12 -105 R 12 12 R 35 12 R 35 0 R 35 -12 R
24 -24 R 11 -35 R 0 -23 R -11 -35 R -24 -23 R -35 -12 R -35 0 R -35 12 R
-12 11 R -11 24 R D 2220 4937 M 298 0 R D 1700 4995 M 24 12 R 35 35 R
0 -245 R D 1969 5042 M -35 -12 R -24 -35 R -11 -58 R 0 -35 R 11 -59 R
24 -35 R 35 -11 R 23 0 R 35 11 R 24 35 R 11 59 R 0 35 R -11 58 R -24 35 R
-35 12 R -23 0 R D 2220 6702 M 298 0 R D 1700 6760 M 24 12 R 35 35 R
0 -246 R D 2039 6807 M -117 0 R -12 -106 R 12 12 R 35 12 R 35 0 R 35 -12 R
24 -23 R 11 -35 R 0 -24 R -11 -35 R -24 -23 R -35 -12 R -35 0 R -35 12 R
-12 12 R -11 23 R D 2220 8467 M 298 0 R D 1677 8513 M 0 12 R 11 23 R 12 12 R
24 11 R 46 0 R 24 -11 R 11 -12 R 12 -23 R 0 -24 R -12 -23 R -23 -35 R
-117 -117 R 164 0 R D 1969 8571 M -35 -11 R -24 -35 R -11 -59 R 0 -35 R
11 -58 R 24 -35 R 35 -12 R 23 0 R 35 12 R 24 35 R 11 58 R 0 35 R -11 59 R
-24 35 R -35 11 R -23 0 R D 2220 10231 M 298 0 R D 1677 10278 M 0 11 R
11 24 R 12 11 R 24 12 R 46 0 R 24 -12 R 11 -11 R 12 -24 R 0 -23 R -12 -24 R
-23 -35 R -117 -116 R 164 0 R D 2039 10336 M -117 0 R -12 -105 R 12 11 R
35 12 R 35 0 R 35 -12 R 24 -23 R 11 -35 R 0 -23 R -11 -35 R -24 -24 R
-35 -11 R -35 0 R -35 11 R -12 12 R -11 23 R D 2220 11996 M 298 0 R D
1688 11995 M 129 0 R -70 -93 R 35 0 R 23 -12 R 12 -12 R 12 -35 R 0 -23 R
-12 -35 R -23 -24 R -35 -11 R -35 0 R -36 11 R -11 12 R -12 23 R D
1969 11995 M -35 -12 R -24 -35 R -11 -58 R 0 -35 R 11 -59 R 24 -35 R
35 -11 R 23 0 R 35 11 R 24 35 R 11 59 R 0 35 R -11 58 R -24 35 R -35 12 R
-23 0 R D 2220 1761 M 149 0 R D 2220 2114 M 149 0 R D 2220 2467 M 149 0 R D
2220 2820 M 149 0 R D 2220 3526 M 149 0 R D 2220 3879 M 149 0 R D
2220 4232 M 149 0 R D 2220 4584 M 149 0 R D 2220 5290 M 149 0 R D
2220 5643 M 149 0 R D 2220 5996 M 149 0 R D 2220 6349 M 149 0 R D
2220 7055 M 149 0 R D 2220 7408 M 149 0 R D 2220 7761 M 149 0 R D
2220 8114 M 149 0 R D 2220 8820 M 149 0 R D 2220 9173 M 149 0 R D
2220 9526 M 149 0 R D 2220 9878 M 149 0 R D 2220 10584 M 149 0 R D
2220 10937 M 149 0 R D 2220 11290 M 149 0 R D 2220 11643 M 149 0 R D
1063 5633 M 246 0 R D 1063 5797 M 246 0 R D 1180 5633 M 0 164 R D
1215 5878 M 0 141 R -23 0 R -23 -12 R -12 -12 R -12 -23 R 0 -35 R 12 -24 R
23 -23 R 35 -12 R 24 0 R 35 12 R 23 23 R 12 24 R 0 35 R -12 23 R -23 24 R D
1063 6089 M 12 11 R -12 12 R -11 -12 R 11 -11 R D 1145 6100 M 164 0 R D
1145 6322 M 199 0 R 35 -11 R 12 -12 R 11 -23 R 0 -35 R -11 -24 R D
1180 6322 M -23 -23 R -12 -23 R 0 -35 R 12 -24 R 23 -23 R 35 -12 R 24 0 R
35 12 R 23 23 R 12 24 R 0 35 R -12 23 R -23 23 R D 1063 6416 M 246 0 R D
1192 6416 M -35 35 R -12 23 R 0 35 R 12 24 R 35 11 R 117 0 R D 1063 6649 M
199 0 R 35 12 R 12 24 R 0 23 R D 1145 6614 M 0 82 R D 1017 7047 M 23 -24 R
35 -23 R 47 -23 R 58 -12 R 47 0 R 58 12 R 59 23 R 35 23 R 23 24 R D
1063 7129 M 246 0 R D 1145 7245 M 117 -116 R D 1215 7175 M 94 82 R D
1145 7327 M 164 0 R D 1192 7327 M -35 35 R -12 24 R 0 35 R 12 23 R 35 12 R
117 0 R D 1192 7456 M -35 35 R -12 23 R 0 35 R 12 24 R 35 11 R 117 0 R D
1017 7666 M 23 23 R 35 24 R 47 23 R 58 12 R 47 0 R 58 -12 R 59 -23 R
35 -24 R 23 -23 R D 17114 1408 M 0 10588 R D 17114 1408 M -298 0 R D
17114 3173 M -298 0 R D 17114 4937 M -298 0 R D 17114 6702 M -298 0 R D
17114 8467 M -298 0 R D 17114 10231 M -298 0 R D 17114 11996 M -298 0 R D
17114 1761 M -149 0 R D 17114 2114 M -149 0 R D 17114 2467 M -149 0 R D
17114 2820 M -149 0 R D 17114 3526 M -149 0 R D 17114 3879 M -149 0 R D
17114 4232 M -149 0 R D 17114 4584 M -149 0 R D 17114 5290 M -149 0 R D
17114 5643 M -149 0 R D 17114 5996 M -149 0 R D 17114 6349 M -149 0 R D
17114 7055 M -149 0 R D 17114 7408 M -149 0 R D 17114 7761 M -149 0 R D
17114 8114 M -149 0 R D 17114 8820 M -149 0 R D 17114 9173 M -149 0 R D
17114 9526 M -149 0 R D 17114 9878 M -149 0 R D 17114 10584 M -149 0 R D
17114 10937 M -149 0 R D 17114 11290 M -149 0 R D 17114 11643 M -149 0 R D
16161 10667 M 111 -111 R -111 -111 R -111 111 R 111 111 R D 8513 9751 M
111 -111 R -111 -111 R -111 111 R 111 111 R D 8699 9156 M 111 -111 R
-111 -111 R -111 111 R 111 111 R D 4328 8339 M 111 -111 R -111 -111 R
-111 111 R 111 111 R D 4410 7755 M 111 -111 R -111 -111 R -111 111 R
111 111 R D 9905 7094 M 111 -111 R -111 -111 R -111 111 R 111 111 R D
15617 6287 M 111 -111 R -111 -111 R -111 111 R 111 111 R D 16228 5675 M
111 -111 R -111 -111 R -111 111 R 111 111 R D 14806 5176 M 111 -111 R
-111 -111 R -111 111 R 111 111 R D 13041 4753 M 111 -111 R -111 -111 R
-111 111 R 111 111 R D 9585 4055 M 111 -111 R -111 -111 R -111 111 R
111 111 R D 7053 3486 M 111 -111 R -111 -111 R -111 111 R 111 111 R D
5288 3004 M 111 -111 R -111 -111 R -111 111 R 111 111 R D 3955 2582 M
111 -111 R -111 -111 R -111 111 R 111 111 R D 3009 2033 M 111 -111 R
-111 -111 R -111 111 R 111 111 R D 3151 1788 M 111 -111 R -111 -111 R
-111 111 R 111 111 R D 3166 1558 M 111 -111 R -39 -39 R D 3094 1408 M
-39 39 R 111 111 R D 16012 10667 M 111 -111 R -111 -111 R -111 111 R
111 111 R D 9384 9751 M 111 -111 R -111 -111 R -111 111 R 111 111 R D
9302 9156 M 111 -111 R -111 -111 R -111 111 R 111 111 R D 4931 8339 M
111 -111 R -111 -111 R -111 111 R 111 111 R D 4171 7755 M 111 -111 R
-111 -111 R -111 111 R 111 111 R D 9258 7094 M 111 -111 R -111 -111 R
-111 111 R 111 111 R D 15036 6287 M 111 -111 R -111 -111 R -111 111 R
111 111 R D 15878 5675 M 111 -111 R -111 -111 R -111 111 R 111 111 R D
14604 5176 M 111 -111 R -111 -111 R -111 111 R 111 111 R D 12869 4753 M
111 -111 R -111 -111 R -111 111 R 111 111 R D 9444 4055 M 111 -111 R
-111 -111 R -111 111 R 111 111 R D 6919 3486 M 111 -111 R -111 -111 R
-111 111 R 111 111 R D 5229 3004 M 111 -111 R -111 -111 R -111 111 R
111 111 R D 3963 2582 M 111 -111 R -111 -111 R -111 111 R 111 111 R D
3121 2033 M 111 -111 R -111 -111 R -111 111 R 111 111 R D 3002 1788 M
111 -111 R -111 -111 R -111 111 R 111 111 R D 3032 1558 M 111 -111 R
-39 -39 R D 2960 1408 M -39 39 R 111 111 R D 9138 10667 M 111 -111 R
-111 -111 R -111 111 R 111 111 R D 7210 9751 M 111 -111 R -111 -111 R
-111 111 R 111 111 R D 6472 9156 M 111 -111 R -111 -111 R -111 111 R
111 111 R D 3546 8339 M 111 -111 R -111 -111 R -111 111 R 111 111 R D
4968 7755 M 111 -111 R -111 -111 R -111 111 R 111 111 R D 10523 7094 M
111 -111 R -111 -111 R -111 111 R 111 111 R D 16049 6287 M 111 -111 R
-111 -111 R -111 111 R 111 111 R D 16593 5675 M 111 -111 R -111 -111 R
-111 111 R 111 111 R D 15156 5176 M 111 -111 R -111 -111 R -111 111 R
111 111 R D 13420 4753 M 111 -111 R -111 -111 R -111 111 R 111 111 R D
10121 4055 M 111 -111 R -111 -111 R -111 111 R 111 111 R D 7649 3486 M
111 -111 R -111 -111 R -111 111 R 111 111 R D 5936 3004 M 111 -111 R
-111 -111 R -111 111 R 111 111 R D 4454 2582 M 111 -111 R -111 -111 R
-111 111 R 111 111 R D 3240 2033 M 111 -111 R -111 -111 R -111 111 R
111 111 R D 2905 1788 M 111 -111 R -111 -111 R -111 111 R 111 111 R D
2905 1558 M 111 -111 R -39 -39 R D 2833 1408 M -39 39 R 111 111 R D
6033 10667 M 111 -111 R -111 -111 R -111 111 R 111 111 R D 3970 9751 M
111 -111 R -111 -111 R -111 111 R 111 111 R D 3702 9156 M 111 -111 R
-111 -111 R -111 111 R 111 111 R D 4328 8339 M 111 -111 R -111 -111 R
-111 111 R 111 111 R D 7396 7755 M 111 -111 R -111 -111 R -111 111 R
111 111 R D 12959 7094 M 111 -111 R -111 -111 R -111 111 R 111 111 R D
16042 5176 M 111 -111 R -111 -111 R -111 111 R 111 111 R D 14187 4753 M
111 -111 R -111 -111 R -111 111 R 111 111 R D 10978 4055 M 111 -111 R
-111 -111 R -111 111 R 111 111 R D 8535 3486 M 111 -111 R -111 -111 R
-111 111 R 111 111 R D 6733 3004 M 111 -111 R -111 -111 R -111 111 R
111 111 R D 5110 2582 M 111 -111 R -111 -111 R -111 111 R 111 111 R D
3486 2033 M 111 -111 R -111 -111 R -111 111 R 111 111 R D 3158 1788 M
111 -111 R -111 -111 R -111 111 R 111 111 R D 3106 1558 M 111 -111 R
-39 -39 R D 3034 1408 M -39 39 R 111 111 R D 14217 10667 M 111 -111 R
-111 -111 R -111 111 R 111 111 R D 8654 9751 M 111 -111 R -111 -111 R
-111 111 R 111 111 R D 6912 9156 M 111 -111 R -111 -111 R -111 111 R
111 111 R D 7344 8339 M 111 -111 R -111 -111 R -111 111 R 111 111 R D
9742 7755 M 111 -111 R -111 -111 R -111 111 R 111 111 R D 14850 7094 M
111 -111 R -111 -111 R -111 111 R 111 111 R D 16116 4753 M 111 -111 R
-111 -111 R -111 111 R 111 111 R D 12616 4055 M 111 -111 R -111 -111 R
-111 111 R 111 111 R D 9898 3486 M 111 -111 R -111 -111 R -111 111 R
111 111 R D 7798 3004 M 111 -111 R -111 -111 R -111 111 R 111 111 R D
6048 2582 M 111 -111 R -111 -111 R -111 111 R 111 111 R D 3829 2033 M
111 -111 R -111 -111 R -111 111 R 111 111 R D 3575 1788 M 111 -111 R
-111 -111 R -111 111 R 111 111 R D 3464 1558 M 111 -111 R -39 -39 R D
3392 1408 M -39 39 R 111 111 R D 11789 9751 M 111 -111 R -111 -111 R
-111 111 R 111 111 R D 9146 9156 M 111 -111 R -111 -111 R -111 111 R
111 111 R D 9652 8339 M 111 -111 R -111 -111 R -111 111 R 111 111 R D
11343 7755 M 111 -111 R -111 -111 R -111 111 R 111 111 R D 15937 7094 M
111 -111 R -111 -111 R -111 111 R 111 111 R D 14128 4055 M 111 -111 R
-111 -111 R -111 111 R 111 111 R D 11134 3486 M 111 -111 R -111 -111 R
-111 111 R 111 111 R D 8840 3004 M 111 -111 R -111 -111 R -111 111 R
111 111 R D 6882 2582 M 111 -111 R -111 -111 R -111 111 R 111 111 R D
4283 2033 M 111 -111 R -111 -111 R -111 111 R 111 111 R D 4045 1788 M
111 -111 R -111 -111 R -111 111 R 111 111 R D 3851 1558 M 111 -111 R
-39 -39 R D 3779 1408 M -39 39 R 111 111 R D 10576 9751 M 111 -111 R
-111 -111 R -111 111 R 111 111 R D 8409 9156 M 111 -111 R -111 -111 R
-111 111 R 111 111 R D 9116 8339 M 111 -111 R -111 -111 R -111 111 R
111 111 R D 10918 7755 M 111 -111 R -111 -111 R -111 111 R 111 111 R D
15349 7094 M 111 -111 R -111 -111 R -111 111 R 111 111 R D 13971 4055 M
111 -111 R -111 -111 R -111 111 R 111 111 R D 11045 3486 M 111 -111 R
-111 -111 R -111 111 R 111 111 R D 8803 3004 M 111 -111 R -111 -111 R
-111 111 R 111 111 R D 6860 2582 M 111 -111 R -111 -111 R -111 111 R
111 111 R D 4283 2033 M 111 -111 R -111 -111 R -111 111 R 111 111 R D
4052 1788 M 111 -111 R -111 -111 R -111 111 R 111 111 R D 3844 1558 M
111 -111 R -39 -39 R D 3772 1408 M -39 39 R 111 111 R D 13249 10667 M
111 -111 R -111 -111 R -111 111 R 111 111 R D 8528 9751 M 111 -111 R
-111 -111 R -111 111 R 111 111 R D 7403 9156 M 111 -111 R -111 -111 R
-111 111 R 111 111 R D 8342 8339 M 111 -111 R -111 -111 R -111 111 R
111 111 R D 10591 7755 M 111 -111 R -111 -111 R -111 111 R 111 111 R D
15215 7094 M 111 -111 R -111 -111 R -111 111 R 111 111 R D 14329 4055 M
111 -111 R -111 -111 R -111 111 R 111 111 R D 11201 3486 M 111 -111 R
-111 -111 R -111 111 R 111 111 R D 8773 3004 M 111 -111 R -111 -111 R
-111 111 R 111 111 R D 6599 2582 M 111 -111 R -111 -111 R -111 111 R
111 111 R D 4030 2033 M 111 -111 R -111 -111 R -111 111 R 111 111 R D
3836 1788 M 111 -111 R -111 -111 R -111 111 R 111 111 R D 3665 1558 M
111 -111 R -39 -39 R D 3593 1408 M -39 39 R 111 111 R D 10933 10667 M
111 -111 R -111 -111 R -111 111 R 111 111 R D 7336 9751 M 111 -111 R
-111 -111 R -111 111 R 111 111 R D 6450 9156 M 111 -111 R -111 -111 R
-111 111 R 111 111 R D 7038 8339 M 111 -111 R -111 -111 R -111 111 R
111 111 R D 9526 7755 M 111 -111 R -111 -111 R -111 111 R 111 111 R D
14575 7094 M 111 -111 R -111 -111 R -111 111 R 111 111 R D 14277 4055 M
111 -111 R -111 -111 R -111 111 R 111 111 R D 11112 3486 M 111 -111 R
-111 -111 R -111 111 R 111 111 R D 8572 3004 M 111 -111 R -111 -111 R
-111 111 R 111 111 R D 6249 2582 M 111 -111 R -111 -111 R -111 111 R
111 111 R D 3784 2033 M 111 -111 R -111 -111 R -111 111 R 111 111 R D
3605 1788 M 111 -111 R -111 -111 R -111 111 R 111 111 R D 3464 1558 M
111 -111 R -39 -39 R D 3392 1408 M -39 39 R 111 111 R D 6927 10667 M
111 -111 R -111 -111 R -111 111 R 111 111 R D 5035 9751 M 111 -111 R
-111 -111 R -111 111 R 111 111 R D 4551 9156 M 111 -111 R -111 -111 R
-111 111 R 111 111 R D 5020 8339 M 111 -111 R -111 -111 R -111 111 R
111 111 R D 8044 7755 M 111 -111 R -111 -111 R -111 111 R 111 111 R D
14053 7094 M 111 -111 R -111 -111 R -111 111 R 111 111 R D 14210 4055 M
111 -111 R -111 -111 R -111 111 R 111 111 R D 10851 3486 M 111 -111 R
-111 -111 R -111 111 R 111 111 R D 8148 3004 M 111 -111 R -111 -111 R
-111 111 R 111 111 R D 5757 2582 M 111 -111 R -111 -111 R -111 111 R
111 111 R D 3479 2033 M 111 -111 R -111 -111 R -111 111 R 111 111 R D
3345 1788 M 111 -111 R -111 -111 R -111 111 R 111 111 R D 3322 1558 M
111 -111 R -39 -39 R D 3250 1408 M -39 39 R 111 111 R D 6234 10667 M
111 -111 R -111 -111 R -111 111 R 111 111 R D 4633 9751 M 111 -111 R
-111 -111 R -111 111 R 111 111 R D 4290 9156 M 111 -111 R -111 -111 R
-111 111 R 111 111 R D 3881 8339 M 111 -111 R -111 -111 R -111 111 R
111 111 R D 6703 7755 M 111 -111 R -111 -111 R -111 111 R 111 111 R D
13018 7094 M 111 -111 R -111 -111 R -111 111 R 111 111 R D 15908 4753 M
111 -111 R -111 -111 R -111 111 R 111 111 R D 12199 4055 M 111 -111 R
-111 -111 R -111 111 R 111 111 R D 9280 3486 M 111 -111 R -111 -111 R
-111 111 R 111 111 R D 6904 3004 M 111 -111 R -111 -111 R -111 111 R
111 111 R D 4879 2582 M 111 -111 R -111 -111 R -111 111 R 111 111 R D
3151 2033 M 111 -111 R -111 -111 R -111 111 R 111 111 R D 3211 1788 M
111 -111 R -111 -111 R -111 111 R 111 111 R D 3233 1558 M 111 -111 R
-39 -39 R D 3161 1408 M -39 39 R 111 111 R D 10576 10667 M 111 -111 R
-111 -111 R -111 111 R 111 111 R D 6182 9751 M 111 -111 R -111 -111 R
-111 111 R 111 111 R D 5564 9156 M 111 -111 R -111 -111 R -111 111 R
111 111 R D 3471 8339 M 111 -111 R -111 -111 R -111 111 R 111 111 R D
5713 7755 M 111 -111 R -111 -111 R -111 111 R 111 111 R D 11804 7094 M
111 -111 R -111 -111 R -111 111 R 111 111 R D 15781 5176 M 111 -111 R
-111 -111 R -111 111 R 111 111 R D 13830 4753 M 111 -111 R -111 -111 R
-111 111 R 111 111 R D 10434 4055 M 111 -111 R -111 -111 R -111 111 R
111 111 R D 7872 3486 M 111 -111 R -111 -111 R -111 111 R 111 111 R D
5936 3004 M 111 -111 R -111 -111 R -111 111 R 111 111 R D 4350 2582 M
111 -111 R -111 -111 R -111 111 R 111 111 R D 3114 2033 M 111 -111 R
-111 -111 R -111 111 R 111 111 R D 3196 1788 M 111 -111 R -111 -111 R
-111 111 R 111 111 R D 3218 1558 M 111 -111 R -39 -39 R D 3146 1408 M
-39 39 R 111 111 R D
%%PageTrailer
end
restore
showpage
%%PageResources: font Helvetica
%%Trailer
restore
%%Pages: 1
%%DocumentNeededResources: font Helvetica
%%EOF
