%!PS-Adobe-3.0
%%BoundingBox: 54 360 558 720
%%Title: Graphics produced by IDL
%%For: peters11@pal-nat185-041-180.itap.purdue.edu, 
%%      /Users/peters11/imsims/trunk/ancillary/atmosphere_parameters
%%Creator: IDL Version 6.3, Mac OS X (darwin i386 m32)
%%CreationDate: Fri Nov 11 15:30:04 2011
%%DocumentData: Clean7bit
%%LanguageLevel: 1
%%PageOrder: Ascend
%%Pages: (atend)
%%DocumentNeededResources: (atend)
%%EndComments
%%BeginProlog
save
%+ prolog.ps -- Prolog for IDL generated PostScript files
%+ Copyright (c) 1988-2006 Research Systems, Inc. All Rights Reserved.
%v 5
/$IDL_DICT 40 dict def $IDL_DICT begin /bdef { bind def } bind def /C
{currentpoint newpath moveto} bdef /CP {currentpoint} bdef /D {currentpoint
stroke moveto} bdef /F {closepath fill} bdef /K { setgray } bdef /M {moveto}
bdef /N {rmoveto} bdef /P {lineto} bdef /R {rlineto} bdef /S {gsave show
grestore} bdef /X {currentpoint pop} bdef /Z {gsave currentpoint lineto 20
setlinewidth 1 setlinecap stroke grestore} bdef /L0 {[] 0 setdash} bdef /L1
{[40 100] 0 setdash} bdef /L2 {[200 200] 0 setdash} bdef /L3 {[200 100 50
100] 0 setdash} bdef /L4 {[300 100 50 100 50 100 50 100] 0 setdash} bdef /L5
{[400 200] 0 setdash} bdef /STDFONT { findfont exch scalefont setfont } bdef
/ISOFONT { findfont dup length dict begin { 1 index /FID ne {def} {pop pop}
ifelse } forall /Encoding ISOLatin1Encoding def currentdict end /idltmpfont
exch definefont exch scalefont setfont } bdef /ISOBULLET { gsave /Helvetica
findfont exch scalefont setfont (\267) show currentpoint grestore moveto}
bdef /MITERLIMIT { 2.5 setmiterlimit } bdef end
%%EndProlog
%%Page: 0 1
%%PageResources: (atend)
%%PageOrientation: Portrait
%%PageBoundingBox: 54 360 558 720
%%BeginPageSetup
save
$IDL_DICT begin 54 360 translate 0.0283465 dup scale MITERLIMIT
%%IncludeResource: font Helvetica
423.333 /Helvetica STDFONT
%%EndPageSetup
10 setlinewidth L0 0.000 K 2220 1408 M 14894 0 R D 2220 1408 M 0 212 R D
1753 985 M 210 0 R D 2080 1079 M 23 11 R 35 35 R 0 -245 R D 2349 1125 M
-35 -11 R -24 -35 R -11 -59 R 0 -35 R 11 -58 R 24 -35 R 35 -12 R 23 0 R
35 12 R 23 35 R 12 58 R 0 35 R -12 59 R -23 35 R -35 11 R -23 0 R D
2582 1125 M -35 -11 R -23 -35 R -12 -59 R 0 -35 R 12 -58 R 23 -35 R 35 -12 R
24 0 R 35 12 R 23 35 R 12 58 R 0 35 R -12 59 R -23 35 R -35 11 R -24 0 R D
4702 1408 M 0 212 R D 4679 1125 M -35 -11 R -23 -35 R -12 -59 R 0 -35 R
12 -58 R 23 -35 R 35 -12 R 23 0 R 35 12 R 24 35 R 12 58 R 0 35 R -12 59 R
-24 35 R -35 11 R -23 0 R D 7185 1408 M 0 212 R D 6893 1079 M 23 11 R
35 35 R 0 -245 R D 7161 1125 M -35 -11 R -23 -35 R -12 -59 R 0 -35 R
12 -58 R 23 -35 R 35 -12 R 24 0 R 35 12 R 23 35 R 12 58 R 0 35 R -12 59 R
-23 35 R -35 11 R -24 0 R D 7395 1125 M -35 -11 R -23 -35 R -12 -59 R
0 -35 R 12 -58 R 23 -35 R 35 -12 R 23 0 R 35 12 R 24 35 R 12 58 R 0 35 R
-12 59 R -24 35 R -35 11 R -23 0 R D 9667 1408 M 0 212 R D 9352 1067 M
0 12 R 11 23 R 12 12 R 23 11 R 47 0 R 23 -11 R 12 -12 R 12 -23 R 0 -24 R
-12 -23 R -23 -35 R -117 -117 R 164 0 R D 9644 1125 M -35 -11 R -24 -35 R
-11 -59 R 0 -35 R 11 -58 R 24 -35 R 35 -12 R 23 0 R 35 12 R 24 35 R 11 58 R
0 35 R -11 59 R -24 35 R -35 11 R -23 0 R D 9877 1125 M -35 -11 R -23 -35 R
-12 -59 R 0 -35 R 12 -58 R 23 -35 R 35 -12 R 24 0 R 35 12 R 23 35 R 12 58 R
0 35 R -12 59 R -23 35 R -35 11 R -24 0 R D 12149 1408 M 0 212 R D
11846 1125 M 128 0 R -70 -93 R 35 0 R 23 -12 R 12 -11 R 12 -35 R 0 -24 R
-12 -35 R -23 -23 R -35 -12 R -35 0 R -35 12 R -12 11 R -12 24 R D
12126 1125 M -35 -11 R -23 -35 R -12 -59 R 0 -35 R 12 -58 R 23 -35 R
35 -12 R 23 0 R 35 12 R 24 35 R 12 58 R 0 35 R -12 59 R -24 35 R -35 11 R
-23 0 R D 12360 1125 M -35 -11 R -24 -35 R -11 -59 R 0 -35 R 11 -58 R
24 -35 R 35 -12 R 23 0 R 35 12 R 24 35 R 11 58 R 0 35 R -11 59 R -24 35 R
-35 11 R -23 0 R D 14632 1408 M 0 212 R D 14421 1125 M -116 -163 R 175 0 R D
14421 1125 M 0 -245 R D 14608 1125 M -35 -11 R -23 -35 R -12 -59 R 0 -35 R
12 -58 R 23 -35 R 35 -12 R 24 0 R 35 12 R 23 35 R 12 58 R 0 35 R -12 59 R
-23 35 R -35 11 R -24 0 R D 14842 1125 M -35 -11 R -23 -35 R -12 -59 R
0 -35 R 12 -58 R 23 -35 R 35 -12 R 23 0 R 35 12 R 24 35 R 12 58 R 0 35 R
-12 59 R -24 35 R -35 11 R -23 0 R D 17114 1408 M 0 212 R D 16927 1125 M
-117 0 R -11 -105 R 11 12 R 35 12 R 35 0 R 35 -12 R 24 -23 R 12 -35 R
0 -24 R -12 -35 R -24 -23 R -35 -12 R -35 0 R -35 12 R -11 11 R -12 24 R D
17091 1125 M -35 -11 R -24 -35 R -11 -59 R 0 -35 R 11 -58 R 24 -35 R
35 -12 R 23 0 R 35 12 R 24 35 R 11 58 R 0 35 R -11 59 R -24 35 R -35 11 R
-23 0 R D 17324 1125 M -35 -11 R -23 -35 R -12 -59 R 0 -35 R 12 -58 R
23 -35 R 35 -12 R 24 0 R 35 12 R 23 35 R 12 58 R 0 35 R -12 59 R -23 35 R
-35 11 R -24 0 R D 2468 1408 M 0 106 R D 2717 1408 M 0 106 R D 2965 1408 M
0 106 R D 3213 1408 M 0 106 R D 3461 1408 M 0 106 R D 3709 1408 M 0 106 R D
3958 1408 M 0 106 R D 4206 1408 M 0 106 R D 4454 1408 M 0 106 R D
4951 1408 M 0 106 R D 5199 1408 M 0 106 R D 5447 1408 M 0 106 R D
5695 1408 M 0 106 R D 5944 1408 M 0 106 R D 6192 1408 M 0 106 R D
6440 1408 M 0 106 R D 6688 1408 M 0 106 R D 6937 1408 M 0 106 R D
7433 1408 M 0 106 R D 7681 1408 M 0 106 R D 7929 1408 M 0 106 R D
8178 1408 M 0 106 R D 8426 1408 M 0 106 R D 8674 1408 M 0 106 R D
8922 1408 M 0 106 R D 9171 1408 M 0 106 R D 9419 1408 M 0 106 R D
9915 1408 M 0 106 R D 10164 1408 M 0 106 R D 10412 1408 M 0 106 R D
10660 1408 M 0 106 R D 10908 1408 M 0 106 R D 11156 1408 M 0 106 R D
11405 1408 M 0 106 R D 11653 1408 M 0 106 R D 11901 1408 M 0 106 R D
12398 1408 M 0 106 R D 12646 1408 M 0 106 R D 12894 1408 M 0 106 R D
13142 1408 M 0 106 R D 13391 1408 M 0 106 R D 13639 1408 M 0 106 R D
13887 1408 M 0 106 R D 14135 1408 M 0 106 R D 14384 1408 M 0 106 R D
14880 1408 M 0 106 R D 15128 1408 M 0 106 R D 15376 1408 M 0 106 R D
15625 1408 M 0 106 R D 15873 1408 M 0 106 R D 16121 1408 M 0 106 R D
16369 1408 M 0 106 R D 16618 1408 M 0 106 R D 16866 1408 M 0 106 R D
7412 668 M 58 -246 R 59 246 R 58 -246 R 59 246 R D 7704 668 M 12 -12 R
12 12 R -12 12 R -12 -12 R D 7716 586 M 0 -164 R D 7809 586 M 0 -164 R D
7809 539 M 35 35 R 24 12 R 35 0 R 23 -12 R 12 -35 R 0 -117 R D 8160 668 M
0 -246 R D 8160 551 M -24 23 R -23 12 R -35 0 R -23 -12 R -24 -23 R
-11 -35 R 0 -23 R 11 -35 R 24 -24 R 23 -12 R 35 0 R 23 12 R 24 24 R D
8440 668 M 0 -246 R D 8440 668 M 82 0 R 35 -12 R 23 -23 R 12 -24 R 12 -35 R
0 -58 R -12 -35 R -12 -23 R -23 -24 R -35 -12 R -82 0 R D 8674 668 M
12 -12 R 11 12 R -11 12 R -12 -12 R D 8686 586 M 0 -164 R D 8779 586 M
0 -164 R D 8779 516 M 12 35 R 23 23 R 24 12 R 35 0 R D 8919 516 M 141 0 R
0 23 R -12 24 R -12 11 R -23 12 R -35 0 R -24 -12 R -23 -23 R -12 -35 R
0 -23 R 12 -35 R 23 -24 R 24 -12 R 35 0 R 23 12 R 24 24 R D 9270 551 M
-24 23 R -23 12 R -35 0 R -23 -12 R -24 -23 R -11 -35 R 0 -23 R 11 -35 R
24 -24 R 23 -12 R 35 0 R 23 12 R 24 24 R D 9363 668 M 0 -199 R 12 -35 R
23 -12 R 24 0 R D 9328 586 M 82 0 R D 9480 668 M 12 -12 R 12 12 R -12 12 R
-12 -12 R D 9492 586 M 0 -164 R D 9632 586 M -23 -12 R -24 -23 R -11 -35 R
0 -23 R 11 -35 R 24 -24 R 23 -12 R 35 0 R 23 12 R 24 24 R 12 35 R 0 23 R
-12 35 R -24 23 R -23 12 R -35 0 R D 9807 586 M 0 -164 R D 9807 539 M
35 35 R 24 12 R 35 0 R 23 -12 R 12 -35 R 0 -117 R D 10298 715 M -23 -24 R
-24 -35 R -23 -47 R -12 -58 R 0 -47 R 12 -58 R 23 -59 R 24 -35 R 23 -23 R D
10508 668 M 0 -246 R D 10508 551 M -23 23 R -23 12 R -35 0 R -24 -12 R
-23 -23 R -12 -35 R 0 -23 R 12 -35 R 23 -24 R 24 -12 R 35 0 R 23 12 R
23 24 R D 10590 516 M 140 0 R 0 23 R -11 24 R -12 11 R -23 12 R -35 0 R
-24 -12 R -23 -23 R -12 -35 R 0 -23 R 12 -35 R 23 -24 R 24 -12 R 35 0 R
23 12 R 23 24 R D 10941 586 M 0 -199 R -12 -35 R -12 -11 R -23 -12 R -35 0 R
-23 12 R D 10941 551 M -24 23 R -23 12 R -35 0 R -23 -12 R -24 -23 R
-12 -35 R 0 -23 R 12 -35 R 24 -24 R 23 -12 R 35 0 R 23 12 R 24 24 R D
11034 586 M 0 -164 R D 11034 516 M 12 35 R 23 23 R 24 12 R 35 0 R D
11174 516 M 141 0 R 0 23 R -12 24 R -12 11 R -23 12 R -35 0 R -24 -12 R
-23 -23 R -12 -35 R 0 -23 R 12 -35 R 23 -24 R 24 -12 R 35 0 R 23 12 R
24 24 R D 11385 516 M 140 0 R 0 23 R -12 24 R -11 11 R -24 12 R -35 0 R
-23 -12 R -24 -23 R -11 -35 R 0 -23 R 11 -35 R 24 -24 R 23 -12 R 35 0 R
24 12 R 23 24 R D 11724 551 M -12 23 R -35 12 R -35 0 R -35 -12 R -12 -23 R
12 -23 R 23 -12 R 58 -12 R 24 -11 R 12 -24 R 0 -11 R -12 -24 R -35 -12 R
-35 0 R -35 12 R -12 24 R D 11794 715 M 23 -24 R 23 -35 R 24 -47 R 11 -58 R
0 -47 R -11 -58 R -24 -59 R -23 -35 R -23 -23 R D 2220 11996 M 14894 0 R D
2220 11996 M 0 -212 R D 4702 11996 M 0 -212 R D 7185 11996 M 0 -212 R D
9667 11996 M 0 -212 R D 12149 11996 M 0 -212 R D 14632 11996 M 0 -212 R D
17114 11996 M 0 -212 R D 2468 11996 M 0 -106 R D 2717 11996 M 0 -106 R D
2965 11996 M 0 -106 R D 3213 11996 M 0 -106 R D 3461 11996 M 0 -106 R D
3709 11996 M 0 -106 R D 3958 11996 M 0 -106 R D 4206 11996 M 0 -106 R D
4454 11996 M 0 -106 R D 4951 11996 M 0 -106 R D 5199 11996 M 0 -106 R D
5447 11996 M 0 -106 R D 5695 11996 M 0 -106 R D 5944 11996 M 0 -106 R D
6192 11996 M 0 -106 R D 6440 11996 M 0 -106 R D 6688 11996 M 0 -106 R D
6937 11996 M 0 -106 R D 7433 11996 M 0 -106 R D 7681 11996 M 0 -106 R D
7929 11996 M 0 -106 R D 8178 11996 M 0 -106 R D 8426 11996 M 0 -106 R D
8674 11996 M 0 -106 R D 8922 11996 M 0 -106 R D 9171 11996 M 0 -106 R D
9419 11996 M 0 -106 R D 9915 11996 M 0 -106 R D 10164 11996 M 0 -106 R D
10412 11996 M 0 -106 R D 10660 11996 M 0 -106 R D 10908 11996 M 0 -106 R D
11156 11996 M 0 -106 R D 11405 11996 M 0 -106 R D 11653 11996 M 0 -106 R D
11901 11996 M 0 -106 R D 12398 11996 M 0 -106 R D 12646 11996 M 0 -106 R D
12894 11996 M 0 -106 R D 13142 11996 M 0 -106 R D 13391 11996 M 0 -106 R D
13639 11996 M 0 -106 R D 13887 11996 M 0 -106 R D 14135 11996 M 0 -106 R D
14384 11996 M 0 -106 R D 14880 11996 M 0 -106 R D 15128 11996 M 0 -106 R D
15376 11996 M 0 -106 R D 15625 11996 M 0 -106 R D 15873 11996 M 0 -106 R D
16121 11996 M 0 -106 R D 16369 11996 M 0 -106 R D 16618 11996 M 0 -106 R D
16866 11996 M 0 -106 R D 2220 1408 M 0 10588 R D 2220 1408 M 298 0 R D
1969 1653 M -35 -11 R -24 -35 R -11 -59 R 0 -35 R 11 -58 R 24 -35 R 35 -12 R
23 0 R 35 12 R 24 35 R 11 58 R 0 35 R -11 59 R -24 35 R -35 11 R -23 0 R D
2220 3173 M 298 0 R D 2039 3277 M -117 0 R -12 -105 R 12 12 R 35 12 R 35 0 R
35 -12 R 24 -24 R 11 -35 R 0 -23 R -11 -35 R -24 -23 R -35 -12 R -35 0 R
-35 12 R -12 11 R -11 24 R D 2220 4937 M 298 0 R D 1700 4995 M 24 12 R
35 35 R 0 -245 R D 1969 5042 M -35 -12 R -24 -35 R -11 -58 R 0 -35 R
11 -59 R 24 -35 R 35 -11 R 23 0 R 35 11 R 24 35 R 11 59 R 0 35 R -11 58 R
-24 35 R -35 12 R -23 0 R D 2220 6702 M 298 0 R D 1700 6760 M 24 12 R
35 35 R 0 -246 R D 2039 6807 M -117 0 R -12 -106 R 12 12 R 35 12 R 35 0 R
35 -12 R 24 -23 R 11 -35 R 0 -24 R -11 -35 R -24 -23 R -35 -12 R -35 0 R
-35 12 R -12 12 R -11 23 R D 2220 8467 M 298 0 R D 1677 8513 M 0 12 R
11 23 R 12 12 R 24 11 R 46 0 R 24 -11 R 11 -12 R 12 -23 R 0 -24 R -12 -23 R
-23 -35 R -117 -117 R 164 0 R D 1969 8571 M -35 -11 R -24 -35 R -11 -59 R
0 -35 R 11 -58 R 24 -35 R 35 -12 R 23 0 R 35 12 R 24 35 R 11 58 R 0 35 R
-11 59 R -24 35 R -35 11 R -23 0 R D 2220 10231 M 298 0 R D 1677 10278 M
0 11 R 11 24 R 12 11 R 24 12 R 46 0 R 24 -12 R 11 -11 R 12 -24 R 0 -23 R
-12 -24 R -23 -35 R -117 -116 R 164 0 R D 2039 10336 M -117 0 R -12 -105 R
12 11 R 35 12 R 35 0 R 35 -12 R 24 -23 R 11 -35 R 0 -23 R -11 -35 R
-24 -24 R -35 -11 R -35 0 R -35 11 R -12 12 R -11 23 R D 2220 11996 M
298 0 R D 1688 11995 M 129 0 R -70 -93 R 35 0 R 23 -12 R 12 -12 R 12 -35 R
0 -23 R -12 -35 R -23 -24 R -35 -11 R -35 0 R -36 11 R -11 12 R -12 23 R D
1969 11995 M -35 -12 R -24 -35 R -11 -58 R 0 -35 R 11 -59 R 24 -35 R
35 -11 R 23 0 R 35 11 R 24 35 R 11 59 R 0 35 R -11 58 R -24 35 R -35 12 R
-23 0 R D 2220 1761 M 149 0 R D 2220 2114 M 149 0 R D 2220 2467 M 149 0 R D
2220 2820 M 149 0 R D 2220 3526 M 149 0 R D 2220 3879 M 149 0 R D
2220 4232 M 149 0 R D 2220 4584 M 149 0 R D 2220 5290 M 149 0 R D
2220 5643 M 149 0 R D 2220 5996 M 149 0 R D 2220 6349 M 149 0 R D
2220 7055 M 149 0 R D 2220 7408 M 149 0 R D 2220 7761 M 149 0 R D
2220 8114 M 149 0 R D 2220 8820 M 149 0 R D 2220 9173 M 149 0 R D
2220 9526 M 149 0 R D 2220 9878 M 149 0 R D 2220 10584 M 149 0 R D
2220 10937 M 149 0 R D 2220 11290 M 149 0 R D 2220 11643 M 149 0 R D
1063 5633 M 246 0 R D 1063 5797 M 246 0 R D 1180 5633 M 0 164 R D
1215 5878 M 0 141 R -23 0 R -23 -12 R -12 -12 R -12 -23 R 0 -35 R 12 -24 R
23 -23 R 35 -12 R 24 0 R 35 12 R 23 23 R 12 24 R 0 35 R -12 23 R -23 24 R D
1063 6089 M 12 11 R -12 12 R -11 -12 R 11 -11 R D 1145 6100 M 164 0 R D
1145 6322 M 199 0 R 35 -11 R 12 -12 R 11 -23 R 0 -35 R -11 -24 R D
1180 6322 M -23 -23 R -12 -23 R 0 -35 R 12 -24 R 23 -23 R 35 -12 R 24 0 R
35 12 R 23 23 R 12 24 R 0 35 R -12 23 R -23 23 R D 1063 6416 M 246 0 R D
1192 6416 M -35 35 R -12 23 R 0 35 R 12 24 R 35 11 R 117 0 R D 1063 6649 M
199 0 R 35 12 R 12 24 R 0 23 R D 1145 6614 M 0 82 R D 1017 7047 M 23 -24 R
35 -23 R 47 -23 R 58 -12 R 47 0 R 58 12 R 59 23 R 35 23 R 23 24 R D
1063 7129 M 246 0 R D 1145 7245 M 117 -116 R D 1215 7175 M 94 82 R D
1145 7327 M 164 0 R D 1192 7327 M -35 35 R -12 24 R 0 35 R 12 23 R 35 12 R
117 0 R D 1192 7456 M -35 35 R -12 23 R 0 35 R 12 24 R 35 11 R 117 0 R D
1017 7666 M 23 23 R 35 24 R 47 23 R 58 12 R 47 0 R 58 -12 R 59 -23 R
35 -24 R 23 -23 R D 17114 1408 M 0 10588 R D 17114 1408 M -298 0 R D
17114 3173 M -298 0 R D 17114 4937 M -298 0 R D 17114 6702 M -298 0 R D
17114 8467 M -298 0 R D 17114 10231 M -298 0 R D 17114 11996 M -298 0 R D
17114 1761 M -149 0 R D 17114 2114 M -149 0 R D 17114 2467 M -149 0 R D
17114 2820 M -149 0 R D 17114 3526 M -149 0 R D 17114 3879 M -149 0 R D
17114 4232 M -149 0 R D 17114 4584 M -149 0 R D 17114 5290 M -149 0 R D
17114 5643 M -149 0 R D 17114 5996 M -149 0 R D 17114 6349 M -149 0 R D
17114 7055 M -149 0 R D 17114 7408 M -149 0 R D 17114 7761 M -149 0 R D
17114 8114 M -149 0 R D 17114 8820 M -149 0 R D 17114 9173 M -149 0 R D
17114 9526 M -149 0 R D 17114 9878 M -149 0 R D 17114 10584 M -149 0 R D
17114 10937 M -149 0 R D 17114 11290 M -149 0 R D 17114 11643 M -149 0 R D
9325 10667 M 111 -111 R -111 -111 R -111 111 R 111 111 R D 8736 9751 M
111 -111 R -111 -111 R -111 111 R 111 111 R D 9347 9156 M 111 -111 R
-111 -111 R -111 111 R 111 111 R D 8818 8339 M 111 -111 R -111 -111 R
-111 111 R 111 111 R D 12934 7755 M 111 -111 R -111 -111 R -111 111 R
111 111 R D 13329 7094 M 111 -111 R -111 -111 R -111 111 R 111 111 R D
13351 6287 M 111 -111 R -111 -111 R -111 111 R 111 111 R D 13386 5675 M
111 -111 R -111 -111 R -111 111 R 111 111 R D 13413 5176 M 111 -111 R
-111 -111 R -111 111 R 111 111 R D 13465 4753 M 111 -111 R -111 -111 R
-111 111 R 111 111 R D 13497 4055 M 111 -111 R -111 -111 R -111 111 R
111 111 R D 13396 3486 M 111 -111 R -111 -111 R -111 111 R 111 111 R D
13060 3004 M 111 -111 R -111 -111 R -111 111 R 111 111 R D 12867 2582 M
111 -111 R -111 -111 R -111 111 R 111 111 R D 12147 2033 M 111 -111 R
-111 -111 R -111 111 R 111 111 R D 5857 1788 M 111 -111 R -111 -111 R
-111 111 R 111 111 R D 5787 1558 M 111 -111 R -39 -39 R D 5715 1408 M
-39 39 R 111 111 R D 9299 10556 M 51 0 R D 8671 9640 M 130 0 R D 9187 9045 M
320 0 R D 7897 8228 M 1843 0 R D 11978 7644 M 1912 0 R D 13097 6983 M
463 0 R D 13123 6176 M 456 0 R D 13165 5564 M 442 0 R D 13202 5065 M 421 0 R
D 13269 4642 M 392 0 R D 13307 3944 M 380 0 R D 13189 3375 M 413 0 R D
12736 2893 M 648 0 R D 12224 2471 M 1285 0 R D 10466 1922 M 3362 0 R D
4684 1677 M 2345 0 R D 4672 1447 M 2230 0 R D 9312 10667 M 111 -111 R
-111 -111 R -111 111 R 111 111 R D 8853 9751 M 111 -111 R -111 -111 R
-111 111 R 111 111 R D 9292 9156 M 111 -111 R -111 -111 R -111 111 R
111 111 R D 9069 8339 M 111 -111 R -111 -111 R -111 111 R 111 111 R D
12569 7755 M 111 -111 R -111 -111 R -111 111 R 111 111 R D 13274 7094 M
111 -111 R -111 -111 R -111 111 R 111 111 R D 13368 6287 M 111 -111 R
-111 -111 R -111 111 R 111 111 R D 13401 5675 M 111 -111 R -111 -111 R
-111 111 R 111 111 R D 13425 5176 M 111 -111 R -111 -111 R -111 111 R
111 111 R D 13475 4753 M 111 -111 R -111 -111 R -111 111 R 111 111 R D
13502 4055 M 111 -111 R -111 -111 R -111 111 R 111 111 R D 13403 3486 M
111 -111 R -111 -111 R -111 111 R 111 111 R D 13011 3004 M 111 -111 R
-111 -111 R -111 111 R 111 111 R D 12631 2582 M 111 -111 R -111 -111 R
-111 111 R 111 111 R D 11494 2033 M 111 -111 R -111 -111 R -111 111 R
111 111 R D 5628 1788 M 111 -111 R -111 -111 R -111 111 R 111 111 R D
5695 1558 M 111 -111 R -39 -39 R D 5623 1408 M -39 39 R 111 111 R D
9284 10556 M 57 0 R D 8791 9640 M 123 0 R D 9142 9045 M 300 0 R D
8662 8228 M 813 0 R D 11317 7644 M 2504 0 R D 12941 6983 M 666 0 R D
13066 6176 M 604 0 R D 13105 5564 M 591 0 R D 13141 5065 M 569 0 R D
13191 4642 M 568 0 R D 13202 3944 M 600 0 R D 13049 3375 M 708 0 R D
12546 2893 M 930 0 R D 11883 2471 M 1496 0 R D 9796 1922 M 3396 0 R D
3925 1677 M 3406 0 R D 4129 1447 M 3133 0 R D 9282 10667 M 111 -111 R
-111 -111 R -111 111 R 111 111 R D 8987 9751 M 111 -111 R -111 -111 R
-111 111 R 111 111 R D 9399 9156 M 111 -111 R -111 -111 R -111 111 R
111 111 R D 9076 8339 M 111 -111 R -111 -111 R -111 111 R 111 111 R D
13028 7755 M 111 -111 R -111 -111 R -111 111 R 111 111 R D 13331 7094 M
111 -111 R -111 -111 R -111 111 R 111 111 R D 13368 6287 M 111 -111 R
-111 -111 R -111 111 R 111 111 R D 13388 5675 M 111 -111 R -111 -111 R
-111 111 R 111 111 R D 13391 5176 M 111 -111 R -111 -111 R -111 111 R
111 111 R D 13415 4753 M 111 -111 R -111 -111 R -111 111 R 111 111 R D
13401 4055 M 111 -111 R -111 -111 R -111 111 R 111 111 R D 13314 3486 M
111 -111 R -111 -111 R -111 111 R 111 111 R D 13026 3004 M 111 -111 R
-111 -111 R -111 111 R 111 111 R D 12653 2582 M 111 -111 R -111 -111 R
-111 111 R 111 111 R D 11514 2033 M 111 -111 R -111 -111 R -111 111 R
111 111 R D 13343 1788 M 111 -111 R -111 -111 R -111 111 R 111 111 R D
4814 1558 M 111 -111 R -39 -39 R D 4742 1408 M -39 39 R 111 111 R D
9152 10556 M 260 0 R D 8848 9640 M 277 0 R D 9201 9045 M 396 0 R D
7789 8228 M 2574 0 R D 12589 7644 M 879 0 R D 13104 6983 M 454 0 R D
13155 6176 M 427 0 R D 13164 5564 M 449 0 R D 13163 5065 M 455 0 R D
13184 4642 M 463 0 R D 13160 3944 M 481 0 R D 13052 3375 M 523 0 R D
12727 2893 M 597 0 R D 12210 2471 M 886 0 R D 10709 1922 M 1610 0 R D
11581 1677 M 3525 0 R D 3123 1447 M 3382 0 R D 5263 10667 M 111 -111 R
-111 -111 R -111 111 R 111 111 R D 5231 9751 M 111 -111 R -111 -111 R
-111 111 R 111 111 R D 5152 9156 M 111 -111 R -111 -111 R -111 111 R
111 111 R D 4864 8339 M 111 -111 R -111 -111 R -111 111 R 111 111 R D
13396 7755 M 111 -111 R -111 -111 R -111 111 R 111 111 R D 13430 7094 M
111 -111 R -111 -111 R -111 111 R 111 111 R D 13433 6287 M 111 -111 R
-111 -111 R -111 111 R 111 111 R D 13440 5675 M 111 -111 R -111 -111 R
-111 111 R 111 111 R D 13448 5176 M 111 -111 R -111 -111 R -111 111 R
111 111 R D 13463 4753 M 111 -111 R -111 -111 R -111 111 R 111 111 R D
13435 4055 M 111 -111 R -111 -111 R -111 111 R 111 111 R D 13358 3486 M
111 -111 R -111 -111 R -111 111 R 111 111 R D 13165 3004 M 111 -111 R
-111 -111 R -111 111 R 111 111 R D 12842 2582 M 111 -111 R -111 -111 R
-111 111 R 111 111 R D 11717 2033 M 111 -111 R -111 -111 R -111 111 R
111 111 R D 12291 1788 M 111 -111 R -111 -111 R -111 111 R 111 111 R D
12219 1558 M 111 -111 R -39 -39 R D 12147 1408 M -39 39 R 111 111 R D
4441 10556 M 1645 0 R D 3096 9640 M 4270 0 R D 3377 9045 M 3549 0 R D
4183 8228 M 1362 0 R D 13180 7644 M 431 0 R D 13239 6983 M 383 0 R D
13240 6176 M 385 0 R D 13233 5564 M 414 0 R D 13227 5065 M 442 0 R D
13226 4642 M 473 0 R D 13180 3944 M 511 0 R D 13104 3375 M 509 0 R D
12895 2893 M 540 0 R D 12516 2471 M 652 0 R D 11094 1922 M 1247 0 R D
10667 1677 M 3248 0 R D 10373 1447 M 3692 0 R D 13636 10667 M 111 -111 R
-111 -111 R -111 111 R 111 111 R D 4715 9751 M 111 -111 R -111 -111 R
-111 111 R 111 111 R D 13636 9156 M 111 -111 R -111 -111 R -111 111 R
111 111 R D 4794 8339 M 111 -111 R -111 -111 R -111 111 R 111 111 R D
13482 7755 M 111 -111 R -111 -111 R -111 111 R 111 111 R D 13502 7094 M
111 -111 R -111 -111 R -111 111 R 111 111 R D 13530 6287 M 111 -111 R
-111 -111 R -111 111 R 111 111 R D 13522 5675 M 111 -111 R -111 -111 R
-111 111 R 111 111 R D 13525 5176 M 111 -111 R -111 -111 R -111 111 R
111 111 R D 13530 4753 M 111 -111 R -111 -111 R -111 111 R 111 111 R D
13485 4055 M 111 -111 R -111 -111 R -111 111 R 111 111 R D 13418 3486 M
111 -111 R -111 -111 R -111 111 R 111 111 R D 13291 3004 M 111 -111 R
-111 -111 R -111 111 R 111 111 R D 13008 2582 M 111 -111 R -111 -111 R
-111 111 R 111 111 R D 12045 2033 M 111 -111 R -111 -111 R -111 111 R
111 111 R D 12192 1788 M 111 -111 R -111 -111 R -111 111 R 111 111 R D
12154 1558 M 111 -111 R -39 -39 R D 12082 1408 M -39 39 R 111 111 R D
13337 10556 M 599 0 R D 4465 9640 M 500 0 R D 13367 9045 M 539 0 R D
4557 8228 M 475 0 R D 13258 7644 M 449 0 R D 13298 6983 M 408 0 R D
13326 6176 M 407 0 R D 13303 5564 M 438 0 R D 13297 5065 M 456 0 R D
13296 4642 M 467 0 R D 13237 3944 M 496 0 R D 13151 3375 M 533 0 R D
13002 2893 M 579 0 R D 12730 2471 M 557 0 R D 11575 1922 M 941 0 R D
11383 1677 M 1617 0 R D 11376 1447 M 1557 0 R D 13604 10667 M 111 -111 R
-111 -111 R -111 111 R 111 111 R D 13512 9751 M 111 -111 R -111 -111 R
-111 111 R 111 111 R D 13574 9156 M 111 -111 R -111 -111 R -111 111 R
111 111 R D 4727 8339 M 111 -111 R -111 -111 R -111 111 R 111 111 R D
13487 7755 M 111 -111 R -111 -111 R -111 111 R 111 111 R D 13495 7094 M
111 -111 R -111 -111 R -111 111 R 111 111 R D 13549 6287 M 111 -111 R
-111 -111 R -111 111 R 111 111 R D 13540 5675 M 111 -111 R -111 -111 R
-111 111 R 111 111 R D 13537 5176 M 111 -111 R -111 -111 R -111 111 R
111 111 R D 13540 4753 M 111 -111 R -111 -111 R -111 111 R 111 111 R D
13505 4055 M 111 -111 R -111 -111 R -111 111 R 111 111 R D 13453 3486 M
111 -111 R -111 -111 R -111 111 R 111 111 R D 13348 3004 M 111 -111 R
-111 -111 R -111 111 R 111 111 R D 13098 2582 M 111 -111 R -111 -111 R
-111 111 R 111 111 R D 12283 2033 M 111 -111 R -111 -111 R -111 111 R
111 111 R D 12274 1788 M 111 -111 R -111 -111 R -111 111 R 111 111 R D
12231 1558 M 111 -111 R -39 -39 R D 12159 1408 M -39 39 R 111 111 R D
13510 10556 M 188 0 R D 13381 9640 M 263 0 R D 13410 9045 M 329 0 R D
4581 8228 M 293 0 R D 13317 7644 M 341 0 R D 13322 6983 M 345 0 R D
13387 6176 M 325 0 R D 13372 5564 M 335 0 R D 13364 5065 M 346 0 R D
13362 4642 M 356 0 R D 13310 3944 M 390 0 R D 13234 3375 M 437 0 R D
13093 2893 M 511 0 R D 12799 2471 M 597 0 R D 11895 1922 M 777 0 R D
11845 1677 M 857 0 R D 11738 1447 M 987 0 R D 13609 10667 M 111 -111 R
-111 -111 R -111 111 R 111 111 R D 13554 9751 M 111 -111 R -111 -111 R
-111 111 R 111 111 R D 13621 9156 M 111 -111 R -111 -111 R -111 111 R
111 111 R D 4787 8339 M 111 -111 R -111 -111 R -111 111 R 111 111 R D
13540 7755 M 111 -111 R -111 -111 R -111 111 R 111 111 R D 13505 7094 M
111 -111 R -111 -111 R -111 111 R 111 111 R D 13567 6287 M 111 -111 R
-111 -111 R -111 111 R 111 111 R D 13549 5675 M 111 -111 R -111 -111 R
-111 111 R 111 111 R D 13535 5176 M 111 -111 R -111 -111 R -111 111 R
111 111 R D 13530 4753 M 111 -111 R -111 -111 R -111 111 R 111 111 R D
13485 4055 M 111 -111 R -111 -111 R -111 111 R 111 111 R D 13433 3486 M
111 -111 R -111 -111 R -111 111 R 111 111 R D 13326 3004 M 111 -111 R
-111 -111 R -111 111 R 111 111 R D 13065 2582 M 111 -111 R -111 -111 R
-111 111 R 111 111 R D 12281 2033 M 111 -111 R -111 -111 R -111 111 R
111 111 R D 12286 1788 M 111 -111 R -111 -111 R -111 111 R 111 111 R D
12264 1558 M 111 -111 R -39 -39 R D 12192 1408 M -39 39 R 111 111 R D
13509 10556 M 200 0 R D 13411 9640 M 287 0 R D 13471 9045 M 301 0 R D
4628 8228 M 317 0 R D 13390 7644 M 299 0 R D 13365 6983 M 280 0 R D
13444 6176 M 245 0 R D 13419 5564 M 261 0 R D 13386 5065 M 297 0 R D
13365 4642 M 330 0 R D 13288 3944 M 394 0 R D 13206 3375 M 454 0 R D
13062 2893 M 528 0 R D 12793 2471 M 545 0 R D 11983 1922 M 596 0 R D
11978 1677 M 616 0 R D 11900 1447 M 727 0 R D 13594 10667 M 111 -111 R
-111 -111 R -111 111 R 111 111 R D 13485 9751 M 111 -111 R -111 -111 R
-111 111 R 111 111 R D 13612 9156 M 111 -111 R -111 -111 R -111 111 R
111 111 R D 4774 8339 M 111 -111 R -111 -111 R -111 111 R 111 111 R D
13544 7755 M 111 -111 R -111 -111 R -111 111 R 111 111 R D 13502 7094 M
111 -111 R -111 -111 R -111 111 R 111 111 R D 13564 6287 M 111 -111 R
-111 -111 R -111 111 R 111 111 R D 13552 5675 M 111 -111 R -111 -111 R
-111 111 R 111 111 R D 13530 5176 M 111 -111 R -111 -111 R -111 111 R
111 111 R D 13517 4753 M 111 -111 R -111 -111 R -111 111 R 111 111 R D
13458 4055 M 111 -111 R -111 -111 R -111 111 R 111 111 R D 13396 3486 M
111 -111 R -111 -111 R -111 111 R 111 111 R D 13284 3004 M 111 -111 R
-111 -111 R -111 111 R 111 111 R D 13038 2582 M 111 -111 R -111 -111 R
-111 111 R 111 111 R D 12288 2033 M 111 -111 R -111 -111 R -111 111 R
111 111 R D 12415 1788 M 111 -111 R -111 -111 R -111 111 R 111 111 R D
12467 1558 M 111 -111 R -39 -39 R D 12395 1408 M -39 39 R 111 111 R D
13370 10556 M 448 0 R D 13025 9640 M 920 0 R D 13210 9045 M 803 0 R D
4591 8228 M 367 0 R D 13411 7644 M 267 0 R D 13367 6983 M 270 0 R D
13419 6176 M 291 0 R D 13389 5564 M 326 0 R D 13346 5065 M 367 0 R D
13321 4642 M 392 0 R D 13241 3944 M 434 0 R D 13159 3375 M 473 0 R D
13038 2893 M 492 0 R D 12800 2471 M 476 0 R D 11978 1922 M 621 0 R D
11803 1677 M 1224 0 R D 11740 1447 M 1454 0 R D 13480 10667 M 111 -111 R
-111 -111 R -111 111 R 111 111 R D 13415 9751 M 111 -111 R -111 -111 R
-111 111 R 111 111 R D 13515 9156 M 111 -111 R -111 -111 R -111 111 R
111 111 R D 4732 8339 M 111 -111 R -111 -111 R -111 111 R 111 111 R D
13487 7755 M 111 -111 R -111 -111 R -111 111 R 111 111 R D 13443 7094 M
111 -111 R -111 -111 R -111 111 R 111 111 R D 13507 6287 M 111 -111 R
-111 -111 R -111 111 R 111 111 R D 13485 5675 M 111 -111 R -111 -111 R
-111 111 R 111 111 R D 13458 5176 M 111 -111 R -111 -111 R -111 111 R
111 111 R D 13440 4753 M 111 -111 R -111 -111 R -111 111 R 111 111 R D
13371 4055 M 111 -111 R -111 -111 R -111 111 R 111 111 R D 13291 3486 M
111 -111 R -111 -111 R -111 111 R 111 111 R D 13155 3004 M 111 -111 R
-111 -111 R -111 111 R 111 111 R D 12911 2582 M 111 -111 R -111 -111 R
-111 111 R 111 111 R D 12271 2033 M 111 -111 R -111 -111 R -111 111 R
111 111 R D 12614 1788 M 111 -111 R -111 -111 R -111 111 R 111 111 R D
12730 1558 M 111 -111 R -39 -39 R D 12658 1408 M -39 39 R 111 111 R D
13185 10556 M 590 0 R D 12514 9640 M 1803 0 R D 12565 9045 M 1900 0 R D
4414 8228 M 636 0 R D 13333 7644 M 309 0 R D 13295 6983 M 295 0 R D
13365 6176 M 284 0 R D 13338 5564 M 294 0 R D 13304 5065 M 307 0 R D
13280 4642 M 320 0 R D 13193 3944 M 355 0 R D 13095 3375 M 393 0 R D
12938 2893 M 433 0 R D 12664 2471 M 495 0 R D 11912 1922 M 718 0 R D
11863 1677 M 1502 0 R D 11881 1447 M 1698 0 R D 12926 10667 M 111 -111 R
-111 -111 R -111 111 R 111 111 R D 13443 9751 M 111 -111 R -111 -111 R
-111 111 R 111 111 R D 13294 9156 M 111 -111 R -111 -111 R -111 111 R
111 111 R D 4854 8339 M 111 -111 R -111 -111 R -111 111 R 111 111 R D
13458 7755 M 111 -111 R -111 -111 R -111 111 R 111 111 R D 13420 7094 M
111 -111 R -111 -111 R -111 111 R 111 111 R D 13448 6287 M 111 -111 R
-111 -111 R -111 111 R 111 111 R D 13430 5675 M 111 -111 R -111 -111 R
-111 111 R 111 111 R D 13413 5176 M 111 -111 R -111 -111 R -111 111 R
111 111 R D 13403 4753 M 111 -111 R -111 -111 R -111 111 R 111 111 R D
13331 4055 M 111 -111 R -111 -111 R -111 111 R 111 111 R D 13227 3486 M
111 -111 R -111 -111 R -111 111 R 111 111 R D 13055 3004 M 111 -111 R
-111 -111 R -111 111 R 111 111 R D 12835 2582 M 111 -111 R -111 -111 R
-111 111 R 111 111 R D 12259 2033 M 111 -111 R -111 -111 R -111 111 R
111 111 R D 13110 1788 M 111 -111 R -111 -111 R -111 111 R 111 111 R D
13319 1558 M 111 -111 R -39 -39 R D 13247 1408 M -39 39 R 111 111 R D
11358 10556 M 3137 0 R D 11209 9640 M 4467 0 R D 11005 9045 M 4577 0 R D
3837 8228 M 2034 0 R D 13278 7644 M 360 0 R D 13265 6983 M 311 0 R D
13298 6176 M 300 0 R D 13274 5564 M 313 0 R D 13252 5065 M 322 0 R D
13238 4642 M 330 0 R D 13158 3944 M 346 0 R D 13049 3375 M 356 0 R D
12848 2893 M 415 0 R D 12547 2471 M 575 0 R D 11524 1922 M 1469 0 R D
11905 1677 M 2410 0 R D 11966 1447 M 2705 0 R D 9836 10667 M 111 -111 R
-111 -111 R -111 111 R 111 111 R D 8031 9751 M 111 -111 R -111 -111 R
-111 111 R 111 111 R D 10032 9156 M 111 -111 R -111 -111 R -111 111 R
111 111 R D 5191 8339 M 111 -111 R -111 -111 R -111 111 R 111 111 R D
13393 7755 M 111 -111 R -111 -111 R -111 111 R 111 111 R D 13413 7094 M
111 -111 R -111 -111 R -111 111 R 111 111 R D 13401 6287 M 111 -111 R
-111 -111 R -111 111 R 111 111 R D 13413 5675 M 111 -111 R -111 -111 R
-111 111 R 111 111 R D 13418 5176 M 111 -111 R -111 -111 R -111 111 R
111 111 R D 13430 4753 M 111 -111 R -111 -111 R -111 111 R 111 111 R D
13378 4055 M 111 -111 R -111 -111 R -111 111 R 111 111 R D 13259 3486 M
111 -111 R -111 -111 R -111 111 R 111 111 R D 13038 3004 M 111 -111 R
-111 -111 R -111 111 R 111 111 R D 12854 2582 M 111 -111 R -111 -111 R
-111 111 R 111 111 R D 12226 2033 M 111 -111 R -111 -111 R -111 111 R
111 111 R D 5226 1788 M 111 -111 R -111 -111 R -111 111 R 111 111 R D
5333 1558 M 111 -111 R -39 -39 R D 5261 1408 M -39 39 R 111 111 R D
8938 10556 M 1795 0 R D 6005 9640 M 4053 0 R D 8120 9045 M 3824 0 R D
3464 8228 M 3454 0 R D 13116 7644 M 555 0 R D 13260 6983 M 306 0 R D
13241 6176 M 319 0 R D 13242 5564 M 342 0 R D 13239 5065 M 358 0 R D
13246 4642 M 368 0 R D 13176 3944 M 405 0 R D 13029 3375 M 460 0 R D
12784 2893 M 509 0 R D 12487 2471 M 735 0 R D 10640 1922 M 3173 0 R D
3786 1677 M 2880 0 R D 3926 1447 M 2814 0 R D 9349 10667 M 111 -111 R
-111 -111 R -111 111 R 111 111 R D 8617 9751 M 111 -111 R -111 -111 R
-111 111 R 111 111 R D 9660 9156 M 111 -111 R -111 -111 R -111 111 R
111 111 R D 7547 8339 M 111 -111 R -111 -111 R -111 111 R 111 111 R D
13152 7755 M 111 -111 R -111 -111 R -111 111 R 111 111 R D 13346 7094 M
111 -111 R -111 -111 R -111 111 R 111 111 R D 13301 6287 M 111 -111 R
-111 -111 R -111 111 R 111 111 R D 13329 5675 M 111 -111 R -111 -111 R
-111 111 R 111 111 R D 13351 5176 M 111 -111 R -111 -111 R -111 111 R
111 111 R D 13401 4753 M 111 -111 R -111 -111 R -111 111 R 111 111 R D
13408 4055 M 111 -111 R -111 -111 R -111 111 R 111 111 R D 13304 3486 M
111 -111 R -111 -111 R -111 111 R 111 111 R D 13026 3004 M 111 -111 R
-111 -111 R -111 111 R 111 111 R D 12854 2582 M 111 -111 R -111 -111 R
-111 111 R 111 111 R D 12261 2033 M 111 -111 R -111 -111 R -111 111 R
111 111 R D 5559 1788 M 111 -111 R -111 -111 R -111 111 R 111 111 R D
5546 1558 M 111 -111 R -39 -39 R D 5474 1408 M -39 39 R 111 111 R D
9288 10556 M 123 0 R D 8390 9640 M 454 0 R D 9250 9045 M 819 0 R D
5833 8228 M 3428 0 R D 12658 7644 M 988 0 R D 13146 6983 M 400 0 R D
13097 6176 M 408 0 R D 13131 5564 M 395 0 R D 13158 5065 M 386 0 R D
13212 4642 M 377 0 R D 13201 3944 M 414 0 R D 13066 3375 M 475 0 R D
12697 2893 M 658 0 R D 12351 2471 M 1006 0 R D 10517 1922 M 3488 0 R D
4119 1677 M 2880 0 R D 4091 1447 M 2911 0 R D
%%PageTrailer
end
restore
showpage
%%PageResources: font Helvetica
%%Trailer
restore
%%Pages: 1
%%DocumentNeededResources: font Helvetica
%%EOF
