%!PS-Adobe-3.0
%%Creator: SM
%%BoundingBox: 20 17 592 779
%%DocumentNeededResources: font Helvetica
%%LanguageLevel: 1
%%Pages: (atend)
%%EndComments
%%BeginProlog
%%EndProlog
%%BeginSetup
 20 dict begin
72 300 div dup scale
1 setlinejoin 0 setlinecap
/Helvetica findfont 55 scalefont setfont 
/B {CS newpath moveto} def
/F {moveto 0 setlinecap} def
/C {CS M 1 1 3 {pop 3 1 roll 255 div} for SET_COLOUR} def
/CS {currentpoint stroke} def
/CF {currentpoint eofill} def
/L {lineto} def /l {rlineto} def /M {moveto} def /m {rmoveto} def
/P {gsave 0 1 rlineto stroke grestore} def
/T {currentlinecap exch 1 setlinecap show setlinecap} def
errordict /nocurrentpoint {pop 0 0 M currentpoint} put
/SET_COLOUR statusdict begin /processcolors where
  {pop processcolors 1 gt} {false} ifelse
  {(setrgbcolor)} {(pop pop pop)} ifelse cvx end def
 80 50 translate
%%EndSetup
%%Page: 1 1
gsave
CS [] 0 setdash M
CS M 1 100 mul 72 div dup setlinewidth
/P [ /gsave cvx 0 5 -1 roll .05 add dup -2 div 0 exch /rmoveto cvx /rlineto cvx /stroke cvx /grestore cvx ] cvx def
 0 0 0 C
CS M 3 100 mul 72 div dup setlinewidth
/P [ /gsave cvx 0 5 -1 roll .05 add dup -2 div 0 exch /rmoveto cvx /rlineto cvx /stroke cvx /grestore cvx ] cvx def
CS [] 0 setdash M
255 1685 M 2006 0 l
0 1342 l
255 3027 L
0 -1342 l
2006 0 l
255 1685 M 2006 0 l
350 1685 M 0 13 l
140 -13 m 0 13 l
140 -13 m 0 13 l
140 -13 m 0 27 l
-39 -95 m 6 16 m 31 0 l
14 13 m 2 -1 l
-2 -2 l
-2 2 l
0 1 l
2 4 l
2 2 l
5 1 l
7 0 l
5 -1 l
2 -2 l
1 -4 l
0 -3 l
-1 -3 l
-5 -4 l
-9 -3 l
-3 -2 l
-4 -3 l
-2 -6 l
0 -5 l
16 36 m 3 -1 l
2 -2 l
2 -4 l
0 -3 l
-2 -3 l
-5 -4 l
-7 -3 l
-9 -12 m 2 1 l
4 0 l
8 -3 l
5 0 l
4 2 l
1 1 l
-18 0 m 8 -5 l
7 0 l
2 2 l
1 3 l
0 4 l
106 59 m 0 13 l
140 -13 m 0 13 l
140 -13 m 0 13 l
140 -13 m 0 13 l
140 -13 m 0 27 l
-39 -95 m 6 16 m 31 0 l
17 13 m 4 2 l
5 5 l
0 -36 l
-2 35 m 0 -35 l
-7 0 m 16 0 l
109 68 m 0 13 l
140 -13 m 0 13 l
140 -13 m 0 13 l
140 -13 m 0 13 l
140 -13 m 0 27 l
-17 -95 m 15 36 m -5 -1 l
-3 -6 l
-2 -8 l
0 -5 l
2 -9 l
3 -5 l
5 -2 l
4 0 l
5 2 l
3 5 l
2 9 l
0 5 l
-2 8 l
-3 6 l
-5 1 l
-4 0 l
-3 -1 l
-2 -2 l
-2 -4 l
-1 -8 l
0 -5 l
1 -9 l
2 -3 l
2 -2 l
3 -2 l
4 0 m 3 2 l
2 2 l
1 3 l
2 9 l
0 5 l
-2 8 l
-1 4 l
-2 2 l
-3 1 l
255 3027 M 2006 0 l
350 3027 M 0 -13 l
140 13 m 0 -13 l
140 13 m 0 -13 l
140 13 m 0 -27 l
140 27 m 0 -13 l
140 13 m 0 -13 l
140 13 m 0 -13 l
140 13 m 0 -13 l
140 13 m 0 -27 l
140 27 m 0 -13 l
140 13 m 0 -13 l
140 13 m 0 -13 l
140 13 m 0 -13 l
140 13 m 0 -27 l
255 1685 M 0 1342 l
0 -1342 m 28 0 l
101 1667 M 7 15 m 31 0 l
22 21 m -5 -2 l
-3 -5 l
-2 -9 l
0 -5 l
2 -9 l
3 -5 l
5 -1 l
4 0 l
5 1 l
4 5 l
1 9 l
0 5 l
-1 9 l
-4 5 l
-5 2 l
-4 0 l
-3 -2 l
-2 -2 l
-1 -3 l
-2 -9 l
0 -5 l
2 -9 l
1 -3 l
2 -2 l
3 -1 l
4 0 m 3 1 l
2 2 l
2 3 l
2 9 l
0 5 l
-2 9 l
-2 3 l
-2 2 l
-3 2 l
24 -33 m -2 -2 l
2 -1 l
2 1 l
-2 2 l
15 26 m 2 -2 l
-2 -2 l
-1 2 l
0 2 l
1 3 l
2 2 l
5 2 l
7 0 l
5 -2 l
2 -2 l
2 -3 l
0 -4 l
-2 -3 l
-5 -4 l
-9 -3 l
-3 -2 l
-4 -3 l
-1 -5 l
0 -5 l
15 36 m 4 -2 l
1 -2 l
2 -3 l
0 -4 l
-2 -3 l
-5 -4 l
-7 -3 l
-8 -12 m 1 2 l
4 0 l
8 -4 l
6 0 l
3 2 l
2 2 l
-19 0 m 8 -5 l
7 0 l
2 1 l
2 4 l
0 3 l
28 66 m 14 0 l
-14 55 m 14 0 l
-14 56 m 14 0 l
-14 56 m 28 0 l
-85 -18 m 15 36 m -5 -1 l
-4 -5 l
-1 -9 l
0 -5 l
1 -9 l
4 -5 l
5 -2 l
3 0 l
6 2 l
3 5 l
2 9 l
0 5 l
-2 9 l
-3 5 l
-6 1 l
-3 0 l
-3 -1 l
-2 -2 l
-2 -3 l
-2 -9 l
0 -5 l
2 -9 l
2 -3 l
2 -2 l
3 -2 l
3 0 m 4 2 l
2 2 l
1 3 l
2 9 l
0 5 l
-2 9 l
-1 3 l
-2 2 l
-4 1 l
39 38 m 14 0 l
-14 56 m 14 0 l
-14 56 m 14 0 l
-14 56 m 28 0 l
-137 -18 m 15 36 m -5 -1 l
-3 -6 l
-2 -8 l
0 -5 l
2 -9 l
3 -5 l
5 -2 l
4 0 l
5 2 l
4 5 l
1 9 l
0 5 l
-1 8 l
-4 6 l
-5 1 l
-4 0 l
-3 -1 l
-2 -2 l
-1 -4 l
-2 -8 l
0 -5 l
2 -9 l
1 -3 l
2 -2 l
3 -2 l
4 0 m 3 2 l
2 2 l
2 3 l
2 9 l
0 5 l
-2 8 l
-2 4 l
-2 2 l
-3 1 l
24 -32 m -2 -2 l
2 -2 l
2 2 l
-2 2 l
15 25 m 2 -1 l
-2 -2 l
-1 2 l
0 1 l
1 4 l
2 2 l
5 1 l
7 0 l
5 -1 l
2 -2 l
2 -4 l
0 -3 l
-2 -4 l
-5 -3 l
-9 -3 l
-3 -2 l
-4 -4 l
-1 -5 l
0 -5 l
15 36 m 4 -1 l
1 -2 l
2 -4 l
0 -3 l
-2 -4 l
-5 -3 l
-7 -3 l
-8 -12 m 1 1 l
4 0 l
8 -3 l
CS M
6 0 l
3 2 l
2 1 l
-19 0 m 8 -5 l
7 0 l
2 2 l
2 3 l
0 4 l
28 65 m 14 0 l
-14 56 m 14 0 l
-14 56 m 14 0 l
-14 56 m 28 0 l
-137 -18 m 15 36 m -5 -2 l
-3 -5 l
-2 -9 l
0 -5 l
2 -8 l
3 -5 l
5 -2 l
4 0 l
5 2 l
4 5 l
1 8 l
0 5 l
-1 9 l
-4 5 l
-5 2 l
-4 0 l
-3 -2 l
-2 -1 l
-1 -4 l
-2 -9 l
0 -5 l
2 -8 l
1 -4 l
2 -1 l
3 -2 l
4 0 m 3 2 l
2 1 l
2 4 l
2 8 l
0 5 l
-2 9 l
-2 4 l
-2 1 l
-3 2 l
24 -33 m -2 -1 l
2 -2 l
2 2 l
-2 1 l
29 30 m 0 -33 l
2 36 m 0 -36 l
0 36 m -19 -26 l
27 0 l
-15 -10 m 12 0 l
30 74 m 14 0 l
-14 56 m 14 0 l
-14 56 m 14 0 l
-14 56 m 28 0 l
-137 -18 m 15 36 m -5 -2 l
-3 -5 l
-2 -9 l
0 -5 l
2 -9 l
3 -5 l
5 -1 l
4 0 l
5 1 l
4 5 l
1 9 l
0 5 l
-1 9 l
-4 5 l
-5 2 l
-4 0 l
-3 -2 l
-2 -2 l
-1 -3 l
-2 -9 l
0 -5 l
2 -9 l
1 -3 l
2 -2 l
3 -1 l
4 0 m 3 1 l
2 2 l
2 3 l
2 9 l
0 5 l
-2 9 l
-2 3 l
-2 2 l
-3 2 l
24 -33 m -2 -2 l
2 -1 l
2 1 l
-2 2 l
34 27 m -1 -1 l
1 -2 l
2 2 l
0 1 l
-2 4 l
-3 2 l
-5 0 l
-6 -2 l
-3 -4 l
-2 -3 l
-1 -7 l
0 -10 l
1 -5 l
4 -4 l
5 -1 l
3 0 l
6 1 l
3 4 l
2 5 l
0 2 l
-2 5 l
-3 3 l
-6 2 l
-1 0 l
-6 -2 l
-3 -3 l
-2 -5 l
11 24 m -4 -2 l
-3 -4 l
-2 -3 l
-2 -7 l
0 -10 l
2 -5 l
3 -4 l
4 -1 l
3 0 m 4 1 l
3 4 l
2 5 l
0 2 l
-2 5 l
-3 3 l
-4 2 l
39 52 m 14 0 l
-14 56 m 14 0 l
-14 56 m 14 0 l
-14 55 m 28 0 l
-137 -18 m 15 36 m -5 -1 l
-3 -5 l
-2 -9 l
0 -5 l
2 -9 l
3 -5 l
5 -2 l
4 0 l
5 2 l
4 5 l
1 9 l
0 5 l
-1 9 l
-4 5 l
-5 1 l
-4 0 l
-3 -1 l
-2 -2 l
-1 -3 l
-2 -9 l
0 -5 l
2 -9 l
1 -3 l
2 -2 l
3 -2 l
4 0 m 3 2 l
2 2 l
2 3 l
2 9 l
0 5 l
-2 9 l
-2 3 l
-2 2 l
-3 1 l
24 -32 m -2 -2 l
2 -2 l
2 2 l
-2 2 l
22 32 m -5 -1 l
-2 -4 l
0 -5 l
2 -3 l
5 -2 l
7 0 l
5 2 l
2 3 l
0 5 l
-2 4 l
-5 1 l
-7 0 l
-3 -1 l
-2 -4 l
0 -5 l
2 -3 l
3 -2 l
7 0 m 4 2 l
1 3 l
0 5 l
-1 4 l
-4 1 l
-7 -15 m -5 -2 l
-2 -1 l
-1 -4 l
0 -7 l
1 -3 l
2 -2 l
5 -2 l
7 0 l
5 2 l
2 2 l
2 3 l
0 7 l
-2 4 l
-2 1 l
-5 2 l
-7 0 m -3 -2 l
-2 -1 l
-2 -4 l
0 -7 l
2 -3 l
2 -2 l
3 -2 l
7 0 m 4 2 l
1 2 l
2 3 l
0 7 l
-2 4 l
-1 1 l
-4 2 l
37 53 m 14 0 l
-14 56 m 14 0 l
-14 56 m 14 0 l
-14 56 m 28 0 l
-85 -18 m 10 29 m 3 2 l
5 5 l
0 -36 l
-1 35 m 0 -35 l
-7 0 m 15 0 l
2038 -1324 m 0 1342 l
0 -1342 m -27 0 l
27 56 m -14 0 l
14 55 m -14 0 l
14 56 m -14 0 l
14 56 m -27 0 l
27 56 m -14 0 l
14 56 m -14 0 l
14 56 m -14 0 l
14 56 m -27 0 l
27 56 m -14 0 l
14 56 m -14 0 l
14 56 m -14 0 l
14 56 m -27 0 l
27 56 m -14 0 l
14 56 m -14 0 l
14 56 m -14 0 l
14 56 m -27 0 l
27 56 m -14 0 l
14 56 m -14 0 l
14 56 m -14 0 l
14 55 m -27 0 l
27 56 m -14 0 l
14 56 m -14 0 l
14 56 m -14 0 l
14 56 m -27 0 l
CS [] 0 setdash M
2170 2157 M 7 -7 m -14 14 l
14 0 m -14 -14 l
0 14 m -327 -4 m 7 -7 m -14 14 l
14 0 m -14 -14 l
0 14 m -251 4 m 7 -8 m -14 15 l
14 0 m -14 -15 l
0 15 m -130 10 m 7 -7 m -14 15 l
14 0 m -14 -15 l
0 15 m -87 13 m 7 -7 m -14 14 l
14 0 m -14 -14 l
0 14 m -65 5 m 7 -7 m -14 15 l
14 0 m -14 -15 l
0 15 m -51 12 m 7 -7 m -14 14 l
14 0 m -14 -14 l
0 14 m -183 81 m 7 -8 m -14 15 l
14 0 m -14 -15 l
0 15 m -110 42 m 7 -7 m -14 14 l
14 0 m -14 -14 l
0 14 m -76 10 m 7 -7 m -14 14 l
14 0 m -14 -14 l
0 14 m -59 39 m 7 -7 m -14 15 l
14 -1 m -14 -14 l
0 14 m -47 68 m 7 -7 m -14 14 l
14 0 m -14 -14 l
0 14 m -39 3 m 7 -7 m -14 14 l
14 0 m -14 -14 l
0 14 m -32 -93 m 7 -7 m -14 14 l
14 0 m -14 -14 l
-1 14 m -28 94 m 7 -7 m -14 15 l
14 -1 m -14 -14 l
0 14 m -24 -28 m 7 -7 m -14 15 l
14 -1 m -14 -14 l
0 14 m -202 120 m 7 -7 m -14 14 l
CS M
14 0 m -14 -14 l
0 14 m 1831 -497 m -334 3 l
-258 11 l
-137 17 l
-94 21 l
-72 12 l
-58 20 l
-190 88 l
-117 49 l
-83 17 l
-66 46 l
-54 75 l
-46 10 l
-39 -86 l
-36 101 l
-31 -21 l
-209 127 l
CS [6 12] 0 setdash M
2170 2170 M -334 3 l
-258 12 l
-137 19 l
-94 22 l
-72 13 l
-58 22 l
-190 94 l
-117 54 l
-83 24 l
-66 41 l
-54 79 l
-46 12 l
-39 -74 l
-36 93 l
-31 -29 l
-209 174 l
1824 -559 m 7 -7 m -14 15 l
14 -1 m -14 -14 l
0 14 m -327 -4 m 7 -7 m -14 14 l
14 0 m -14 -14 l
0 14 m -251 5 m 7 -7 m -14 14 l
14 0 m -14 -14 l
0 14 m -130 12 m 7 -7 m -14 14 l
14 0 m -14 -14 l
0 14 m -87 15 m 7 -7 m -14 14 l
14 0 m -14 -14 l
0 14 m -65 6 m 7 -7 m -14 15 l
14 -1 m -14 -14 l
0 14 m -51 15 m 7 -7 m -14 14 l
14 0 m -14 -14 l
0 14 m -183 87 m 7 -7 m -14 14 l
14 0 m -14 -14 l
0 14 m -110 47 m 7 -7 m -14 14 l
14 0 m -14 -14 l
0 14 m -76 17 m 7 -7 m -14 14 l
14 0 m -14 -14 l
0 14 m -59 34 m 7 -7 m -14 15 l
14 -1 m -14 -14 l
0 14 m -47 72 m 7 -7 m -14 15 l
14 -1 m -14 -14 l
0 14 m -39 5 m 7 -7 m -14 14 l
14 0 m -14 -14 l
0 14 m -32 -81 m 7 -8 m -14 15 l
14 0 m -14 -15 l
-1 15 m -28 86 m 7 -7 m -14 14 l
14 0 m -14 -14 l
0 14 m -24 -36 m 7 -7 m -14 15 l
14 -1 m -14 -14 l
0 14 m -202 167 m 7 -7 m -14 14 l
14 0 m -14 -14 l
0 14 m CS [32 24] 0 setdash M
2170 1832 M -334 0 l
-258 0 l
-137 0 l
-94 0 l
-72 0 l
-58 0 l
-190 0 l
-117 2 l
-83 4 l
-66 6 l
-54 0 l
-46 5 l
-39 -6 l
-36 12 l
-31 2 l
-209 7 l
1824 -32 m 7 -7 m -14 14 l
14 0 m -14 -14 l
0 14 m -327 -7 m 7 -7 m -14 14 l
14 0 m -14 -14 l
0 14 m -251 -7 m 7 -7 m -14 14 l
14 0 m -14 -14 l
0 14 m -130 -7 m 7 -7 m -14 14 l
14 0 m -14 -14 l
0 14 m -87 -7 m 7 -7 m -14 14 l
14 0 m -14 -14 l
0 14 m -65 -7 m 7 -7 m -14 15 l
14 -1 m -14 -14 l
0 14 m -51 -7 m 7 -8 m -14 15 l
14 0 m -14 -14 l
0 14 m -183 -7 m 7 -7 m -14 14 l
14 0 m -14 -14 l
0 14 m -110 -5 m 7 -7 m -14 14 l
14 0 m -14 -14 l
0 14 m -76 -3 m 7 -7 m -14 14 l
14 0 m -14 -14 l
0 14 m -59 -1 m 7 -7 m -14 15 l
14 -1 m -14 -14 l
0 14 m -47 -7 m 7 -7 m -14 14 l
14 0 m -14 -14 l
0 14 m -39 -2 m 7 -7 m -14 14 l
14 0 m -14 -14 l
0 14 m -32 -13 m 7 -7 m -14 14 l
14 0 m -14 -14 l
-1 14 m -28 5 m 7 -7 m -14 15 l
14 -1 m -14 -14 l
0 14 m -24 -5 m 7 -7 m -14 14 l
14 0 m -14 -14 l
0 14 m -202 0 m 7 -7 m -14 14 l
14 0 m -14 -14 l
0 14 m CS [80 24] 0 setdash M
2170 1911 M -334 0 l
-258 0 l
-137 0 l
-94 1 l
-72 -1 l
-58 1 l
-190 0 l
-117 5 l
-83 11 l
-66 -2 l
-54 -2 l
-46 10 l
-39 8 l
-36 1 l
-31 -14 l
-209 26 l
1824 -44 m 7 -7 m -14 14 l
14 0 m -14 -14 l
0 14 m -327 -7 m 7 -7 m -14 14 l
14 0 m -14 -14 l
0 14 m -251 -7 m 7 -7 m -14 14 l
14 0 m -14 -14 l
0 14 m -130 -7 m 7 -7 m -14 14 l
14 0 m -14 -14 l
0 14 m -87 -6 m 7 -7 m -14 14 l
14 0 m -14 -14 l
0 14 m -65 -8 m 7 -7 m -14 15 l
14 -1 m -14 -14 l
0 14 m -51 -6 m 7 -7 m -14 14 l
14 0 m -14 -14 l
0 14 m -183 -7 m 7 -7 m -14 14 l
14 0 m -14 -14 l
0 14 m -110 -2 m 7 -7 m -14 15 l
14 -1 m -14 -14 l
0 14 m -76 4 m 7 -7 m -14 15 l
14 -1 m -14 -14 l
0 14 m -59 -9 m 7 -7 m -14 14 l
14 0 m -14 -14 l
0 14 m -47 -9 m 7 -7 m -14 15 l
14 -1 m -14 -14 l
0 14 m -39 3 m 7 -7 m -14 14 l
14 0 m -14 -14 l
0 14 m -32 1 m 7 -7 m -14 14 l
14 0 m -14 -14 l
-1 14 m -28 -6 m 7 -7 m -14 14 l
14 0 m -14 -14 l
0 14 m -24 -21 m 7 -7 m -14 14 l
14 0 m -14 -14 l
0 14 m -202 19 m 7 -7 m -14 14 l
14 0 m -14 -14 l
0 14 m CS [] 0 setdash M
669 1543 M 9 36 m 0 -36 l
2 36 m 0 -36 l
-7 36 m 12 0 l
-12 -36 m 26 0 l
0 10 l
-2 -10 l
19 24 m -5 -2 l
-4 -3 l
-1 -5 l
0 -4 l
1 -5 l
4 -3 l
5 -2 l
3 0 l
5 2 l
4 3 l
2 5 l
0 4 l
-2 5 l
-4 3 l
-5 2 l
-3 0 l
-4 -2 l
-3 -3 l
-2 -5 l
0 -4 l
2 -5 l
3 -3 l
4 -2 l
3 0 m 4 2 l
3 3 l
2 5 l
0 4 l
-2 5 l
-3 3 l
-4 2 l
29 0 m -3 -2 l
-2 -1 l
-1 -4 l
0 -3 l
1 -4 l
2 -1 l
3 -2 l
4 0 l
3 2 l
2 1 l
2 4 l
0 3 l
-2 4 l
-2 1 l
-3 2 l
-4 0 l
-3 -2 m -2 -3 l
0 -7 l
2 -3 l
10 0 m 2 3 l
0 7 l
-2 3 l
2 -1 m 2 1 l
3 2 l
0 -2 l
-3 0 l
-16 -12 m -1 -1 l
-2 -4 l
0 -2 l
2 -3 l
5 -2 l
8 0 l
6 -1 l
1 -2 l
-22 8 m 2 -1 l
5 -2 l
8 0 l
6 -2 l
1 -3 l
0 -2 l
-1 -3 l
-6 -2 l
-10 0 l
-5 2 l
-2 3 l
0 2 l
2 3 l
5 2 l
33 29 m 3 2 l
5 5 l
0 -36 l
-1 34 m 0 -34 l
-7 0 m 15 0 l
24 36 m -5 -2 l
-3 -5 l
-2 -8 l
0 -6 l
2 -8 l
3 -5 l
5 -2 l
4 0 l
5 2 l
3 5 l
2 8 l
0 6 l
-2 8 l
-3 5 l
-5 2 l
-4 0 l
-3 -2 l
-2 -1 l
-2 -4 l
-1 -8 l
0 -6 l
1 -8 l
2 -4 l
2 -1 l
3 -2 l
4 0 m 3 2 l
2 1 l
1 4 l
2 8 l
0 6 l
-2 8 l
-1 4 l
-2 1 l
-3 2 l
72 -5 m 1 -5 l
0 10 l
-1 -5 l
-4 3 l
-5 2 l
-3 0 l
-5 -2 l
-4 -3 l
-2 -3 l
-1 -6 l
CS M
0 -8 l
1 -5 l
2 -4 l
4 -3 l
5 -2 l
3 0 l
5 2 l
4 3 l
1 4 l
-13 27 m -4 -2 l
-3 -3 l
-2 -3 l
-2 -6 l
0 -8 l
2 -5 l
2 -4 l
3 -3 l
4 -2 l
34 24 m -5 -2 l
-4 -3 l
-1 -5 l
0 -4 l
1 -5 l
4 -3 l
5 -2 l
3 0 l
6 2 l
3 3 l
2 5 l
0 4 l
-2 5 l
-3 3 l
-6 2 l
-3 0 l
-3 -2 l
-4 -3 l
-2 -5 l
0 -4 l
2 -5 l
4 -3 l
3 -2 l
3 0 m 4 2 l
3 3 l
2 5 l
0 4 l
-2 5 l
-3 3 l
-4 2 l
24 0 m 0 -24 l
2 24 m 0 -24 l
0 19 m 4 3 l
5 2 l
3 0 l
5 -2 l
2 -3 l
0 -19 l
-7 24 m 4 -2 l
1 -3 l
0 -19 l
-24 24 m 7 0 l
-7 -24 m 12 0 l
7 0 m 12 0 l
9 24 m 10 -24 l
-8 24 m 8 -21 l
10 21 m -10 -24 l
-14 24 m 11 0 l
7 0 m 10 0 l
9 -10 m 20 0 l
0 3 l
-2 4 l
-1 1 l
-4 2 l
-5 0 l
-5 -2 l
-3 -3 l
-2 -5 l
0 -4 l
2 -5 l
3 -3 l
5 -2 l
4 0 l
5 2 l
3 3 l
-2 9 m 0 5 l
-1 3 l
-9 2 m -3 -2 l
-4 -3 l
-1 -5 l
0 -4 l
1 -5 l
4 -3 l
3 -2 l
26 24 m 0 -24 l
2 24 m 0 -24 l
0 14 m 1 5 l
4 3 l
3 2 l
5 0 l
2 -2 l
0 -1 l
-2 -2 l
-1 2 l
1 1 l
-20 2 m 7 0 l
-7 -24 m 12 0 l
27 24 m -3 -2 l
-2 -1 l
-2 -4 l
0 -3 l
2 -4 l
2 -1 l
3 -2 l
4 0 l
3 2 l
2 1 l
1 4 l
0 3 l
-1 4 l
-2 1 l
-3 2 l
-4 0 l
-3 -2 m -2 -3 l
0 -7 l
2 -3 l
10 0 m 2 3 l
0 7 l
-2 3 l
2 -1 m 1 1 l
4 2 l
0 -2 l
-4 0 l
-15 -12 m -2 -1 l
-1 -4 l
0 -2 l
1 -3 l
5 -2 l
9 0 l
5 -1 l
2 -2 l
-22 8 m 1 -1 l
5 -2 l
9 0 l
5 -2 l
2 -3 l
0 -2 l
-2 -3 l
-5 -2 l
-10 0 l
-5 2 l
-2 3 l
0 2 l
2 3 l
5 2 l
29 14 m 21 0 l
0 3 l
-2 4 l
-2 1 l
-3 2 l
-5 0 l
-6 -2 l
-3 -3 l
-2 -5 l
0 -4 l
2 -5 l
3 -3 l
6 -2 l
3 0 l
5 2 l
4 3 l
-2 9 m 0 5 l
-2 3 l
-8 2 m -4 -2 l
-3 -3 l
-2 -5 l
0 -4 l
2 -5 l
3 -3 l
4 -2 l
25 24 m 0 -24 l
2 24 m 0 -24 l
0 19 m 3 3 l
6 2 l
3 0 l
5 -2 l
2 -3 l
0 -19 l
-7 24 m 3 -2 l
2 -3 l
0 -19 l
-24 24 m 7 0 l
-7 -24 m 12 0 l
7 0 m 12 0 l
29 19 m -2 -2 l
2 -2 l
2 2 l
0 2 l
-4 3 l
-3 2 l
-5 0 l
-5 -2 l
-4 -3 l
-1 -5 l
0 -4 l
1 -5 l
4 -3 l
5 -2 l
3 0 l
5 2 l
4 3 l
-12 19 m -4 -2 l
-3 -3 l
-2 -5 l
0 -4 l
2 -5 l
3 -3 l
4 -2 l
24 14 m 21 0 l
0 3 l
-2 4 l
-2 1 l
-3 2 l
-6 0 l
-5 -2 l
-3 -3 l
-2 -5 l
0 -4 l
2 -5 l
3 -3 l
5 -2 l
4 0 l
5 2 l
4 3 l
-2 9 m 0 5 l
-2 3 l
-9 2 m -3 -2 l
-3 -3 l
-2 -5 l
0 -4 l
2 -5 l
3 -3 l
3 -2 l
54 36 m 0 -36 l
1 36 m 0 -36 l
11 26 m 0 -14 l
-17 24 m 27 0 l
0 -10 l
-2 10 l
-19 -17 m 11 0 l
-17 -19 m 12 0 l
27 24 m 0 -24 l
2 24 m 0 -24 l
0 14 m 1 5 l
4 3 l
3 2 l
5 0 l
2 -2 l
0 -1 l
-2 -2 l
-1 2 l
1 1 l
-20 2 m 7 0 l
-7 -24 m 12 0 l
21 14 m 20 0 l
0 3 l
-2 4 l
-1 1 l
-4 2 l
-5 0 l
-5 -2 l
-3 -3 l
-2 -5 l
0 -4 l
2 -5 l
3 -3 l
5 -2 l
4 0 l
5 2 l
3 3 l
-2 9 m 0 5 l
-1 3 l
-9 2 m -3 -2 l
-4 -3 l
-1 -5 l
0 -4 l
1 -5 l
4 -3 l
3 -2 l
43 24 m 0 -36 l
2 36 m 0 -36 l
-2 31 m -3 3 l
-4 2 l
-3 0 l
-5 -2 l
-4 -3 l
-2 -5 l
0 -4 l
2 -5 l
4 -3 l
5 -2 l
3 0 l
CS M
4 2 l
3 3 l
-10 19 m -4 -2 l
-3 -3 l
-2 -5 l
0 -4 l
2 -5 l
3 -3 l
4 -2 l
5 -12 m 12 0 l
10 36 m 0 -19 l
2 -3 l
5 -2 l
4 0 l
5 2 l
3 3 l
-17 19 m 0 -19 l
2 -3 l
3 -2 l
12 24 m 0 -24 l
2 24 m 0 -24 l
-26 24 m 7 0 l
12 0 m 7 0 l
-2 -24 m 7 0 l
10 14 m 21 0 l
0 3 l
-2 4 l
-2 1 l
-3 2 l
-5 0 l
-5 -2 l
-4 -3 l
-1 -5 l
0 -4 l
1 -5 l
4 -3 l
5 -2 l
3 0 l
5 2 l
4 3 l
-2 9 m 0 5 l
-2 3 l
-8 2 m -4 -2 l
-3 -3 l
-2 -5 l
0 -4 l
2 -5 l
3 -3 l
4 -2 l
26 24 m 0 -24 l
1 24 m 0 -24 l
0 19 m 4 3 l
5 2 l
3 0 l
5 -2 l
2 -3 l
0 -19 l
-7 24 m 4 -2 l
1 -3 l
0 -19 l
-24 24 m 7 0 l
-7 -24 m 12 0 l
7 0 m 12 0 l
30 19 m -2 -2 l
2 -2 l
1 2 l
0 2 l
-3 3 l
-4 2 l
-5 0 l
-5 -2 l
-3 -3 l
-2 -5 l
0 -4 l
2 -5 l
3 -3 l
5 -2 l
4 0 l
5 2 l
3 3 l
-12 19 m -3 -2 l
-4 -3 l
-1 -5 l
0 -4 l
1 -5 l
4 -3 l
3 -2 l
24 24 m 11 -24 l
-9 24 m 9 -21 l
10 21 m -10 -24 l
-4 -7 l
-3 -3 l
-4 -2 l
-2 0 l
-1 2 l
1 1 l
2 -1 l
-3 34 m 10 0 l
7 0 m 10 0 l
48 19 m -3 -3 l
-4 -6 l
-3 -6 l
-2 -9 l
0 -7 l
2 -9 l
3 -6 l
4 -6 l
3 -3 l
-3 52 m -4 -7 l
-1 -5 l
-2 -9 l
0 -7 l
2 -9 l
1 -5 l
4 -7 l
34 28 m -2 -2 l
2 -2 l
2 2 l
0 2 l
-4 3 l
-3 2 l
-5 0 l
-5 -2 l
-4 -3 l
-1 -5 l
0 -4 l
1 -5 l
4 -3 l
5 -2 l
3 0 l
5 2 l
4 3 l
-12 19 m -4 -2 l
-3 -3 l
-2 -5 l
0 -4 l
2 -5 l
3 -3 l
4 -2 l
26 24 m 0 -24 l
1 24 m 0 -24 l
0 19 m 4 3 l
5 2 l
3 0 l
6 -2 l
1 -3 l
0 -19 l
-7 24 m 4 -2 l
2 -3 l
0 -19 l
1 19 m 4 3 l
5 2 l
3 0 l
5 -2 l
2 -3 l
0 -19 l
-7 24 m 4 -2 l
1 -3 l
0 -19 l
-42 24 m 6 0 l
-6 -24 m 12 0 l
6 0 m 12 0 l
7 0 m 12 0 l
9 12 m 14 9 l
13 -9 l
-27 0 m 14 7 l
13 -7 l
12 3 m 31 0 l
17 14 m 4 2 l
5 5 l
0 -36 l
-2 34 m 0 -34 l
-7 0 m 16 0 l
14 43 m 3 -3 l
3 -6 l
4 -6 l
2 -9 l
0 -7 l
-2 -9 l
-4 -6 l
-3 -6 l
-3 -3 l
3 52 m 3 -7 l
2 -5 l
2 -9 l
0 -7 l
-2 -9 l
-2 -5 l
-3 -7 l
CS [80 24] 0 setdash M
CS [] 0 setdash M
66 2216 M -14 7 m 0 20 l
-3 0 l
-4 -1 l
-1 -2 l
-2 -4 l
0 -5 l
2 -5 l
3 -3 l
5 -2 l
4 0 l
5 2 l
3 3 l
2 5 l
0 4 l
-2 5 l
-3 3 l
-9 -1 m -5 0 l
-3 -2 l
-2 -9 m 2 -3 l
3 -4 l
5 -1 l
4 0 l
5 1 l
3 4 l
2 3 l
30 2257 M 36 0 l
30 2259 M 36 0 l
30 2252 M 0 7 l
36 -7 m 0 12 l
30 2276 M 36 0 l
30 2278 M 36 0 l
30 2271 M 0 7 l
36 -7 m 0 12 l
30 2295 M 2 -2 l
1 2 l
-1 1 l
-2 -1 l
12 0 m 24 0 l
-24 1 m 24 0 l
-24 -6 m 0 6 l
24 -6 m 0 12 l
-24 12 m 36 0 l
-36 1 m 36 0 l
-31 0 m -3 4 l
-2 3 l
0 4 l
2 5 l
3 3 l
5 2 l
4 0 l
5 -2 l
3 -3 l
2 -5 l
0 -4 l
-2 -3 l
-3 -4 l
-19 11 m 2 3 l
3 3 l
5 2 l
4 0 l
5 -2 l
3 -3 l
2 -3 l
-24 -18 m 0 7 l
36 -7 m 0 12 l
30 2350 M 29 0 l
5 1 l
2 4 l
0 3 l
-2 4 l
-3 1 l
30 2351 M 29 0 l
5 2 l
2 2 l
-24 -11 m 0 14 l
-12 17 m 2 -1 l
1 1 l
-1 2 l
-2 -2 l
12 0 m 24 0 l
-24 2 m 24 0 l
-24 -7 m 0 7 l
24 -7 m 0 12 l
-19 29 m 2 -1 l
2 1 l
-2 2 l
-2 0 l
-3 -3 l
-2 -4 l
0 -5 l
2 -5 l
3 -4 l
5 -1 l
4 0 l
5 1 l
3 4 l
2 5 l
0 3 l
-2 6 l
-3 3 l
-19 -12 m 2 -3 l
3 -4 l
5 -2 l
4 0 l
5 2 l
3 4 l
2 3 l
30 2427 M 2 -2 l
1 2 l
-1 2 l
-2 -2 l
CS M
12 0 m 24 0 l
-24 2 m 24 0 l
-24 -7 m 0 7 l
24 -7 m 0 12 l
30 2446 M 29 0 l
5 1 l
2 4 l
0 3 l
-2 4 l
-3 1 l
30 2447 M 29 0 l
5 2 l
2 2 l
-24 -10 m 0 13 l
0 16 m 24 10 l
-24 -9 m 21 9 l
-21 10 m 24 -10 l
7 -3 l
3 -4 l
2 -3 l
0 -2 l
-2 -2 l
-1 2 l
1 2 l
-34 -4 m 0 11 l
0 6 m 0 11 l
CS [80 24] 0 setdash M
stroke
showpage
grestore
%%Trailer
end
%%Pages: 1
%%EOF
